Child_of_blood@forums 31.4547 1 1.42906e+09
KidBlast@forums 32.4034 2 1.42946e+09
Dage@forums 32.9906 2 1.4292e+09
Synergy@aagid 34.4599 2 1.42836e+09
re\:phoenix 35.7388 1 1.42874e+09
R0b0@vertrex.org/Diplomat 36.4783 1 1.42885e+09
xradd 37.584 3 1.42906e+09
dgk 40.7998 1 1.43049e+09
team_canada 40.8856 1 1.42962e+09
ct|upabr 46.1337 1 1.43034e+09
