Tabasco@vertrex.org/Public 11.8254 4 1.42921e+09
Visual@forums 11.8722 3 1.43008e+09
re\:phoenix 11.897 5 1.43056e+09
KidBlast@forums 11.953 6 1.43008e+09
Dage@forums 12.4612 1 1.4291e+09
R0b0@vertrex.org/Diplomat 13.2073 9 1.43058e+09
jimmaaa@forums 13.906 3 1.42893e+09
w1ndy@vertrex.org/Public 13.9841 1 1.42805e+09
mose 14.2611 2 1.43058e+09
realtop 16.3271 1 1.43026e+09
scvalt@forums 16.4569 2 1.43058e+09
dchi19o2 21.3947 1 1.42965e+09
inkspelllove 21.6627 1 1.43058e+09
