jimmaaa@forums 8.88692 7 1.39483e+09
lilb@forums 8.92306 4 1.39062e+09
nobody@aagid 8.93548 12 1.39394e+09
wrdq@vertrex.org/Public 8.95965 3 1.39445e+09
Wrdq03@aagid 8.98106 14 1.39549e+09
catherine 9.13319 4 1.39302e+09
angel@aod-clan.comuf.com 9.19573 1 1.39136e+09
ChrisIsGod@forums 9.35606 7 1.38855e+09
ct-cookie 9.4128 1 1.39062e+09
edition@forums 9.41336 7 1.38842e+09
StyX@ap/Officer 9.45678 2 1.38906e+09
|wr 9.58854 5 1.38842e+09
wrdq 9.82741 4 1.3838e+09
Vertrex@ap/God 9.89877 11 1.39044e+09
boom 10.0811 1 1.39111e+09
klodeckel 11.0826 3 1.38062e+09
Durf@ap/Support 11.3189 1 1.37903e+09
|cake 11.3969 1 1.38999e+09
|boobie 11.5564 1 1.38842e+09
thaumat 12.168 2 1.38496e+09
tyr 12.5512 1 1.39302e+09
sl\:zap! 12.7176 1 1.37849e+09
$boby 12.7308 1 1.38863e+09
lansus 12.7705 5 1.39528e+09
ya|pootie 13.3313 2 1.39394e+09
rf|jaff 13.5549 2 1.38558e+09
TeeHee@ap/Diplomat 13.7266 1 1.38842e+09
tempeira 15.9167 2 1.39187e+09
madden_25_booii 16.3802 1 1.39394e+09
|neo"bass| 16.8691 2 1.38149e+09
vegeta 16.8939 2 1.39394e+09
$king$ 16.9123 2 1.37873e+09
!!! 18.7049 2 1.38436e+09
suicune 19.0577 1 1.39335e+09
dez 19.1579 2 1.37803e+09
terminator 19.8391 1 1.38999e+09
rf|gray 20.3684 1 1.38496e+09
nds932 20.4411 1 1.39515e+09
emilki 22.1055 1 1.39187e+09
king 22.7115 1 1.39118e+09
Konqueror@lightron.tk 24.2952 1 1.37975e+09
dovahkiin72o 25.7147 1 1.38028e+09
