jimmaaa@forums 38.6901 8 1.39368e+09
catherine 39.8219 8 1.39568e+09
StyX@ap/Officer 39.9427 2 1.37935e+09
ta|foni 40.2382 3 1.39551e+09
lilb@forums 40.6563 3 1.39079e+09
Wrdq03@aagid 40.6692 4 1.39568e+09
Vertrex@ap/God 40.6862 11 1.39053e+09
|jason 42.0711 2 1.3791e+09
mehmet@forums 42.18 1 1.39489e+09
Gavin@forums 42.5519 4 1.39062e+09
DarkJesse15@forums 43.3976 2 1.37875e+09
wrdq 43.4284 2 1.3815e+09
Durf@ap/Support 43.5758 3 1.37775e+09
RAY@forums 43.6484 2 1.39568e+09
hoes_love_yoyos 44.4868 1 1.39338e+09
soar 44.8642 1 1.39188e+09
lansus 45.1179 3 1.39303e+09
Seabassten@forums 46.1164 2 1.384e+09
aP|Dom@ap/Diplomat 46.8955 1 1.37775e+09
thc|dr!d3n 47.227 2 1.39239e+09
rf|gray 49.275 2 1.38495e+09
z3ro@afroservers.com 49.9834 1 1.37775e+09
wimmar 53.6442 1 1.39568e+09
ta|aleyna 61.0683 2 1.39551e+09
letujano_cabron 66.161 1 1.37839e+09
jason 85.7926 1 1.37848e+09
