jimmaaa@forums 12.1639 10 1.39507e+09
catherine 12.2193 9 1.39534e+09
nobody@aagid 12.3115 2 1.39187e+09
Psych@forums 12.5421 2 1.37831e+09
ta|foni 12.562 2 1.39436e+09
nisargisgod@vertrex.8ing.com/Craftsman 12.6905 4 1.37995e+09
StyX@ap/Officer 12.7519 8 1.38769e+09
mehmet@forums 13.0261 1 1.39488e+09
Gavin@forums 13.411 4 1.39303e+09
lansus 13.7441 2 1.39467e+09
cookie@ct/junior 13.8467 1 1.38383e+09
Vertrex@ap/God 14.1211 3 1.38015e+09
|jason 14.569 1 1.37805e+09
rf|jaff 22.0292 1 1.38558e+09
apollyon 26.6086 1 1.38999e+09
dovahkiin72o 41.1529 2 1.37899e+09
