jimmaaa@forums 15.7761 4 1.4286e+09
Tabasco@vertrex.org/Public 15.8494 3 1.42816e+09
Visual@forums 15.8724 2 1.4302e+09
|player_11_phnx 16.0905 1 1.4286e+09
re\:phoenix 16.3365 2 1.42798e+09
R0b0@vertrex.org/Diplomat 16.4998 8 1.4288e+09
rxlead 18.1893 2 1.43047e+09
radiator_spring 18.664 2 1.4288e+09
<myles> 19.0301 2 1.42907e+09
w1ndy@vertrex.org/Public 20.3162 2 1.42807e+09
nelg@vertrex.org/Diplomat 21.2302 2 1.42871e+09
dr.bam 24.1781 1 1.43047e+09
the_fox 26.0094 1 1.42974e+09
chrisd 28.3366 1 1.4286e+09
freddy_fazbear 31.6785 1 1.42935e+09