Visual@forums 36.3109 6 1.43019e+09
jimmaaa@forums 36.3291 2 1.42834e+09
Tabasco@vertrex.org/Public 36.4595 4 1.42808e+09
R0b0@vertrex.org/Diplomat 36.978 7 1.43e+09
Synergy@aagid 37.1251 3 1.42853e+09
vov@forums 37.8435 1 1.42862e+09
KidBlast@forums 38.8492 1 1.43051e+09
re\:phoenix 39.1363 3 1.42824e+09
a>ddoa 41.3941 1 1.42973e+09
xradd 43.1811 1 1.42906e+09