jimmaaa@forums 57.1644 3 1.42815e+09
re\:phoenix 57.4485 5 1.43063e+009
Bot@vertrex.org/Public 57.7544 1 1.43042e+09
KidBlast@forums 58.4596 2 1.42885e+09
Dage@forums 61.0451 1 1.42963e+09
R0b0@vertrex.org/Diplomat 62.2937 4 1.43008e+09