Tabasco@vertrex.org/Public 111.412 2 1.42763e+09
Visual@forums 112.363 1 1.4276e+09
phoenix_titan 114.188 1 1.4276e+09
R0b0@vertrex.org/Diplomat 116.608 2 1.42853e+09
dage 116.911 1 1.42981e+09
Synergy@aagid 122.485 1 1.42824e+09
scvalt@forums 124.131 1 1.43049e+09
playr11_phoenix 125.536 1 1.42834e+09
xradd 146.969 1 1.43035e+09
space_bar 193.629 1 1.43049e+09