Visual@forums 38.0573 2 1.43016e+09
re\:phoenix 38.9193 6 1.42909e+09
Dage@forums 39.418 2 1.42972e+09
Tabasco@vertrex.org/Public 40.894 1 1.42997e+09
KidBlast@forums 48.7667 1 1.43035e+09
momo 85.7445 1 1.42924e+09