KidBlast@forums 22.7189 5 1.42968e+09
jimmaaa@forums 22.7334 3 1.42842e+09
Visual@forums 22.7475 3 1.43011e+09
StyX@vertrex.org/Officer 22.777 1 1.42879e+09
re\:phoenix 22.8462 8 1.42978e+09
Tabasco@vertrex.org/Public 22.9063 2 1.42806e+09
R0b0@vertrex.org/Diplomat 23.029 5 1.42965e+09
<myles> 23.611 1 1.43001e+09
momo 23.8812 1 1.42907e+09
Luhn@aagid 30.0803 1 1.43046e+09
player_1 30.9738 1 1.43024e+09