Visual@forums 21.8447 2 1.42912e+09
Dage@forums 22.9112 1 1.42912e+09
Tabasco@vertrex.org/Public 24.6701 1 1.4284e+09
re\:phoenix 29.3222 1 1.42797e+09
sisam42 43.0797 1 1.43043e+09
a>ddoa 46.1504 1 1.42991e+09
mose 50.0156 1 1.43043e+09
nurbsPlanar@aagid 50.6309 1 1.42797e+09