Visual@forums 34.9109 7 1.42973e+09
re\:phoenix 35.5249 6 1.43063e+009
StyX@vertrex.org/Officer 35.616 2 1.42973e+09
KidBlast@forums 36.3011 5 1.43035e+09
Dage@forums 36.6138 2 1.42919e+09
Synergy@aagid 37.1824 4 1.42836e+09
R0b0@vertrex.org/Diplomat 39.049 5 1.42998e+09
|player_11_phnx 47.6348 1 1.43035e+09
<myles> 67.0556 3 1.42764e+09
jimmaaa@forums 72.4602 2 1.42764e+09
player_1 72.7195 1 1.42916e+09
playr11_phoenix 88.6877 1 1.42793e+09