Visual@forums 35.9468 6 1.43026e+09
R0b0@vertrex.org/Diplomat 36.8353 12 1.43034e+09
KidBlast@forums 37.0589 6 1.42974e+09
Tabasco@vertrex.org/Public 37.0856 2 1.4285e+09
Synergy@aagid 37.932 4 1.4282e+09
Lyme@forums 38.488 2 1.43026e+09
Dage@forums 38.5645 2 1.42912e+09
scvalt@forums 41.4155 2 1.43026e+09
<myles> 42.285 2 1.42938e+09
synhd 44.4927 3 1.43008e+09
xradd 45.9072 1 1.43034e+09
destruction 45.9636 3 1.43049e+09
okra@forums 46.5943 3 1.43049e+09
space_bar 46.9857 3 1.43049e+09
~#puma#~ 47.6094 1 1.43026e+09
bigdaddy_sinjin 48.5895 3 1.43049e+09
exia 50.0175 1 1.43026e+09
akuma 51.6967 3 1.43008e+09
dgk 192.606 2 1.42782e+09
playr11_phoenix 196.465 1 1.42782e+09
uzain 197.812 1 1.42782e+09