Visual@forums 19.5092 2 1.43044e+09
jimmaaa@forums 19.5301 1 1.42893e+09
StyX@vertrex.org/Officer 19.573 1 1.42981e+09
re\:phoenix 19.7415 1 1.42952e+09
KidBlast@forums 19.9093 3 1.42967e+09
R0b0@vertrex.org/Diplomat 20.1734 3 1.43001e+009
phoenix_titan 20.1854 1 1.42793e+09
Dage@forums 21.6128 1 1.42972e+09