re\:phoenix 24.714 7 1.42992e+09
Visual@forums 24.9685 4 1.42834e+09
jimmaaa@forums 25.1754 2 1.42834e+09
R0b0@vertrex.org/Diplomat 25.4109 7 1.43018e+09
Tabasco@vertrex.org/Public 25.4726 1 1.42808e+09
phoenix_titan 26.5155 2 1.42762e+09
KidBlast@forums 28.0521 2 1.43005e+09
exia 31.2122 2 1.43018e+09
xradd 34.9076 1 1.42872e+09
sy|yoh 37.9464 2 1.42872e+09
apple|_brennan 40.0681 1 1.43043e+09