Visual@forums 15.3849 1 1.43002e+09
R0b0@vertrex.org/Diplomat 17.8223 2 1.42993e+09
KidBlast@forums 18.0161 1 1.42893e+09
Synergy@aagid 23.835 1 1.42835e+09
JacobMo2563@lt 36.1823 1 1.42893e+09
zz~esp 37.8853 1 1.43006e+09