Rufus@ap/Officer 30.3921 1 1.38016e+09
nobody@aagid 31.1682 1 1.39135e+09
catherine 34.8239 1 1.39509e+09
Stylee@forums 39.6183 1 1.37898e+09
Wrdq03@aagid 41.6798 1 1.3947e+09
lilb@forums 42.0562 1 1.39044e+09
Vertrex@ap/God 53.849 1 1.38016e+09
