ChrisIsGod@forums 12.2935 3 1.38851e+09
Tsugaru@forums 12.4626 2 1.38856e+09
nisargisgod@vertrex.8ing.com/Craftsman 12.9369 2 1.37864e+09
lilb@forums 13.0654 2 1.39079e+09
clancy 13.0948 2 1.37996e+09
Vertrex@ap/God 13.242 5 1.39053e+09
catherine 13.3476 1 1.39187e+09
Stylee@forums 13.8719 1 1.37897e+09
Wrdq03@aagid 14.073 4 1.39461e+09
Yamato@vertrex.org/Diplomat 15.4348 1 1.39587e+09
mehmet@forums 15.7279 1 1.39533e+09
wrdq 15.9515 2 1.38104e+09
edition@forums 15.9825 1 1.38842e+09
TelGod@forums 20.0625 1 1.3798e+09
aPTRON@TRONNER.COM 20.5646 1 1.37855e+09
rf|jaff 23.1557 3 1.3854e+09
klodeckel 29.4473 1 1.38218e+09
ffdejrz*$* 31.9433 1 1.37855e+09
