jimmaaa@forums 19.5735 4 1.39375e+09
catherine 19.9271 3 1.39561e+09
Psych@forums 20.0395 1 1.37831e+09
Fini@forums 20.18 1 1.37918e+09
edition@forums 20.2761 1 1.38835e+09
Wrdq03@aagid 20.2957 1 1.39461e+09
nobody@aagid 20.3806 2 1.3885e+09
cookie@ct/junior 20.5264 1 1.38383e+09
wrdq 21.2173 1 1.38235e+09
|jason 21.9951 1 1.37805e+09
Gavin@forums 28.2267 1 1.38836e+09
thc|dr!d3n 31.0764 1 1.39549e+09
Vertrex@ap/God 31.2018 1 1.38123e+09
$boby 33.0463 1 1.3887e+09
|teehee 33.9451 1 1.38836e+09
|boobie 34.9766 1 1.38836e+09
pootie_tang 40.0811 1 1.39312e+09
klodeckel 41.8525 1 1.38158e+09
jason 45.8324 1 1.3785e+09
|neo"bass| 45.9444 1 1.37996e+09
exrobo 50.9438 1 1.38045e+09
antou 53.0679 1 1.38123e+09
