Bot@vertrex.org/Public 18.374 1 1.43042e+09
Tabasco@vertrex.org/Public 18.545 2 1.42816e+09
re\:phoenix 18.6633 3 1.4301e+09
Visual@forums 20.1613 1 1.43001e+09
jimmaaa@forums 21.7837 1 1.42842e+09
momo 39.8275 1 1.43023e+09
KidBlast@forums 48.2787 1 1.429e+09