Visual@forums 18.1741 2 1.43002e+09
R0b0@vertrex.org/Diplomat 20.5018 1 1.42877e+09
Synergy@aagid 21.7818 2 1.42819e+09
<myles> 30.7962 1 1.42963e+09
chrisd 43.3961 2 1.42877e+09
playr11_phoenix 50.7049 1 1.42776e+09