jimmaaa@forums 9.32222 1 1.42944e+09
Tabasco@vertrex.org/Public 9.36476 5 1.42969e+09
Visual@forums 9.41877 5 1.42956e+09
R0b0@vertrex.org/Diplomat 9.4943 11 1.43034e+09
Synergy@aagid 9.71163 7 1.42853e+09
Dage@forums 9.9301 6 1.42979e+09
|player_11_phnx 10.0961 4 1.42894e+09
re\:phoenix 10.2551 2 1.42966e+09
KidBlast@forums 10.5804 1 1.42894e+09
<myles> 10.7703 2 1.42966e+09
glaceoners 11.1968 1 1.42966e+09
momo 11.8446 1 1.42911e+09
bloodytag 12.1213 1 1.42979e+09
exia 12.231 1 1.43049e+09
player_1 12.6662 1 1.42916e+09
Luhn@aagid 13.4999 2 1.42911e+09
space_bar 14.0694 2 1.42979e+09
life 14.2374 1 1.43049e+09
xradd 14.8907 2 1.43034e+09
es!_ridder 17.682 2 1.4282e+09
a$ap_kush 20.0554 1 1.42878e+09