Visual@forums 7.26075 9 1.43035e+09
StyX@vertrex.org/Officer 7.27113 1 1.43e+09
jimmaaa@forums 7.34381 2 1.43006e+09
Tabasco@vertrex.org/Public 7.41787 2 1.4285e+09
wrdq@vertrex.org/Diplomat 7.47374 2 1.42988e+09
R0b0@vertrex.org/Diplomat 7.57454 5 1.43018e+09
KidBlast@forums 7.68941 2 1.43006e+09
Dage@forums 7.7143 3 1.42972e+09
Synergy@aagid 7.77341 1 1.4282e+09
xradd 8.12832 2 1.42906e+09
np|eni 8.20287 2 1.43035e+09
okra@forums 8.22364 1 1.43049e+09
exia 8.30414 1 1.43018e+09
scvalt@forums 8.5955 1 1.43049e+09
sisam42 8.802 1 1.43049e+09
gusgus 12.8029 1 1.4285e+09
jacob.garner 15.6492 1 1.43049e+09