Visual@forums 8.64773 5 1.43026e+09
Bot@vertrex.org/Public 8.72341 1 1.43053e+09
jimmaaa@forums 8.73193 11 1.42928e+09
R0b0@vertrex.org/Diplomat 8.73957 5 1.43008e+09
Tabasco@vertrex.org/Public 8.78533 1 1.42911e+09
chrisd 16.9138 1 1.4286e+09