Visual@forums 29.7702 14 1.43027e+09
touch 30.1583 2 1.42912e+09
Tabasco@vertrex.org/Public 30.3661 5 1.42996e+09
KidBlast@forums 30.3927 6 1.4289e+09
re\:phoenix 30.4658 12 1.43056e+009
Dage@forums 31.8828 4 1.42989e+09
R0b0@vertrex.org/Diplomat 32.064 5 1.43009e+09
Synergy@aagid 32.1618 3 1.42843e+09
jimmaaa@forums 33.3867 2 1.42818e+09
momo 34.2344 1 1.4289e+09
uzain` 34.2398 3 1.42988e+09
bloodytag 35.2752 3 1.42975e+09
|player_11_phnx 36.0049 3 1.42912e+09
<myles> 36.6336 3 1.42807e+09
glaceoners 37.004 3 1.42975e+09
Zapp2563@vertrex.org/Diplomat 37.017 2 1.43027e+09
Luhn@aagid 37.7746 3 1.42988e+09
x 38.0961 3 1.43011e+09
bigdaddy_sinjin 38.1782 3 1.43015e+09
flame_rider 39.9006 1 1.42983e+09
destruction 41.1383 3 1.43015e+09
closer_to_you 42.726 3 1.42975e+09
playr11_phoenix 46.0697 3 1.42773e+09
dead 46.5328 1 1.42877e+09
jibbles 75.0734 1 1.42989e+09