re\:phoenix 6.44137 3 1.43063e+009
Bot@vertrex.org/Public 6.48349 2 1.43043e+09
Visual@forums 6.50229 9 1.43026e+09
R0b0@vertrex.org/Diplomat 6.5444 15 1.43026e+09
jimmaaa@forums 6.57785 2 1.42893e+09
KidBlast@forums 6.59169 6 1.42893e+09
Tabasco@vertrex.org/Public 6.62027 5 1.4286e+09
KidBlast@vertrex.org/Friend 6.63295 3 1.42878e+09
akuma 6.67607 3 1.43008e+09
Synergy@aagid 6.69473 1 1.4282e+09
scvalt@forums 6.70653 3 1.43026e+09
in\:exia 6.76317 3 1.43008e+09
playr11_phoenix 6.79307 6 1.42836e+09
flame_rider 6.79982 2 1.42974e+09
phoenix_titan 6.80431 3 1.42793e+09
xradd 6.81525 6 1.42974e+09
sisam42 7.2215 6 1.42974e+09
bioshock 9.66207 1 1.43026e+09
lord_apophis 9.97844 1 1.42793e+09