ChrisIsGod@forums 32.5899 2 1.38842e+09
Fini@forums 32.6915 4 1.37937e+09
clancy 33.6537 2 1.38812e+09
Psych@forums 34.6102 1 1.37805e+09
Stylee@forums 92.5184 1 1.37897e+09
mr.gray 112.339 1 1.38503e+09
