Tabasco@vertrex.org/Public 21.4134 5 1.43015e+009
re\:phoenix 21.5986 4 1.43063e+009
jimmaaa@forums 21.8469 2 1.42934e+009
Visual@forums 22.3794 4 1.42989e+009
R0b0@vertrex.org/Diplomat 22.4738 10 1.43009e+009
|player_11_phnx 22.6438 5 1.42989e+009
Child_of_blood@forums 24.0504 1 1.42906e+009
KidBlast@forums 24.1744 2 1.42863e+009
Dage@forums 24.2773 3 1.42989e+009
bike_tyson 25.1183 3 1.42906e+009
<myles> 25.1634 4 1.43009e+009
xradd 25.3216 10 1.42906e+009
playr11_phoenix 25.8952 1 1.42808e+009
team_canada 26.1884 3 1.42798e+009
serphnight 26.8055 2 1.43032e+009
brennan_apple 27.4758 1 1.42808e+009
momo 27.7413 1 1.42963e+009
rxlead 29.7826 1 1.43046e+009
