re\:phoenix 82.8443 2 1.43063e+009
a>ddoa 85.5331 6 1.42991e+09
eugene_filbert 87.2492 2 1.42972e+09
KidBlast@forums 90.1666 3 1.43017e+09
xradd 90.9638 7 1.43034e+09
ctxwoned 93.664 1 1.42974e+09
in\:exia 97.2435 2 1.42998e+09
R0b0@vertrex.org/Diplomat 100.429 2 1.43007e+09