Visual@forums 29.1374 1 1.4302e+009
StyX@vertrex.org/Officer 29.5425 1 1.42973e+009
Bot@vertrex.org/Public 29.6025 2 1.43043e+009
re\:phoenix 29.7856 2 1.43063e+009
R0b0@vertrex.org/Diplomat 32.3902 1 1.43026e+009
farts 69.6055 1 1.42853e+009
