jimmaaa@forums 41.5914 6 1.42842e+09
Visual@forums 42.8541 5 1.43001e+09
Tabasco@vertrex.org/Public 43.5463 2 1.42806e+09
re\:phoenix 45.0756 5 1.42968e+09
R0b0@vertrex.org/Diplomat 46.004 3 1.42966e+09
KidBlast@forums 47.5015 7 1.42946e+09
sisam42 58.1452 2 1.43043e+09
mose 58.8585 2 1.43043e+09