jimmaaa@forums 69.2932 4 1.42867e+09
ctxwoned 69.8794 2 1.42974e+09
SoaR@forums 71.6564 2 1.42974e+09
re\:phoenix 73.2253 1 1.43056e+009
R0b0@vertrex.org/Diplomat 73.4975 2 1.42862e+09
Visual@forums 73.9238 2 1.42862e+09
KidBlast@forums 74.6842 1 1.42867e+09
Dage@forums 76.7746 1 1.42919e+09