Visual@forums 23.2903 3 1.42989e+09
Tabasco@vertrex.org/Public 23.3455 3 1.43015e+09
StyX@vertrex.org/Officer 23.4194 4 1.42981e+09
KidBlast@forums 23.4804 5 1.42989e+09
re\:phoenix 23.4988 8 1.43049e+09
R0b0@vertrex.org/Diplomat 23.6079 16 1.43058e+09
xf_pyro 23.895 3 1.42853e+09
Dage@forums 24.0094 10 1.42989e+09
xradd 24.3112 6 1.42914e+09
|player_11_phnx 24.7282 6 1.43015e+09
warlord_murloc 25.3883 3 1.42872e+09
<myles> 25.5119 3 1.43009e+09
AsapWolf@forums 25.5534 3 1.42853e+09
sisam42 25.581 8 1.42997e+09
np|eni 26.9681 3 1.43027e+09
farts 28.5493 3 1.42853e+09
eddy 28.9057 3 1.42822e+09
dannny 28.9322 3 1.42853e+09
\:b 28.96 3 1.42872e+09
hickso123 29.0732 3 1.43044e+09
xf_tuamadretroi 29.1599 3 1.42853e+09
malik 33.0577 3 1.42786e+09
hydrogen 39.2224 1 1.42972e+09
god 39.9041 1 1.43009e+09
