Tabasco@vertrex.org/Public 11.9857 1 1.42944e+09
Visual@forums 12.2925 4 1.43011e+009
Synergy@aagid 12.4761 4 1.42835e+09
KidBlast@forums 12.9029 3 1.42915e+09
re\:phoenix 13.0247 2 1.43056e+009
jimmaaa@forums 13.1899 1 1.42764e+09
R0b0@vertrex.org/Diplomat 16.7146 1 1.42811e+09
<myles> 16.8198 1 1.43001e+09
np|eni 16.8467 2 1.43027e+09
|player_11_phnx 17.846 1 1.42894e+09
big_voyd 27.914 1 1.42811e+09
xradd 31.2496 1 1.42863e+09