ChrisIsGod@forums 9.15595 10 1.39509e+09
nisargisgod@vertrex.8ing.com/Craftsman 9.62479 9 1.38065e+09
edition@forums 9.81858 7 1.38834e+09
StyX@ap/Officer 9.84342 3 1.38065e+09
catherine 9.91486 5 1.39509e+09
Tsugaru@forums 10.0203 2 1.38856e+09
Fini@forums 10.1292 1 1.37918e+09
Durf@ap/Support 10.1731 2 1.37867e+09
Vertrex@ap/God 10.3528 9 1.38837e+09
Wrdq03@aagid 10.4171 3 1.3947e+09
Psych@forums 10.448 2 1.37839e+09
clancy 10.6525 2 1.3797e+09
z3ro@afroservers.com 10.8876 1 1.37866e+09
Gavin@forums 11.3121 2 1.39382e+09
jimmaaa@forums 11.3964 4 1.38861e+09
nobody@aagid 11.5919 3 1.39275e+09
soar 11.6151 1 1.39187e+09
apollyon 13.1802 2 1.3808e+09
<|arcueid 15.9769 1 1.38045e+09
rf|gray 16.2192 1 1.38495e+09
butterflies 18.254 3 1.37866e+09
Konqueror@lightron.tk 18.9855 2 1.37866e+09
dovahkiin72o 19.1572 1 1.38322e+09
Seabassten@forums 23.0533 1 1.384e+09
suicune 23.8364 1 1.38756e+09
|neo"bass| 29.0515 1 1.37996e+09
$ir_herobinepl 32.2171 1 1.37847e+09
$boby 37.0416 1 1.38871e+09
