jimmaaa@forums 43.8549 1 1.39445e+09
StyX@ap/Officer 44.4597 1 1.38048e+09
catherine 44.59 3 1.39553e+09
Vertrex@ap/God 45.425 4 1.39347e+09
ta|foni 47.1175 1 1.39496e+09
southpole@forums 47.3132 1 1.39553e+09
clancy 47.452 1 1.37937e+09
Wrdq03@aagid 47.9388 2 1.39412e+09
wrdq 50.8233 1 1.38104e+09
highlander 59.2175 1 1.39445e+09
|neo"bass| 63.5416 2 1.38427e+09
tyr 66.2001 1 1.38515e+09
Stylee@forums 76.909 1 1.37864e+09
jason 102.132 2 1.37832e+09
