StyX@ap/Officer 11.4077 4 1.38066e+09
catherine 12.3537 4 1.39544e+09
ChrisIsGod@forums 12.3969 1 1.38835e+09
nisargisgod@vertrex.8ing.com/Craftsman 12.5329 1 1.38005e+09
cookie@ct/junior 12.9355 1 1.39076e+09
Vertrex@ap/God 15.0709 4 1.38499e+09
lilb@forums 15.9582 1 1.39095e+09
Gavin@forums 17.2239 1 1.3893e+09
rf|jaff 17.3673 1 1.38529e+09
exjaffa 17.6512 1 1.38408e+09
Stylee@forums 17.8535 1 1.37862e+09
klodeckel 17.9647 1 1.38245e+09
edition@forums 18.1648 1 1.38835e+09
wrdq 18.4704 1 1.38314e+09
-tls-jaffas 20.3776 2 1.38348e+09
Wrdq03@aagid 20.6197 1 1.39482e+09
jimmaaa@forums 22.6152 1 1.37966e+09
antou 22.7506 2 1.38123e+09
|neo"bass| 24.3039 1 1.38461e+09
Konqueror@lightron.tk 24.6299 1 1.38005e+09
Psych@forums 25.0239 1 1.37805e+09
crozz 26.0823 1 1.3778e+09
emilki 28.202 1 1.39127e+09
taran 32.2193 1 1.37831e+09
$boby 38.5076 1 1.3887e+09
dovahkiin72o 53.9769 1 1.37994e+09
