jimmaaa@forums 23.8963 4 1.42867e+09
Visual@forums 23.9368 4 1.4302e+09
Tabasco@vertrex.org/Public 24.404 4 1.43025e+09
re\:phoenix 24.5766 6 1.43056e+009
KidBlast@forums 25.0908 3 1.42893e+09
Synergy@aagid 25.6903 1 1.42843e+09
|player_11_phnx 28.0335 2 1.42903e+09
player_1 28.842 1 1.42893e+09
R0b0@vertrex.org/Diplomat 31.2529 1 1.42878e+009
scvalt@forums 36.9339 1 1.43026e+09
chrisd 38.4262 1 1.4286e+09
momo 103.08 1 1.42769e+09