Visual@forums 23.0886 3 1.42966e+09
jimmaaa@forums 23.1964 1 1.42819e+09
StyX@vertrex.org/Officer 23.221 2 1.42957e+09
Tabasco@vertrex.org/Public 23.2211 2 1.42885e+09
Bot@vertrex.org/Public 23.8432 1 1.43052e+09
re\:phoenix 24.2271 2 1.42854e+09
Dage@forums 26.0741 1 1.42971e+09
R0b0@vertrex.org/Diplomat 26.0804 2 1.42998e+09
<myles> 26.7392 2 1.4298e+09
a>ddoa 28.1009 2 1.4298e+09
the_fox 28.64 1 1.4298e+09
sisam42 28.8818 1 1.4298e+09
KidBlast@forums 29.8251 1 1.4291e+09
Richie\_Wolfie@forums 32.1318 1 1.42957e+09
momo 39.9155 1 1.42932e+09