Visual@forums 48.2008 2 1.43009e+09
jimmaaa@forums 48.2186 5 1.42928e+09
re\:phoenix 48.3572 7 1.43035e+09
Child_of_blood@forums 48.4674 1 1.42766e+09
KidBlast@forums 48.9463 2 1.42948e+09
Tabasco@vertrex.org/Public 48.9942 3 1.42798e+09
|player_11_phnx 49.1497 1 1.43035e+09
Dage@forums 49.9642 2 1.42989e+09
R0b0@vertrex.org/Diplomat 50.2164 9 1.43035e+09
<myles> 52.1587 1 1.42894e+09
bloodytag 57.2229 1 1.4298e+09
nin 77.3149 1 1.42894e+09
space_bar 84.9619 1 1.4305e+09