Tabasco@vertrex.org/Public 18.6912 9 1.42997e+09
jimmaaa@forums 18.9918 7 1.42843e+09
Visual@forums 19.0634 12 1.43016e+09
R0b0@vertrex.org/Diplomat 19.5184 7 1.42997e+09
re\:phoenix 19.6831 9 1.43063e+009
KidBlast@forums 20.5311 4 1.42937e+09
zz~esp 24.0274 2 1.42911e+09
glaceoners 24.3819 2 1.42965e+09
Luhn@aagid 25.0107 1 1.42911e+09
bloodytag 26.93 1 1.42965e+09
momo 28.5189 2 1.42975e+09
ready 36.7363 1 1.42965e+09
dead 37.2836 1 1.42877e+09
space_bar 38.1356 1 1.42954e+09
w1ndy@vertrex.org/Public 75.6608 2 1.42771e+09