Visual@forums 17.404 4 1.43016e+09
jimmaaa@forums 17.4076 3 1.42819e+09
StyX@vertrex.org/Officer 17.5012 4 1.42912e+09
Tabasco@vertrex.org/Public 17.7135 3 1.42808e+09
visual 18.124 2 1.42912e+09
re\:phoenix 18.1383 4 1.43009e+09
R0b0@vertrex.org/Diplomat 18.7669 9 1.42997e+09
Dage@forums 19.1124 5 1.42963e+09
wrdq@vertrex.org/Diplomat 19.9179 1 1.42808e+09
|player_11_phnx 22.0659 3 1.42897e+09
playr11_phoenix 24.766 2 1.42808e+09
<myles> 26.3939 2 1.42919e+09
sisam42 29.9209 3 1.4299e+09
player_1 30.4174 2 1.42916e+09
dgk 32.3907 1 1.43041e+09
~[seal]~cake 32.7854 3 1.42997e+09
blue 35.3998 1 1.42897e+09
JacobMo2563@lt 37.0859 1 1.42897e+09
KidBlast@forums 38.4162 1 1.42916e+09
chrisd 39.6757 3 1.4299e+09
~`wwkb 46.6735 1 1.42912e+09