Visual@forums 21.2687 1 1.42853e+09
re\:phoenix 23.2455 1 1.42914e+09
uzain` 35.917 1 1.43032e+09
Luhn@aagid 38.5682 1 1.43032e+09
momo 41.7855 1 1.42933e+09
xradd 43.6524 1 1.42853e+09
popo 77.918 1 1.4279e+09