wrdq@vertrex.org/Diplomat 8.76942 1 1.39482e+09
catherine 8.861 4 1.39561e+09
ChrisIsGod@forums 8.93302 2 1.38842e+09
cookie@ct/junior 8.95929 3 1.39076e+09
ta|foni 8.96748 1 1.39499e+09
jimmaaa@forums 9.01011 4 1.39419e+09
Wrdq03@aagid 9.06966 7 1.39351e+09
nobody@aagid 9.17674 5 1.39196e+09
edition@forums 9.77421 2 1.38842e+09
StyX@ap/Officer 9.99883 3 1.38992e+09
Vertrex@ap/God 10.2093 6 1.39174e+09
TheWorstPlaya@forums 10.6127 1 1.39142e+09
Gavin@forums 10.8814 2 1.39245e+09
WimMar@ct/public 11.9264 1 1.39561e+09
|neo"bass| 12.1232 4 1.38152e+09
lansus 12.8181 2 1.39225e+09
ya|poot 16.9743 1 1.39561e+09
$boby 17.2754 2 1.3886e+09
bamf/lightbeam 18.6764 1 1.39561e+09
klodeckel 23.206 1 1.37961e+09
