jimmaaa@forums 18.2931 17 1.39483e+09
catherine 18.3268 12 1.39577e+09
lilb@forums 18.5138 5 1.39062e+09
lansus 18.5631 3 1.395e+09
Wrdq03@aagid 18.5984 13 1.39568e+09
edition@forums 18.8183 3 1.38832e+09
yoyo 18.8534 3 1.3934e+09
RAY@forums 18.8694 6 1.39568e+09
0\x00feeeemilki@aagid 18.9281 2 1.39568e+09
nisargisgod@vertrex.8ing.com/Craftsman 18.9742 3 1.38057e+09
Vertrex@vertrex.org/God 18.9747 3 1.38992e+09
StyX@ap/Officer 18.985 9 1.38992e+09
Smart@tronner.com 18.9852 1 1.3855e+09
klodeckel 19.1052 7 1.38315e+09
ap|on 19.1317 3 1.38456e+09
Yamato@tronner.com 19.1676 3 1.38393e+09
Vertrex@ap/God 19.1933 12 1.39044e+09
wrdq@vertrex.org/Diplomat 19.2767 2 1.39568e+09
nikko_lowe 19.4325 3 1.38349e+09
wimmar 19.5238 6 1.39568e+09
ap|sev 19.573 3 1.38391e+09
ya|poot 19.7972 1 1.39568e+09
emilki 19.8152 3 1.39112e+09
wrdq 19.8505 3 1.38295e+09
-tls-jaffas 19.9808 12 1.38393e+09
Zwazi@aagid 20.0142 2 1.38992e+09
adrimoke 20.1354 3 1.38313e+09
|neo"bass| 20.1952 2 1.38141e+09
oopootie_tangoo 20.2011 3 1.39281e+09
pootie_tang 20.3586 3 1.39308e+09
buddr 20.4024 3 1.38417e+09
paco 20.5055 3 1.38123e+09
ed 20.6875 3 1.39078e+09
fabien 20.7127 3 1.39393e+09
zejim 20.8202 3 1.38022e+09
suicune 20.8602 3 1.39421e+09
emani 20.9519 3 1.38057e+09
wipeout 20.9735 3 1.38393e+09
rf|jaff 21.4011 2 1.38531e+09
hitler 21.5184 3 1.38123e+09
rf|gray 21.7255 2 1.38486e+09
ta|aleyna 21.7476 3 1.39548e+09
nick$$ 21.7482 3 1.39421e+09
ehollywood 22.055 2 1.38158e+09
antou 22.1428 3 1.38123e+09
dezultimo 22.9502 3 1.38313e+09
clockworkorange 23.0534 1 1.37997e+09
gabino 23.2023 2 1.38907e+09
player_1 26.7973 1 1.38315e+09
bad_day 29.6972 2 1.38313e+09
dj_koke 34.0572 2 1.38295e+09
