ChrisIsGod@forums 28.1224 14 1.38842e+09
edition@forums 28.5384 7 1.38842e+09
catherine 29.3747 17 1.39578e+09
nobody@aagid 29.9268 16 1.39248e+09
lilb@forums 30.0773 6 1.39087e+09
StyX@ap/Officer 30.1791 10 1.38757e+09
TeeHee@ap/Diplomat 30.3602 35 1.38844e+09
jimmaaa@forums 30.6465 19 1.39507e+09
nisargisgod@vertrex.8ing.com/Craftsman 31.0924 3 1.37995e+09
Vertrex@ap/God 31.5353 5 1.39399e+09
ta|foni 31.7154 3 1.39488e+09
|cam 31.7527 3 1.39068e+09
Gavin@forums 31.9856 3 1.39163e+09
6c!$m!l3 32.0528 10 1.38842e+09
klodeckel 32.5454 7 1.38358e+09
lansus 32.7016 7 1.39571e+09
spyy 32.7683 3 1.39163e+09
<|arcueid 33.5956 3 1.38133e+09
|boobie 34.0365 11 1.38842e+09
$boby 34.2205 6 1.38877e+09
|wr 34.3656 5 1.38842e+09
Wrdq03@aagid 34.656 4 1.39179e+09
wrdq 34.8507 2 1.3815e+09
TheWorstPlaya@forums 34.96 3 1.39142e+09
Yamato@vertrex.org/Diplomat 35.1464 3 1.3958e+09
tempeira 35.8502 3 1.39273e+09
snbo3304@forums 35.9016 3 1.38825e+09
KidBlast@forums 36.4561 1 1.38842e+09
bastien 36.745 3 1.38842e+09
emilki 37.2738 3 1.39163e+09
le_cromo_v2 37.5208 1 1.38842e+09
Konqueror@lightron.org 38.575 10 1.38841e+09
tyr 38.715 5 1.39273e+09
pootie 39.3729 3 1.39368e+09
<|woochu 39.5932 2 1.38133e+09
sam's 39.8772 2 1.39273e+09
thc|dr!d3n 41.1176 2 1.39578e+09
Kurosaki@aagid 42.2248 3 1.37961e+09
exrobo 42.4662 3 1.38039e+09
gold_boy 43.1376 3 1.38757e+09
Durf@ap/Support 45.1108 1 1.37963e+09
mitesapultraap 45.6795 3 1.38495e+09
glaceoners 46.7821 1 1.39273e+09
cardo97 47.2987 1 1.39163e+09
RAY@forums 48.4783 2 1.39557e+09
dragonslayer 51.3545 2 1.39179e+09
stereophonics 53.1474 1 1.38426e+09
exjaffa 57.6439 1 1.384e+09
lol 61.3144 2 1.38841e+09
acid_rain 66.0382 1 1.38841e+09
mr.noob 66.4475 1 1.38235e+09
Gate@vertrex.org/Officer 66.9251 1 1.38855e+09
drago 68.006 1 1.38495e+09
peloodejeremyyy 68.921 1 1.38842e+09
mitchell 77.5492 2 1.38326e+09
