re\:phoenix 15.4165 13 1.42992e+09
Visual@forums 15.4883 2 1.42992e+09
Tabasco@vertrex.org/Public 15.5786 5 1.43005e+09
<myles> 15.682 2 1.42966e+09
R0b0@vertrex.org/Diplomat 15.7785 6 1.43058e+09
jimmaaa@forums 16.0765 1 1.42883e+09
KidBlast@forums 16.2596 1 1.42915e+09
xradd 16.5654 2 1.42906e+09
Dage@forums 16.6592 1 1.4298e+09
xone.razor 16.8557 2 1.42883e+09
|player_11_phnx 18.1124 1 1.42992e+09
uzain` 19.0144 2 1.4298e+09
uzain 19.4618 1 1.42788e+09
sy|yoh 22.8907 1 1.42872e+09
Bot@vertrex.org/Public 29.7306 1 1.43052e+09
