vov@forums 13.5295 3 1.42862e+09
Visual@forums 13.5733 3 1.43034e+09
KidBlast@forums 13.6406 2 1.42958e+09
jimmaaa@forums 13.6734 3 1.42842e+09
re\:phoenix 13.7841 2 1.42918e+09
R0b0@vertrex.org/Diplomat 14.0469 1 1.42941e+09
|player_11_phnx 15.227 1 1.42914e+09
uzain` 27.0821 1 1.43049e+09
