re\:phoenix 78.7116 3 1.43026e+09
R0b0@vertrex.org/Diplomat 84.0745 23 1.43058e+09
nelg@vertrex.org/Diplomat 106.017 4 1.42766e+09
Visual@forums 119.085 2 1.43001e+09
Synergy@aagid 129.976 2 1.4282e+09
Child_of_blood@forums 146.462 1 1.42766e+09
Dage@forums 147.208 1 1.42904e+09
xradd 149.603 2 1.43035e+09
jimmaaa@forums 165.882 1 1.42944e+09
scvalt@forums 183.621 1 1.43058e+09
mose 183.734 1 1.43058e+09
rxlead 237.519 1 1.4304e+09
exia 273.17 1 1.43018e+09
rhino 303.116 2 1.4304e+09
negus 358.703 1 1.43018e+09
