jimmaaa@forums 32.5973 4 1.42945e+09
StyX@vertrex.org/Officer 32.9213 2 1.42766e+09
Tabasco@vertrex.org/Public 33.4367 1 1.42841e+09
Gone@forums 33.7371 1 1.43035e+09
re\:phoenix 34.0795 6 1.42917e+09
R0b0@vertrex.org/Diplomat 34.6082 3 1.43035e+09
|player_11_phnx 36.5658 1 1.43024e+09
mose 38.5436 1 1.43035e+09
nelg@vertrex.org/Diplomat 40.3896 1 1.42872e+09
scvalt@forums 44.4555 1 1.4305e+09
eraz 48.1658 1 1.43035e+09
ct|upabr 54.7764 1 1.43059e+09
np|eni 68.9349 1 1.43035e+09
