Visual@forums 62.2736 1 1.42968e+09
re\:phoenix 62.4026 6 1.42952e+09
vov@forums 62.8693 1 1.42867e+09
tm|cath 63.5035 1 1.43008e+09
KidBlast@forums 63.9098 2 1.42893e+09
Tabasco@vertrex.org/Public 64.4895 1 1.42859e+09
R0b0@vertrex.org/Diplomat 65.5192 2 1.43008e+09
playr11_phoenix 67.3085 3 1.42802e+09
|player_11_phnx 67.8944 2 1.42929e+09
mose 70.8338 1 1.43041e+09