jimmaaa@forums 50.5606 2 1.42867e+09
Tabasco@vertrex.org/Public 50.6081 1 1.43041e+09
Visual@forums 53.8567 1 1.43016e+09
<myles> 54.7385 2 1.42807e+09
|player_11_phnx 57.6377 1 1.42862e+09
xradd 75.2931 1 1.42914e+09
playr11_phoenix 87.1462 1 1.42773e+09