Visual@forums 14.4206 2 1.4306e+09
tm|cath 14.5168 1 1.4306e+09
re\:phoenix 14.5257 4 1.42883e+09
jimmaaa@forums 14.5445 1 1.42928e+09
R0b0@vertrex.org/Diplomat 14.5853 6 1.42984e+09
Synergy@aagid 14.6029 7 1.4282e+09
Tabasco@vertrex.org/Public 14.6186 2 1.4285e+09
nisargisgod@forums 14.672 3 1.42947e+09
StyX@vertrex.org/Officer 14.9823 1 1.42872e+09
Dage@forums 18.0149 2 1.42911e+09
momo 19.1379 1 1.43032e+09
es!_ridder 27.2329 1 1.4282e+09
