Visual@forums 9.31167 7 1.43001e+09
re\:phoenix 9.37131 4 1.42914e+09
Tabasco@vertrex.org/Public 9.40942 8 1.42824e+09
Yamato@aagid 9.4506 2 1.4289e+09
R0b0@vertrex.org/Diplomat 9.46737 13 1.4306e+09
Dage@forums 9.5072 4 1.4279e+09
KidBlast@forums 9.50815 5 1.42981e+09
x23@forums 9.58357 2 1.42981e+09
tm|cath 9.6139 2 1.4306e+09
<myles> 9.6657 3 1.42798e+09
phoenix_titan 9.67411 2 1.4276e+09
mose 11.5323 1 1.43023e+09
xradd 11.5548 1 1.42853e+09
realtop 12.7701 2 1.43023e+09
scarlet_o 14.2758 1 1.43023e+09
rxlead 14.5937 1 1.4304e+09
sisam42 14.8791 2 1.4306e+09
uzain` 16.6526 1 1.42981e+09
