jimmaaa@forums 18.027 3 1.39351e+09
catherine 18.6766 1 1.39557e+09
lilb@forums 19.9238 1 1.39036e+09
nobody@aagid 24.4507 1 1.39161e+09
rf|jaff 32.68 1 1.38549e+09
wrdq 33.5274 1 1.38113e+09
jason 44.5392 1 1.37842e+09
tls_mr._pancake 46.0902 1 1.38348e+09
antou 59.7085 1 1.38011e+09
makoto@vertrex.org/Diplomat 73.7286 1 1.39027e+09
