jimmaaa@forums 18.2923 2 1.39506e+09
mehmet@forums 18.3423 2 1.39488e+09
catherine 18.6104 6 1.39557e+09
Wrdq03@aagid 18.776 2 1.39291e+09
lansus 18.9755 3 1.39433e+09
Durf@ap/Support 18.9949 5 1.37822e+09
nisargisgod@vertrex.8ing.com/Craftsman 19.0085 3 1.37866e+09
Vertrex@ap/God 19.0776 7 1.39036e+09
ta|foni 19.1284 1 1.39464e+09
drbeatz 19.1301 2 1.379e+09
lilb@forums 19.1818 1 1.39036e+09
wrdq@vertrex.org/Diplomat 19.2352 1 1.39506e+09
Fini@forums 19.2827 3 1.37945e+09
|aod|d 19.5303 1 1.39557e+09
clancy 19.5371 3 1.37825e+09
Gavin@forums 19.5614 2 1.38914e+09
wrdq 20.1497 1 1.3838e+09
tak@phoenix-clan.org/Deputy-Leader 20.1951 1 1.37945e+09
TelGod@forums 21.4573 1 1.38015e+09
klodeckel 21.4692 3 1.37795e+09
Stylee@forums 21.7689 1 1.37856e+09
|cake 21.9527 1 1.38972e+09
crozz 24.0256 2 1.3809e+09
|neo"bass| 25.5381 1 1.37983e+09
emilki 26.7705 2 1.39191e+09
chrisd 26.8178 2 1.39342e+09
nick$$ 27.551 1 1.39215e+09
$ir_herobinepl 28.2511 1 1.37847e+09
sam's 28.4916 2 1.39215e+09
metalbamf 28.7696 2 1.39557e+09
ta|aleyna 38.2633 2 1.39557e+09
