jimmaaa@forums 46.5916 9 1.39516e+09
nobody@aagid 47.2154 3 1.39318e+09
Gavin@forums 47.7296 6 1.39216e+09
lansus 48.6378 3 1.39491e+09
Wrdq03@aagid 48.7335 11 1.39568e+09
StyX@ap/Officer 50.1232 4 1.39216e+09
sevencube3@vertrex.8ing.com/Diplomat 51.4305 3 1.38523e+09
gsv_meatfucker 51.5435 2 1.39192e+09
pootie 52.4125 4 1.39369e+09
ya|catz 52.878 3 1.39557e+09
|neo"bass| 52.8913 2 1.37996e+09
ihateeverything 53.1022 1 1.38368e+09
gavin 53.263 1 1.38937e+09
Vertrex@vertrex.org/God 53.3058 3 1.38992e+09
metal 53.9346 3 1.39552e+09
RAY@forums 54.7598 4 1.39568e+09
catherine 54.8131 4 1.3944e+09
emilki 55.3386 3 1.39145e+09
ta|foni 55.4599 1 1.39567e+09
zejim 56.7752 3 1.37996e+09
chrisd 57.0529 2 1.39318e+09
lilb@forums 57.0843 1 1.39035e+09
apollyon 57.5808 2 1.38331e+09
dovahkiin72o 58.1801 2 1.38244e+09
excalibur 58.258 3 1.39192e+09
wimmar 58.7821 1 1.39552e+09
sovietbamf 61.7861 3 1.39552e+09
dragonfireym 61.8539 3 1.39343e+09
danny_glover 61.9364 2 1.39192e+09
lightbeam 65.2853 3 1.39552e+09
suicune 87.0079 1 1.38331e+09
aypierre 87.2006 1 1.38098e+09
