ChrisIsGod@forums 38.1971 5 1.38855e+09
catherine 38.4279 1 1.39509e+09
edition@forums 38.8825 2 1.38835e+09
Rufus@ap/Officer 38.9335 1 1.38777e+09
Vertrex@ap/God 40.0507 3 1.39216e+09
jimmaaa@forums 41.6313 1 1.38835e+09
mehmet@forums 43.8424 1 1.39489e+09
ta|foni 44.6197 1 1.39551e+09
lilb@forums 48.5286 1 1.39113e+09
TelGod@forums 51.5131 1 1.37927e+09
lansus 57.4731 1 1.39537e+09
sl\:zap! 57.9916 1 1.37849e+09
-tls-jaffas 61.6348 1 1.3838e+09
|boooob 69.4276 1 1.38835e+09
