catherine 31.9292 17 1.39544e+09
ta|foni 32.0303 3 1.39448e+09
Vertrex@ap/God 32.3083 18 1.39417e+09
jimmaaa@forums 32.9861 4 1.39373e+09
StyX@ap/Officer 33.2673 6 1.39337e+09
player_1 33.3981 3 1.38392e+09
cookie@ct/junior 33.637 3 1.39077e+09
Gavin@forums 33.6459 9 1.39303e+09
lilb@forums 33.6713 2 1.39095e+09
southpole@forums 34.5785 3 1.39544e+09
tfd|lightraider 34.5866 2 1.39417e+09
wrdq@lightron.org 34.6792 3 1.39204e+09
Wrdq03@aagid 34.9107 3 1.39482e+09
Play@lightron.org 35.8539 3 1.3831e+09
klodeckel 36.124 8 1.38384e+09
wrdq 36.176 3 1.38294e+09
emilki 37.1386 6 1.39187e+09
|neo"bass| 37.6362 6 1.38461e+09
-mlg-dragon 38.2526 2 1.38348e+09
yoyo 38.5654 1 1.39337e+09
ap|suicune 39.4424 6 1.3892e+09
Konqueror@lightron.org 39.9926 3 1.39187e+09
cdshotz 40.0855 3 1.39373e+09
sam's 40.2274 3 1.39239e+09
tempeira 40.3953 3 1.39239e+09
rf|jaff 41.9862 3 1.38452e+09
dovahkiin72o 42.7835 3 1.38305e+09
asdfghjkl@aagid 43.5508 2 1.39204e+09
exjaffa 44.4388 3 1.38408e+09
-tls-jaffas 44.5235 5 1.38348e+09
lag 45.3236 3 1.38392e+09
ta|aleyna 46.4181 5 1.39559e+09
glaceoners 46.9998 3 1.39239e+09
crozz 47.2479 1 1.38085e+09
adrimoke 47.9351 2 1.38346e+09
dvdoll 48.6284 1 1.39255e+09
winner 49.7378 3 1.3848e+09
xe|boss 50.2506 3 1.39337e+09
bex 52.0104 3 1.39373e+09
neo 52.6353 3 1.38932e+09
clockworkorange 54.9771 2 1.38123e+09
guest-pjkfp6 55.626 1 1.3892e+09
anal_recovery 58.5308 1 1.38294e+09
vegetakira 63.668 1 1.39373e+09
dan 66.741 1 1.39373e+09
