ChrisIsGod@forums 38.8361 5 1.38836e+09
edition@forums 39.3255 4 1.38834e+09
Gavin@forums 39.3285 5 1.39216e+09
catherine 39.6956 6 1.39561e+09
jimmaaa@forums 40.0371 4 1.39023e+09
|jason 40.538 2 1.37855e+09
Wrdq03@aagid 40.7455 3 1.39404e+09
ta|foni 41.1495 1 1.39473e+09
|yamato 41.4724 1 1.3958e+09
wrdq 41.6016 6 1.38306e+09
Vertrex@ap/God 42.0816 2 1.38312e+09
clancy 43.2582 1 1.37981e+09
Stylee@forums 44.4214 1 1.37855e+09
ap|sev@ap/Diplomat 46.3334 1 1.38778e+09
Durf@ap/Support 47.4335 1 1.37791e+09
.dbd|zurd 50.4945 1 1.37845e+09
|neo"bass| 52.627 3 1.38253e+09
emilki 60.4061 1 1.39191e+09
exrobo 62.7798 1 1.38045e+09
oo6ead 106.789 1 1.3782e+09
