jimmaaa@forums 25.4231 3 1.39472e+09
Vertrex@ap/God 25.5212 1 1.39087e+09
catherine 25.5784 3 1.39578e+09
ChrisIsGod@forums 29.6195 1 1.38835e+09
lansus 34.522 1 1.39509e+09
hylix@ct/public 45.5404 1 1.37989e+09
emilki 52.2556 1 1.39189e+09
