nobody@aagid 51.9243 4 1.3917e+09
jimmaaa@forums 52.1482 4 1.38391e+09
Gavin@forums 52.8383 2 1.3917e+09
Vertrex@ap/God 53.3409 3 1.39053e+09
StyX@ap/Officer 53.5556 1 1.38111e+09
ta|foni 53.6039 1 1.39497e+09
ChrisIsGod@forums 54.0933 1 1.38825e+09
catherine 54.823 2 1.3923e+09
aP|Dom@ap/Diplomat 55.1429 1 1.37861e+09
wrdq 56.9585 1 1.38306e+09
Wrdq03@aagid 57.8265 1 1.38979e+09
ap|on 61.0108 1 1.38531e+09
|neo"bass| 70.8582 1 1.37942e+09
Gate@vertrex.org/Officer 72.4093 2 1.39033e+09
rf|jaff 78.3035 2 1.38454e+09
<|lolcat 80.776 1 1.37841e+09
$ir_herobinepl 103.958 1 1.37779e+09
