Wrdq03@aagid 40.8934 3 1.39111e+09
Gavin@forums 46.9183 2 1.38944e+09
Vertrex@ap/God 50.0745 3 1.38348e+09
|neo"bass| 67.2665 2 1.38461e+09
$boby 75.6205 1 1.38869e+09
ap|suicune 101.081 1 1.38384e+09
