jimmaaa@forums 37.8241 6 1.38861e+09
StyX@ap/Officer 37.9423 1 1.38031e+09
catherine 38.0316 1 1.39543e+09
nobody@aagid 38.0406 3 1.38861e+09
Gavin@forums 38.5192 2 1.39094e+09
Durf@ap/Support 39.1482 2 1.37903e+09
|ed 39.4126 1 1.38861e+09
Vertrex@ap/God 39.4679 1 1.3795e+09
Psych@forums 43.1448 1 1.37805e+09
Konqueror@lightron.org 55.5069 2 1.38923e+09
|neo"bass| 62.1052 1 1.37933e+09
emilki 74.569 1 1.39076e+09
s133811 77.1177 1 1.39155e+09
