jimmaaa@forums 16.5495 3 1.42844e+09
Tabasco@vertrex.org/Public 16.5779 2 1.42961e+09
Visual@forums 16.9096 4 1.43018e+09
teach_meh 17.2361 1 1.42983e+09
R0b0@vertrex.org/Diplomat 21.6821 2 1.42993e+09