Visual@forums 14.7832 4 1.43011e+09
jimmaaa@forums 14.7854 7 1.42945e+09
re\:phoenix 15.8417 7 1.43063e+009
KidBlast@forums 15.8658 4 1.43001e+09
Dage@forums 16.1157 3 1.4292e+09
R0b0@vertrex.org/Diplomat 16.9493 5 1.42876e+009
dr.bam 18.5217 3 1.43046e+09
rxlead 18.8268 2 1.43046e+09
dgk 19.3003 1 1.43032e+09
warlord_murloc 19.3041 2 1.42888e+09
realtop 20.4252 2 1.43024e+09
xxmobxxdylan 20.5075 1 1.43024e+09
ta|foni 20.8347 2 1.42961e+09