Visual@forums 35.7213 2 1.43018e+09
Tabasco@vertrex.org/Public 36.117 4 1.42902e+09
R0b0@vertrex.org/Diplomat 39.6006 5 1.43018e+09
<myles> 42.4739 2 1.42902e+09
KidBlast@vertrex.org/Friend 43.1771 1 1.42862e+09
xradd 45.6333 2 1.42932e+09
scvalt@forums 48.7781 2 1.43018e+09
AsapWolf@forums 49.5667 1 1.42853e+09
xf_pyro 56.9085 1 1.42853e+09
realtop 64.3693 2 1.43018e+09
np|eni 118.309 1 1.43018e+09