jimmaaa@forums 22.9654 10 1.43006e+09
Visual@forums 23.1196 8 1.4301e+09
Tabasco@vertrex.org/Public 23.5136 4 1.42841e+09
KidBlast@forums 23.5636 11 1.43018e+09
R0b0@vertrex.org/Diplomat 23.928 10 1.42993e+09
StyX@vertrex.org/Officer 24.1195 2 1.42993e+09
re\:phoenix 24.4472 9 1.42879e+09
|player_11_phnx 25.7776 5 1.4292e+09
mose 29.2892 2 1.43006e+09
w1ndy@vertrex.org/Public 29.5173 5 1.4291e+09
zz~esp 31.4458 3 1.43006e+09
ks|blaze 32.829 2 1.43006e+09
gayman 44.9284 2 1.43041e+09