Visual@forums 31.1487 11 1.43034e+09
R0b0@vertrex.org/Diplomat 33.7363 22 1.43017e+09
Tabasco@vertrex.org/Public 34.9413 4 1.43004e+09
StyX@vertrex.org/Officer 35.1703 2 1.43034e+09
re\:phoenix 39.3168 3 1.42984e+09
visual 39.706 1 1.42784e+09
Synergy@aagid 44.0736 6 1.42845e+09
|player_11_phnx 48.066 2 1.42992e+09
<myles> 58.8649 2 1.42785e+09
shrek 59.7696 3 1.42964e+09
dgk 91.3038 3 1.43049e+09
lemond2o15 101.31 1 1.43004e+09
xradd 103.72 1 1.42992e+09
uzain` 119.867 1 1.43049e+09