Visual@forums 21.2138 14 1.43025e+09
Tabasco@vertrex.org/Public 21.263 4 1.42944e+09
re\:phoenix 21.557 6 1.42874e+09
playr11_phoenix 21.5729 3 1.42773e+09
Synergy@aagid 21.6446 4 1.42843e+09
<myles> 21.6879 6 1.42919e+09
tm|cath 21.9767 1 1.42974e+09
R0b0@vertrex.org/Diplomat 22.0536 7 1.43025e+09
KidBlast@forums 22.1367 4 1.42916e+09
pops 22.2351 3 1.42919e+09
es!_ridder 22.5159 2 1.42818e+09
a>ddoa 22.9977 3 1.42974e+09
dgk 23.0017 3 1.43034e+09
shrek 23.1135 2 1.42974e+09
w1ndy@vertrex.org/Public 23.135 6 1.4291e+09
the_fox 23.2283 1 1.42974e+09
player_1 23.2364 3 1.42916e+09
o123456789 24.6027 1 1.43048e+09
#wave 25.2266 1 1.42974e+09
sy|dr.s 25.4446 1 1.42854e+09
bunnies_rule_15 36.892 1 1.43048e+09