Visual@forums 37.7391 6 1.43026e+09
R0b0@vertrex.org/Diplomat 38.29 5 1.43026e+09
Dage@forums 38.3238 6 1.42972e+09
RePhoenix@ap/Resurrected 38.3379 2 1.42952e+09
jimmaaa@forums 38.6223 1 1.42819e+09
Tabasco@vertrex.org/Public 39.9202 1 1.42857e+09
uzain` 41.258 2 1.42929e+09
|player_11_phnx 41.4033 3 1.42871e+09
momo 42.153 1 1.4288e+09
~[seal]~cake 42.6477 2 1.43e+09
mose 42.775 2 1.43026e+09
sisam42 43.3829 3 1.42981e+09
xradd 43.9348 1 1.42854e+09
jas0n@forums 44.7836 1 1.42844e+09
realtop 44.8306 1 1.43052e+09
KidBlast@forums 45.2835 1 1.42967e+09
wyld_bill 45.3061 1 1.43052e+09
dani666 45.6564 2 1.42929e+09
blackpanther42 46.2994 2 1.42952e+09
mayan 51.3987 1 1.43026e+09
StyX@vertrex.org/Officer 58.4466 2 1.42774e+09
hydrogen 66.9084 1 1.42972e+09