Visual@forums 13.2106 8 1.43017e+09
tm|cath 13.9287 1 1.43017e+09
Tabasco@vertrex.org/Public 14.1439 1 1.42841e+09
player_1 16.7297 1 1.42999e+09
jimmaaa@forums 17.1945 1 1.42797e+09
R0b0@vertrex.org/Diplomat 19.0196 5 1.42766e+09
<myles> 20.1965 6 1.42766e+09
Dage@forums 21.0255 3 1.42929e+09
nelg@vertrex.org/Diplomat 27.1083 4 1.42766e+09
re\:phoenix 27.2368 1 1.42863e+09
|player_11_phnx 33.0036 1 1.42897e+09