jimmaaa@forums 25.0695 3 1.42928e+09
Visual@forums 25.2618 9 1.43035e+09
Tabasco@vertrex.org/Public 25.3959 6 1.42969e+09
KidBlast@forums 25.7937 6 1.4295e+09
tm|cath 25.9409 1 1.4306e+09
<myles> 26.4201 5 1.42966e+09
re\:phoenix 26.427 3 1.42986e+09
R0b0@vertrex.org/Diplomat 26.8857 9 1.4306e+09
w1ndy@vertrex.org/Public 27.5197 2 1.4291e+09
scvalt@forums 27.7147 3 1.43049e+09
mose 27.7448 3 1.43025e+09
playr11_phoenix 27.8955 3 1.42802e+09
xradd 28.3241 3 1.43035e+09
exia 29.3395 2 1.43025e+09
sisam42 29.5553 6 1.4306e+09
np|eni 30.2768 3 1.43035e+09
glaceoners 30.355 1 1.42979e+09
nurbsPlanar@aagid 31.2027 3 1.42797e+09
space_bar 31.622 2 1.42979e+09
hickso123 32.0928 3 1.43035e+09
Syo/CaT@forums 33.0727 3 1.42797e+09
xlolins 34.4464 2 1.43025e+09
bioshock 35.5759 2 1.43025e+09
jacob.garner 37.5271 2 1.43049e+09
