Visual@forums 12.1038 3 1.42982e+009
Tabasco@vertrex.org/Public 12.25 13 1.42911e+09
re\:phoenix 12.4214 6 1.43048e+009
R0b0@vertrex.org/Diplomat 12.8249 4 1.43008e+09
|player_11_phnx 16.446 2 1.42872e+09
playr11_phoenix 17.3596 1 1.42808e+09
Dage@forums 34.8846 3 1.4279e+09
<myles> 37.0937 1 1.4279e+09