Tabasco@vertrex.org/Public 24.3018 9 1.42902e+09
jimmaaa@forums 24.4276 1 1.42893e+09
Visual@forums 24.8769 1 1.42967e+009
KidBlast@forums 26.0166 4 1.43028e+09
Synergy@aagid 26.3588 2 1.42843e+09
R0b0@vertrex.org/Diplomat 26.4816 1 1.42817e+009
Dage@forums 26.5457 1 1.42972e+09
re\:phoenix 26.7586 1 1.43056e+009
<myles> 27.9511 2 1.42902e+09
momo 28.1125 3 1.42932e+09
shrek 29.008 2 1.42981e+09
playr11_phoenix 29.3357 2 1.42843e+09
dgk 31.7978 1 1.42981e+09
|player_11_phnx 32.1157 2 1.43024e+09
warlord_murloc 32.2165 1 1.42877e+09
zz~esp 39.8756 1 1.42902e+09