R0b0@vertrex.org/Diplomat 7.27648 5 1.42946e+009
Visual@forums 7.27724 9 1.43027e+09
Tabasco@vertrex.org/Public 7.28815 5 1.42921e+09
Dage@forums 7.29369 3 1.42972e+09
re\:phoenix 7.29422 5 1.43056e+009
KidBlast@forums 7.297 7 1.42967e+09
wrdq@vertrex.org/Diplomat 7.39059 2 1.42988e+09
momo 7.43262 3 1.42911e+09
w1ndy@vertrex.org/Diplomat 7.47051 2 1.43009e+09
kiven 7.75522 2 1.42946e+09
Zapp2563@vertrex.org/Public 7.79961 3 1.43027e+09
hickso123 7.90217 2 1.43044e+09
azael 8.07685 2 1.42821e+09
es!\:tornado 8.14912 2 1.42876e+09
AsapWolf@forums 8.18647 2 1.42852e+09
xx_mcpmvp_xx 8.76561 1 1.42821e+09
farts 9.1225 2 1.42852e+09
es!_ridder 9.32715 2 1.42821e+09
zz~esp 10.605 1 1.42911e+09
dannny 12.4682 2 1.42852e+09