Visual@forums 16.0241 7 1.43001e+09
re\:phoenix 16.1375 3 1.43056e+009
StyX@vertrex.org/Officer 16.2432 1 1.42973e+09
Tabasco@vertrex.org/Public 16.3194 2 1.42857e+09
|player_11_phnx 16.3518 3 1.42914e+09
R0b0@vertrex.org/Diplomat 16.4385 3 1.43001e+09
<myles> 16.8621 2 1.42941e+09
Dage@forums 16.8696 1 1.42973e+09
Synergy@aagid 16.8928 2 1.42842e+09
bloodytag 18.3032 1 1.42975e+09
scvalt@forums 18.6346 2 1.43026e+09
playr11_phoenix 19.8542 1 1.42842e+09
momo 20.3599 3 1.42982e+09
xradd 21.2554 2 1.42983e+09
w1ndy@vertrex.org/Public 22.4902 1 1.42807e+09
flame_rider 24.0246 1 1.42983e+09
realtop 27.4189 1 1.43023e+09
closer_to_you 30.2249 2 1.42975e+09
team_canada 32.1986 1 1.42798e+09