jimmaaa@forums 21.8232 2 1.4286e+09
Visual@forums 22.0643 2 1.42982e+009
Synergy@aagid 24.2078 1 1.4282e+09
R0b0@vertrex.org/Diplomat 26.3458 2 1.43026e+09
re\:phoenix 28.5408 1 1.42975e+09
playr11_phoenix 29.849 1 1.42845e+09
np|eni 38.6585 1 1.43027e+09
chrisd 41.5323 1 1.4286e+09
momo 112.887 1 1.42781e+09