yoyo 1.14884 3 1.39163e+09
StyX@ap/Officer 1.15219 34 1.39404e+09
lansus 1.15408 10 1.39433e+09
jimmaaa@forums 1.18552 25 1.39507e+09
catherine 1.19574 9 1.39507e+09
mehmet@forums 1.19967 8 1.39488e+09
nobody@aagid 1.20147 15 1.39361e+09
ta|foni 1.20285 7 1.39507e+09
glaceoners 1.20827 4 1.39275e+09
sam's 1.20827 3 1.39273e+09
wimmar 1.2111 4 1.39562e+09
Wrdq03@aagid 1.21381 56 1.39585e+09
Gavin@forums 1.21535 7 1.3924e+09
|mc 1.21901 1 1.39204e+09
0\x00feeeemilki@aagid 1.22537 3 1.39534e+09
pootie_tang 1.2354 18 1.393e+09
dragonslayer 1.23817 3 1.39179e+09
pootie 1.24285 6 1.39361e+09
emilki 1.24575 12 1.39163e+09
klodeckel 1.24773 2 1.39179e+09
wrdq@vertrex.org/Diplomat 1.25345 6 1.39507e+09
drrape 1.25432 6 1.39299e+09
tempeira 1.25628 4 1.39275e+09
pipa 1.26348 1 1.39462e+09
guest-upgcoo 1.27281 3 1.39248e+09
ya|poot 1.27518 2 1.39534e+09
corentin 1.28484 3 1.3955e+09
varnes_a_beat 1.28669 5 1.39231e+09
ct_|mc 1.29991 1 1.39411e+09
black_jack 1.33874 3 1.3955e+09
albrechtfuchs 1.34914 3 1.39078e+09
vegeta 1.36862 2 1.39204e+09
guest-emrinf 1.37511 1 1.39361e+09
yoyo@aagid 1.48758 1 1.39361e+09
cdshotz 1.50028 1 1.39319e+09
aleyna\:) 1.53681 3 1.39488e+09
Vertrex@ap/God 1.61083 7 1.38701e+09
clancy 1.63758 3 1.38812e+09
gavin 1.65838 3 1.38735e+09
a.f.u2 1.69575 4 1.39231e+09
|wr 1.70708 9 1.38788e+09
zack 1.72077 2 1.39239e+09
ap|sev@ap/Diplomat 1.72409 3 1.3869e+09
|wr___\@lizb 1.7389 3 1.38788e+09
APICAMcash@tronner.com 1.74121 1 1.3874e+09
rufio 1.75791 1 1.39319e+09
gokuto 1.76964 5 1.39231e+09
masterchief 1.77523 2 1.39267e+09
spieler_1 1.78353 1 1.39273e+09
player_1 1.78683 2 1.39267e+09
|cam 1.7964 3 1.39179e+09
wrdq 1.7981 9 1.39179e+09
dopeybrown 1.8678 2 1.39507e+09
poowongfoo 1.8802 2 1.39507e+09
|cero 2.02701 1 1.38913e+09
mr._pancake 2.11544 3 1.38906e+09
hillm 2.22514 2 1.39179e+09
iswri 2.36132 2 1.38949e+09
duffkl 2.54559 1 1.38932e+09
thc|dr!d3n 3.92413 1 1.39411e+09
hector 4.5841 1 1.39203e+09
ohm 5.02488 1 1.38912e+09
ap|styx 5.03229 1 1.38913e+09
tonikomputer 5.22967 2 1.38899e+09
victordov 5.91046 3 1.38945e+09
