nobody@aagid 15.6073 7 1.39187e+09
lansus 15.6437 4 1.395e+09
Wrdq03@aagid 15.6758 12 1.39525e+09
jimmaaa@forums 15.7206 5 1.39483e+09
pipa 15.7647 2 1.39548e+09
ta|foni 15.8491 2 1.39548e+09
catherine 15.9062 1 1.39255e+09
ya|pootie 15.9495 3 1.39392e+09
Gavin@forums 15.9892 1 1.39302e+09
Vertrex@ap/God 16.098 12 1.38709e+09
emilki 16.1388 5 1.39086e+09
StyX@ap/Officer 16.1743 3 1.38782e+09
glaceoners 16.2045 1 1.39274e+09
TheWorstPlaya@forums 16.3595 1 1.39142e+09
|wr 16.6023 2 1.38788e+09
emani 16.8685 1 1.395e+09
fabien 24.9279 1 1.39392e+09
arg 27.596 2 1.39392e+09
tyr 31.058 2 1.3878e+09
ap|suicune 33.0257 1 1.38911e+09
