Visual@forums 8.67195 26 1.43017e+09
Tabasco@vertrex.org/Public 8.72083 3 1.42978e+09
KidBlast@forums 8.8404 4 1.42976e+09
re\:phoenix 8.84884 10 1.42978e+09
jimmaaa@forums 9.01122 1 1.42893e+09
Synergy@aagid 9.18075 5 1.42845e+09
nisargisgod@forums 9.30626 2 1.42947e+09
momo 9.3283 7 1.42975e+09
Dage@forums 9.49421 2 1.42928e+09
R0b0@vertrex.org/Diplomat 9.83324 4 1.43017e+09
KidBlast@vertrex.org/Friend 10.1922 1 1.42878e+09
bloodytag 10.22 2 1.42965e+09
space_bar 10.7651 2 1.42954e+09
i_am_a_nub 10.9179 1 1.42976e+09
xradd 11.1004 3 1.42975e+09
blackiechan 11.3349 2 1.42928e+09
sisam42 11.5701 1 1.42965e+09
glaceoners 12.4839 1 1.42965e+09
zapaderp 15.0075 1 1.43017e+09
pops 16.0565 1 1.42954e+09
apple|_brennan 17.9522 1 1.43017e+09