Visual@forums 30.7345 4 1.43002e+09
re\:phoenix 31.2699 12 1.43048e+009
StyX@vertrex.org/Officer 31.8515 2 1.42998e+09
R0b0@vertrex.org/Diplomat 32.5487 3 1.43026e+09
tm|cath 33.1338 1 1.42966e+09
cookie@ct/junior 33.5273 1 1.43017e+09
jimmaaa@forums 33.5798 2 1.42859e+09
Tabasco@vertrex.org/Public 33.7417 1 1.42998e+09
Synergy@aagid 36.797 1 1.42819e+09
sisam42 39.4143 1 1.42998e+09