<?xml version="1.0" encoding="UTF-8" standalone="no"?>
<svg xmlns="http://www.w3.org/2000/svg" viewBox="443,123,490,458" width="100%" height="100%">
  <defs>
    <marker id="spawn" markerWidth="30" markerHeight="40" refX="2" refY="15" orient="auto" viewBox="0 0 40 30">
      <path d="M -5,0 -5,20 -15,20 0,40 15,20 5,20 5,0 Z" fill="magenta" transform="translate(0,15) rotate(-90)"/>
    </marker>
  </defs>
  <polyline points="816,224 688,352 816,480" stroke="white" stroke-width="2" fill="none"/>
  <polyline points="736,368 864,368 864,464 896,496 848,544 800,544 656,400" stroke="white" stroke-width="2" fill="none"/>
  <polyline points="624,384 624,416 784,576 864,576 928,512 928,496 896,464 896,240 928,208 928,192 864,128 784,128 624,288 624,320" stroke="white" stroke-width="2" fill="none"/>
  <polyline points="768,336 864,240" stroke="white" stroke-width="2" fill="none"/>
  <polyline points="768,368 864,464" stroke="white" stroke-width="2" fill="none"/>
  <polyline points="496,224 608,336 608,368 496,480" stroke="white" stroke-width="2" fill="none"/>
  <polyline points="624,320 640,336 672,336 816,192 832,192 848,208 848,224 736,336 864,336 864,240" stroke="white" stroke-width="2" fill="none"/>
  <polyline points="736,368 848,480 848,496 832,512 816,512 672,368 640,368" stroke="white" stroke-width="2" fill="none"/>
  <polyline points="624,384 640,368" stroke="white" stroke-width="2" fill="none"/>
  <polyline points="624,400 496,528 464,496 464,480 560,384 448,384 448,320 544,320 544,304 464,224 464,208 496,176 624,304" stroke="white" stroke-width="2" fill="none"/>
  <polyline points="864,240 896,208 848,160 800,160 656,304" stroke="white" stroke-width="2" fill="none"/>
  <circle cx="544" cy="304" r="10" stroke="#3399ff" opacity="1" stroke-width="2" fill="none"/>
  <circle cx="560" cy="384" r="10" stroke="#3399ff" opacity="1" stroke-width="2" fill="none"/>
  <circle cx="544" cy="384" r="10" stroke="#3399ff" opacity="1" stroke-width="2" fill="none"/>
  <circle cx="528" cy="384" r="10" stroke="#3399ff" opacity="1" stroke-width="2" fill="none"/>
  <circle cx="512" cy="384" r="10" stroke="#3399ff" opacity="1" stroke-width="2" fill="none"/>
  <circle cx="496" cy="384" r="10" stroke="#3399ff" opacity="1" stroke-width="2" fill="none"/>
  <circle cx="480" cy="384" r="10" stroke="#3399ff" opacity="1" stroke-width="2" fill="none"/>
  <circle cx="464" cy="384" r="10" stroke="#3399ff" opacity="1" stroke-width="2" fill="none"/>
  <circle cx="448" cy="384" r="10" stroke="#3399ff" opacity="1" stroke-width="2" fill="none"/>
  <circle cx="448" cy="368" r="10" stroke="#3399ff" opacity="1" stroke-width="2" fill="none"/>
  <circle cx="448" cy="352" r="10" stroke="#3399ff" opacity="1" stroke-width="2" fill="none"/>
  <circle cx="448" cy="336" r="10" stroke="#3399ff" opacity="1" stroke-width="2" fill="none"/>
  <circle cx="448" cy="320" r="10" stroke="#3399ff" opacity="1" stroke-width="2" fill="none"/>
  <circle cx="464" cy="320" r="10" stroke="#3399ff" opacity="1" stroke-width="2" fill="none"/>
  <circle cx="480" cy="320" r="10" stroke="#3399ff" opacity="1" stroke-width="2" fill="none"/>
  <circle cx="512" cy="320" r="10" stroke="#3399ff" opacity="1" stroke-width="2" fill="none"/>
  <circle cx="496" cy="320" r="10" stroke="#3399ff" opacity="1" stroke-width="2" fill="none"/>
  <circle cx="528" cy="320" r="10" stroke="#3399ff" opacity="1" stroke-width="2" fill="none"/>
  <circle cx="544" cy="320" r="10" stroke="#3399ff" opacity="1" stroke-width="2" fill="none"/>
  <circle cx="592" cy="320" r="10" stroke="#3399ff" opacity="1" stroke-width="2" fill="none"/>
  <circle cx="608" cy="336" r="10" stroke="#3399ff" opacity="1" stroke-width="2" fill="none"/>
  <circle cx="608" cy="352" r="10" stroke="#3399ff" opacity="1" stroke-width="2" fill="none"/>
  <circle cx="608" cy="368" r="10" stroke="#3399ff" opacity="1" stroke-width="2" fill="none"/>
  <circle cx="592" cy="384" r="10" stroke="#3399ff" opacity="1" stroke-width="2" fill="none"/>
  <circle cx="576" cy="400" r="10" stroke="#3399ff" opacity="1" stroke-width="2" fill="none"/>
  <circle cx="576" cy="304" r="10" stroke="#3399ff" opacity="1" stroke-width="2" fill="none"/>
  <circle cx="560" cy="288" r="10" stroke="#3399ff" opacity="1" stroke-width="2" fill="none"/>
  <circle cx="528" cy="288" r="10" stroke="#3399ff" opacity="1" stroke-width="2" fill="none"/>
  <circle cx="512" cy="272" r="10" stroke="#3399ff" opacity="1" stroke-width="2" fill="none"/>
  <circle cx="544" cy="272" r="10" stroke="#3399ff" opacity="1" stroke-width="2" fill="none"/>
  <circle cx="528" cy="256" r="10" stroke="#3399ff" opacity="1" stroke-width="2" fill="none"/>
  <circle cx="496" cy="256" r="10" stroke="#3399ff" opacity="1" stroke-width="2" fill="none"/>
  <circle cx="512" cy="240" r="10" stroke="#3399ff" opacity="1" stroke-width="2" fill="none"/>
  <circle cx="480" cy="240" r="10" stroke="#3399ff" opacity="1" stroke-width="2" fill="none"/>
  <circle cx="496" cy="224" r="10" stroke="#3399ff" opacity="1" stroke-width="2" fill="none"/>
  <circle cx="464" cy="224" r="10" stroke="#3399ff" opacity="1" stroke-width="2" fill="none"/>
  <circle cx="464" cy="208" r="10" stroke="#3399ff" opacity="1" stroke-width="2" fill="none"/>
  <circle cx="480" cy="192" r="10" stroke="#3399ff" opacity="1" stroke-width="2" fill="none"/>
  <circle cx="512" cy="192" r="10" stroke="#3399ff" opacity="1" stroke-width="2" fill="none"/>
  <circle cx="528" cy="208" r="10" stroke="#3399ff" opacity="1" stroke-width="2" fill="none"/>
  <circle cx="544" cy="224" r="10" stroke="#3399ff" opacity="1" stroke-width="2" fill="none"/>
  <circle cx="560" cy="240" r="10" stroke="#3399ff" opacity="1" stroke-width="2" fill="none"/>
  <circle cx="576" cy="256" r="10" stroke="#3399ff" opacity="1" stroke-width="2" fill="none"/>
  <circle cx="592" cy="272" r="10" stroke="#3399ff" opacity="1" stroke-width="2" fill="none"/>
  <circle cx="560" cy="416" r="10" stroke="#3399ff" opacity="1" stroke-width="2" fill="none"/>
  <circle cx="544" cy="400" r="10" stroke="#3399ff" opacity="1" stroke-width="2" fill="none"/>
  <circle cx="528" cy="416" r="10" stroke="#3399ff" opacity="1" stroke-width="2" fill="none"/>
  <circle cx="544" cy="432" r="10" stroke="#3399ff" opacity="1" stroke-width="2" fill="none"/>
  <circle cx="512" cy="432" r="10" stroke="#3399ff" opacity="1" stroke-width="2" fill="none"/>
  <circle cx="528" cy="448" r="10" stroke="#3399ff" opacity="1" stroke-width="2" fill="none"/>
  <circle cx="496" cy="448" r="10" stroke="#3399ff" opacity="1" stroke-width="2" fill="none"/>
  <circle cx="512" cy="464" r="10" stroke="#3399ff" opacity="1" stroke-width="2" fill="none"/>
  <circle cx="480" cy="464" r="10" stroke="#3399ff" opacity="1" stroke-width="2" fill="none"/>
  <circle cx="464" cy="480" r="10" stroke="#3399ff" opacity="1" stroke-width="2" fill="none"/>
  <circle cx="464" cy="496" r="10" stroke="#3399ff" opacity="1" stroke-width="2" fill="none"/>
  <circle cx="480" cy="512" r="10" stroke="#3399ff" opacity="1" stroke-width="2" fill="none"/>
  <circle cx="496" cy="528" r="10" stroke="#3399ff" opacity="1" stroke-width="2" fill="none"/>
  <circle cx="512" cy="512" r="10" stroke="#3399ff" opacity="1" stroke-width="2" fill="none"/>
  <circle cx="496" cy="480" r="10" stroke="#3399ff" opacity="1" stroke-width="2" fill="none"/>
  <circle cx="544" cy="480" r="10" stroke="#3399ff" opacity="1" stroke-width="2" fill="none"/>
  <circle cx="560" cy="464" r="10" stroke="#3399ff" opacity="1" stroke-width="2" fill="none"/>
  <circle cx="576" cy="448" r="10" stroke="#3399ff" opacity="1" stroke-width="2" fill="none"/>
  <circle cx="592" cy="432" r="10" stroke="#3399ff" opacity="1" stroke-width="2" fill="none"/>
  <circle cx="608" cy="416" r="10" stroke="#3399ff" opacity="1" stroke-width="2" fill="none"/>
  <circle cx="640" cy="368" r="10" stroke="#3399ff" opacity="1" stroke-width="2" fill="none"/>
  <circle cx="608" cy="288" r="10" stroke="#3399ff" opacity="1" stroke-width="2" fill="none"/>
  <circle cx="640" cy="336" r="10" stroke="#3399ff" opacity="1" stroke-width="2" fill="none"/>
  <circle cx="656" cy="336" r="10" stroke="#3399ff" opacity="1" stroke-width="2" fill="none"/>
  <circle cx="672" cy="336" r="10" stroke="#3399ff" opacity="1" stroke-width="2" fill="none"/>
  <circle cx="656" cy="368" r="10" stroke="#3399ff" opacity="1" stroke-width="2" fill="none"/>
  <circle cx="672" cy="368" r="10" stroke="#3399ff" opacity="1" stroke-width="2" fill="none"/>
  <circle cx="688" cy="320" r="10" stroke="#3399ff" opacity="1" stroke-width="2" fill="none"/>
  <circle cx="704" cy="304" r="10" stroke="#3399ff" opacity="1" stroke-width="2" fill="none"/>
  <circle cx="720" cy="288" r="10" stroke="#3399ff" opacity="1" stroke-width="2" fill="none"/>
  <circle cx="736" cy="272" r="10" stroke="#3399ff" opacity="1" stroke-width="2" fill="none"/>
  <circle cx="752" cy="256" r="10" stroke="#3399ff" opacity="1" stroke-width="2" fill="none"/>
  <circle cx="768" cy="240" r="10" stroke="#3399ff" opacity="1" stroke-width="2" fill="none"/>
  <circle cx="784" cy="224" r="10" stroke="#3399ff" opacity="1" stroke-width="2" fill="none"/>
  <circle cx="800" cy="208" r="10" stroke="#3399ff" opacity="1" stroke-width="2" fill="none"/>
  <circle cx="816" cy="192" r="10" stroke="#3399ff" opacity="1" stroke-width="2" fill="none"/>
  <circle cx="832" cy="192" r="10" stroke="#3399ff" opacity="1" stroke-width="2" fill="none"/>
  <circle cx="848" cy="208" r="10" stroke="#3399ff" opacity="1" stroke-width="2" fill="none"/>
  <circle cx="848" cy="224" r="10" stroke="#3399ff" opacity="1" stroke-width="2" fill="none"/>
  <circle cx="832" cy="240" r="10" stroke="#3399ff" opacity="1" stroke-width="2" fill="none"/>
  <circle cx="816" cy="256" r="10" stroke="#3399ff" opacity="1" stroke-width="2" fill="none"/>
  <circle cx="800" cy="272" r="10" stroke="#3399ff" opacity="1" stroke-width="2" fill="none"/>
  <circle cx="688" cy="352" r="10" stroke="#3399ff" opacity="1" stroke-width="2" fill="none"/>
  <circle cx="688" cy="384" r="10" stroke="#3399ff" opacity="1" stroke-width="2" fill="none"/>
  <circle cx="816" cy="512" r="10" stroke="#3399ff" opacity="1" stroke-width="2" fill="none"/>
  <circle cx="800" cy="496" r="10" stroke="#3399ff" opacity="1" stroke-width="2" fill="none"/>
  <circle cx="784" cy="480" r="10" stroke="#3399ff" opacity="1" stroke-width="2" fill="none"/>
  <circle cx="768" cy="464" r="10" stroke="#3399ff" opacity="1" stroke-width="2" fill="none"/>
  <circle cx="752" cy="448" r="10" stroke="#3399ff" opacity="1" stroke-width="2" fill="none"/>
  <circle cx="736" cy="432" r="10" stroke="#3399ff" opacity="1" stroke-width="2" fill="none"/>
  <circle cx="720" cy="416" r="10" stroke="#3399ff" opacity="1" stroke-width="2" fill="none"/>
  <circle cx="704" cy="400" r="10" stroke="#3399ff" opacity="1" stroke-width="2" fill="none"/>
  <circle cx="832" cy="512" r="10" stroke="#3399ff" opacity="1" stroke-width="2" fill="none"/>
  <circle cx="848" cy="496" r="10" stroke="#3399ff" opacity="1" stroke-width="2" fill="none"/>
  <circle cx="848" cy="480" r="10" stroke="#3399ff" opacity="1" stroke-width="2" fill="none"/>
  <circle cx="832" cy="464" r="10" stroke="#3399ff" opacity="1" stroke-width="2" fill="none"/>
  <circle cx="816" cy="448" r="10" stroke="#3399ff" opacity="1" stroke-width="2" fill="none"/>
  <circle cx="800" cy="432" r="10" stroke="#3399ff" opacity="1" stroke-width="2" fill="none"/>
  <circle cx="784" cy="416" r="10" stroke="#3399ff" opacity="1" stroke-width="2" fill="none"/>
  <circle cx="768" cy="400" r="10" stroke="#3399ff" opacity="1" stroke-width="2" fill="none"/>
  <circle cx="752" cy="384" r="10" stroke="#3399ff" opacity="1" stroke-width="2" fill="none"/>
  <circle cx="736" cy="368" r="10" stroke="#3399ff" opacity="1" stroke-width="2" fill="none"/>
  <circle cx="736" cy="336" r="10" stroke="#3399ff" opacity="1" stroke-width="2" fill="none"/>
  <circle cx="752" cy="320" r="10" stroke="#3399ff" opacity="1" stroke-width="2" fill="none"/>
  <circle cx="768" cy="304" r="10" stroke="#3399ff" opacity="1" stroke-width="2" fill="none"/>
  <circle cx="784" cy="288" r="10" stroke="#3399ff" opacity="1" stroke-width="2" fill="none"/>
  <circle cx="752" cy="336" r="10" stroke="#3399ff" opacity="1" stroke-width="2" fill="none"/>
  <circle cx="752" cy="368" r="10" stroke="#3399ff" opacity="1" stroke-width="2" fill="none"/>
  <circle cx="768" cy="368" r="10" stroke="#3399ff" opacity="1" stroke-width="2" fill="none"/>
  <circle cx="784" cy="368" r="10" stroke="#3399ff" opacity="1" stroke-width="2" fill="none"/>
  <circle cx="768" cy="384" r="10" stroke="#33ff33" opacity="1" stroke-width="2" fill="none"/>
  <circle cx="768" cy="320" r="10" stroke="#33ff33" opacity="1" stroke-width="2" fill="none"/>
  <circle cx="768" cy="336" r="10" stroke="#3399ff" opacity="1" stroke-width="2" fill="none"/>
  <circle cx="784" cy="336" r="10" stroke="#3399ff" opacity="1" stroke-width="2" fill="none"/>
  <circle cx="800" cy="336" r="10" stroke="#3399ff" opacity="1" stroke-width="2" fill="none"/>
  <circle cx="816" cy="336" r="10" stroke="#3399ff" opacity="1" stroke-width="2" fill="none"/>
  <circle cx="832" cy="336" r="10" stroke="#3399ff" opacity="1" stroke-width="2" fill="none"/>
  <circle cx="848" cy="336" r="10" stroke="#3399ff" opacity="1" stroke-width="2" fill="none"/>
  <circle cx="864" cy="336" r="10" stroke="#3399ff" opacity="1" stroke-width="2" fill="none"/>
  <circle cx="800" cy="368" r="10" stroke="#3399ff" opacity="1" stroke-width="2" fill="none"/>
  <circle cx="816" cy="368" r="10" stroke="#3399ff" opacity="1" stroke-width="2" fill="none"/>
  <circle cx="832" cy="368" r="10" stroke="#3399ff" opacity="1" stroke-width="2" fill="none"/>
  <circle cx="848" cy="368" r="10" stroke="#3399ff" opacity="1" stroke-width="2" fill="none"/>
  <circle cx="864" cy="368" r="10" stroke="#3399ff" opacity="1" stroke-width="2" fill="none"/>
  <circle cx="896" cy="336" r="10" stroke="#3399ff" opacity="1" stroke-width="2" fill="none"/>
  <circle cx="896" cy="320" r="10" stroke="#3399ff" opacity="1" stroke-width="2" fill="none"/>
  <circle cx="896" cy="304" r="10" stroke="#3399ff" opacity="1" stroke-width="2" fill="none"/>
  <circle cx="896" cy="288" r="10" stroke="#3399ff" opacity="1" stroke-width="2" fill="none"/>
  <circle cx="896" cy="272" r="10" stroke="#3399ff" opacity="1" stroke-width="2" fill="none"/>
  <circle cx="896" cy="256" r="10" stroke="#3399ff" opacity="1" stroke-width="2" fill="none"/>
  <circle cx="896" cy="240" r="10" stroke="#3399ff" opacity="1" stroke-width="2" fill="none"/>
  <circle cx="880" cy="192" r="10" stroke="#3399ff" opacity="1" stroke-width="2" fill="none"/>
  <circle cx="864" cy="176" r="10" stroke="#3399ff" opacity="1" stroke-width="2" fill="none"/>
  <circle cx="848" cy="160" r="10" stroke="#3399ff" opacity="1" stroke-width="2" fill="none"/>
  <circle cx="864" cy="320" r="10" stroke="#3399ff" opacity="1" stroke-width="2" fill="none"/>
  <circle cx="864" cy="304" r="10" stroke="#3399ff" opacity="1" stroke-width="2" fill="none"/>
  <circle cx="864" cy="288" r="10" stroke="#3399ff" opacity="1" stroke-width="2" fill="none"/>
  <circle cx="864" cy="272" r="10" stroke="#3399ff" opacity="1" stroke-width="2" fill="none"/>
  <circle cx="864" cy="256" r="10" stroke="#3399ff" opacity="1" stroke-width="2" fill="none"/>
  <circle cx="864" cy="240" r="10" stroke="#3399ff" opacity="1" stroke-width="2" fill="none"/>
  <circle cx="848" cy="256" r="10" stroke="#3399ff" opacity="1" stroke-width="2" fill="none"/>
  <circle cx="832" cy="272" r="10" stroke="#3399ff" opacity="1" stroke-width="2" fill="none"/>
  <circle cx="816" cy="288" r="10" stroke="#3399ff" opacity="1" stroke-width="2" fill="none"/>
  <circle cx="800" cy="304" r="10" stroke="#3399ff" opacity="1" stroke-width="2" fill="none"/>
  <circle cx="784" cy="320" r="10" stroke="#3399ff" opacity="1" stroke-width="2" fill="none"/>
  <circle cx="784" cy="384" r="10" stroke="#3399ff" opacity="1" stroke-width="2" fill="none"/>
  <circle cx="800" cy="400" r="10" stroke="#3399ff" opacity="1" stroke-width="2" fill="none"/>
  <circle cx="816" cy="416" r="10" stroke="#3399ff" opacity="1" stroke-width="2" fill="none"/>
  <circle cx="832" cy="432" r="10" stroke="#3399ff" opacity="1" stroke-width="2" fill="none"/>
  <circle cx="848" cy="448" r="10" stroke="#3399ff" opacity="1" stroke-width="2" fill="none"/>
  <circle cx="864" cy="464" r="10" stroke="#3399ff" opacity="1" stroke-width="2" fill="none"/>
  <circle cx="864" cy="448" r="10" stroke="#3399ff" opacity="1" stroke-width="2" fill="none"/>
  <circle cx="864" cy="432" r="10" stroke="#3399ff" opacity="1" stroke-width="2" fill="none"/>
  <circle cx="864" cy="416" r="10" stroke="#3399ff" opacity="1" stroke-width="2" fill="none"/>
  <circle cx="864" cy="400" r="10" stroke="#3399ff" opacity="1" stroke-width="2" fill="none"/>
  <circle cx="864" cy="384" r="10" stroke="#3399ff" opacity="1" stroke-width="2" fill="none"/>
  <circle cx="880" cy="224" r="10" stroke="#3399ff" opacity="1" stroke-width="2" fill="none"/>
  <circle cx="896" cy="352" r="10" stroke="#3399ff" opacity="1" stroke-width="2" fill="none"/>
  <circle cx="896" cy="368" r="10" stroke="#3399ff" opacity="1" stroke-width="2" fill="none"/>
  <circle cx="896" cy="384" r="10" stroke="#3399ff" opacity="1" stroke-width="2" fill="none"/>
  <circle cx="896" cy="400" r="10" stroke="#3399ff" opacity="1" stroke-width="2" fill="none"/>
  <circle cx="896" cy="416" r="10" stroke="#3399ff" opacity="1" stroke-width="2" fill="none"/>
  <circle cx="896" cy="432" r="10" stroke="#3399ff" opacity="1" stroke-width="2" fill="none"/>
  <circle cx="896" cy="448" r="10" stroke="#3399ff" opacity="1" stroke-width="2" fill="none"/>
  <circle cx="896" cy="464" r="10" stroke="#3399ff" opacity="1" stroke-width="2" fill="none"/>
  <circle cx="896" cy="208" r="10" stroke="#3399ff" opacity="1" stroke-width="2" fill="none"/>
  <circle cx="912" cy="224" r="10" stroke="#3399ff" opacity="1" stroke-width="2" fill="none"/>
  <circle cx="928" cy="208" r="10" stroke="#3399ff" opacity="1" stroke-width="2" fill="none"/>
  <circle cx="928" cy="192" r="10" stroke="#3399ff" opacity="1" stroke-width="2" fill="none"/>
  <circle cx="912" cy="176" r="10" stroke="#3399ff" opacity="1" stroke-width="2" fill="none"/>
  <circle cx="896" cy="160" r="10" stroke="#3399ff" opacity="1" stroke-width="2" fill="none"/>
  <circle cx="880" cy="144" r="10" stroke="#3399ff" opacity="1" stroke-width="2" fill="none"/>
  <circle cx="864" cy="128" r="10" stroke="#3399ff" opacity="1" stroke-width="2" fill="none"/>
  <circle cx="848" cy="128" r="10" stroke="#3399ff" opacity="1" stroke-width="2" fill="none"/>
  <circle cx="832" cy="128" r="10" stroke="#3399ff" opacity="1" stroke-width="2" fill="none"/>
  <circle cx="832" cy="160" r="10" stroke="#3399ff" opacity="1" stroke-width="2" fill="none"/>
  <circle cx="816" cy="128" r="10" stroke="#3399ff" opacity="1" stroke-width="2" fill="none"/>
  <circle cx="816" cy="160" r="10" stroke="#3399ff" opacity="1" stroke-width="2" fill="none"/>
  <circle cx="800" cy="160" r="10" stroke="#3399ff" opacity="1" stroke-width="2" fill="none"/>
  <circle cx="784" cy="176" r="10" stroke="#3399ff" opacity="1" stroke-width="2" fill="none"/>
  <circle cx="768" cy="192" r="10" stroke="#3399ff" opacity="1" stroke-width="2" fill="none"/>
  <circle cx="752" cy="208" r="10" stroke="#3399ff" opacity="1" stroke-width="2" fill="none"/>
  <circle cx="736" cy="224" r="10" stroke="#3399ff" opacity="1" stroke-width="2" fill="none"/>
  <circle cx="720" cy="240" r="10" stroke="#3399ff" opacity="1" stroke-width="2" fill="none"/>
  <circle cx="704" cy="256" r="10" stroke="#3399ff" opacity="1" stroke-width="2" fill="none"/>
  <circle cx="688" cy="272" r="10" stroke="#3399ff" opacity="1" stroke-width="2" fill="none"/>
  <circle cx="672" cy="288" r="10" stroke="#3399ff" opacity="1" stroke-width="2" fill="none"/>
  <circle cx="656" cy="304" r="10" stroke="#3399ff" opacity="1" stroke-width="2" fill="none"/>
  <circle cx="624" cy="304" r="10" stroke="#3399ff" opacity="1" stroke-width="2" fill="none"/>
  <circle cx="640" cy="272" r="10" stroke="#3399ff" opacity="1" stroke-width="2" fill="none"/>
  <circle cx="656" cy="256" r="10" stroke="#3399ff" opacity="1" stroke-width="2" fill="none"/>
  <circle cx="672" cy="240" r="10" stroke="#3399ff" opacity="1" stroke-width="2" fill="none"/>
  <circle cx="688" cy="224" r="10" stroke="#3399ff" opacity="1" stroke-width="2" fill="none"/>
  <circle cx="704" cy="208" r="10" stroke="#3399ff" opacity="1" stroke-width="2" fill="none"/>
  <circle cx="720" cy="192" r="10" stroke="#3399ff" opacity="1" stroke-width="2" fill="none"/>
  <circle cx="736" cy="176" r="10" stroke="#3399ff" opacity="1" stroke-width="2" fill="none"/>
  <circle cx="752" cy="160" r="10" stroke="#3399ff" opacity="1" stroke-width="2" fill="none"/>
  <circle cx="768" cy="144" r="10" stroke="#3399ff" opacity="1" stroke-width="2" fill="none"/>
  <circle cx="784" cy="128" r="10" stroke="#3399ff" opacity="1" stroke-width="2" fill="none"/>
  <circle cx="800" cy="128" r="10" stroke="#3399ff" opacity="1" stroke-width="2" fill="none"/>
  <circle cx="656" cy="400" r="10" stroke="#3399ff" opacity="1" stroke-width="2" fill="none"/>
  <circle cx="672" cy="416" r="10" stroke="#3399ff" opacity="1" stroke-width="2" fill="none"/>
  <circle cx="688" cy="432" r="10" stroke="#3399ff" opacity="1" stroke-width="2" fill="none"/>
  <circle cx="704" cy="448" r="10" stroke="#3399ff" opacity="1" stroke-width="2" fill="none"/>
  <circle cx="720" cy="464" r="10" stroke="#3399ff" opacity="1" stroke-width="2" fill="none"/>
  <circle cx="736" cy="480" r="10" stroke="#3399ff" opacity="1" stroke-width="2" fill="none"/>
  <circle cx="752" cy="496" r="10" stroke="#3399ff" opacity="1" stroke-width="2" fill="none"/>
  <circle cx="768" cy="512" r="10" stroke="#3399ff" opacity="1" stroke-width="2" fill="none"/>
  <circle cx="784" cy="528" r="10" stroke="#3399ff" opacity="1" stroke-width="2" fill="none"/>
  <circle cx="800" cy="544" r="10" stroke="#3399ff" opacity="1" stroke-width="2" fill="none"/>
  <circle cx="816" cy="544" r="10" stroke="#3399ff" opacity="1" stroke-width="2" fill="none"/>
  <circle cx="832" cy="544" r="10" stroke="#3399ff" opacity="1" stroke-width="2" fill="none"/>
  <circle cx="848" cy="544" r="10" stroke="#3399ff" opacity="1" stroke-width="2" fill="none"/>
  <circle cx="864" cy="528" r="10" stroke="#3399ff" opacity="1" stroke-width="2" fill="none"/>
  <circle cx="880" cy="512" r="10" stroke="#3399ff" opacity="1" stroke-width="2" fill="none"/>
  <circle cx="880" cy="480" r="10" stroke="#3399ff" opacity="1" stroke-width="2" fill="none"/>
  <circle cx="896" cy="496" r="10" stroke="#3399ff" opacity="1" stroke-width="2" fill="none"/>
  <circle cx="912" cy="480" r="10" stroke="#3399ff" opacity="1" stroke-width="2" fill="none"/>
  <circle cx="928" cy="496" r="10" stroke="#3399ff" opacity="1" stroke-width="2" fill="none"/>
  <circle cx="928" cy="512" r="10" stroke="#3399ff" opacity="1" stroke-width="2" fill="none"/>
  <circle cx="912" cy="528" r="10" stroke="#3399ff" opacity="1" stroke-width="2" fill="none"/>
  <circle cx="896" cy="544" r="10" stroke="#3399ff" opacity="1" stroke-width="2" fill="none"/>
  <circle cx="880" cy="560" r="10" stroke="#3399ff" opacity="1" stroke-width="2" fill="none"/>
  <circle cx="864" cy="576" r="10" stroke="#3399ff" opacity="1" stroke-width="2" fill="none"/>
  <circle cx="848" cy="576" r="10" stroke="#3399ff" opacity="1" stroke-width="2" fill="none"/>
  <circle cx="832" cy="576" r="10" stroke="#3399ff" opacity="1" stroke-width="2" fill="none"/>
  <circle cx="816" cy="576" r="10" stroke="#3399ff" opacity="1" stroke-width="2" fill="none"/>
  <circle cx="800" cy="576" r="10" stroke="#3399ff" opacity="1" stroke-width="2" fill="none"/>
  <circle cx="784" cy="576" r="10" stroke="#3399ff" opacity="1" stroke-width="2" fill="none"/>
  <circle cx="768" cy="560" r="10" stroke="#3399ff" opacity="1" stroke-width="2" fill="none"/>
  <circle cx="752" cy="544" r="10" stroke="#3399ff" opacity="1" stroke-width="2" fill="none"/>
  <circle cx="736" cy="528" r="10" stroke="#3399ff" opacity="1" stroke-width="2" fill="none"/>
  <circle cx="720" cy="512" r="10" stroke="#3399ff" opacity="1" stroke-width="2" fill="none"/>
  <circle cx="704" cy="496" r="10" stroke="#3399ff" opacity="1" stroke-width="2" fill="none"/>
  <circle cx="688" cy="480" r="10" stroke="#3399ff" opacity="1" stroke-width="2" fill="none"/>
  <circle cx="672" cy="464" r="10" stroke="#3399ff" opacity="1" stroke-width="2" fill="none"/>
  <circle cx="656" cy="448" r="10" stroke="#3399ff" opacity="1" stroke-width="2" fill="none"/>
  <circle cx="640" cy="432" r="10" stroke="#3399ff" opacity="1" stroke-width="2" fill="none"/>
  <circle cx="624" cy="400" r="10" stroke="#3399ff" opacity="1" stroke-width="2" fill="none"/>
  <circle cx="496" cy="176" r="10" stroke="#3399ff" opacity="1" stroke-width="2" fill="none"/>
  <circle cx="528" cy="496" r="10" stroke="#3399ff" opacity="1" stroke-width="2" fill="none"/>
  <circle cx="624" cy="416" r="10" stroke="#3399ff" opacity="1" stroke-width="2" fill="none"/>
  <circle cx="624" cy="288" r="10" stroke="#3399ff" opacity="1" stroke-width="2" fill="none"/>
  <path marker-end="url(#spawn)" stroke-width="0.5" stroke="red" d="M 0 0 0 1" transform="translate(464,352) scale(1 -1) rotate(-90) matrix(1,0,0,1,0,0)" fill="none"/>
</svg>
