<?xml version="1.0" encoding="UTF-8" standalone="no"?>
<svg xmlns="http://www.w3.org/2000/svg" viewBox="1435,-125,586,2018" width="100%" height="100%">
  <defs>
    <marker id="spawn" markerWidth="30" markerHeight="40" refX="2" refY="15" orient="auto" viewBox="0 0 40 30">
      <path d="M -5,0 -5,20 -15,20 0,40 15,20 5,20 5,0 Z" fill="magenta" transform="translate(0,15) rotate(-90)"/>
    </marker>
  </defs>
  <polyline points="1712,1536 1712,1888" stroke="white" stroke-width="2" fill="none"/>
  <polyline points="1744,1536 1744,1888" stroke="white" stroke-width="2" fill="none"/>
  <polyline points="1632,1536 1824,1536" stroke="white" stroke-width="2" fill="none"/>
  <polyline points="1520,1536 1440,1536 1440,1888 2016,1888 2016,1536 1936,1536" stroke="white" stroke-width="2" fill="none"/>
  <polyline points="1824,1528 1824,1544 1840,1544 1840,1528 1824,1528" stroke="white" stroke-width="2" fill="none"/>
  <polyline points="1920,1528 1920,1544 1936,1544 1936,1528 1920,1528" stroke="white" stroke-width="2" fill="none"/>
  <polyline points="1616,1528 1616,1544 1632,1544 1632,1528 1616,1528" stroke="white" stroke-width="2" fill="none"/>
  <polyline points="1520,1528 1520,1544 1536,1544 1536,1528 1520,1528" stroke="white" stroke-width="2" fill="none"/>
  <polyline points="1832,1528 1744,1440" stroke="white" stroke-width="2" fill="none"/>
  <polyline points="1928,1528 1808,1408" stroke="white" stroke-width="2" fill="none"/>
  <polyline points="1528,1528 1648,1408" stroke="white" stroke-width="2" fill="none"/>
  <polyline points="1624,1528 1712,1440" stroke="white" stroke-width="2" fill="none"/>
  <polyline points="1808,1408 1760,1408" stroke="white" stroke-width="2" fill="none"/>
  <polyline points="1648,1408 1696,1408" stroke="white" stroke-width="2" fill="none"/>
  <polyline points="1712,1440 1744,1440" stroke="white" stroke-width="2" fill="none"/>
  <polyline points="1696,1400 1696,1416 1712,1416 1712,1400 1696,1400" stroke="white" stroke-width="2" fill="none"/>
  <polyline points="1744,1400 1744,1416 1760,1416 1760,1400 1744,1400" stroke="white" stroke-width="2" fill="none"/>
  <polyline points="1704,1400 1704,1048" stroke="white" stroke-width="2" fill="none"/>
  <polyline points="1752,1400 1752,1048" stroke="white" stroke-width="2" fill="none"/>
  <polyline points="1720,1128 1736,1128" stroke="white" stroke-width="2" fill="none"/>
  <polyline points="1720,1128 1720,1048" stroke="white" stroke-width="2" fill="none"/>
  <polyline points="1736,1128 1736,1048" stroke="white" stroke-width="2" fill="none"/>
  <polyline points="1720,1048 1624,952" stroke="white" stroke-width="2" fill="none"/>
  <polyline points="1612,956 1704,1048" stroke="white" stroke-width="2" fill="none"/>
  <polyline points="1828,956 1736,1048" stroke="white" stroke-width="2" fill="none"/>
  <polyline points="1752,1048 1840,960" stroke="white" stroke-width="2" fill="none"/>
  <polyline points="1624,952 1624,788" stroke="white" stroke-width="2" fill="none"/>
  <polyline points="1612,956 1612,784" stroke="white" stroke-width="2" fill="none"/>
  <polyline points="1828,956 1828,788" stroke="white" stroke-width="2" fill="none"/>
  <polyline points="1840,960 1840,784" stroke="white" stroke-width="2" fill="none"/>
  <polyline points="1840,784 1828,772" stroke="white" stroke-width="2" fill="none"/>
  <polyline points="1828,772 1808,772" stroke="white" stroke-width="2" fill="none"/>
  <polyline points="1828,788 1824,784 1812,784" stroke="white" stroke-width="2" fill="none"/>
  <polyline points="1808,772 1796,784" stroke="white" stroke-width="2" fill="none"/>
  <polyline points="1796,784 1796,972" stroke="white" stroke-width="2" fill="none"/>
  <polyline points="1812,784 1808,788 1808,976" stroke="white" stroke-width="2" fill="none"/>
  <polyline points="1624,788 1628,784 1640,784 1644,788 1644,972" stroke="white" stroke-width="2" fill="none"/>
  <polyline points="1612,784 1624,772 1644,772 1656,784 1656,968" stroke="white" stroke-width="2" fill="none"/>
  <polyline points="1656,968 1712,1024" stroke="white" stroke-width="2" fill="none"/>
  <polyline points="1720,1048 1736,1048" stroke="white" stroke-width="2" fill="none"/>
  <polyline points="1744,1024 1796,972" stroke="white" stroke-width="2" fill="none"/>
  <polyline points="1724,1048 1724,1040" stroke="white" stroke-width="2" fill="none"/>
  <polyline points="1732,1048 1732,1040" stroke="white" stroke-width="2" fill="none"/>
  <polyline points="1712,1024 1712,784" stroke="white" stroke-width="2" fill="none"/>
  <polyline points="1744,1024 1744,784" stroke="white" stroke-width="2" fill="none"/>
  <polyline points="1712,1040 1728,1024 1744,1040" stroke="white" stroke-width="2" fill="none"/>
  <polyline points="1712,1040 1744,1040" stroke="white" stroke-width="2" fill="none"/>
  <polyline points="1744,784 1796,784" stroke="white" stroke-width="2" fill="none"/>
  <polyline points="1712,784 1656,784" stroke="white" stroke-width="2" fill="none"/>
  <polyline points="1808,772 1808,272" stroke="white" stroke-width="2" fill="none"/>
  <polyline points="1644,772 1644,272" stroke="white" stroke-width="2" fill="none"/>
  <polyline points="1644,716 1672,696" stroke="white" stroke-width="2" fill="none"/>
  <polyline points="1672,688 1672,704 1688,704 1688,688 1672,688" stroke="white" stroke-width="2" fill="none"/>
  <polyline points="1656,576 1656,592 1672,592 1672,576 1656,576" stroke="white" stroke-width="2" fill="none"/>
  <polyline points="1780,604 1780,620 1796,620 1796,604 1780,604" stroke="white" stroke-width="2" fill="none"/>
  <polyline points="1644,272 1704,272" stroke="white" stroke-width="2" fill="none"/>
  <polyline points="1808,272 1752,272" stroke="white" stroke-width="2" fill="none"/>
  <polyline points="1704,504 1704,520 1720,520 1720,504 1704,504" stroke="white" stroke-width="2" fill="none"/>
  <polyline points="1744,484 1744,500 1760,500 1760,484 1744,484" stroke="white" stroke-width="2" fill="none"/>
  <polyline points="1720,512 1744,492" stroke="white" stroke-width="2" fill="none"/>
  <polyline points="1732,540 1732,556 1748,556 1748,540 1732,540" stroke="white" stroke-width="2" fill="none"/>
  <polyline points="1712,520 1732,548" stroke="white" stroke-width="2" fill="none"/>
  <polyline points="1780,424 1780,440 1796,440 1796,424 1780,424" stroke="white" stroke-width="2" fill="none"/>
  <polyline points="1796,432 1808,432" stroke="white" stroke-width="2" fill="none"/>
  <polyline points="1656,440 1656,456 1672,456 1672,440 1656,440" stroke="white" stroke-width="2" fill="none"/>
  <polyline points="1656,448 1644,448" stroke="white" stroke-width="2" fill="none"/>
  <polyline points="1704,380 1704,396 1720,396 1720,380 1704,380" stroke="white" stroke-width="2" fill="none"/>
  <polyline points="1728,364 1728,380 1744,380 1744,364 1728,364" stroke="white" stroke-width="2" fill="none"/>
  <polyline points="1720,388 1736,380" stroke="white" stroke-width="2" fill="none"/>
  <polyline points="1700,344 1700,360 1716,360 1716,344 1700,344" stroke="white" stroke-width="2" fill="none"/>
  <polyline points="1676,284 1676,300 1692,300 1692,284 1676,284" stroke="white" stroke-width="2" fill="none"/>
  <polyline points="1684,284 1684,272" stroke="white" stroke-width="2" fill="none"/>
  <polyline points="1708,360 1712,380" stroke="white" stroke-width="2" fill="none"/>
  <polyline points="1716,352 1736,364" stroke="white" stroke-width="2" fill="none"/>
  <polyline points="1780,312 1780,328 1796,328 1796,312 1780,312" stroke="white" stroke-width="2" fill="none"/>
  <polyline points="1796,320 1808,320" stroke="white" stroke-width="2" fill="none"/>
  <polyline points="1716,636 1716,652 1732,652 1732,636 1716,636" stroke="white" stroke-width="2" fill="none"/>
  <polyline points="1744,664 1744,680 1760,680 1760,664 1744,664" stroke="white" stroke-width="2" fill="none"/>
  <polyline points="1752,500 1740,540" stroke="white" stroke-width="2" fill="none"/>
  <polyline points="1796,612 1808,612" stroke="white" stroke-width="2" fill="none"/>
  <polyline points="1656,584 1644,584" stroke="white" stroke-width="2" fill="none"/>
  <polyline points="1732,652 1744,664" stroke="white" stroke-width="2" fill="none"/>
  <polyline points="1704,272 1704,212" stroke="white" stroke-width="2" fill="none"/>
  <polyline points="1752,272 1752,212" stroke="white" stroke-width="2" fill="none"/>
  <polyline points="1656,164 1704,212" stroke="white" stroke-width="2" fill="none"/>
  <polyline points="1800,164 1752,212" stroke="white" stroke-width="2" fill="none"/>
  <polyline points="1800,164 1800,84" stroke="white" stroke-width="2" fill="none"/>
  <polyline points="1656,164 1656,84" stroke="white" stroke-width="2" fill="none"/>
  <polyline points="1716,200 1740,200" stroke="white" stroke-width="2" fill="none"/>
  <polyline points="1784,156 1740,200" stroke="white" stroke-width="2" fill="none"/>
  <polyline points="1672,156 1716,200" stroke="white" stroke-width="2" fill="none"/>
  <polyline points="1672,156 1672,96" stroke="white" stroke-width="2" fill="none"/>
  <polyline points="1784,156 1784,96" stroke="white" stroke-width="2" fill="none"/>
  <polyline points="1800,84 1788,72" stroke="white" stroke-width="2" fill="none"/>
  <polyline points="1788,72 1772,72" stroke="white" stroke-width="2" fill="none"/>
  <polyline points="1772,72 1760,84" stroke="white" stroke-width="2" fill="none"/>
  <polyline points="1760,84 1760,156" stroke="white" stroke-width="2" fill="none"/>
  <polyline points="1760,156 1740,176" stroke="white" stroke-width="2" fill="none"/>
  <polyline points="1728,184 1740,196" stroke="white" stroke-width="2" fill="none"/>
  <polyline points="1716,196 1728,184" stroke="white" stroke-width="2" fill="none"/>
  <polyline points="1716,196 1716,200" stroke="white" stroke-width="2" fill="none"/>
  <polyline points="1740,196 1740,200" stroke="white" stroke-width="2" fill="none"/>
  <polyline points="1784,96 1776,96 1776,164" stroke="white" stroke-width="2" fill="none"/>
  <polyline points="1740,176 1740,12" stroke="white" stroke-width="2" fill="none"/>
  <polyline points="1656,84 1668,72 1684,72 1696,84 1696,156 1716,176 1716,12" stroke="white" stroke-width="2" fill="none"/>
  <polyline points="1672,96 1680,96 1680,164" stroke="white" stroke-width="2" fill="none"/>
  <polyline points="1716,-16 1740,-16" stroke="white" stroke-width="2" fill="none"/>
  <polyline points="1708,-20 1684,-44" stroke="white" stroke-width="2" fill="none"/>
  <polyline points="1680,-44 1680,-52 1688,-52 1688,-44 1680,-44" stroke="white" stroke-width="2" fill="none"/>
  <polyline points="1748,-20 1772,-44" stroke="white" stroke-width="2" fill="none"/>
  <polyline points="1768,-44 1768,-52 1776,-52 1776,-44 1768,-44" stroke="white" stroke-width="2" fill="none"/>
  <polyline points="1796,-44 1740,12" stroke="white" stroke-width="2" fill="none"/>
  <polyline points="1772,-52 1772,-72" stroke="white" stroke-width="2" fill="none"/>
  <polyline points="1776,-72 1768,-72 1768,-80 1776,-80 1776,-72" stroke="white" stroke-width="2" fill="none"/>
  <polyline points="1796,-44 1796,-80" stroke="white" stroke-width="2" fill="none"/>
  <polyline points="1716,12 1660,-44" stroke="white" stroke-width="2" fill="none"/>
  <polyline points="1684,-52 1684,-72" stroke="white" stroke-width="2" fill="none"/>
  <polyline points="1660,-44 1660,-80" stroke="white" stroke-width="2" fill="none"/>
  <polyline points="1688,-72 1680,-72 1680,-80 1688,-80 1688,-72" stroke="white" stroke-width="2" fill="none"/>
  <polyline points="1772,-80 1756,-96" stroke="white" stroke-width="2" fill="none"/>
  <polyline points="1756,-92 1756,-100 1748,-100 1748,-92 1756,-92" stroke="white" stroke-width="2" fill="none"/>
  <polyline points="1756,-120 1796,-80" stroke="white" stroke-width="2" fill="none"/>
  <polyline points="1660,-80 1700,-120" stroke="white" stroke-width="2" fill="none"/>
  <polyline points="1684,-80 1700,-96" stroke="white" stroke-width="2" fill="none"/>
  <polyline points="1700,-92 1700,-100 1708,-100 1708,-92 1700,-92" stroke="white" stroke-width="2" fill="none"/>
  <polyline points="1700,-120 1756,-120" stroke="white" stroke-width="2" fill="none"/>
  <polyline points="1708,-20 1708,-12 1716,-12 1716,-20 1708,-20" stroke="white" stroke-width="2" fill="none"/>
  <polyline points="1740,-20 1740,-12 1748,-12 1748,-20 1740,-20" stroke="white" stroke-width="2" fill="none"/>
  <circle cx="1832" cy="1536" r="32" stroke="#3399ff" opacity="1" stroke-width="2" fill="none"/>
  <circle cx="1928" cy="1536" r="32" stroke="#3399ff" opacity="1" stroke-width="2" fill="none"/>
  <circle cx="1624" cy="1536" r="32" stroke="#3399ff" opacity="1" stroke-width="2" fill="none"/>
  <circle cx="1528" cy="1536" r="32" stroke="#3399ff" opacity="1" stroke-width="2" fill="none"/>
  <circle cx="1704" cy="1408" r="12" stroke="#3399ff" opacity="1" stroke-width="2" fill="none"/>
  <circle cx="1752" cy="1408" r="12" stroke="#3399ff" opacity="1" stroke-width="2" fill="none"/>
  <circle cx="1656" cy="1424" r="8" stroke="#3399ff" opacity="1" stroke-width="2" fill="none"/>
  <circle cx="1800" cy="1424" r="8" stroke="#3399ff" opacity="1" stroke-width="2" fill="none"/>
  <circle cx="1664" cy="1472" r="8" stroke="#3399ff" opacity="1" stroke-width="2" fill="none"/>
  <circle cx="1792" cy="1472" r="8" stroke="#3399ff" opacity="1" stroke-width="2" fill="none"/>
  <circle cx="1728" cy="1120" r="12" stroke="#3399ff" opacity="1" stroke-width="2" fill="none"/>
  <circle cx="1744" cy="784" r="6" stroke="#3399ff" opacity="1" stroke-width="2" fill="none"/>
  <circle cx="1712" cy="784" r="6" stroke="#3399ff" opacity="1" stroke-width="2" fill="none"/>
  <circle cx="1704" cy="1192" r="12" stroke="#3399ff" opacity="1" stroke-width="2" fill="none"/>
  <circle cx="1752" cy="1192" r="12" stroke="#3399ff" opacity="1" stroke-width="2" fill="none"/>
  <circle cx="1728" cy="1248" r="12" stroke="#3399ff" opacity="1" stroke-width="2" fill="none"/>
  <circle cx="1634" cy="784" r="8" stroke="#3399ff" opacity="1" stroke-width="2" fill="none"/>
  <circle cx="1818" cy="784" r="8" stroke="#3399ff" opacity="1" stroke-width="2" fill="none"/>
  <circle cx="1796" cy="972" r="8" stroke="#3399ff" opacity="1" stroke-width="2" fill="none"/>
  <circle cx="1656" cy="968" r="8" stroke="#3399ff" opacity="1" stroke-width="2" fill="none"/>
  <circle cx="1680" cy="696" r="20" stroke="#3399ff" opacity="1" stroke-width="2" fill="none"/>
  <circle cx="1724" cy="644" r="20" stroke="#3399ff" opacity="1" stroke-width="2" fill="none"/>
  <circle cx="1664" cy="584" r="20" stroke="#3399ff" opacity="1" stroke-width="2" fill="none"/>
  <circle cx="1712" cy="512" r="20" stroke="#3399ff" opacity="1" stroke-width="2" fill="none"/>
  <circle cx="1740" cy="548" r="20" stroke="#3399ff" opacity="1" stroke-width="2" fill="none"/>
  <circle cx="1788" cy="612" r="20" stroke="#3399ff" opacity="1" stroke-width="2" fill="none"/>
  <circle cx="1664" cy="448" r="20" stroke="#3399ff" opacity="1" stroke-width="2" fill="none"/>
  <circle cx="1752" cy="492" r="20" stroke="#3399ff" opacity="1" stroke-width="2" fill="none"/>
  <circle cx="1788" cy="432" r="20" stroke="#3399ff" opacity="1" stroke-width="2" fill="none"/>
  <circle cx="1736" cy="372" r="20" stroke="#3399ff" opacity="1" stroke-width="2" fill="none"/>
  <circle cx="1712" cy="388" r="20" stroke="#3399ff" opacity="1" stroke-width="2" fill="none"/>
  <circle cx="1684" cy="292" r="20" stroke="#3399ff" opacity="1" stroke-width="2" fill="none"/>
  <circle cx="1708" cy="352" r="20" stroke="#3399ff" opacity="1" stroke-width="2" fill="none"/>
  <circle cx="1788" cy="320" r="20" stroke="#3399ff" opacity="1" stroke-width="2" fill="none"/>
  <circle cx="1752" cy="672" r="20" stroke="#3399ff" opacity="1" stroke-width="2" fill="none"/>
  <circle cx="1716" cy="12" r="6" stroke="#3399ff" opacity="1" stroke-width="2" fill="none"/>
  <circle cx="1740" cy="12" r="6" stroke="#3399ff" opacity="1" stroke-width="2" fill="none"/>
  <circle cx="1728" cy="-56" r="30" stroke="#33ff33" opacity="1" stroke-width="2" fill="none"/>
  <circle cx="1676" cy="96" r="10" stroke="#3399ff" opacity="1" stroke-width="2" fill="none"/>
  <circle cx="1780" cy="96" r="10" stroke="#3399ff" opacity="1" stroke-width="2" fill="none"/>
  <path marker-end="url(#spawn)" stroke-width="0.5" stroke="red" d="M 0 0 0 1" transform="translate(1888,1856) scale(1 -1) rotate(-90) matrix(0,1,-1,0,0,0)" fill="none"/>
  <path marker-end="url(#spawn)" stroke-width="0.5" stroke="red" d="M 0 0 0 1" transform="translate(1568,1856) scale(1 -1) rotate(-90) matrix(0,1,-1,0,0,0)" fill="none"/>
</svg>
