<?xml version="1.0" encoding="UTF-8" standalone="no"?>
<svg xmlns="http://www.w3.org/2000/svg" viewBox="-197,91,586,426" width="100%" height="100%">
  <defs>
    <marker id="spawn" markerWidth="30" markerHeight="40" refX="2" refY="15" orient="auto" viewBox="0 0 40 30">
      <path d="M -5,0 -5,20 -15,20 0,40 15,20 5,20 5,0 Z" fill="magenta" transform="translate(0,15) rotate(-90)"/>
    </marker>
  </defs>
  <polyline points="160,384 160,512 64,512" stroke="white" stroke-width="2" fill="none"/>
  <polyline points="160,224 160,96 64,96" stroke="white" stroke-width="2" fill="none"/>
  <polyline points="64,512 64,464 112,464 112,368 64,320" stroke="white" stroke-width="2" fill="none"/>
  <polyline points="64,96 64,144 112,144 112,240 64,288" stroke="white" stroke-width="2" fill="none"/>
  <polyline points="64,288 -96,288 -128,256 -128,208 -192,208 -192,256 -144,304 -192,352 -192,400 -128,400 -128,352 -96,320 64,320" stroke="white" stroke-width="2" fill="none"/>
  <polyline points="-160,240 -160,256 -112,304 -160,352 -160,368" stroke="white" stroke-width="2" fill="none"/>
  <polyline points="160,224 192,256 320,256 320,224 336,208 368,208 384,224 384,272 352,304 384,336 384,384 368,400 336,400 320,384 320,352 192,352 160,384" stroke="white" stroke-width="2" fill="none"/>
  <polyline points="192,288 336,288 352,272 352,240" stroke="white" stroke-width="2" fill="none"/>
  <polyline points="192,320 336,320 352,336 352,368" stroke="white" stroke-width="2" fill="none"/>
  <polyline points="192,288 144,240 144,112 80,112 80,128 128,128 128,240 80,288" stroke="white" stroke-width="2" fill="none"/>
  <polyline points="192,320 144,368 144,496 80,496 80,480 128,480 128,368 80,320" stroke="white" stroke-width="2" fill="none"/>
  <polyline points="192,288 80,288" stroke="white" stroke-width="2" fill="none"/>
  <polyline points="80,320 192,320" stroke="white" stroke-width="2" fill="none"/>
  <circle cx="192" cy="320" r="10" stroke="#3399ff" opacity="1" stroke-width="2" fill="none"/>
  <circle cx="192" cy="304" r="6" stroke="#3399ff" opacity="1" stroke-width="2" fill="none"/>
  <circle cx="192" cy="288" r="10" stroke="#3399ff" opacity="1" stroke-width="2" fill="none"/>
  <circle cx="208" cy="288" r="10" stroke="#3399ff" opacity="1" stroke-width="2" fill="none"/>
  <circle cx="224" cy="288" r="10" stroke="#3399ff" opacity="1" stroke-width="2" fill="none"/>
  <circle cx="240" cy="288" r="10" stroke="#3399ff" opacity="1" stroke-width="2" fill="none"/>
  <circle cx="208" cy="320" r="10" stroke="#3399ff" opacity="1" stroke-width="2" fill="none"/>
  <circle cx="224" cy="320" r="10" stroke="#3399ff" opacity="1" stroke-width="2" fill="none"/>
  <circle cx="240" cy="320" r="10" stroke="#3399ff" opacity="1" stroke-width="2" fill="none"/>
  <circle cx="272" cy="320" r="10" stroke="#3399ff" opacity="1" stroke-width="2" fill="none"/>
  <circle cx="256" cy="320" r="10" stroke="#3399ff" opacity="1" stroke-width="2" fill="none"/>
  <circle cx="288" cy="320" r="10" stroke="#3399ff" opacity="1" stroke-width="2" fill="none"/>
  <circle cx="304" cy="320" r="10" stroke="#3399ff" opacity="1" stroke-width="2" fill="none"/>
  <circle cx="320" cy="320" r="10" stroke="#3399ff" opacity="1" stroke-width="2" fill="none"/>
  <circle cx="336" cy="320" r="10" stroke="#3399ff" opacity="1" stroke-width="2" fill="none"/>
  <circle cx="256" cy="288" r="10" stroke="#3399ff" opacity="1" stroke-width="2" fill="none"/>
  <circle cx="272" cy="288" r="10" stroke="#3399ff" opacity="1" stroke-width="2" fill="none"/>
  <circle cx="288" cy="288" r="10" stroke="#3399ff" opacity="1" stroke-width="2" fill="none"/>
  <circle cx="304" cy="288" r="10" stroke="#3399ff" opacity="1" stroke-width="2" fill="none"/>
  <circle cx="320" cy="288" r="10" stroke="#3399ff" opacity="1" stroke-width="2" fill="none"/>
  <circle cx="336" cy="288" r="10" stroke="#3399ff" opacity="1" stroke-width="2" fill="none"/>
  <circle cx="352" cy="272" r="10" stroke="#3399ff" opacity="1" stroke-width="2" fill="none"/>
  <circle cx="352" cy="336" r="10" stroke="#3399ff" opacity="1" stroke-width="2" fill="none"/>
  <circle cx="352" cy="352" r="10" stroke="#3399ff" opacity="1" stroke-width="2" fill="none"/>
  <circle cx="352" cy="256" r="10" stroke="#3399ff" opacity="1" stroke-width="2" fill="none"/>
  <circle cx="352" cy="304" r="10" stroke="#3399ff" opacity="1" stroke-width="2" fill="none"/>
  <circle cx="368" cy="288" r="10" stroke="#3399ff" opacity="1" stroke-width="2" fill="none"/>
  <circle cx="384" cy="272" r="10" stroke="#3399ff" opacity="1" stroke-width="2" fill="none"/>
  <circle cx="384" cy="256" r="10" stroke="#3399ff" opacity="1" stroke-width="2" fill="none"/>
  <circle cx="384" cy="240" r="10" stroke="#3399ff" opacity="1" stroke-width="2" fill="none"/>
  <circle cx="384" cy="224" r="10" stroke="#3399ff" opacity="1" stroke-width="2" fill="none"/>
  <circle cx="368" cy="208" r="10" stroke="#3399ff" opacity="1" stroke-width="2" fill="none"/>
  <circle cx="352" cy="208" r="10" stroke="#3399ff" opacity="1" stroke-width="2" fill="none"/>
  <circle cx="336" cy="208" r="10" stroke="#3399ff" opacity="1" stroke-width="2" fill="none"/>
  <circle cx="320" cy="224" r="10" stroke="#3399ff" opacity="1" stroke-width="2" fill="none"/>
  <circle cx="352" cy="240" r="10" stroke="#3399ff" opacity="1" stroke-width="2" fill="none"/>
  <circle cx="320" cy="240" r="10" stroke="#3399ff" opacity="1" stroke-width="2" fill="none"/>
  <circle cx="320" cy="256" r="10" stroke="#3399ff" opacity="1" stroke-width="2" fill="none"/>
  <circle cx="304" cy="256" r="10" stroke="#3399ff" opacity="1" stroke-width="2" fill="none"/>
  <circle cx="288" cy="256" r="10" stroke="#3399ff" opacity="1" stroke-width="2" fill="none"/>
  <circle cx="272" cy="256" r="10" stroke="#3399ff" opacity="1" stroke-width="2" fill="none"/>
  <circle cx="256" cy="256" r="10" stroke="#3399ff" opacity="1" stroke-width="2" fill="none"/>
  <circle cx="240" cy="256" r="10" stroke="#3399ff" opacity="1" stroke-width="2" fill="none"/>
  <circle cx="224" cy="256" r="10" stroke="#3399ff" opacity="1" stroke-width="2" fill="none"/>
  <circle cx="208" cy="256" r="10" stroke="#3399ff" opacity="1" stroke-width="2" fill="none"/>
  <circle cx="192" cy="256" r="10" stroke="#3399ff" opacity="1" stroke-width="2" fill="none"/>
  <circle cx="368" cy="320" r="10" stroke="#3399ff" opacity="1" stroke-width="2" fill="none"/>
  <circle cx="384" cy="336" r="10" stroke="#3399ff" opacity="1" stroke-width="2" fill="none"/>
  <circle cx="384" cy="352" r="10" stroke="#3399ff" opacity="1" stroke-width="2" fill="none"/>
  <circle cx="384" cy="368" r="10" stroke="#3399ff" opacity="1" stroke-width="2" fill="none"/>
  <circle cx="384" cy="384" r="10" stroke="#3399ff" opacity="1" stroke-width="2" fill="none"/>
  <circle cx="368" cy="400" r="10" stroke="#3399ff" opacity="1" stroke-width="2" fill="none"/>
  <circle cx="352" cy="400" r="10" stroke="#3399ff" opacity="1" stroke-width="2" fill="none"/>
  <circle cx="336" cy="400" r="10" stroke="#3399ff" opacity="1" stroke-width="2" fill="none"/>
  <circle cx="320" cy="384" r="10" stroke="#3399ff" opacity="1" stroke-width="2" fill="none"/>
  <circle cx="352" cy="368" r="10" stroke="#3399ff" opacity="1" stroke-width="2" fill="none"/>
  <circle cx="320" cy="368" r="10" stroke="#3399ff" opacity="1" stroke-width="2" fill="none"/>
  <circle cx="320" cy="352" r="10" stroke="#3399ff" opacity="1" stroke-width="2" fill="none"/>
  <circle cx="304" cy="352" r="10" stroke="#3399ff" opacity="1" stroke-width="2" fill="none"/>
  <circle cx="288" cy="352" r="10" stroke="#3399ff" opacity="1" stroke-width="2" fill="none"/>
  <circle cx="272" cy="352" r="10" stroke="#3399ff" opacity="1" stroke-width="2" fill="none"/>
  <circle cx="256" cy="352" r="10" stroke="#3399ff" opacity="1" stroke-width="2" fill="none"/>
  <circle cx="240" cy="352" r="10" stroke="#3399ff" opacity="1" stroke-width="2" fill="none"/>
  <circle cx="224" cy="352" r="10" stroke="#3399ff" opacity="1" stroke-width="2" fill="none"/>
  <circle cx="208" cy="352" r="10" stroke="#3399ff" opacity="1" stroke-width="2" fill="none"/>
  <circle cx="192" cy="352" r="10" stroke="#3399ff" opacity="1" stroke-width="2" fill="none"/>
  <circle cx="176" cy="368" r="10" stroke="#3399ff" opacity="1" stroke-width="2" fill="none"/>
  <circle cx="160" cy="384" r="10" stroke="#3399ff" opacity="1" stroke-width="2" fill="none"/>
  <circle cx="176" cy="240" r="10" stroke="#3399ff" opacity="1" stroke-width="2" fill="none"/>
  <circle cx="48" cy="288" r="10" stroke="#3399ff" opacity="1" stroke-width="2" fill="none"/>
  <circle cx="48" cy="320" r="10" stroke="#3399ff" opacity="1" stroke-width="2" fill="none"/>
  <circle cx="32" cy="288" r="10" stroke="#3399ff" opacity="1" stroke-width="2" fill="none"/>
  <circle cx="32" cy="320" r="10" stroke="#3399ff" opacity="1" stroke-width="2" fill="none"/>
  <circle cx="16" cy="288" r="10" stroke="#3399ff" opacity="1" stroke-width="2" fill="none"/>
  <circle cx="16" cy="320" r="10" stroke="#3399ff" opacity="1" stroke-width="2" fill="none"/>
  <circle cx="0" cy="320" r="10" stroke="#3399ff" opacity="1" stroke-width="2" fill="none"/>
  <circle cx="-16" cy="320" r="10" stroke="#3399ff" opacity="1" stroke-width="2" fill="none"/>
  <circle cx="-32" cy="320" r="10" stroke="#3399ff" opacity="1" stroke-width="2" fill="none"/>
  <circle cx="0" cy="288" r="10" stroke="#3399ff" opacity="1" stroke-width="2" fill="none"/>
  <circle cx="-16" cy="288" r="10" stroke="#3399ff" opacity="1" stroke-width="2" fill="none"/>
  <circle cx="-32" cy="288" r="10" stroke="#3399ff" opacity="1" stroke-width="2" fill="none"/>
  <circle cx="-48" cy="288" r="10" stroke="#3399ff" opacity="1" stroke-width="2" fill="none"/>
  <circle cx="-64" cy="288" r="10" stroke="#3399ff" opacity="1" stroke-width="2" fill="none"/>
  <circle cx="-80" cy="288" r="10" stroke="#3399ff" opacity="1" stroke-width="2" fill="none"/>
  <circle cx="-96" cy="288" r="10" stroke="#3399ff" opacity="1" stroke-width="2" fill="none"/>
  <circle cx="-48" cy="320" r="10" stroke="#3399ff" opacity="1" stroke-width="2" fill="none"/>
  <circle cx="-64" cy="320" r="10" stroke="#3399ff" opacity="1" stroke-width="2" fill="none"/>
  <circle cx="-80" cy="320" r="10" stroke="#3399ff" opacity="1" stroke-width="2" fill="none"/>
  <circle cx="-96" cy="320" r="10" stroke="#3399ff" opacity="1" stroke-width="2" fill="none"/>
  <circle cx="-112" cy="272" r="10" stroke="#3399ff" opacity="1" stroke-width="2" fill="none"/>
  <circle cx="-128" cy="256" r="10" stroke="#3399ff" opacity="1" stroke-width="2" fill="none"/>
  <circle cx="-128" cy="240" r="10" stroke="#3399ff" opacity="1" stroke-width="2" fill="none"/>
  <circle cx="-112" cy="304" r="10" stroke="#3399ff" opacity="1" stroke-width="2" fill="none"/>
  <circle cx="-128" cy="288" r="10" stroke="#3399ff" opacity="1" stroke-width="2" fill="none"/>
  <circle cx="-144" cy="272" r="10" stroke="#3399ff" opacity="1" stroke-width="2" fill="none"/>
  <circle cx="-160" cy="256" r="10" stroke="#3399ff" opacity="1" stroke-width="2" fill="none"/>
  <circle cx="-160" cy="240" r="10" stroke="#3399ff" opacity="1" stroke-width="2" fill="none"/>
  <circle cx="-128" cy="224" r="10" stroke="#3399ff" opacity="1" stroke-width="2" fill="none"/>
  <circle cx="-128" cy="208" r="10" stroke="#3399ff" opacity="1" stroke-width="2" fill="none"/>
  <circle cx="-144" cy="208" r="10" stroke="#3399ff" opacity="1" stroke-width="2" fill="none"/>
  <circle cx="-160" cy="208" r="10" stroke="#3399ff" opacity="1" stroke-width="2" fill="none"/>
  <circle cx="-176" cy="208" r="10" stroke="#3399ff" opacity="1" stroke-width="2" fill="none"/>
  <circle cx="-192" cy="208" r="10" stroke="#3399ff" opacity="1" stroke-width="2" fill="none"/>
  <circle cx="-192" cy="224" r="10" stroke="#3399ff" opacity="1" stroke-width="2" fill="none"/>
  <circle cx="-192" cy="240" r="10" stroke="#3399ff" opacity="1" stroke-width="2" fill="none"/>
  <circle cx="-192" cy="256" r="10" stroke="#3399ff" opacity="1" stroke-width="2" fill="none"/>
  <circle cx="-176" cy="272" r="10" stroke="#3399ff" opacity="1" stroke-width="2" fill="none"/>
  <circle cx="-160" cy="288" r="10" stroke="#3399ff" opacity="1" stroke-width="2" fill="none"/>
  <circle cx="-144" cy="304" r="10" stroke="#3399ff" opacity="1" stroke-width="2" fill="none"/>
  <circle cx="-112" cy="336" r="10" stroke="#3399ff" opacity="1" stroke-width="2" fill="none"/>
  <circle cx="-128" cy="352" r="10" stroke="#3399ff" opacity="1" stroke-width="2" fill="none"/>
  <circle cx="-128" cy="368" r="10" stroke="#3399ff" opacity="1" stroke-width="2" fill="none"/>
  <circle cx="-128" cy="384" r="10" stroke="#3399ff" opacity="1" stroke-width="2" fill="none"/>
  <circle cx="-128" cy="400" r="10" stroke="#3399ff" opacity="1" stroke-width="2" fill="none"/>
  <circle cx="-144" cy="400" r="10" stroke="#3399ff" opacity="1" stroke-width="2" fill="none"/>
  <circle cx="-160" cy="400" r="10" stroke="#3399ff" opacity="1" stroke-width="2" fill="none"/>
  <circle cx="-176" cy="400" r="10" stroke="#3399ff" opacity="1" stroke-width="2" fill="none"/>
  <circle cx="-192" cy="400" r="10" stroke="#3399ff" opacity="1" stroke-width="2" fill="none"/>
  <circle cx="-192" cy="384" r="10" stroke="#3399ff" opacity="1" stroke-width="2" fill="none"/>
  <circle cx="-192" cy="368" r="10" stroke="#3399ff" opacity="1" stroke-width="2" fill="none"/>
  <circle cx="-192" cy="352" r="10" stroke="#3399ff" opacity="1" stroke-width="2" fill="none"/>
  <circle cx="-176" cy="336" r="10" stroke="#3399ff" opacity="1" stroke-width="2" fill="none"/>
  <circle cx="-160" cy="320" r="10" stroke="#3399ff" opacity="1" stroke-width="2" fill="none"/>
  <circle cx="-128" cy="320" r="10" stroke="#3399ff" opacity="1" stroke-width="2" fill="none"/>
  <circle cx="-144" cy="336" r="10" stroke="#3399ff" opacity="1" stroke-width="2" fill="none"/>
  <circle cx="-160" cy="352" r="10" stroke="#3399ff" opacity="1" stroke-width="2" fill="none"/>
  <circle cx="-160" cy="368" r="10" stroke="#3399ff" opacity="1" stroke-width="2" fill="none"/>
  <circle cx="-128" cy="304" r="10" stroke="#33ff33" opacity="1" stroke-width="2" fill="none"/>
  <path marker-end="url(#spawn)" stroke-width="0.5" stroke="red" d="M 0 0 0 1" transform="translate(208,304) scale(1 -1) rotate(-90) matrix(1,0,0,1,0,0)" fill="none"/>
</svg>
