<?xml version="1.0" encoding="UTF-8" standalone="no"?>
<svg xmlns="http://www.w3.org/2000/svg" viewBox="3387,1947,650,746" width="100%" height="100%">
  <defs>
    <marker id="spawn" markerWidth="30" markerHeight="40" refX="2" refY="15" orient="auto" viewBox="0 0 40 30">
      <path d="M -5,0 -5,20 -15,20 0,40 15,20 5,20 5,0 Z" fill="magenta" transform="translate(0,15) rotate(-90)"/>
    </marker>
  </defs>
  <polyline points="3392,2560 3904,2560 3904,2496 3776,2496 3776,1984" stroke="white" stroke-width="2" fill="none"/>
  <polyline points="3392,2560 3392,2688 4032,2688 4032,1984" stroke="white" stroke-width="2" fill="none"/>
  <polyline points="4032,1984 4032,1952 3744,1952 3744,2080" stroke="white" stroke-width="2" fill="none"/>
  <polyline points="3776,2112 3744,2144" stroke="white" stroke-width="2" fill="none"/>
  <polyline points="3712,2112 3744,2080" stroke="white" stroke-width="2" fill="none"/>
  <polyline points="3680,2128 3728,2128 3728,2176" stroke="white" stroke-width="2" fill="none"/>
  <polyline points="3712,2112 3664,2112 3664,2160" stroke="white" stroke-width="2" fill="none"/>
  <polyline points="3680,2192 3744,2192 3744,2144" stroke="white" stroke-width="2" fill="none"/>
  <polyline points="3716,2136 3664,2188" stroke="white" stroke-width="2" fill="none"/>
  <polyline points="3680,2192 3668,2192 3720,2140" stroke="white" stroke-width="2" fill="none"/>
  <polyline points="3664,2160 3664,2184 3664,2188" stroke="white" stroke-width="2" fill="none"/>
  <polyline points="3664,2176 3648,2176 3648,2560" stroke="white" stroke-width="2" fill="none"/>
  <circle cx="3680" cy="2592" r="32" stroke="#3399ff" opacity="1" stroke-width="2" fill="none"/>
  <circle cx="3808" cy="2672" r="32" stroke="#3399ff" opacity="1" stroke-width="2" fill="none"/>
  <circle cx="3840" cy="2576" r="32" stroke="#3399ff" opacity="1" stroke-width="2" fill="none"/>
  <circle cx="3680" cy="2672" r="32" stroke="#3399ff" opacity="1" stroke-width="2" fill="none"/>
  <circle cx="3760" cy="2592" r="32" stroke="#3399ff" opacity="1" stroke-width="2" fill="none"/>
  <circle cx="3984" cy="2416" r="32" stroke="#3399ff" opacity="1" stroke-width="2" fill="none"/>
  <circle cx="3808" cy="2288" r="32" stroke="#3399ff" opacity="1" stroke-width="2" fill="none"/>
  <circle cx="3792" cy="2048" r="32" stroke="#3399ff" opacity="1" stroke-width="2" fill="none"/>
  <circle cx="4032" cy="2176" r="32" stroke="#3399ff" opacity="1" stroke-width="2" fill="none"/>
  <circle cx="3920" cy="2320" r="32" stroke="#3399ff" opacity="1" stroke-width="2" fill="none"/>
  <circle cx="3920" cy="2176" r="32" stroke="#3399ff" opacity="1" stroke-width="2" fill="none"/>
  <circle cx="4016" cy="2016" r="32" stroke="#3399ff" opacity="1" stroke-width="2" fill="none"/>
  <circle cx="3904" cy="2016" r="32" stroke="#3399ff" opacity="1" stroke-width="2" fill="none"/>
  <circle cx="3792" cy="2176" r="32" stroke="#3399ff" opacity="1" stroke-width="2" fill="none"/>
  <circle cx="3872" cy="2096" r="18" stroke="#3399ff" opacity="1" stroke-width="2" fill="none"/>
  <circle cx="3984" cy="2240" r="18" stroke="#3399ff" opacity="1" stroke-width="2" fill="none"/>
  <circle cx="3936" cy="2176" r="18" stroke="#3399ff" opacity="1" stroke-width="2" fill="none"/>
  <circle cx="3984" cy="2080" r="18" stroke="#3399ff" opacity="1" stroke-width="2" fill="none"/>
  <circle cx="3984" cy="2016" r="18" stroke="#3399ff" opacity="1" stroke-width="2" fill="none"/>
  <circle cx="3888" cy="2176" r="18" stroke="#3399ff" opacity="1" stroke-width="2" fill="none"/>
  <circle cx="3824" cy="2224" r="18" stroke="#3399ff" opacity="1" stroke-width="2" fill="none"/>
  <circle cx="3840" cy="2304" r="18" stroke="#3399ff" opacity="1" stroke-width="2" fill="none"/>
  <circle cx="3888" cy="2432" r="18" stroke="#3399ff" opacity="1" stroke-width="2" fill="none"/>
  <circle cx="3808" cy="2480" r="18" stroke="#3399ff" opacity="1" stroke-width="2" fill="none"/>
  <circle cx="3936" cy="2544" r="18" stroke="#3399ff" opacity="1" stroke-width="2" fill="none"/>
  <circle cx="3984" cy="2592" r="18" stroke="#3399ff" opacity="1" stroke-width="2" fill="none"/>
  <circle cx="3952" cy="2672" r="18" stroke="#3399ff" opacity="1" stroke-width="2" fill="none"/>
  <circle cx="3904" cy="2640" r="18" stroke="#3399ff" opacity="1" stroke-width="2" fill="none"/>
  <circle cx="3760" cy="2672" r="18" stroke="#3399ff" opacity="1" stroke-width="2" fill="none"/>
  <circle cx="3728" cy="2608" r="18" stroke="#3399ff" opacity="1" stroke-width="2" fill="none"/>
  <circle cx="3808" cy="2640" r="18" stroke="#3399ff" opacity="1" stroke-width="2" fill="none"/>
  <circle cx="3712" cy="2656" r="18" stroke="#3399ff" opacity="1" stroke-width="2" fill="none"/>
  <circle cx="3968" cy="2608" r="18" stroke="#3399ff" opacity="1" stroke-width="2" fill="none"/>
  <circle cx="4000" cy="2560" r="18" stroke="#3399ff" opacity="1" stroke-width="2" fill="none"/>
  <circle cx="4000" cy="2576" r="18" stroke="#3399ff" opacity="1" stroke-width="2" fill="none"/>
  <circle cx="3904" cy="2608" r="18" stroke="#3399ff" opacity="1" stroke-width="2" fill="none"/>
  <circle cx="3856" cy="2592" r="18" stroke="#3399ff" opacity="1" stroke-width="2" fill="none"/>
  <circle cx="3856" cy="2640" r="24" stroke="#3399ff" opacity="1" stroke-width="2" fill="none"/>
  <circle cx="3856" cy="2400" r="24" stroke="#3399ff" opacity="1" stroke-width="2" fill="none"/>
  <circle cx="4016" cy="2272" r="24" stroke="#3399ff" opacity="1" stroke-width="2" fill="none"/>
  <circle cx="3904" cy="2240" r="24" stroke="#3399ff" opacity="1" stroke-width="2" fill="none"/>
  <circle cx="3840" cy="2208" r="24" stroke="#3399ff" opacity="1" stroke-width="2" fill="none"/>
  <circle cx="3872" cy="2144" r="24" stroke="#3399ff" opacity="1" stroke-width="2" fill="none"/>
  <circle cx="3824" cy="2112" r="24" stroke="#3399ff" opacity="1" stroke-width="2" fill="none"/>
  <circle cx="3984" cy="2272" r="24" stroke="#3399ff" opacity="1" stroke-width="2" fill="none"/>
  <circle cx="3952" cy="2192" r="24" stroke="#3399ff" opacity="1" stroke-width="2" fill="none"/>
  <circle cx="3968" cy="2160" r="24" stroke="#3399ff" opacity="1" stroke-width="2" fill="none"/>
  <circle cx="3968" cy="2464" r="24" stroke="#3399ff" opacity="1" stroke-width="2" fill="none"/>
  <circle cx="3872" cy="2528" r="24" stroke="#00ff99" opacity="1" stroke-width="2" fill="none"/>
  <circle cx="3840" cy="2480" r="32" stroke="#3399ff" opacity="1" stroke-width="2" fill="none"/>
  <circle cx="3840" cy="2528" r="8" stroke="#3399ff" opacity="1" stroke-width="2" fill="none"/>
  <circle cx="3808" cy="2512" r="8" stroke="#3399ff" opacity="1" stroke-width="2" fill="none"/>
  <circle cx="3808" cy="2544" r="8" stroke="#3399ff" opacity="1" stroke-width="2" fill="none"/>
  <circle cx="3824" cy="2512" r="14" stroke="#3399ff" opacity="1" stroke-width="2" fill="none"/>
  <circle cx="3684" cy="2148" r="14" stroke="#3399ff" opacity="1" stroke-width="2" fill="none"/>
  <circle cx="3708" cy="2172" r="14" stroke="#3399ff" opacity="1" stroke-width="2" fill="none"/>
  <circle cx="3744" cy="2112" r="14" stroke="#3399ff" opacity="1" stroke-width="2" fill="none"/>
  <circle cx="3708" cy="2108" r="14" stroke="#3399ff" opacity="1" stroke-width="2" fill="none"/>
  <circle cx="3748" cy="2148" r="14" stroke="#3399ff" opacity="1" stroke-width="2" fill="none"/>
  <circle cx="3664" cy="2112" r="14" stroke="#3399ff" opacity="1" stroke-width="2" fill="none"/>
  <circle cx="3744" cy="2192" r="14" stroke="#3399ff" opacity="1" stroke-width="2" fill="none"/>
  <circle cx="3744" cy="2256" r="62" stroke="#3399ff" opacity="1" stroke-width="2" fill="none"/>
  <circle cx="3648" cy="2320" r="40" stroke="#3399ff" opacity="1" stroke-width="2" fill="none"/>
  <circle cx="3728" cy="2368" r="40" stroke="#3399ff" opacity="1" stroke-width="2" fill="none"/>
  <circle cx="3648" cy="2416" r="40" stroke="#3399ff" opacity="1" stroke-width="2" fill="none"/>
  <circle cx="3728" cy="2416" r="26" stroke="#3399ff" opacity="1" stroke-width="2" fill="none"/>
  <circle cx="3680" cy="2464" r="26" stroke="#3399ff" opacity="1" stroke-width="2" fill="none"/>
  <circle cx="3744" cy="2464" r="26" stroke="#3399ff" opacity="1" stroke-width="2" fill="none"/>
  <circle cx="3744" cy="2528" r="26" stroke="#3399ff" opacity="1" stroke-width="2" fill="none"/>
  <circle cx="3696" cy="2512" r="26" stroke="#3399ff" opacity="1" stroke-width="2" fill="none"/>
  <path marker-end="url(#spawn)" stroke-width="0.5" stroke="red" d="M 0 0 0 1" transform="translate(3440,2632) scale(1 -1) rotate(-90) matrix(1,0,0,1,0,0)" fill="none"/>
</svg>
