<?xml version="1.0" encoding="UTF-8" standalone="no"?>
<svg xmlns="http://www.w3.org/2000/svg" viewBox="-30,-2805,160,3010" width="100%" height="100%">
  <defs>
    <marker id="spawn" markerWidth="30" markerHeight="40" refX="2" refY="15" orient="auto" viewBox="0 0 40 30">
      <path d="M -5,0 -5,20 -15,20 0,40 15,20 5,20 5,0 Z" fill="magenta" transform="translate(0,15) rotate(-90)"/>
    </marker>
  </defs>
  <polyline points="10,120 10,60 15,60 20,65 20,80 15,85 10,85 20,120" stroke="white" stroke-width="2" fill="none"/>
  <polyline points="25,120 40,60 55,120 47.5,90 32.5,90" stroke="white" stroke-width="2" fill="none"/>
  <polyline points="75,65 70,60 65,60 60,65 60,115 65,120 70,120 75,115" stroke="white" stroke-width="2" fill="none"/>
  <polyline points="95,60 80,60 80,90 90,90 80,90 80,120 95,120" stroke="white" stroke-width="2" fill="none"/>
  <polyline points="50,-1125 55,-1120 55,-980 50,-975 45,-980 45,-1120 50,-1125" stroke="white" stroke-width="2" fill="none"/>
  <polyline points="0,200 100,200 100,-950 125,-975 125,-1125 75,-1175 75,-1325 100,-1350 100,-2800" stroke="white" stroke-width="2" fill="none"/>
  <polyline points="0,-2800 0,-1350 25,-1325 25,-1175 -25,-1125 -25,-975 0,-950 0,200" stroke="white" stroke-width="2" fill="none"/>
  <polyline points="76,-2286 86,-2276 96,-2286" stroke="white" stroke-width="2" fill="none"/>
  <polyline points="89,-2025 89,-2045 79,-2045 99,-2045" stroke="white" stroke-width="2" fill="none"/>
  <polyline points="9,-1326 19,-1336 29,-1326" stroke="white" stroke-width="2" fill="none"/>
  <polyline points="54,-2357 55,-2356 63,-2356 64,-2357 64,-2360 63,-2361 55,-2361 54,-2362 54,-2365 55,-2366 63,-2366 64,-2365" stroke="white" stroke-width="2" fill="none"/>
  <polyline points="98,-201 100,-203" stroke="white" stroke-width="2" fill="none"/>
  <polyline points="91,-152 91,-132" stroke="white" stroke-width="2" fill="none"/>
  <polyline points="26,-665 16,-685 6,-665" stroke="white" stroke-width="2" fill="none"/>
  <polyline points="71,-1454 70,-1455 70,-1463 71,-1464 74,-1464 75,-1463 75,-1455 76,-1454 79,-1454 80,-1455 80,-1463 79,-1464" stroke="white" stroke-width="2" fill="none"/>
  <polyline points="70,-1390 80,-1400 90,-1390" stroke="white" stroke-width="2" fill="none"/>
  <polyline points="3,-2435 0,-2432" stroke="white" stroke-width="2" fill="none"/>
  <polyline points="98,-1816 100,-1814" stroke="white" stroke-width="2" fill="none"/>
  <polyline points="14,-1635 14,-1615" stroke="white" stroke-width="2" fill="none"/>
  <polyline points="34,-2338 33,-2339 33,-2347 34,-2348 37,-2348 38,-2347 38,-2339 39,-2338 42,-2338 43,-2339 43,-2347 42,-2348" stroke="white" stroke-width="2" fill="none"/>
  <polyline points="3,-587 0,-584" stroke="white" stroke-width="2" fill="none"/>
  <polyline points="7,-2311 17,-2321 27,-2311" stroke="white" stroke-width="2" fill="none"/>
  <polyline points="50,-1579 50,-1619 40,-1609 60,-1609" stroke="white" stroke-width="2" fill="none"/>
  <polyline points="79,-2076 89,-2066 99,-2076" stroke="white" stroke-width="2" fill="none"/>
  <polyline points="70,-2062 69,-2063 69,-2071 70,-2072 73,-2072 74,-2071 74,-2063 75,-2062 78,-2062 79,-2063 79,-2071 78,-2072" stroke="white" stroke-width="2" fill="none"/>
  <polyline points="60,-1406 40,-1426" stroke="white" stroke-width="2" fill="none"/>
  <polyline points="3,-1495 0,-1498" stroke="white" stroke-width="2" fill="none"/>
  <polyline points="79,-1529 77,-1539 97,-1539 95,-1529" stroke="white" stroke-width="2" fill="none"/>
  <polyline points="46,-987 66,-1007 56,-997 66,-987 46,-1007" stroke="white" stroke-width="2" fill="none"/>
  <polyline points="82,-390 62,-410" stroke="white" stroke-width="2" fill="none"/>
  <polyline points="57,-617 77,-637 67,-627 77,-617 57,-637" stroke="white" stroke-width="2" fill="none"/>
  <polyline points="35,-1854 37,-1864 53,-1864 55,-1854" stroke="white" stroke-width="2" fill="none"/>
  <polyline points="50,-1741 30,-1761" stroke="white" stroke-width="2" fill="none"/>
  <polyline points="18,-1036 28,-1046 38,-1036" stroke="white" stroke-width="2" fill="none"/>
  <polyline points="86,-1494 90,-1494 84,-1496 92,-1496 82,-1498 94,-1498 80,-1500 80,-1500 96,-1500 78,-1502 98,-1502" stroke="white" stroke-width="2" fill="none"/>
  <polyline points="63,-946 73,-956 83,-946" stroke="white" stroke-width="2" fill="none"/>
  <polyline points="3,-1412 0,-1409" stroke="white" stroke-width="2" fill="none"/>
  <polyline points="65,-2155 45,-2175" stroke="white" stroke-width="2" fill="none"/>
  <polyline points="46,-2294 48,-2304 64,-2304 66,-2294" stroke="white" stroke-width="2" fill="none"/>
  <polyline points="82,-2417 82,-2437 72,-2437 92,-2437" stroke="white" stroke-width="2" fill="none"/>
  <polyline points="49,-1924 59,-1934 69,-1924" stroke="white" stroke-width="2" fill="none"/>
  <polyline points="46,-1503 46,-1523 36,-1523 56,-1523" stroke="white" stroke-width="2" fill="none"/>
  <polyline points="85,-2478 65,-2498" stroke="white" stroke-width="2" fill="none"/>
  <polyline points="98,-2183 100,-2181" stroke="white" stroke-width="2" fill="none"/>
  <polyline points="69,-1618 70,-1617 78,-1617 79,-1618 79,-1621 78,-1622 70,-1622 69,-1623 69,-1626 70,-1627 78,-1627 79,-1626" stroke="white" stroke-width="2" fill="none"/>
  <polyline points="37,-297 37,-317 27,-317 47,-317" stroke="white" stroke-width="2" fill="none"/>
  <polyline points="20,-2222 21,-2221 29,-2221 30,-2222 30,-2225 29,-2226 21,-2226 20,-2227 20,-2230 21,-2231 29,-2231 30,-2230" stroke="white" stroke-width="2" fill="none"/>
  <polyline points="3,-1285 3,-1305 -7,-1305 13,-1305" stroke="white" stroke-width="2" fill="none"/>
  <polyline points="69,-1776 68,-1777 68,-1785 69,-1786 72,-1786 73,-1785 73,-1777 74,-1776 77,-1776 78,-1777 78,-1785 77,-1786" stroke="white" stroke-width="2" fill="none"/>
  <polyline points="57,-2102 57,-2082" stroke="white" stroke-width="2" fill="none"/>
  <polyline points="40,-340 42,-350 58,-350 60,-340" stroke="white" stroke-width="2" fill="none"/>
  <polyline points="80,-843 85,-853 90,-843 95,-853 100,-843" stroke="white" stroke-width="2" fill="none"/>
  <polyline points="80,-725 70,-745 60,-725" stroke="white" stroke-width="2" fill="none"/>
  <polyline points="51,-542 61,-552 71,-542" stroke="white" stroke-width="2" fill="none"/>
  <polyline points="60,-593 80,-593" stroke="white" stroke-width="2" fill="none"/>
  <polyline points="70,-2337 80,-2327 90,-2337" stroke="white" stroke-width="2" fill="none"/>
  <polyline points="31,-497 51,-497 41,-497 31,-487 41,-497 51,-487" stroke="white" stroke-width="2" fill="none"/>
  <polyline points="98,-2414 100,-2412" stroke="white" stroke-width="2" fill="none"/>
  <polyline points="115,-1302 116,-1301 124,-1301 125,-1302 125,-1305 124,-1306 116,-1306 115,-1307 115,-1310 116,-1311 124,-1311 125,-1310" stroke="white" stroke-width="2" fill="none"/>
  <polyline points="16,-1381 36,-1381 26,-1381 16,-1371 26,-1381 36,-1371" stroke="white" stroke-width="2" fill="none"/>
  <polyline points="36,-934 26,-924 16,-934" stroke="white" stroke-width="2" fill="none"/>
  <polyline points="3,-237 0,-234" stroke="white" stroke-width="2" fill="none"/>
  <polyline points="39,-469 29,-449 39,-449 29,-469 39,-469" stroke="white" stroke-width="2" fill="none"/>
  <polyline points="18,-2424 38,-2424" stroke="white" stroke-width="2" fill="none"/>
  <polyline points="3,-414 0,-417" stroke="white" stroke-width="2" fill="none"/>
  <polyline points="60,-1464 40,-1484" stroke="white" stroke-width="2" fill="none"/>
  <polyline points="39,-178 44,-188 49,-178 54,-188 59,-178" stroke="white" stroke-width="2" fill="none"/>
  <polyline points="36,-1096 40,-1096 34,-1098 42,-1098 32,-1100 44,-1100 30,-1102 30,-1102 46,-1102 28,-1104 48,-1104" stroke="white" stroke-width="2" fill="none"/>
  <polyline points="60,-199 80,-219" stroke="white" stroke-width="2" fill="none"/>
  <polyline points="1,-2042 -1,-2052 19,-2052 17,-2042" stroke="white" stroke-width="2" fill="none"/>
  <polyline points="54,-1994 64,-2004 74,-1994" stroke="white" stroke-width="2" fill="none"/>
  <polyline points="9,-2459 29,-2459 19,-2459 9,-2449 19,-2459 29,-2449" stroke="white" stroke-width="2" fill="none"/>
  <polyline points="53,-767 52,-768 52,-776 53,-777 56,-777 57,-776 57,-768 58,-767 61,-767 62,-768 62,-776 61,-777" stroke="white" stroke-width="2" fill="none"/>
  <polyline points="24,-1998 28,-1998 22,-2000 30,-2000 20,-2002 32,-2002 18,-2004 18,-2004 34,-2004 16,-2006 36,-2006" stroke="white" stroke-width="2" fill="none"/>
  <polyline points="98,-1079 118,-1099" stroke="white" stroke-width="2" fill="none"/>
  <polyline points="84,-648 104,-668" stroke="white" stroke-width="2" fill="none"/>
  <polyline points="98,-393 100,-391" stroke="white" stroke-width="2" fill="none"/>
  <polyline points="59,-875 57,-885 77,-885 75,-875" stroke="white" stroke-width="2" fill="none"/>
  <polyline points="8,-1148 28,-1148" stroke="white" stroke-width="2" fill="none"/>
  <polyline points="98,-165 100,-167" stroke="white" stroke-width="2" fill="none"/>
  <polyline points="98,-547 100,-545" stroke="white" stroke-width="2" fill="none"/>
  <polyline points="38,-991 28,-971 38,-971 28,-991 38,-991" stroke="white" stroke-width="2" fill="none"/>
  <polyline points="12,-127 11,-128 11,-136 12,-137 15,-137 16,-136 16,-128 17,-127 20,-127 21,-128 21,-136 20,-137" stroke="white" stroke-width="2" fill="none"/>
  <polyline points="0,-624 20,-624" stroke="white" stroke-width="2" fill="none"/>
  <polyline points="41,-1811 42,-1810 50,-1810 51,-1811 51,-1814 50,-1815 42,-1815 41,-1816 41,-1819 42,-1820 50,-1820 51,-1819" stroke="white" stroke-width="2" fill="none"/>
  <polyline points="65,-1836 85,-1836 75,-1836 65,-1826 75,-1836 85,-1826" stroke="white" stroke-width="2" fill="none"/>
  <polyline points="79,-327 83,-327 77,-329 85,-329 75,-331 87,-331 73,-333 73,-333 89,-333 71,-335 91,-335" stroke="white" stroke-width="2" fill="none"/>
  <polyline points="24,-1200 25,-1199 33,-1199 34,-1200 34,-1203 33,-1204 25,-1204 24,-1205 24,-1208 25,-1209 33,-1209 34,-1208" stroke="white" stroke-width="2" fill="none"/>
  <polyline points="55,-1672 65,-1682 75,-1672" stroke="white" stroke-width="2" fill="none"/>
  <polyline points="3,-1553 0,-1550" stroke="white" stroke-width="2" fill="none"/>
  <polyline points="39,-1551 49,-1541 59,-1551" stroke="white" stroke-width="2" fill="none"/>
  <polyline points="91,-1881 91,-1861" stroke="white" stroke-width="2" fill="none"/>
  <polyline points="79,-713 69,-693 79,-693 69,-713 79,-713" stroke="white" stroke-width="2" fill="none"/>
  <polyline points="33,-1434 33,-1454 23,-1454 43,-1454" stroke="white" stroke-width="2" fill="none"/>
  <polyline points="54,-1082 74,-1082 64,-1082 54,-1072 64,-1082 74,-1072" stroke="white" stroke-width="2" fill="none"/>
  <polyline points="98,-1588 100,-1586" stroke="white" stroke-width="2" fill="none"/>
  <polyline points="116,-1034 106,-1024 96,-1034" stroke="white" stroke-width="2" fill="none"/>
  <polyline points="54,-417 52,-419 50,-417 52,-415 54,-417" stroke="white" stroke-width="2" fill="none"/>
  <polyline points="45,-2218 45,-2198" stroke="white" stroke-width="2" fill="none"/>
  <polyline points="15,-195 35,-215 25,-205 35,-195 15,-215" stroke="white" stroke-width="2" fill="none"/>
  <polyline points="61,-2385 59,-2395 79,-2395 77,-2385" stroke="white" stroke-width="2" fill="none"/>
  <polyline points="-25,-964 -20,-974 -15,-964 -10,-974 -5,-964" stroke="white" stroke-width="2" fill="none"/>
  <polyline points="98,-513 100,-511" stroke="white" stroke-width="2" fill="none"/>
  <polyline points="3,-605 0,-602" stroke="white" stroke-width="2" fill="none"/>
  <polyline points="67,-361 68,-360 76,-360 77,-361 77,-364 76,-365 68,-365 67,-366 67,-369 68,-370 76,-370 77,-369" stroke="white" stroke-width="2" fill="none"/>
  <polyline points="81,-1161 101,-1181 91,-1171 101,-1161 81,-1181" stroke="white" stroke-width="2" fill="none"/>
  <polyline points="81,-1912 101,-1912" stroke="white" stroke-width="2" fill="none"/>
  <polyline points="1,-1476 6,-1486 11,-1476 16,-1486 21,-1476" stroke="white" stroke-width="2" fill="none"/>
  <polyline points="-1,-1717 9,-1727 19,-1717" stroke="white" stroke-width="2" fill="none"/>
  <polyline points="20,-735 10,-715 20,-715 10,-735 20,-735" stroke="white" stroke-width="2" fill="none"/>
  <polyline points="50,-1318 52,-1328 68,-1328 70,-1318" stroke="white" stroke-width="2" fill="none"/>
  <polyline points="101,-1348 111,-1338 121,-1348" stroke="white" stroke-width="2" fill="none"/>
  <polyline points="101,-805 91,-785 101,-785 91,-805 101,-805" stroke="white" stroke-width="2" fill="none"/>
  <polyline points="19,-2360 19,-2400 9,-2390 29,-2390" stroke="white" stroke-width="2" fill="none"/>
  <polyline points="3,-852 0,-849" stroke="white" stroke-width="2" fill="none"/>
  <polyline points="26,-1235 26,-1275 16,-1265 36,-1265" stroke="white" stroke-width="2" fill="none"/>
  <polyline points="-3,-1196 -23,-1216" stroke="white" stroke-width="2" fill="none"/>
  <polyline points="98,-1458 100,-1456" stroke="white" stroke-width="2" fill="none"/>
  <polyline points="9,-1821 29,-1821 19,-1821 9,-1811 19,-1821 29,-1811" stroke="white" stroke-width="2" fill="none"/>
  <polyline points="84,-237 104,-237" stroke="white" stroke-width="2" fill="none"/>
  <polyline points="69,-261 74,-271 79,-261 84,-271 89,-261" stroke="white" stroke-width="2" fill="none"/>
  <polyline points="-10,-988 -10,-1028 -20,-1018 0,-1018" stroke="white" stroke-width="2" fill="none"/>
  <circle cx="50" cy="-2700" r="100" stroke="#00ff99" opacity="1" stroke-width="2" fill="none"/>
  <circle cx="71" cy="-1723" r="10" stroke="#3399ff" opacity="1" stroke-width="2" fill="none"/>
  <circle cx="58" cy="-1143" r="7" stroke="#3399ff" opacity="1" stroke-width="2" fill="none"/>
  <circle cx="73" cy="-442" r="5" stroke="#3399ff" opacity="1" stroke-width="2" fill="none"/>
  <circle cx="23" cy="-881" r="7" stroke="#3399ff" opacity="1" stroke-width="2" fill="none"/>
  <circle cx="6" cy="-791" r="20" stroke="#3399ff" opacity="1" stroke-width="2" fill="none"/>
  <circle cx="26" cy="-1666" r="10" stroke="#3399ff" opacity="1" stroke-width="2" fill="none"/>
  <circle cx="10" cy="-2254" r="5" stroke="#3399ff" opacity="1" stroke-width="2" fill="none"/>
  <circle cx="118" cy="-1196" r="7" stroke="#3399ff" opacity="1" stroke-width="2" fill="none"/>
  <circle cx="7" cy="-284" r="5" stroke="#3399ff" opacity="1" stroke-width="2" fill="none"/>
  <circle cx="76" cy="-1265" r="10" stroke="#3399ff" opacity="1" stroke-width="2" fill="none"/>
  <circle cx="36" cy="-2125" r="5" stroke="#3399ff" opacity="1" stroke-width="2" fill="none"/>
  <circle cx="14" cy="-2175" r="10" stroke="#3399ff" opacity="1" stroke-width="2" fill="none"/>
  <path marker-end="url(#spawn)" stroke-width="0.5" stroke="red" d="M 0 0 0 1" transform="translate(45,50) scale(1 -1) rotate(-90) rotate(90)" fill="none"/>
  <path marker-end="url(#spawn)" stroke-width="0.5" stroke="red" d="M 0 0 0 1" transform="translate(35,50) scale(1 -1) rotate(-90) rotate(90)" fill="none"/>
  <path marker-end="url(#spawn)" stroke-width="0.5" stroke="red" d="M 0 0 0 1" transform="translate(55,50) scale(1 -1) rotate(-90) rotate(90)" fill="none"/>
  <path marker-end="url(#spawn)" stroke-width="0.5" stroke="red" d="M 0 0 0 1" transform="translate(25,50) scale(1 -1) rotate(-90) rotate(90)" fill="none"/>
  <path marker-end="url(#spawn)" stroke-width="0.5" stroke="red" d="M 0 0 0 1" transform="translate(65,50) scale(1 -1) rotate(-90) rotate(90)" fill="none"/>
  <path marker-end="url(#spawn)" stroke-width="0.5" stroke="red" d="M 0 0 0 1" transform="translate(15,50) scale(1 -1) rotate(-90) rotate(90)" fill="none"/>
  <path marker-end="url(#spawn)" stroke-width="0.5" stroke="red" d="M 0 0 0 1" transform="translate(75,50) scale(1 -1) rotate(-90) rotate(90)" fill="none"/>
  <path marker-end="url(#spawn)" stroke-width="0.5" stroke="red" d="M 0 0 0 1" transform="translate(5,50) scale(1 -1) rotate(-90) rotate(90)" fill="none"/>
  <path marker-end="url(#spawn)" stroke-width="0.5" stroke="red" d="M 0 0 0 1" transform="translate(85,50) scale(1 -1) rotate(-90) rotate(90)" fill="none"/>
</svg>
