<?xml version="1.0" encoding="UTF-8" standalone="no"?>
<svg xmlns="http://www.w3.org/2000/svg" viewBox="-30,-2805,160,3010" width="100%" height="100%">
  <defs>
    <marker id="spawn" markerWidth="30" markerHeight="40" refX="2" refY="15" orient="auto" viewBox="0 0 40 30">
      <path d="M -5,0 -5,20 -15,20 0,40 15,20 5,20 5,0 Z" fill="magenta" transform="translate(0,15) rotate(-90)"/>
    </marker>
  </defs>
  <polyline points="10,120 10,60 15,60 20,65 20,80 15,85 10,85 20,120" stroke="white" stroke-width="2" fill="none"/>
  <polyline points="25,120 40,60 55,120 47.5,90 32.5,90" stroke="white" stroke-width="2" fill="none"/>
  <polyline points="75,65 70,60 65,60 60,65 60,115 65,120 70,120 75,115" stroke="white" stroke-width="2" fill="none"/>
  <polyline points="95,60 80,60 80,90 90,90 80,90 80,120 95,120" stroke="white" stroke-width="2" fill="none"/>
  <polyline points="50,-1125 55,-1120 55,-980 50,-975 45,-980 45,-1120 50,-1125" stroke="white" stroke-width="2" fill="none"/>
  <polyline points="0,200 100,200 100,-950 125,-975 125,-1125 75,-1175 75,-1325 100,-1350 100,-2800" stroke="white" stroke-width="2" fill="none"/>
  <polyline points="0,-2800 0,-1350 25,-1325 25,-1175 -25,-1125 -25,-975 0,-950 0,200" stroke="white" stroke-width="2" fill="none"/>
  <polyline points="58,-742 48,-762 38,-742" stroke="white" stroke-width="2" fill="none"/>
  <polyline points="3,-650 0,-653" stroke="white" stroke-width="2" fill="none"/>
  <polyline points="2,-512 22,-532" stroke="white" stroke-width="2" fill="none"/>
  <polyline points="25,-991 25,-1011 15,-1011 35,-1011" stroke="white" stroke-width="2" fill="none"/>
  <polyline points="38,-1440 58,-1440 48,-1440 38,-1430 48,-1440 58,-1430" stroke="white" stroke-width="2" fill="none"/>
  <polyline points="3,-813 0,-810" stroke="white" stroke-width="2" fill="none"/>
  <polyline points="38,-585 38,-625 28,-615 48,-615" stroke="white" stroke-width="2" fill="none"/>
  <polyline points="51,-2047 41,-2067 31,-2047" stroke="white" stroke-width="2" fill="none"/>
  <polyline points="90,-2208 91,-2207 99,-2207 100,-2208 100,-2211 99,-2212 91,-2212 90,-2213 90,-2216 91,-2217 99,-2217 100,-2216" stroke="white" stroke-width="2" fill="none"/>
  <polyline points="24,-170 44,-190 34,-180 44,-170 24,-190" stroke="white" stroke-width="2" fill="none"/>
  <polyline points="60,-306 64,-306 58,-308 66,-308 56,-310 68,-310 54,-312 54,-312 70,-312 52,-314 72,-314" stroke="white" stroke-width="2" fill="none"/>
  <polyline points="16,-1711 36,-1711 26,-1711 16,-1701 26,-1711 36,-1701" stroke="white" stroke-width="2" fill="none"/>
  <polyline points="78,-538 78,-578 68,-568 88,-568" stroke="white" stroke-width="2" fill="none"/>
  <polyline points="3,-1557 0,-1554" stroke="white" stroke-width="2" fill="none"/>
  <polyline points="86,-1528 87,-1527 95,-1527 96,-1528 96,-1531 95,-1532 87,-1532 86,-1533 86,-1536 87,-1537 95,-1537 96,-1536" stroke="white" stroke-width="2" fill="none"/>
  <polyline points="-22,-1267 -2,-1267 -12,-1267 -22,-1257 -12,-1267 -2,-1257" stroke="white" stroke-width="2" fill="none"/>
  <polyline points="97,-1963 87,-1983 77,-1963" stroke="white" stroke-width="2" fill="none"/>
  <polyline points="64,-2343 65,-2342 73,-2342 74,-2343 74,-2346 73,-2347 65,-2347 64,-2348 64,-2351 65,-2352 73,-2352 74,-2351" stroke="white" stroke-width="2" fill="none"/>
  <polyline points="49,-899 54,-909 59,-899 64,-909 69,-899" stroke="white" stroke-width="2" fill="none"/>
  <polyline points="30,-1039 30,-1059 20,-1059 40,-1059" stroke="white" stroke-width="2" fill="none"/>
  <polyline points="98,-960 108,-970 118,-960" stroke="white" stroke-width="2" fill="none"/>
  <polyline points="43,-484 63,-484 53,-484 43,-474 53,-484 63,-474" stroke="white" stroke-width="2" fill="none"/>
  <polyline points="-22,-1143 -21,-1142 -13,-1142 -12,-1143 -12,-1146 -13,-1147 -21,-1147 -22,-1148 -22,-1151 -21,-1152 -13,-1152 -12,-1151" stroke="white" stroke-width="2" fill="none"/>
  <polyline points="82,-2299 82,-2279" stroke="white" stroke-width="2" fill="none"/>
  <polyline points="98,-225 100,-227" stroke="white" stroke-width="2" fill="none"/>
  <polyline points="55,-1845 53,-1855 73,-1855 71,-1845" stroke="white" stroke-width="2" fill="none"/>
  <polyline points="91,-2347 92,-2346 100,-2346 101,-2347 101,-2350 100,-2351 92,-2351 91,-2352 91,-2355 92,-2356 100,-2356 101,-2355" stroke="white" stroke-width="2" fill="none"/>
  <polyline points="3,-2031 0,-2034" stroke="white" stroke-width="2" fill="none"/>
  <polyline points="76,-843 80,-843 74,-845 82,-845 72,-847 84,-847 70,-849 70,-849 86,-849 68,-851 88,-851" stroke="white" stroke-width="2" fill="none"/>
  <polyline points="3,-308 0,-311" stroke="white" stroke-width="2" fill="none"/>
  <polyline points="27,-1511 47,-1531 37,-1521 47,-1511 27,-1531" stroke="white" stroke-width="2" fill="none"/>
  <polyline points="10,-2400 15,-2410 20,-2400 25,-2410 30,-2400" stroke="white" stroke-width="2" fill="none"/>
  <polyline points="21,-1631 11,-1621 1,-1631" stroke="white" stroke-width="2" fill="none"/>
  <polyline points="30,-1776 40,-1786 50,-1776" stroke="white" stroke-width="2" fill="none"/>
  <polyline points="3,-2312 0,-2315" stroke="white" stroke-width="2" fill="none"/>
  <polyline points="93,-1415 73,-1435" stroke="white" stroke-width="2" fill="none"/>
  <polyline points="99,-1783 89,-1803 79,-1783" stroke="white" stroke-width="2" fill="none"/>
  <polyline points="38,-688 38,-708 28,-708 48,-708" stroke="white" stroke-width="2" fill="none"/>
  <polyline points="3,-346 0,-343" stroke="white" stroke-width="2" fill="none"/>
  <polyline points="3,-738 0,-735" stroke="white" stroke-width="2" fill="none"/>
  <polyline points="60,-1881 70,-1891 80,-1881" stroke="white" stroke-width="2" fill="none"/>
  <polyline points="14,-2327 34,-2327 24,-2327 14,-2317 24,-2327 34,-2317" stroke="white" stroke-width="2" fill="none"/>
  <polyline points="79,-316 78,-317 78,-325 79,-326 82,-326 83,-325 83,-317 84,-316 87,-316 88,-317 88,-325 87,-326" stroke="white" stroke-width="2" fill="none"/>
  <polyline points="105,-1326 107,-1336 123,-1336 125,-1326" stroke="white" stroke-width="2" fill="none"/>
  <polyline points="88,-2473 87,-2474 87,-2482 88,-2483 91,-2483 92,-2482 92,-2474 93,-2473 96,-2473 97,-2474 97,-2482 96,-2483" stroke="white" stroke-width="2" fill="none"/>
  <polyline points="80,-1742 100,-1742 90,-1742 80,-1732 90,-1742 100,-1732" stroke="white" stroke-width="2" fill="none"/>
  <polyline points="98,-635 100,-633" stroke="white" stroke-width="2" fill="none"/>
  <polyline points="61,-783 59,-793 79,-793 77,-783" stroke="white" stroke-width="2" fill="none"/>
  <polyline points="90,-1638 90,-1658 80,-1658 100,-1658" stroke="white" stroke-width="2" fill="none"/>
  <polyline points="56,-1726 54,-1728 52,-1726 54,-1724 56,-1726" stroke="white" stroke-width="2" fill="none"/>
  <polyline points="58,-1572 78,-1592" stroke="white" stroke-width="2" fill="none"/>
  <polyline points="98,-1413 100,-1411" stroke="white" stroke-width="2" fill="none"/>
  <polyline points="64,-2474 62,-2484 82,-2484 80,-2474" stroke="white" stroke-width="2" fill="none"/>
  <polyline points="-14,-970 6,-970" stroke="white" stroke-width="2" fill="none"/>
  <polyline points="16,-946 26,-956 36,-946" stroke="white" stroke-width="2" fill="none"/>
  <polyline points="55,-1644 55,-1684 45,-1674 65,-1674" stroke="white" stroke-width="2" fill="none"/>
  <polyline points="3,-906 0,-903" stroke="white" stroke-width="2" fill="none"/>
  <polyline points="46,-2220 51,-2230 56,-2220 61,-2230 66,-2220" stroke="white" stroke-width="2" fill="none"/>
  <polyline points="20,-1544 20,-1564 10,-1564 30,-1564" stroke="white" stroke-width="2" fill="none"/>
  <polyline points="33,-1591 31,-1601 51,-1601 49,-1591" stroke="white" stroke-width="2" fill="none"/>
  <polyline points="87,-1055 77,-1075 67,-1055" stroke="white" stroke-width="2" fill="none"/>
  <polyline points="45,-2493 35,-2483 25,-2493" stroke="white" stroke-width="2" fill="none"/>
  <polyline points="29,-2285 39,-2275 49,-2285" stroke="white" stroke-width="2" fill="none"/>
  <polyline points="55,-1279 45,-1259 55,-1259 45,-1279 55,-1279" stroke="white" stroke-width="2" fill="none"/>
  <polyline points="3,-1404 0,-1401" stroke="white" stroke-width="2" fill="none"/>
  <polyline points="2,-350 22,-370 12,-360 22,-350 2,-370" stroke="white" stroke-width="2" fill="none"/>
  <polyline points="60,-143 60,-123" stroke="white" stroke-width="2" fill="none"/>
  <polyline points="50,-447 48,-449 46,-447 48,-445 50,-447" stroke="white" stroke-width="2" fill="none"/>
  <polyline points="75,-101 76,-100 84,-100 85,-101 85,-104 84,-105 76,-105 75,-106 75,-109 76,-110 84,-110 85,-109" stroke="white" stroke-width="2" fill="none"/>
  <polyline points="77,-922 87,-912 97,-922" stroke="white" stroke-width="2" fill="none"/>
  <polyline points="84,-1277 74,-1297 64,-1277" stroke="white" stroke-width="2" fill="none"/>
  <polyline points="97,-1210 107,-1220 117,-1210" stroke="white" stroke-width="2" fill="none"/>
  <polyline points="58,-2448 48,-2428 58,-2428 48,-2448 58,-2448" stroke="white" stroke-width="2" fill="none"/>
  <polyline points="22,-784 20,-794 40,-794 38,-784" stroke="white" stroke-width="2" fill="none"/>
  <polyline points="5,-1216 5,-1196" stroke="white" stroke-width="2" fill="none"/>
  <polyline points="2,-2445 22,-2465 12,-2455 22,-2445 2,-2465" stroke="white" stroke-width="2" fill="none"/>
  <polyline points="68,-2101 68,-2081" stroke="white" stroke-width="2" fill="none"/>
  <polyline points="87,-2057 87,-2077 77,-2077 97,-2077" stroke="white" stroke-width="2" fill="none"/>
  <polyline points="72,-690 74,-700 90,-700 92,-690" stroke="white" stroke-width="2" fill="none"/>
  <polyline points="84,-2169 83,-2170 83,-2178 84,-2179 87,-2179 88,-2178 88,-2170 89,-2169 92,-2169 93,-2170 93,-2178 92,-2179" stroke="white" stroke-width="2" fill="none"/>
  <polyline points="39,-1321 41,-1331 57,-1331 59,-1321" stroke="white" stroke-width="2" fill="none"/>
  <polyline points="60,-2189 58,-2199 78,-2199 76,-2189" stroke="white" stroke-width="2" fill="none"/>
  <polyline points="52,-387 52,-367" stroke="white" stroke-width="2" fill="none"/>
  <polyline points="98,-2040 100,-2038" stroke="white" stroke-width="2" fill="none"/>
  <polyline points="61,-2378 81,-2398" stroke="white" stroke-width="2" fill="none"/>
  <polyline points="54,-1394 44,-1414 34,-1394" stroke="white" stroke-width="2" fill="none"/>
  <polyline points="28,-1730 48,-1750 38,-1740 48,-1730 28,-1750" stroke="white" stroke-width="2" fill="none"/>
  <circle cx="50" cy="-2700" r="100" stroke="#00ff99" opacity="1" stroke-width="2" fill="none"/>
  <circle cx="6" cy="-432" r="20" stroke="#3399ff" opacity="1" stroke-width="2" fill="none"/>
  <circle cx="117" cy="-1064" r="7" stroke="#3399ff" opacity="1" stroke-width="2" fill="none"/>
  <circle cx="12" cy="-1843" r="5" stroke="#3399ff" opacity="1" stroke-width="2" fill="none"/>
  <circle cx="17" cy="-1147" r="10" stroke="#3399ff" opacity="1" stroke-width="2" fill="none"/>
  <circle cx="29" cy="-266" r="20" stroke="#3399ff" opacity="1" stroke-width="2" fill="none"/>
  <circle cx="81" cy="-1153" r="20" stroke="#3399ff" opacity="1" stroke-width="2" fill="none"/>
  <circle cx="8" cy="-2225" r="5" stroke="#3399ff" opacity="1" stroke-width="2" fill="none"/>
  <circle cx="94" cy="-179" r="20" stroke="#3399ff" opacity="1" stroke-width="2" fill="none"/>
  <circle cx="88" cy="-2129" r="7" stroke="#3399ff" opacity="1" stroke-width="2" fill="none"/>
  <circle cx="81" cy="-356" r="7" stroke="#3399ff" opacity="1" stroke-width="2" fill="none"/>
  <circle cx="16" cy="-1969" r="20" stroke="#3399ff" opacity="1" stroke-width="2" fill="none"/>
  <circle cx="90" cy="-1024" r="10" stroke="#3399ff" opacity="1" stroke-width="2" fill="none"/>
  <circle cx="96" cy="-1697" r="7" stroke="#3399ff" opacity="1" stroke-width="2" fill="none"/>
  <circle cx="21" cy="-1481" r="5" stroke="#3399ff" opacity="1" stroke-width="2" fill="none"/>
  <circle cx="38" cy="-2142" r="5" stroke="#3399ff" opacity="1" stroke-width="2" fill="none"/>
  <circle cx="-7" cy="-1344" r="5" stroke="#3399ff" opacity="1" stroke-width="2" fill="none"/>
  <path marker-end="url(#spawn)" stroke-width="0.5" stroke="red" d="M 0 0 0 1" transform="translate(45,50) scale(1 -1) rotate(-90) rotate(90)" fill="none"/>
  <path marker-end="url(#spawn)" stroke-width="0.5" stroke="red" d="M 0 0 0 1" transform="translate(35,50) scale(1 -1) rotate(-90) rotate(90)" fill="none"/>
  <path marker-end="url(#spawn)" stroke-width="0.5" stroke="red" d="M 0 0 0 1" transform="translate(55,50) scale(1 -1) rotate(-90) rotate(90)" fill="none"/>
  <path marker-end="url(#spawn)" stroke-width="0.5" stroke="red" d="M 0 0 0 1" transform="translate(25,50) scale(1 -1) rotate(-90) rotate(90)" fill="none"/>
  <path marker-end="url(#spawn)" stroke-width="0.5" stroke="red" d="M 0 0 0 1" transform="translate(65,50) scale(1 -1) rotate(-90) rotate(90)" fill="none"/>
  <path marker-end="url(#spawn)" stroke-width="0.5" stroke="red" d="M 0 0 0 1" transform="translate(15,50) scale(1 -1) rotate(-90) rotate(90)" fill="none"/>
  <path marker-end="url(#spawn)" stroke-width="0.5" stroke="red" d="M 0 0 0 1" transform="translate(75,50) scale(1 -1) rotate(-90) rotate(90)" fill="none"/>
  <path marker-end="url(#spawn)" stroke-width="0.5" stroke="red" d="M 0 0 0 1" transform="translate(5,50) scale(1 -1) rotate(-90) rotate(90)" fill="none"/>
  <path marker-end="url(#spawn)" stroke-width="0.5" stroke="red" d="M 0 0 0 1" transform="translate(85,50) scale(1 -1) rotate(-90) rotate(90)" fill="none"/>
</svg>
