<?xml version="1.0" encoding="UTF-8" standalone="no"?>
<svg xmlns="http://www.w3.org/2000/svg" viewBox="315,43,634,586" width="100%" height="100%">
  <defs>
    <marker id="spawn" markerWidth="30" markerHeight="40" refX="2" refY="15" orient="auto" viewBox="0 0 40 30">
      <path d="M -5,0 -5,20 -15,20 0,40 15,20 5,20 5,0 Z" fill="magenta" transform="translate(0,15) rotate(-90)"/>
    </marker>
  </defs>
  <polyline points="528,320 320,320 320,352 528,352 576,400 496,480 560,480 496,544" stroke="white" stroke-width="2" fill="none"/>
  <polyline points="528,320 576,272 496,192 560,192 496,128" stroke="white" stroke-width="2" fill="none"/>
  <polyline points="560,320 608,272 544,208 592,208 528,144 608,144" stroke="white" stroke-width="2" fill="none"/>
  <polyline points="496,128 592,128 672,48" stroke="white" stroke-width="2" fill="none"/>
  <polyline points="608,144 672,80" stroke="white" stroke-width="2" fill="none"/>
  <polyline points="560,352 608,400 544,464 592,464 528,528" stroke="white" stroke-width="2" fill="none"/>
  <polyline points="496,544 592,544 672,624" stroke="white" stroke-width="2" fill="none"/>
  <polyline points="528,528 608,528 672,592" stroke="white" stroke-width="2" fill="none"/>
  <polyline points="672,80 704,80 768,144 768,176 704,240" stroke="white" stroke-width="2" fill="none"/>
  <polyline points="672,48 704,48 800,144 800,176 736,240 736,288 752,304 928,304" stroke="white" stroke-width="2" fill="none"/>
  <polyline points="704,240 704,288 736,320 912,320" stroke="white" stroke-width="2" fill="none"/>
  <polyline points="672,592 704,592 768,528" stroke="white" stroke-width="2" fill="none"/>
  <polyline points="768,528 768,496 704,432" stroke="white" stroke-width="2" fill="none"/>
  <polyline points="672,624 704,624 800,528 800,496 736,432" stroke="white" stroke-width="2" fill="none"/>
  <polyline points="704,432 704,384 736,352" stroke="white" stroke-width="2" fill="none"/>
  <polyline points="736,352 912,352" stroke="white" stroke-width="2" fill="none"/>
  <polyline points="736,432 736,384 752,368 928,368" stroke="white" stroke-width="2" fill="none"/>
  <polyline points="928,368 944,352 944,320 928,304" stroke="white" stroke-width="2" fill="none"/>
  <polyline points="640,288 672,320 672,352 640,384" stroke="white" stroke-width="2" fill="none"/>
  <polyline points="640,288 640,240 672,208" stroke="white" stroke-width="2" fill="none"/>
  <polyline points="608,280 608,240 656,192 672,176 688,176 704,192 704,208 656,256 656,288 688,320 736,320" stroke="white" stroke-width="2" fill="none"/>
  <polyline points="736,352 688,352 656,384 656,416 704,464 704,480 688,496 672,496 608,432 608,392" stroke="white" stroke-width="2" fill="none"/>
  <polyline points="616,296 640,320 640,352 616,376" stroke="white" stroke-width="2" fill="none"/>
  <polyline points="640,384 640,432 672,464" stroke="white" stroke-width="2" fill="none"/>
  <polyline points="616,296 600,296" stroke="white" stroke-width="2" fill="none"/>
  <polyline points="616,376 600,376" stroke="white" stroke-width="2" fill="none"/>
  <circle cx="576" cy="320" r="16" stroke="#3399ff" opacity="1" stroke-width="2" fill="none"/>
  <circle cx="576" cy="352" r="16" stroke="#3399ff" opacity="1" stroke-width="2" fill="none"/>
  <circle cx="576" cy="336" r="16" stroke="#3399ff" opacity="1" stroke-width="2" fill="none"/>
  <circle cx="528" cy="320" r="10" stroke="#3399ff" opacity="1" stroke-width="2" fill="none"/>
  <circle cx="528" cy="352" r="10" stroke="#3399ff" opacity="1" stroke-width="2" fill="none"/>
  <circle cx="576" cy="272" r="10" stroke="#3399ff" opacity="1" stroke-width="2" fill="none"/>
  <circle cx="608" cy="272" r="10" stroke="#3399ff" opacity="1" stroke-width="2" fill="none"/>
  <circle cx="544" cy="208" r="10" stroke="#3399ff" opacity="1" stroke-width="2" fill="none"/>
  <circle cx="496" cy="192" r="10" stroke="#3399ff" opacity="1" stroke-width="2" fill="none"/>
  <circle cx="592" cy="208" r="10" stroke="#3399ff" opacity="1" stroke-width="2" fill="none"/>
  <circle cx="560" cy="192" r="10" stroke="#3399ff" opacity="1" stroke-width="2" fill="none"/>
  <circle cx="496" cy="128" r="10" stroke="#3399ff" opacity="1" stroke-width="2" fill="none"/>
  <circle cx="528" cy="144" r="10" stroke="#3399ff" opacity="1" stroke-width="2" fill="none"/>
  <circle cx="592" cy="128" r="10" stroke="#3399ff" opacity="1" stroke-width="2" fill="none"/>
  <circle cx="608" cy="144" r="10" stroke="#3399ff" opacity="1" stroke-width="2" fill="none"/>
  <circle cx="672" cy="80" r="10" stroke="#3399ff" opacity="1" stroke-width="2" fill="none"/>
  <circle cx="672" cy="48" r="10" stroke="#3399ff" opacity="1" stroke-width="2" fill="none"/>
  <circle cx="704" cy="48" r="10" stroke="#3399ff" opacity="1" stroke-width="2" fill="none"/>
  <circle cx="704" cy="80" r="10" stroke="#3399ff" opacity="1" stroke-width="2" fill="none"/>
  <circle cx="768" cy="144" r="10" stroke="#3399ff" opacity="1" stroke-width="2" fill="none"/>
  <circle cx="800" cy="144" r="10" stroke="#3399ff" opacity="1" stroke-width="2" fill="none"/>
  <circle cx="768" cy="176" r="10" stroke="#3399ff" opacity="1" stroke-width="2" fill="none"/>
  <circle cx="800" cy="176" r="10" stroke="#3399ff" opacity="1" stroke-width="2" fill="none"/>
  <circle cx="704" cy="240" r="10" stroke="#3399ff" opacity="1" stroke-width="2" fill="none"/>
  <circle cx="736" cy="240" r="10" stroke="#3399ff" opacity="1" stroke-width="2" fill="none"/>
  <circle cx="704" cy="288" r="10" stroke="#3399ff" opacity="1" stroke-width="2" fill="none"/>
  <circle cx="736" cy="288" r="10" stroke="#3399ff" opacity="1" stroke-width="2" fill="none"/>
  <circle cx="736" cy="320" r="10" stroke="#3399ff" opacity="1" stroke-width="2" fill="none"/>
  <circle cx="752" cy="304" r="10" stroke="#3399ff" opacity="1" stroke-width="2" fill="none"/>
  <circle cx="736" cy="352" r="10" stroke="#3399ff" opacity="1" stroke-width="2" fill="none"/>
  <circle cx="752" cy="368" r="10" stroke="#3399ff" opacity="1" stroke-width="2" fill="none"/>
  <circle cx="704" cy="384" r="10" stroke="#3399ff" opacity="1" stroke-width="2" fill="none"/>
  <circle cx="736" cy="384" r="10" stroke="#3399ff" opacity="1" stroke-width="2" fill="none"/>
  <circle cx="704" cy="432" r="10" stroke="#3399ff" opacity="1" stroke-width="2" fill="none"/>
  <circle cx="736" cy="432" r="10" stroke="#3399ff" opacity="1" stroke-width="2" fill="none"/>
  <circle cx="800" cy="496" r="10" stroke="#3399ff" opacity="1" stroke-width="2" fill="none"/>
  <circle cx="800" cy="528" r="10" stroke="#3399ff" opacity="1" stroke-width="2" fill="none"/>
  <circle cx="768" cy="528" r="10" stroke="#3399ff" opacity="1" stroke-width="2" fill="none"/>
  <circle cx="768" cy="496" r="10" stroke="#3399ff" opacity="1" stroke-width="2" fill="none"/>
  <circle cx="704" cy="592" r="10" stroke="#3399ff" opacity="1" stroke-width="2" fill="none"/>
  <circle cx="704" cy="624" r="10" stroke="#3399ff" opacity="1" stroke-width="2" fill="none"/>
  <circle cx="672" cy="624" r="10" stroke="#3399ff" opacity="1" stroke-width="2" fill="none"/>
  <circle cx="672" cy="592" r="10" stroke="#3399ff" opacity="1" stroke-width="2" fill="none"/>
  <circle cx="608" cy="528" r="10" stroke="#3399ff" opacity="1" stroke-width="2" fill="none"/>
  <circle cx="592" cy="544" r="10" stroke="#3399ff" opacity="1" stroke-width="2" fill="none"/>
  <circle cx="528" cy="528" r="10" stroke="#3399ff" opacity="1" stroke-width="2" fill="none"/>
  <circle cx="496" cy="544" r="10" stroke="#3399ff" opacity="1" stroke-width="2" fill="none"/>
  <circle cx="544" cy="464" r="10" stroke="#3399ff" opacity="1" stroke-width="2" fill="none"/>
  <circle cx="496" cy="480" r="10" stroke="#3399ff" opacity="1" stroke-width="2" fill="none"/>
  <circle cx="576" cy="400" r="10" stroke="#3399ff" opacity="1" stroke-width="2" fill="none"/>
  <circle cx="608" cy="400" r="10" stroke="#3399ff" opacity="1" stroke-width="2" fill="none"/>
  <circle cx="912" cy="320" r="10" stroke="#3399ff" opacity="1" stroke-width="2" fill="none"/>
  <circle cx="912" cy="352" r="10" stroke="#3399ff" opacity="1" stroke-width="2" fill="none"/>
  <circle cx="848" cy="336" r="10" stroke="#3399ff" opacity="1" stroke-width="2" fill="none"/>
  <circle cx="800" cy="352" r="10" stroke="#3399ff" opacity="1" stroke-width="2" fill="none"/>
  <circle cx="800" cy="320" r="10" stroke="#3399ff" opacity="1" stroke-width="2" fill="none"/>
  <circle cx="608" cy="336" r="10" stroke="#33ff33" opacity="1" stroke-width="2" fill="none"/>
  <circle cx="640" cy="320" r="7" stroke="#3399ff" opacity="1" stroke-width="2" fill="none"/>
  <circle cx="640" cy="336" r="7" stroke="#3399ff" opacity="1" stroke-width="2" fill="none"/>
  <circle cx="640" cy="352" r="7" stroke="#3399ff" opacity="1" stroke-width="2" fill="none"/>
  <circle cx="640" cy="288" r="7" stroke="#3399ff" opacity="1" stroke-width="2" fill="none"/>
  <circle cx="656" cy="304" r="7" stroke="#3399ff" opacity="1" stroke-width="2" fill="none"/>
  <circle cx="672" cy="320" r="7" stroke="#3399ff" opacity="1" stroke-width="2" fill="none"/>
  <circle cx="672" cy="336" r="7" stroke="#3399ff" opacity="1" stroke-width="2" fill="none"/>
  <circle cx="672" cy="352" r="7" stroke="#3399ff" opacity="1" stroke-width="2" fill="none"/>
  <circle cx="640" cy="384" r="7" stroke="#3399ff" opacity="1" stroke-width="2" fill="none"/>
  <circle cx="656" cy="368" r="7" stroke="#3399ff" opacity="1" stroke-width="2" fill="none"/>
  <circle cx="688" cy="192" r="10" stroke="#3399ff" opacity="1" stroke-width="2" fill="none"/>
  <circle cx="688" cy="480" r="10" stroke="#3399ff" opacity="1" stroke-width="2" fill="none"/>
  <circle cx="560" cy="480" r="10" stroke="#3399ff" opacity="1" stroke-width="2" fill="none"/>
  <path marker-end="url(#spawn)" stroke-width="0.5" stroke="red" d="M 0 0 0 1" transform="translate(336,336) scale(1 -1) rotate(-90) matrix(1,0,0,1,0,0)" fill="none"/>
</svg>
