<?xml version="1.0" encoding="UTF-8" standalone="no"?>
<svg xmlns="http://www.w3.org/2000/svg" viewBox="-30,-2805,167,3010" width="100%" height="100%">
  <defs>
    <marker id="spawn" markerWidth="30" markerHeight="40" refX="2" refY="15" orient="auto" viewBox="0 0 40 30">
      <path d="M -5,0 -5,20 -15,20 0,40 15,20 5,20 5,0 Z" fill="magenta" transform="translate(0,15) rotate(-90)"/>
    </marker>
  </defs>
  <polyline points="10,120 10,60 15,60 20,65 20,80 15,85 10,85 20,120" stroke="white" stroke-width="2" fill="none"/>
  <polyline points="25,120 40,60 55,120 47.5,90 32.5,90" stroke="white" stroke-width="2" fill="none"/>
  <polyline points="75,65 70,60 65,60 60,65 60,115 65,120 70,120 75,115" stroke="white" stroke-width="2" fill="none"/>
  <polyline points="95,60 80,60 80,90 90,90 80,90 80,120 95,120" stroke="white" stroke-width="2" fill="none"/>
  <polyline points="50,-1125 55,-1120 55,-980 50,-975 45,-980 45,-1120 50,-1125" stroke="white" stroke-width="2" fill="none"/>
  <polyline points="0,200 100,200 100,-950 125,-975 125,-1125 75,-1175 75,-1325 100,-1350 100,-2800" stroke="white" stroke-width="2" fill="none"/>
  <polyline points="0,-2800 0,-1350 25,-1325 25,-1175 -25,-1125 -25,-975 0,-950 0,200" stroke="white" stroke-width="2" fill="none"/>
  <polyline points="43,-306 42,-307 42,-315 43,-316 46,-316 47,-315 47,-307 48,-306 51,-306 52,-307 52,-315 51,-316" stroke="white" stroke-width="2" fill="none"/>
  <polyline points="32,-1409 52,-1409" stroke="white" stroke-width="2" fill="none"/>
  <polyline points="56,-262 60,-262 54,-264 62,-264 52,-266 64,-266 50,-268 50,-268 66,-268 48,-270 68,-270" stroke="white" stroke-width="2" fill="none"/>
  <polyline points="23,-814 24,-813 32,-813 33,-814 33,-817 32,-818 24,-818 23,-819 23,-822 24,-823 32,-823 33,-822" stroke="white" stroke-width="2" fill="none"/>
  <polyline points="15,-927 25,-917 35,-927" stroke="white" stroke-width="2" fill="none"/>
  <polyline points="18,-702 38,-702 28,-702 18,-692 28,-702 38,-692" stroke="white" stroke-width="2" fill="none"/>
  <polyline points="65,-1764 63,-1774 83,-1774 81,-1764" stroke="white" stroke-width="2" fill="none"/>
  <polyline points="3,-1733 0,-1730" stroke="white" stroke-width="2" fill="none"/>
  <polyline points="112,-1273 132,-1293" stroke="white" stroke-width="2" fill="none"/>
  <polyline points="59,-555 57,-565 77,-565 75,-555" stroke="white" stroke-width="2" fill="none"/>
  <polyline points="7,-2327 5,-2337 25,-2337 23,-2327" stroke="white" stroke-width="2" fill="none"/>
  <polyline points="-17,-1020 -17,-1000" stroke="white" stroke-width="2" fill="none"/>
  <polyline points="24,-765 4,-785" stroke="white" stroke-width="2" fill="none"/>
  <polyline points="2,-1520 7,-1530 12,-1520 17,-1530 22,-1520" stroke="white" stroke-width="2" fill="none"/>
  <polyline points="37,-2253 35,-2263 55,-2263 53,-2253" stroke="white" stroke-width="2" fill="none"/>
  <polyline points="3,-1583 0,-1580" stroke="white" stroke-width="2" fill="none"/>
  <polyline points="62,-2126 67,-2136 72,-2126 77,-2136 82,-2126" stroke="white" stroke-width="2" fill="none"/>
  <polyline points="10,-1891 30,-1891 20,-1891 10,-1881 20,-1891 30,-1881" stroke="white" stroke-width="2" fill="none"/>
  <polyline points="58,-1723 63,-1733 68,-1723 73,-1733 78,-1723" stroke="white" stroke-width="2" fill="none"/>
  <polyline points="63,-143 73,-133 83,-143" stroke="white" stroke-width="2" fill="none"/>
  <polyline points="24,-202 24,-182" stroke="white" stroke-width="2" fill="none"/>
  <polyline points="22,-643 32,-653 42,-643" stroke="white" stroke-width="2" fill="none"/>
  <polyline points="79,-1157 80,-1156 88,-1156 89,-1157 89,-1160 88,-1161 80,-1161 79,-1162 79,-1165 80,-1166 88,-1166 89,-1165" stroke="white" stroke-width="2" fill="none"/>
  <polyline points="84,-1467 84,-1487 74,-1487 94,-1487" stroke="white" stroke-width="2" fill="none"/>
  <polyline points="3,-156 0,-153" stroke="white" stroke-width="2" fill="none"/>
  <polyline points="27,-1790 47,-1790" stroke="white" stroke-width="2" fill="none"/>
  <polyline points="121,-1232 120,-1233 120,-1241 121,-1242 124,-1242 125,-1241 125,-1233 126,-1232 129,-1232 130,-1233 130,-1241 129,-1242" stroke="white" stroke-width="2" fill="none"/>
  <polyline points="-7,-1995 13,-1995" stroke="white" stroke-width="2" fill="none"/>
  <polyline points="42,-1549 32,-1569 22,-1549" stroke="white" stroke-width="2" fill="none"/>
  <polyline points="4,-2149 24,-2149 14,-2149 4,-2139 14,-2149 24,-2139" stroke="white" stroke-width="2" fill="none"/>
  <polyline points="3,-110 0,-113" stroke="white" stroke-width="2" fill="none"/>
  <polyline points="32,-2110 30,-2120 50,-2120 48,-2110" stroke="white" stroke-width="2" fill="none"/>
  <polyline points="17,-2422 37,-2422" stroke="white" stroke-width="2" fill="none"/>
  <polyline points="26,-2488 28,-2498 44,-2498 46,-2488" stroke="white" stroke-width="2" fill="none"/>
  <polyline points="4,-1126 8,-1126 2,-1128 10,-1128 0,-1130 12,-1130 -2,-1132 -2,-1132 14,-1132 -4,-1134 16,-1134" stroke="white" stroke-width="2" fill="none"/>
  <polyline points="85,-1508 89,-1508 83,-1510 91,-1510 81,-1512 93,-1512 79,-1514 79,-1514 95,-1514 77,-1516 97,-1516" stroke="white" stroke-width="2" fill="none"/>
  <polyline points="54,-699 56,-709 72,-709 74,-699" stroke="white" stroke-width="2" fill="none"/>
  <polyline points="84,-1710 104,-1710" stroke="white" stroke-width="2" fill="none"/>
  <polyline points="45,-472 50,-482 55,-472 60,-482 65,-472" stroke="white" stroke-width="2" fill="none"/>
  <polyline points="50,-1592 30,-1612" stroke="white" stroke-width="2" fill="none"/>
  <polyline points="-14,-1159 6,-1179 -4,-1169 6,-1159 -14,-1179" stroke="white" stroke-width="2" fill="none"/>
  <polyline points="67,-1831 77,-1841 87,-1831" stroke="white" stroke-width="2" fill="none"/>
  <polyline points="85,-1065 90,-1075 95,-1065 100,-1075 105,-1065" stroke="white" stroke-width="2" fill="none"/>
  <polyline points="3,-1937 0,-1940" stroke="white" stroke-width="2" fill="none"/>
  <polyline points="-3,-872 -4,-873 -4,-881 -3,-882 0,-882 1,-881 1,-873 2,-872 5,-872 6,-873 6,-881 5,-882" stroke="white" stroke-width="2" fill="none"/>
  <polyline points="104,-955 114,-945 124,-955" stroke="white" stroke-width="2" fill="none"/>
  <polyline points="36,-788 41,-798 46,-788 51,-798 56,-788" stroke="white" stroke-width="2" fill="none"/>
  <polyline points="27,-412 28,-411 36,-411 37,-412 37,-415 36,-416 28,-416 27,-417 27,-420 28,-421 36,-421 37,-420" stroke="white" stroke-width="2" fill="none"/>
  <polyline points="18,-218 38,-238 28,-228 38,-218 18,-238" stroke="white" stroke-width="2" fill="none"/>
  <polyline points="57,-2003 55,-2005 53,-2003 55,-2001 57,-2003" stroke="white" stroke-width="2" fill="none"/>
  <polyline points="39,-2343 59,-2363" stroke="white" stroke-width="2" fill="none"/>
  <polyline points="42,-1437 62,-1457" stroke="white" stroke-width="2" fill="none"/>
  <polyline points="23,-2216 23,-2236 13,-2236 33,-2236" stroke="white" stroke-width="2" fill="none"/>
  <polyline points="83,-753 83,-773 73,-773 93,-773" stroke="white" stroke-width="2" fill="none"/>
  <polyline points="123,-1002 113,-1022 103,-1002" stroke="white" stroke-width="2" fill="none"/>
  <polyline points="53,-990 54,-989 62,-989 63,-990 63,-993 62,-994 54,-994 53,-995 53,-998 54,-999 62,-999 63,-998" stroke="white" stroke-width="2" fill="none"/>
  <polyline points="54,-510 52,-512 50,-510 52,-508 54,-510" stroke="white" stroke-width="2" fill="none"/>
  <polyline points="50,-201 60,-191 70,-201" stroke="white" stroke-width="2" fill="none"/>
  <polyline points="3,-671 0,-674" stroke="white" stroke-width="2" fill="none"/>
  <polyline points="72,-817 72,-857 62,-847 82,-847" stroke="white" stroke-width="2" fill="none"/>
  <polyline points="69,-417 59,-397 69,-397 59,-417 69,-417" stroke="white" stroke-width="2" fill="none"/>
  <polyline points="81,-2157 91,-2147 101,-2157" stroke="white" stroke-width="2" fill="none"/>
  <polyline points="56,-2466 55,-2467 55,-2475 56,-2476 59,-2476 60,-2475 60,-2467 61,-2466 64,-2466 65,-2467 65,-2475 64,-2476" stroke="white" stroke-width="2" fill="none"/>
  <polyline points="99,-234 89,-254 79,-234" stroke="white" stroke-width="2" fill="none"/>
  <polyline points="21,-1729 21,-1709" stroke="white" stroke-width="2" fill="none"/>
  <polyline points="98,-1580 100,-1578" stroke="white" stroke-width="2" fill="none"/>
  <polyline points="27,-117 27,-157 17,-147 37,-147" stroke="white" stroke-width="2" fill="none"/>
  <polyline points="114,-1338 118,-1338 112,-1340 120,-1340 110,-1342 122,-1342 108,-1344 108,-1344 124,-1344 106,-1346 126,-1346" stroke="white" stroke-width="2" fill="none"/>
  <polyline points="39,-2157 37,-2159 35,-2157 37,-2155 39,-2157" stroke="white" stroke-width="2" fill="none"/>
  <polyline points="3,-1457 0,-1460" stroke="white" stroke-width="2" fill="none"/>
  <polyline points="81,-1119 71,-1139 61,-1119" stroke="white" stroke-width="2" fill="none"/>
  <polyline points="25,-1857 30,-1867 35,-1857 40,-1867 45,-1857" stroke="white" stroke-width="2" fill="none"/>
  <polyline points="98,-1789 100,-1787" stroke="white" stroke-width="2" fill="none"/>
  <polyline points="64,-1886 62,-1888 60,-1886 62,-1884 64,-1886" stroke="white" stroke-width="2" fill="none"/>
  <polyline points="3,-706 0,-709" stroke="white" stroke-width="2" fill="none"/>
  <polyline points="98,-455 100,-457" stroke="white" stroke-width="2" fill="none"/>
  <polyline points="45,-1919 43,-1929 63,-1929 61,-1919" stroke="white" stroke-width="2" fill="none"/>
  <circle cx="50" cy="-2700" r="100" stroke="#00ff99" opacity="1" stroke-width="2" fill="none"/>
  <circle cx="90" cy="-622" r="10" stroke="#3399ff" opacity="1" stroke-width="2" fill="none"/>
  <circle cx="95" cy="-1937" r="5" stroke="#3399ff" opacity="1" stroke-width="2" fill="none"/>
  <circle cx="54" cy="-1318" r="20" stroke="#3399ff" opacity="1" stroke-width="2" fill="none"/>
  <circle cx="62" cy="-2049" r="5" stroke="#3399ff" opacity="1" stroke-width="2" fill="none"/>
  <circle cx="96" cy="-2026" r="5" stroke="#3399ff" opacity="1" stroke-width="2" fill="none"/>
  <circle cx="53" cy="-1673" r="10" stroke="#3399ff" opacity="1" stroke-width="2" fill="none"/>
  <circle cx="1" cy="-570" r="5" stroke="#3399ff" opacity="1" stroke-width="2" fill="none"/>
  <circle cx="26" cy="-456" r="7" stroke="#3399ff" opacity="1" stroke-width="2" fill="none"/>
  <circle cx="9" cy="-2267" r="10" stroke="#3399ff" opacity="1" stroke-width="2" fill="none"/>
  <circle cx="43" cy="-1100" r="5" stroke="#3399ff" opacity="1" stroke-width="2" fill="none"/>
  <circle cx="82" cy="-1391" r="7" stroke="#3399ff" opacity="1" stroke-width="2" fill="none"/>
  <circle cx="23" cy="-1479" r="10" stroke="#3399ff" opacity="1" stroke-width="2" fill="none"/>
  <circle cx="100" cy="-1225" r="7" stroke="#3399ff" opacity="1" stroke-width="2" fill="none"/>
  <circle cx="95" cy="-341" r="20" stroke="#3399ff" opacity="1" stroke-width="2" fill="none"/>
  <circle cx="-22" cy="-1286" r="20" stroke="#3399ff" opacity="1" stroke-width="2" fill="none"/>
  <circle cx="100" cy="-2435" r="5" stroke="#3399ff" opacity="1" stroke-width="2" fill="none"/>
  <path marker-end="url(#spawn)" stroke-width="0.5" stroke="red" d="M 0 0 0 1" transform="translate(45,50) scale(1 -1) rotate(-90) rotate(90)" fill="none"/>
  <path marker-end="url(#spawn)" stroke-width="0.5" stroke="red" d="M 0 0 0 1" transform="translate(35,50) scale(1 -1) rotate(-90) rotate(90)" fill="none"/>
  <path marker-end="url(#spawn)" stroke-width="0.5" stroke="red" d="M 0 0 0 1" transform="translate(55,50) scale(1 -1) rotate(-90) rotate(90)" fill="none"/>
  <path marker-end="url(#spawn)" stroke-width="0.5" stroke="red" d="M 0 0 0 1" transform="translate(25,50) scale(1 -1) rotate(-90) rotate(90)" fill="none"/>
  <path marker-end="url(#spawn)" stroke-width="0.5" stroke="red" d="M 0 0 0 1" transform="translate(65,50) scale(1 -1) rotate(-90) rotate(90)" fill="none"/>
  <path marker-end="url(#spawn)" stroke-width="0.5" stroke="red" d="M 0 0 0 1" transform="translate(15,50) scale(1 -1) rotate(-90) rotate(90)" fill="none"/>
  <path marker-end="url(#spawn)" stroke-width="0.5" stroke="red" d="M 0 0 0 1" transform="translate(75,50) scale(1 -1) rotate(-90) rotate(90)" fill="none"/>
  <path marker-end="url(#spawn)" stroke-width="0.5" stroke="red" d="M 0 0 0 1" transform="translate(5,50) scale(1 -1) rotate(-90) rotate(90)" fill="none"/>
  <path marker-end="url(#spawn)" stroke-width="0.5" stroke="red" d="M 0 0 0 1" transform="translate(85,50) scale(1 -1) rotate(-90) rotate(90)" fill="none"/>
</svg>
