<?xml version="1.0" encoding="UTF-8" standalone="no"?>
<svg xmlns="http://www.w3.org/2000/svg" viewBox="-5,-357,538,362" width="100%" height="100%">
  <defs>
    <marker id="spawn" markerWidth="30" markerHeight="40" refX="2" refY="15" orient="auto" viewBox="0 0 40 30">
      <path d="M -5,0 -5,20 -15,20 0,40 15,20 5,20 5,0 Z" fill="magenta" transform="translate(0,15) rotate(-90)"/>
    </marker>
  </defs>
  <polyline points="256,-208 240,-192 256,-208 320,-208 336,-192 336,-144 320,-112 320,-96 336,-80 368,-96 368,-112 352,-128 352,-144 368,-176 400,-224 416,-240 432,-240 464,-224 464,-208 448,-192" stroke="white" stroke-width="2" fill="none"/>
  <polyline points="240,-192 240,-144 272,-112 320,-64 336,-48 352,-48 368,-64 384,-80 400,-96 400,-112 384,-128 384,-144 400,-176 432,-208" stroke="white" stroke-width="2" fill="none"/>
  <polyline points="256,-208 240,-224 240,-272" stroke="white" stroke-width="2" fill="none"/>
  <polyline points="448,-192 416,-144 432,-112 432,-80 400,-48 368,-16 352,-16 320,-32 288,-48 256,-80 240,-112 208,-144 208,-160 224,-176 224,-192 208,-208 208,-240 192,-256 176,-256 160,-240 160,-224 176,-208 176,-192 160,-160 144,-160 128,-176" stroke="white" stroke-width="2" fill="none"/>
  <polyline points="240,-272 224,-288 160,-288 144,-272 144,-256 128,-240 128,-224 144,-208 144,-192" stroke="white" stroke-width="2" fill="none"/>
  <polyline points="128,-224 96,-208 80,-192 80,-176 96,-144 112,-128 144,-112 160,-128 176,-128 192,-160 192,-176" stroke="white" stroke-width="2" fill="none"/>
  <polyline points="224,-128 192,-112 176,-96 144,-80 128,-80 96,-96 80,-112 64,-144" stroke="white" stroke-width="2" fill="none"/>
  <polyline points="80,-192 64,-192 16,-176 0,-160 0,-144 16,-112" stroke="white" stroke-width="2" fill="none"/>
  <polyline points="64,-144 32,-144" stroke="white" stroke-width="2" fill="none"/>
  <polyline points="16,-112 48,-112 64,-80 96,-64" stroke="white" stroke-width="2" fill="none"/>
  <polyline points="16,-112 0,-80 0,-48 32,-32 80,-16 112,-16 160,-32 176,-64 208,-80 224,-80 240,-64 240,-48" stroke="white" stroke-width="2" fill="none"/>
  <polyline points="144,-80 128,-48 96,-32 64,-48 32,-64 32,-80" stroke="white" stroke-width="2" fill="none"/>
  <polyline points="288,-48 256,-16 224,-16 208,-48" stroke="white" stroke-width="2" fill="none"/>
  <polyline points="160,-32 176,-16 208,0 288,0 304,-16 320,0 416,0 432,-32 464,-64 464,-112 448,-144 480,-160 528,-176 528,-208" stroke="white" stroke-width="2" fill="none"/>
  <polyline points="448,-192 464,-208" stroke="white" stroke-width="2" fill="none"/>
  <polyline points="496,-208 464,-208" stroke="white" stroke-width="2" fill="none"/>
  <polyline points="528,-208 512,-240 480,-256 448,-272 416,-272" stroke="white" stroke-width="2" fill="none"/>
  <polyline points="416,-240 384,-256 368,-272 368,-288 384,-304 416,-320" stroke="white" stroke-width="2" fill="none"/>
  <polyline points="416,-272 416,-288" stroke="white" stroke-width="2" fill="none"/>
  <polyline points="416,-320 448,-304" stroke="white" stroke-width="2" fill="none"/>
  <polyline points="448,-272 480,-288 480,-320 448,-336 416,-352 384,-352 352,-336 336,-336 304,-352 208,-352 192,-336 160,-304 160,-288" stroke="white" stroke-width="2" fill="none"/>
  <polyline points="384,-304 336,-304 304,-320 224,-320" stroke="white" stroke-width="2" fill="none"/>
  <polyline points="224,-288 304,-288 320,-272 336,-272" stroke="white" stroke-width="2" fill="none"/>
  <polyline points="384,-256 336,-240 304,-240 272,-256" stroke="white" stroke-width="2" fill="none"/>
  <polyline points="240,-224 256,-240" stroke="white" stroke-width="2" fill="none"/>
  <polyline points="304,-240 272,-224" stroke="white" stroke-width="2" fill="none"/>
  <polyline points="320,-208 368,-224" stroke="white" stroke-width="2" fill="none"/>
  <polyline points="352,-192 384,-208" stroke="white" stroke-width="2" fill="none"/>
  <circle cx="336" cy="-112" r="10" stroke="#00ff99" opacity="1" stroke-width="2" fill="none"/>
  <circle cx="352" cy="-112" r="10" stroke="#00ff99" opacity="1" stroke-width="2" fill="none"/>
  <circle cx="336" cy="-96" r="10" stroke="#00ff99" opacity="1" stroke-width="2" fill="none"/>
  <circle cx="352" cy="-96" r="10" stroke="#3399ff" opacity="1" stroke-width="2" fill="none"/>
  <circle cx="352" cy="-48" r="10" stroke="#3399ff" opacity="1" stroke-width="2" fill="none"/>
  <circle cx="400" cy="-32" r="10" stroke="#3399ff" opacity="1" stroke-width="2" fill="none"/>
  <circle cx="272" cy="-112" r="10" stroke="#3399ff" opacity="1" stroke-width="2" fill="none"/>
  <circle cx="480" cy="-208" r="15" stroke="#3399ff" opacity="1" stroke-width="2" fill="none"/>
  <circle cx="464" cy="-208" r="10" stroke="#3399ff" opacity="1" stroke-width="2" fill="none"/>
  <circle cx="464" cy="-192" r="15" stroke="#3399ff" opacity="1" stroke-width="2" fill="none"/>
  <circle cx="464" cy="-224" r="10" stroke="#3399ff" opacity="1" stroke-width="2" fill="none"/>
  <circle cx="416" cy="-272" r="15" stroke="#3399ff" opacity="1" stroke-width="2" fill="none"/>
  <circle cx="384" cy="-304" r="15" stroke="#3399ff" opacity="1" stroke-width="2" fill="none"/>
  <circle cx="224" cy="-320" r="15" stroke="#3399ff" opacity="1" stroke-width="2" fill="none"/>
  <circle cx="192" cy="-304" r="10" stroke="#3399ff" opacity="1" stroke-width="2" fill="none"/>
  <circle cx="80" cy="-192" r="25" stroke="#3399ff" opacity="1" stroke-width="2" fill="none"/>
  <circle cx="128" cy="-224" r="15" stroke="#3399ff" opacity="1" stroke-width="2" fill="none"/>
  <circle cx="288" cy="0" r="15" stroke="#3399ff" opacity="1" stroke-width="2" fill="none"/>
  <circle cx="160" cy="-32" r="15" stroke="#3399ff" opacity="1" stroke-width="2" fill="none"/>
  <circle cx="224" cy="-96" r="10" stroke="#3399ff" opacity="1" stroke-width="2" fill="none"/>
  <circle cx="16" cy="-112" r="10" stroke="#3399ff" opacity="1" stroke-width="2" fill="none"/>
  <circle cx="64" cy="-144" r="10" stroke="#3399ff" opacity="1" stroke-width="2" fill="none"/>
  <circle cx="128" cy="-80" r="15" stroke="#3399ff" opacity="1" stroke-width="2" fill="none"/>
  <circle cx="192" cy="-240" r="20" stroke="#3399ff" opacity="1" stroke-width="2" fill="none"/>
  <circle cx="288" cy="-256" r="10" stroke="#3399ff" opacity="1" stroke-width="2" fill="none"/>
  <circle cx="304" cy="-240" r="15" stroke="#3399ff" opacity="1" stroke-width="2" fill="none"/>
  <circle cx="240" cy="-272" r="15" stroke="#3399ff" opacity="1" stroke-width="2" fill="none"/>
  <circle cx="368" cy="-192" r="10" stroke="#3399ff" opacity="1" stroke-width="2" fill="none"/>
  <path marker-end="url(#spawn)" stroke-width="0.5" stroke="red" d="M 0 0 0 1" transform="translate(288,-176) scale(1 -1) rotate(-90) matrix(0,-1,1,0,0,0)" fill="none"/>
</svg>
