<?xml version="1.0" encoding="UTF-8" standalone="no"?>
<svg xmlns="http://www.w3.org/2000/svg" viewBox="-5,-325,602,330" width="100%" height="100%">
  <defs>
    <marker id="spawn" markerWidth="30" markerHeight="40" refX="2" refY="15" orient="auto" viewBox="0 0 40 30">
      <path d="M -5,0 -5,20 -15,20 0,40 15,20 5,20 5,0 Z" fill="magenta" transform="translate(0,15) rotate(-90)"/>
    </marker>
  </defs>
  <polyline points="560,-192 560,-128" stroke="white" stroke-width="2" fill="none"/>
  <polyline points="560,-128 384,-128" stroke="white" stroke-width="2" fill="none"/>
  <polyline points="560,-192 384,-192" stroke="white" stroke-width="2" fill="none"/>
  <polyline points="368,-192 384,-192" stroke="white" stroke-width="2" fill="none"/>
  <polyline points="384,-128 368,-128" stroke="white" stroke-width="2" fill="none"/>
  <polyline points="368,-128 384,-144" stroke="white" stroke-width="2" fill="none"/>
  <polyline points="368,-192 384,-176" stroke="white" stroke-width="2" fill="none"/>
  <polyline points="384,-256 448,-192" stroke="white" stroke-width="2" fill="none"/>
  <polyline points="448,-128 384,-64" stroke="white" stroke-width="2" fill="none"/>
  <polyline points="384,-256 320,-192" stroke="white" stroke-width="2" fill="none"/>
  <polyline points="384,-64 320,-128" stroke="white" stroke-width="2" fill="none"/>
  <polyline points="320,-160 368,-208" stroke="white" stroke-width="2" fill="none"/>
  <polyline points="320,-160 368,-112" stroke="white" stroke-width="2" fill="none"/>
  <polyline points="368,-112 384,-96" stroke="white" stroke-width="2" fill="none"/>
  <polyline points="368,-208 384,-224" stroke="white" stroke-width="2" fill="none"/>
  <polyline points="320,-128 160,-128" stroke="white" stroke-width="2" fill="none"/>
  <polyline points="320,-192 160,-192" stroke="white" stroke-width="2" fill="none"/>
  <polyline points="208,-160 160,-160 128,-192 128,-208" stroke="white" stroke-width="2" fill="none"/>
  <polyline points="160,-160 128,-128 128,-112" stroke="white" stroke-width="2" fill="none"/>
  <polyline points="128,-208 176,-256" stroke="white" stroke-width="2" fill="none"/>
  <polyline points="128,-112 176,-64" stroke="white" stroke-width="2" fill="none"/>
  <polyline points="176,-256 368,-256" stroke="white" stroke-width="2" fill="none"/>
  <polyline points="176,-64 368,-64" stroke="white" stroke-width="2" fill="none"/>
  <polyline points="368,-256 320,-208" stroke="white" stroke-width="2" fill="none"/>
  <polyline points="368,-64 320,-112" stroke="white" stroke-width="2" fill="none"/>
  <polyline points="176,-256 224,-208" stroke="white" stroke-width="2" fill="none"/>
  <polyline points="176,-64 224,-112" stroke="white" stroke-width="2" fill="none"/>
  <polyline points="448,-240 544,-240 576,-208" stroke="white" stroke-width="2" fill="none"/>
  <polyline points="448,-80 544,-80 576,-112" stroke="white" stroke-width="2" fill="none"/>
  <polyline points="592,-64 592,-288 416,-288" stroke="white" stroke-width="2" fill="none"/>
  <polyline points="592,-64 592,-32 416,-32" stroke="white" stroke-width="2" fill="none"/>
  <polyline points="592,-288 560,-256" stroke="white" stroke-width="2" fill="none"/>
  <polyline points="592,-32 560,-64" stroke="white" stroke-width="2" fill="none"/>
  <polyline points="544,-80 544,-48" stroke="white" stroke-width="2" fill="none"/>
  <polyline points="544,-240 544,-272" stroke="white" stroke-width="2" fill="none"/>
  <polyline points="544,-272 560,-272" stroke="white" stroke-width="2" fill="none"/>
  <polyline points="544,-48 560,-48" stroke="white" stroke-width="2" fill="none"/>
  <polyline points="432,-288 416,-304 176,-304" stroke="white" stroke-width="2" fill="none"/>
  <polyline points="176,-304 112,-240" stroke="white" stroke-width="2" fill="none"/>
  <polyline points="432,-32 416,-16 176,-16" stroke="white" stroke-width="2" fill="none"/>
  <polyline points="112,-144 64,-144" stroke="white" stroke-width="2" fill="none"/>
  <polyline points="64,-176 112,-176" stroke="white" stroke-width="2" fill="none"/>
  <polyline points="160,-160 0,-160" stroke="white" stroke-width="2" fill="none"/>
  <polyline points="64,-176 32,-176" stroke="white" stroke-width="2" fill="none"/>
  <polyline points="32,-144 64,-144" stroke="white" stroke-width="2" fill="none"/>
  <polyline points="176,-16 112,-80" stroke="white" stroke-width="2" fill="none"/>
  <polyline points="112,-240 96,-224 96,-192 112,-176" stroke="white" stroke-width="2" fill="none"/>
  <polyline points="112,-144 96,-128 96,-96 112,-80" stroke="white" stroke-width="2" fill="none"/>
  <polyline points="96,-192 80,-176" stroke="white" stroke-width="2" fill="none"/>
  <polyline points="96,-128 80,-144" stroke="white" stroke-width="2" fill="none"/>
  <polyline points="64,-208 0,-208 0,-112 64,-112" stroke="white" stroke-width="2" fill="none"/>
  <polyline points="64,-112 96,-80" stroke="white" stroke-width="2" fill="none"/>
  <polyline points="64,-208 96,-240" stroke="white" stroke-width="2" fill="none"/>
  <polyline points="128,-256 80,-256" stroke="white" stroke-width="2" fill="none"/>
  <polyline points="128,-64 80,-64" stroke="white" stroke-width="2" fill="none"/>
  <polyline points="80,-64 144,0 64,0 64,-80 96,-80" stroke="white" stroke-width="2" fill="none"/>
  <polyline points="80,-256 144,-320 64,-320 64,-240 96,-240" stroke="white" stroke-width="2" fill="none"/>
  <polyline points="544,-176 432,-176 432,-144 544,-144" stroke="white" stroke-width="2" fill="none"/>
  <circle cx="368" cy="-160" r="18" stroke="#3399ff" opacity="1" stroke-width="2" fill="none"/>
  <circle cx="400" cy="-208" r="14" stroke="#3399ff" opacity="1" stroke-width="2" fill="none"/>
  <circle cx="400" cy="-112" r="14" stroke="#3399ff" opacity="1" stroke-width="2" fill="none"/>
  <circle cx="368" cy="-192" r="7" stroke="#3399ff" opacity="1" stroke-width="2" fill="none"/>
  <circle cx="368" cy="-128" r="7" stroke="#3399ff" opacity="1" stroke-width="2" fill="none"/>
  <circle cx="384" cy="-96" r="7" stroke="#3399ff" opacity="1" stroke-width="2" fill="none"/>
  <circle cx="384" cy="-224" r="7" stroke="#3399ff" opacity="1" stroke-width="2" fill="none"/>
  <circle cx="352" cy="-224" r="7" stroke="#3399ff" opacity="1" stroke-width="2" fill="none"/>
  <circle cx="352" cy="-96" r="7" stroke="#3399ff" opacity="1" stroke-width="2" fill="none"/>
  <circle cx="288" cy="-160" r="23" stroke="#3399ff" opacity="1" stroke-width="2" fill="none"/>
  <circle cx="160" cy="-192" r="16" stroke="#3399ff" opacity="1" stroke-width="2" fill="none"/>
  <circle cx="160" cy="-208" r="16" stroke="#3399ff" opacity="1" stroke-width="2" fill="none"/>
  <circle cx="160" cy="-128" r="16" stroke="#3399ff" opacity="1" stroke-width="2" fill="none"/>
  <circle cx="160" cy="-112" r="16" stroke="#3399ff" opacity="1" stroke-width="2" fill="none"/>
  <circle cx="208" cy="-160" r="12" stroke="#3399ff" opacity="1" stroke-width="2" fill="none"/>
  <circle cx="256" cy="-192" r="10" stroke="#3399ff" opacity="1" stroke-width="2" fill="none"/>
  <circle cx="256" cy="-208" r="10" stroke="#3399ff" opacity="1" stroke-width="2" fill="none"/>
  <circle cx="256" cy="-224" r="10" stroke="#3399ff" opacity="1" stroke-width="2" fill="none"/>
  <circle cx="272" cy="-208" r="10" stroke="#3399ff" opacity="1" stroke-width="2" fill="none"/>
  <circle cx="304" cy="-208" r="8" stroke="#3399ff" opacity="1" stroke-width="2" fill="none"/>
  <circle cx="304" cy="-112" r="8" stroke="#3399ff" opacity="1" stroke-width="2" fill="none"/>
  <circle cx="256" cy="-128" r="10" stroke="#3399ff" opacity="1" stroke-width="2" fill="none"/>
  <circle cx="256" cy="-112" r="10" stroke="#3399ff" opacity="1" stroke-width="2" fill="none"/>
  <circle cx="256" cy="-96" r="10" stroke="#3399ff" opacity="1" stroke-width="2" fill="none"/>
  <circle cx="272" cy="-112" r="10" stroke="#3399ff" opacity="1" stroke-width="2" fill="none"/>
  <circle cx="288" cy="-240" r="17" stroke="#3399ff" opacity="1" stroke-width="2" fill="none"/>
  <circle cx="288" cy="-80" r="17" stroke="#3399ff" opacity="1" stroke-width="2" fill="none"/>
  <circle cx="176" cy="-224" r="17" stroke="#3399ff" opacity="1" stroke-width="2" fill="none"/>
  <circle cx="176" cy="-96" r="17" stroke="#3399ff" opacity="1" stroke-width="2" fill="none"/>
  <circle cx="208" cy="-96" r="10" stroke="#3399ff" opacity="1" stroke-width="2" fill="none"/>
  <circle cx="208" cy="-224" r="10" stroke="#3399ff" opacity="1" stroke-width="2" fill="none"/>
  <circle cx="208" cy="-192" r="8" stroke="#3399ff" opacity="1" stroke-width="2" fill="none"/>
  <circle cx="208" cy="-128" r="8" stroke="#3399ff" opacity="1" stroke-width="2" fill="none"/>
  <circle cx="240" cy="-64" r="17" stroke="#3399ff" opacity="1" stroke-width="2" fill="none"/>
  <circle cx="240" cy="-256" r="17" stroke="#3399ff" opacity="1" stroke-width="2" fill="none"/>
  <circle cx="368" cy="-256" r="9" stroke="#3399ff" opacity="1" stroke-width="2" fill="none"/>
  <circle cx="368" cy="-272" r="9" stroke="#3399ff" opacity="1" stroke-width="2" fill="none"/>
  <circle cx="384" cy="-272" r="9" stroke="#3399ff" opacity="1" stroke-width="2" fill="none"/>
  <circle cx="368" cy="-64" r="9" stroke="#3399ff" opacity="1" stroke-width="2" fill="none"/>
  <circle cx="368" cy="-48" r="9" stroke="#3399ff" opacity="1" stroke-width="2" fill="none"/>
  <circle cx="384" cy="-48" r="9" stroke="#3399ff" opacity="1" stroke-width="2" fill="none"/>
  <circle cx="400" cy="-48" r="9" stroke="#3399ff" opacity="1" stroke-width="2" fill="none"/>
  <circle cx="400" cy="-272" r="9" stroke="#3399ff" opacity="1" stroke-width="2" fill="none"/>
  <circle cx="448" cy="-224" r="18" stroke="#3399ff" opacity="1" stroke-width="2" fill="none"/>
  <circle cx="416" cy="-256" r="17" stroke="#3399ff" opacity="1" stroke-width="2" fill="none"/>
  <circle cx="432" cy="-240" r="17" stroke="#3399ff" opacity="1" stroke-width="2" fill="none"/>
  <circle cx="416" cy="-64" r="17" stroke="#3399ff" opacity="1" stroke-width="2" fill="none"/>
  <circle cx="432" cy="-80" r="17" stroke="#3399ff" opacity="1" stroke-width="2" fill="none"/>
  <circle cx="448" cy="-96" r="17" stroke="#3399ff" opacity="1" stroke-width="2" fill="none"/>
  <circle cx="464" cy="-208" r="12" stroke="#3399ff" opacity="1" stroke-width="2" fill="none"/>
  <circle cx="464" cy="-112" r="12" stroke="#3399ff" opacity="1" stroke-width="2" fill="none"/>
  <circle cx="480" cy="-208" r="12" stroke="#3399ff" opacity="1" stroke-width="2" fill="none"/>
  <circle cx="496" cy="-208" r="12" stroke="#3399ff" opacity="1" stroke-width="2" fill="none"/>
  <circle cx="544" cy="-208" r="16" stroke="#3399ff" opacity="1" stroke-width="2" fill="none"/>
  <circle cx="544" cy="-112" r="16" stroke="#3399ff" opacity="1" stroke-width="2" fill="none"/>
  <circle cx="544" cy="-192" r="6" stroke="#3399ff" opacity="1" stroke-width="2" fill="none"/>
  <circle cx="544" cy="-128" r="6" stroke="#3399ff" opacity="1" stroke-width="2" fill="none"/>
  <circle cx="576" cy="-208" r="9" stroke="#3399ff" opacity="1" stroke-width="2" fill="none"/>
  <circle cx="576" cy="-112" r="9" stroke="#3399ff" opacity="1" stroke-width="2" fill="none"/>
  <circle cx="576" cy="-128" r="9" stroke="#3399ff" opacity="1" stroke-width="2" fill="none"/>
  <circle cx="576" cy="-144" r="9" stroke="#3399ff" opacity="1" stroke-width="2" fill="none"/>
  <circle cx="576" cy="-176" r="9" stroke="#3399ff" opacity="1" stroke-width="2" fill="none"/>
  <circle cx="576" cy="-192" r="9" stroke="#3399ff" opacity="1" stroke-width="2" fill="none"/>
  <circle cx="560" cy="-256" r="6" stroke="#3399ff" opacity="1" stroke-width="2" fill="none"/>
  <circle cx="560" cy="-64" r="6" stroke="#3399ff" opacity="1" stroke-width="2" fill="none"/>
  <circle cx="416" cy="-32" r="6" stroke="#3399ff" opacity="1" stroke-width="2" fill="none"/>
  <circle cx="416" cy="-288" r="6" stroke="#3399ff" opacity="1" stroke-width="2" fill="none"/>
  <circle cx="512" cy="-288" r="25" stroke="#3399ff" opacity="1" stroke-width="2" fill="none"/>
  <circle cx="512" cy="-32" r="25" stroke="#3399ff" opacity="1" stroke-width="2" fill="none"/>
  <circle cx="480" cy="-80" r="18" stroke="#3399ff" opacity="1" stroke-width="2" fill="none"/>
  <circle cx="480" cy="-240" r="18" stroke="#3399ff" opacity="1" stroke-width="2" fill="none"/>
  <circle cx="352" cy="-304" r="18" stroke="#3399ff" opacity="1" stroke-width="2" fill="none"/>
  <circle cx="352" cy="-16" r="18" stroke="#3399ff" opacity="1" stroke-width="2" fill="none"/>
  <circle cx="320" cy="-48" r="18" stroke="#3399ff" opacity="1" stroke-width="2" fill="none"/>
  <circle cx="320" cy="-272" r="18" stroke="#3399ff" opacity="1" stroke-width="2" fill="none"/>
  <circle cx="240" cy="-304" r="26" stroke="#3399ff" opacity="1" stroke-width="2" fill="none"/>
  <circle cx="240" cy="-16" r="26" stroke="#3399ff" opacity="1" stroke-width="2" fill="none"/>
  <circle cx="144" cy="-272" r="28" stroke="#3399ff" opacity="1" stroke-width="2" fill="none"/>
  <circle cx="144" cy="-48" r="28" stroke="#3399ff" opacity="1" stroke-width="2" fill="none"/>
  <circle cx="128" cy="-128" r="9" stroke="#3399ff" opacity="1" stroke-width="2" fill="none"/>
  <circle cx="128" cy="-112" r="9" stroke="#3399ff" opacity="1" stroke-width="2" fill="none"/>
  <circle cx="128" cy="-208" r="9" stroke="#3399ff" opacity="1" stroke-width="2" fill="none"/>
  <circle cx="128" cy="-192" r="9" stroke="#3399ff" opacity="1" stroke-width="2" fill="none"/>
  <circle cx="160" cy="-160" r="9" stroke="#3399ff" opacity="1" stroke-width="2" fill="none"/>
  <circle cx="144" cy="-160" r="9" stroke="#3399ff" opacity="1" stroke-width="2" fill="none"/>
  <circle cx="128" cy="-160" r="9" stroke="#3399ff" opacity="1" stroke-width="2" fill="none"/>
  <circle cx="112" cy="-160" r="9" stroke="#3399ff" opacity="1" stroke-width="2" fill="none"/>
  <circle cx="96" cy="-160" r="9" stroke="#3399ff" opacity="1" stroke-width="2" fill="none"/>
  <circle cx="80" cy="-160" r="9" stroke="#3399ff" opacity="1" stroke-width="2" fill="none"/>
  <circle cx="64" cy="-176" r="9" stroke="#3399ff" opacity="1" stroke-width="2" fill="none"/>
  <circle cx="64" cy="-144" r="9" stroke="#3399ff" opacity="1" stroke-width="2" fill="none"/>
  <circle cx="48" cy="-144" r="9" stroke="#3399ff" opacity="1" stroke-width="2" fill="none"/>
  <circle cx="48" cy="-176" r="9" stroke="#3399ff" opacity="1" stroke-width="2" fill="none"/>
  <circle cx="32" cy="-176" r="9" stroke="#3399ff" opacity="1" stroke-width="2" fill="none"/>
  <circle cx="32" cy="-144" r="9" stroke="#3399ff" opacity="1" stroke-width="2" fill="none"/>
  <circle cx="16" cy="-160" r="9" stroke="#3399ff" opacity="1" stroke-width="2" fill="none"/>
  <circle cx="0" cy="-160" r="9" stroke="#3399ff" opacity="1" stroke-width="2" fill="none"/>
  <circle cx="0" cy="-144" r="9" stroke="#3399ff" opacity="1" stroke-width="2" fill="none"/>
  <circle cx="0" cy="-128" r="9" stroke="#3399ff" opacity="1" stroke-width="2" fill="none"/>
  <circle cx="0" cy="-112" r="9" stroke="#3399ff" opacity="1" stroke-width="2" fill="none"/>
  <circle cx="0" cy="-176" r="9" stroke="#3399ff" opacity="1" stroke-width="2" fill="none"/>
  <circle cx="0" cy="-192" r="9" stroke="#3399ff" opacity="1" stroke-width="2" fill="none"/>
  <circle cx="0" cy="-208" r="9" stroke="#3399ff" opacity="1" stroke-width="2" fill="none"/>
  <circle cx="16" cy="-208" r="9" stroke="#3399ff" opacity="1" stroke-width="2" fill="none"/>
  <circle cx="32" cy="-208" r="9" stroke="#3399ff" opacity="1" stroke-width="2" fill="none"/>
  <circle cx="16" cy="-112" r="9" stroke="#3399ff" opacity="1" stroke-width="2" fill="none"/>
  <circle cx="32" cy="-112" r="9" stroke="#3399ff" opacity="1" stroke-width="2" fill="none"/>
  <circle cx="48" cy="-112" r="9" stroke="#3399ff" opacity="1" stroke-width="2" fill="none"/>
  <circle cx="64" cy="-112" r="9" stroke="#3399ff" opacity="1" stroke-width="2" fill="none"/>
  <circle cx="48" cy="-208" r="9" stroke="#3399ff" opacity="1" stroke-width="2" fill="none"/>
  <circle cx="64" cy="-208" r="9" stroke="#3399ff" opacity="1" stroke-width="2" fill="none"/>
  <circle cx="96" cy="-208" r="9" stroke="#3399ff" opacity="1" stroke-width="2" fill="none"/>
  <circle cx="96" cy="-112" r="9" stroke="#3399ff" opacity="1" stroke-width="2" fill="none"/>
  <circle cx="80" cy="-256" r="11" stroke="#3399ff" opacity="1" stroke-width="2" fill="none"/>
  <circle cx="80" cy="-288" r="11" stroke="#3399ff" opacity="1" stroke-width="2" fill="none"/>
  <circle cx="80" cy="-64" r="11" stroke="#3399ff" opacity="1" stroke-width="2" fill="none"/>
  <circle cx="80" cy="-32" r="11" stroke="#3399ff" opacity="1" stroke-width="2" fill="none"/>
  <circle cx="64" cy="-288" r="11" stroke="#3399ff" opacity="1" stroke-width="2" fill="none"/>
  <circle cx="64" cy="-32" r="11" stroke="#3399ff" opacity="1" stroke-width="2" fill="none"/>
  <circle cx="96" cy="-288" r="8" stroke="#3399ff" opacity="1" stroke-width="2" fill="none"/>
  <circle cx="96" cy="-32" r="8" stroke="#3399ff" opacity="1" stroke-width="2" fill="none"/>
  <circle cx="128" cy="-16" r="21" stroke="#3399ff" opacity="1" stroke-width="2" fill="none"/>
  <circle cx="128" cy="-304" r="21" stroke="#3399ff" opacity="1" stroke-width="2" fill="none"/>
  <circle cx="80" cy="-304" r="16" stroke="#00ff99" opacity="1" stroke-width="2" fill="none"/>
  <circle cx="80" cy="-16" r="16" stroke="#00ff99" opacity="1" stroke-width="2" fill="none"/>
  <circle cx="432" cy="-176" r="12" stroke="#3399ff" opacity="1" stroke-width="2" fill="none"/>
  <circle cx="432" cy="-144" r="12" stroke="#3399ff" opacity="1" stroke-width="2" fill="none"/>
  <circle cx="432" cy="-160" r="12" stroke="#3399ff" opacity="1" stroke-width="2" fill="none"/>
  <circle cx="544" cy="-160" r="6" stroke="#3399ff" opacity="1" stroke-width="2" fill="none"/>
  <path marker-end="url(#spawn)" stroke-width="0.5" stroke="red" d="M 0 0 0 1" transform="translate(448,-160) scale(1 -1) rotate(-90) matrix(1,0,0,1,0,0)" fill="none"/>
</svg>
