<?xml version="1.0" encoding="UTF-8" standalone="no"?>
<svg xmlns="http://www.w3.org/2000/svg" viewBox="459,107,202,410" width="100%" height="100%">
  <defs>
    <marker id="spawn" markerWidth="30" markerHeight="40" refX="2" refY="15" orient="auto" viewBox="0 0 40 30">
      <path d="M -5,0 -5,20 -15,20 0,40 15,20 5,20 5,0 Z" fill="magenta" transform="translate(0,15) rotate(-90)"/>
    </marker>
  </defs>
  <polyline points="480,512 464,496 544,416" stroke="white" stroke-width="2" fill="none"/>
  <polyline points="480,512 560,432 640,512 656,496 576,416 576,368" stroke="white" stroke-width="2" fill="none"/>
  <polyline points="544,416 544,368" stroke="white" stroke-width="2" fill="none"/>
  <polyline points="576,368 592,352 592,336 608,336 624,320 624,304" stroke="white" stroke-width="2" fill="none"/>
  <polyline points="560,368 576,352 576,336 592,320 608,320 608,304 624,288" stroke="white" stroke-width="2" fill="none"/>
  <polyline points="624,304 640,288" stroke="white" stroke-width="2" fill="none"/>
  <polyline points="560,368 544,352 544,336 528,320 512,320 512,304 496,288" stroke="white" stroke-width="2" fill="none"/>
  <polyline points="480,288 496,304 496,320 512,336 528,336 528,352 544,368" stroke="white" stroke-width="2" fill="none"/>
  <polyline points="496,288 544,288 560,272" stroke="white" stroke-width="2" fill="none"/>
  <polyline points="560,272 576,288 624,288" stroke="white" stroke-width="2" fill="none"/>
  <polyline points="640,288 624,272 576,272 563,256" stroke="white" stroke-width="2" fill="none"/>
  <polyline points="563,256 576,240" stroke="white" stroke-width="2" fill="none"/>
  <polyline points="576,240 592,256 608,240 592,224 592,176" stroke="white" stroke-width="2" fill="none"/>
  <polyline points="560,240 544,224 528,240" stroke="white" stroke-width="2" fill="none"/>
  <polyline points="544,224 544,176" stroke="white" stroke-width="2" fill="none"/>
  <polyline points="560,240 576,224 592,240 576,224 576,176" stroke="white" stroke-width="2" fill="none"/>
  <polyline points="544,176 560,192 576,176" stroke="white" stroke-width="2" fill="none"/>
  <polyline points="528,176 544,160 544,144" stroke="white" stroke-width="2" fill="none"/>
  <polyline points="592,176 576,160 576,144" stroke="white" stroke-width="2" fill="none"/>
  <polyline points="560,432 560,384" stroke="white" stroke-width="2" fill="none"/>
  <polyline points="544,144 528,128 512,144 512,160 528,176" stroke="white" stroke-width="2" fill="none"/>
  <polyline points="576,144 560,128 544,128 528,112 496,144 496,160 512,176 512,192" stroke="white" stroke-width="2" fill="none"/>
  <polyline points="560,160 560,144" stroke="white" stroke-width="2" fill="none"/>
  <polyline points="512,192 512,224 496,240 512,256 528,272" stroke="white" stroke-width="2" fill="none"/>
  <polyline points="528,272 544,272 558,256 544,240 528,256 512,240 528,224 528,176" stroke="white" stroke-width="2" fill="none"/>
  <polyline points="480,288 496,272 528,272" stroke="white" stroke-width="2" fill="none"/>
  <polyline points="560,176 560,160" stroke="white" stroke-width="2" fill="none"/>
  <circle cx="543" cy="256" r="9" stroke="#00ff99" opacity="1" stroke-width="2" fill="none"/>
  <circle cx="560" cy="176" r="10" stroke="#3399ff" opacity="1" stroke-width="2" fill="none"/>
  <circle cx="560" cy="432" r="10" stroke="#3399ff" opacity="1" stroke-width="2" fill="none"/>
  <circle cx="560" cy="400" r="10" stroke="#3399ff" opacity="1" stroke-width="2" fill="none"/>
  <circle cx="560" cy="384" r="10" stroke="#3399ff" opacity="1" stroke-width="2" fill="none"/>
  <circle cx="592" cy="320" r="10" stroke="#3399ff" opacity="1" stroke-width="2" fill="none"/>
  <circle cx="528" cy="320" r="10" stroke="#3399ff" opacity="1" stroke-width="2" fill="none"/>
  <circle cx="560" cy="272" r="8" stroke="#3399ff" opacity="1" stroke-width="2" fill="none"/>
  <circle cx="560" cy="240" r="8" stroke="#3399ff" opacity="1" stroke-width="2" fill="none"/>
  <circle cx="592" cy="240" r="5" stroke="#3399ff" opacity="1" stroke-width="2" fill="none"/>
  <circle cx="528" cy="240" r="5" stroke="#3399ff" opacity="1" stroke-width="2" fill="none"/>
  <circle cx="624" cy="272" r="5" stroke="#3399ff" opacity="1" stroke-width="2" fill="none"/>
  <circle cx="496" cy="272" r="5" stroke="#3399ff" opacity="1" stroke-width="2" fill="none"/>
  <circle cx="512" cy="288" r="5" stroke="#3399ff" opacity="1" stroke-width="2" fill="none"/>
  <circle cx="608" cy="288" r="5" stroke="#3399ff" opacity="1" stroke-width="2" fill="none"/>
  <circle cx="592" cy="272" r="5" stroke="#3399ff" opacity="1" stroke-width="2" fill="none"/>
  <circle cx="592" cy="288" r="5" stroke="#3399ff" opacity="1" stroke-width="2" fill="none"/>
  <circle cx="528" cy="272" r="5" stroke="#3399ff" opacity="1" stroke-width="2" fill="none"/>
  <circle cx="528" cy="288" r="5" stroke="#3399ff" opacity="1" stroke-width="2" fill="none"/>
  <circle cx="624" cy="320" r="5" stroke="#3399ff" opacity="1" stroke-width="2" fill="none"/>
  <circle cx="496" cy="320" r="5" stroke="#3399ff" opacity="1" stroke-width="2" fill="none"/>
  <circle cx="528" cy="352" r="5" stroke="#3399ff" opacity="1" stroke-width="2" fill="none"/>
  <circle cx="592" cy="352" r="5" stroke="#3399ff" opacity="1" stroke-width="2" fill="none"/>
  <circle cx="608" cy="464" r="5" stroke="#3399ff" opacity="1" stroke-width="2" fill="none"/>
  <circle cx="512" cy="464" r="5" stroke="#3399ff" opacity="1" stroke-width="2" fill="none"/>
  <circle cx="592" cy="464" r="5" stroke="#3399ff" opacity="1" stroke-width="2" fill="none"/>
  <circle cx="608" cy="448" r="5" stroke="#3399ff" opacity="1" stroke-width="2" fill="none"/>
  <circle cx="528" cy="464" r="5" stroke="#3399ff" opacity="1" stroke-width="2" fill="none"/>
  <circle cx="512" cy="448" r="5" stroke="#3399ff" opacity="1" stroke-width="2" fill="none"/>
  <circle cx="544" cy="128" r="5" stroke="#3399ff" opacity="1" stroke-width="2" fill="none"/>
  <circle cx="560" cy="160" r="5" stroke="#3399ff" opacity="1" stroke-width="2" fill="none"/>
  <circle cx="544" cy="144" r="5" stroke="#3399ff" opacity="1" stroke-width="2" fill="none"/>
  <circle cx="496" cy="144" r="5" stroke="#3399ff" opacity="1" stroke-width="2" fill="none"/>
  <circle cx="528" cy="192" r="5" stroke="#3399ff" opacity="1" stroke-width="2" fill="none"/>
  <circle cx="512" cy="224" r="5" stroke="#3399ff" opacity="1" stroke-width="2" fill="none"/>
  <circle cx="592" cy="192" r="5" stroke="#3399ff" opacity="1" stroke-width="2" fill="none"/>
  <circle cx="560" cy="208" r="5" stroke="#3399ff" opacity="1" stroke-width="2" fill="none"/>
  <circle cx="560" cy="224" r="5" stroke="#3399ff" opacity="1" stroke-width="2" fill="none"/>
  <circle cx="560" cy="192" r="5" stroke="#3399ff" opacity="1" stroke-width="2" fill="none"/>
  <circle cx="528" cy="160" r="5" stroke="#3399ff" opacity="1" stroke-width="2" fill="none"/>
  <circle cx="528" cy="144" r="5" stroke="#3399ff" opacity="1" stroke-width="2" fill="none"/>
  <circle cx="560" cy="304" r="18" stroke="#3399ff" opacity="1" stroke-width="2" fill="none"/>
  <path marker-end="url(#spawn)" stroke-width="0.5" stroke="red" d="M 0 0 0 1" transform="translate(640,496) scale(1 -1) rotate(-90) matrix(-0.70710678118655,0.70710678118655,-0.70710678118655,-0.70710678118655,0,0)" fill="none"/>
  <path marker-end="url(#spawn)" stroke-width="0.5" stroke="red" d="M 0 0 0 1" transform="translate(480,496) scale(1 -1) rotate(-90) matrix(0.70710678118655,0.70710678118655,-0.70710678118655,0.70710678118655,0,0)" fill="none"/>
</svg>
