<?xml version="1.0" encoding="UTF-8" standalone="no"?>
<svg xmlns="http://www.w3.org/2000/svg" viewBox="299,395,458,442" width="100%" height="100%">
  <defs>
    <marker id="spawn" markerWidth="30" markerHeight="40" refX="2" refY="15" orient="auto" viewBox="0 0 40 30">
      <path d="M -5,0 -5,20 -15,20 0,40 15,20 5,20 5,0 Z" fill="magenta" transform="translate(0,15) rotate(-90)"/>
    </marker>
  </defs>
  <polyline points="384,784 384,704 432,656 512,656" stroke="white" stroke-width="2" fill="none"/>
  <polyline points="448,784 448,672 512,672" stroke="white" stroke-width="2" fill="none"/>
  <polyline points="512,672 544,640 512,608 480,640 480,576 544,576 608,640 576,672" stroke="white" stroke-width="2" fill="none"/>
  <polyline points="432,656 464,624 464,544 560,544 640,624 576,688 560,672 592,640 544,592 496,592" stroke="white" stroke-width="2" fill="none"/>
  <polyline points="512,672 560,720 640,640 656,656 640,672" stroke="white" stroke-width="2" fill="none"/>
  <polyline points="640,624 672,656 640,688 624,672 640,656" stroke="white" stroke-width="2" fill="none"/>
  <polyline points="624,672 624,736 496,736 496,688" stroke="white" stroke-width="2" fill="none"/>
  <polyline points="384,784 720,784 720,608 624,512 448,512 432,528 416,512 432,496 448,512" stroke="white" stroke-width="2" fill="none"/>
  <polyline points="464,544 400,544 400,480 480,480 464,496 496,496 480,480" stroke="white" stroke-width="2" fill="none"/>
  <polyline points="496,512 512,496 512,480 496,464 480,464" stroke="white" stroke-width="2" fill="none"/>
  <polyline points="480,480 464,464 464,448 496,448 544,496" stroke="white" stroke-width="2" fill="none"/>
  <polyline points="544,496 624,416 752,544 752,400 624,400 544,480 480,416 432,464 304,464 304,832 752,832 752,544" stroke="white" stroke-width="2" fill="none"/>
  <polyline points="496,608 512,592 528,608" stroke="white" stroke-width="2" fill="none"/>
  <polyline points="720,704 672,704 672,720 656,704 656,688 672,704" stroke="white" stroke-width="2" fill="none"/>
  <polyline points="416,832 448,800 496,800" stroke="white" stroke-width="2" fill="none"/>
  <polyline points="528,784 496,816 448,816" stroke="white" stroke-width="2" fill="none"/>
  <polyline points="448,576 432,560 400,560 384,544 384,480" stroke="white" stroke-width="2" fill="none"/>
  <polyline points="736,496 720,512 688,480 704,480" stroke="white" stroke-width="2" fill="none"/>
  <polyline points="320,784 368,736 368,704 352,688" stroke="white" stroke-width="2" fill="none"/>
  <polyline points="368,736 368,768 352,752" stroke="white" stroke-width="2" fill="none"/>
  <polyline points="304,560 368,560 304,496 336,464" stroke="white" stroke-width="2" fill="none"/>
  <circle cx="688" cy="448" r="5" stroke="#00ff99" opacity="1" stroke-width="2" fill="none"/>
  <circle cx="720" cy="496" r="5" stroke="#00ff99" opacity="1" stroke-width="2" fill="none"/>
  <circle cx="736" cy="512" r="5" stroke="#00ff99" opacity="1" stroke-width="2" fill="none"/>
  <circle cx="448" cy="672" r="10" stroke="#3399ff" opacity="1" stroke-width="2" fill="none"/>
  <circle cx="512" cy="656" r="10" stroke="#3399ff" opacity="1" stroke-width="2" fill="none"/>
  <circle cx="512" cy="640" r="10" stroke="#3399ff" opacity="1" stroke-width="2" fill="none"/>
  <circle cx="528" cy="640" r="10" stroke="#3399ff" opacity="1" stroke-width="2" fill="none"/>
  <circle cx="480" cy="656" r="10" stroke="#3399ff" opacity="1" stroke-width="2" fill="none"/>
  <circle cx="464" cy="624" r="10" stroke="#3399ff" opacity="1" stroke-width="2" fill="none"/>
  <circle cx="464" cy="544" r="29" stroke="#3399ff" opacity="1" stroke-width="2" fill="none"/>
  <circle cx="496" cy="544" r="10" stroke="#3399ff" opacity="1" stroke-width="2" fill="none"/>
  <circle cx="528" cy="560" r="10" stroke="#3399ff" opacity="1" stroke-width="2" fill="none"/>
  <circle cx="560" cy="544" r="10" stroke="#3399ff" opacity="1" stroke-width="2" fill="none"/>
  <circle cx="560" cy="592" r="10" stroke="#3399ff" opacity="1" stroke-width="2" fill="none"/>
  <circle cx="592" cy="592" r="10" stroke="#3399ff" opacity="1" stroke-width="2" fill="none"/>
  <circle cx="608" cy="624" r="10" stroke="#3399ff" opacity="1" stroke-width="2" fill="none"/>
  <circle cx="576" cy="672" r="10" stroke="#3399ff" opacity="1" stroke-width="2" fill="none"/>
  <circle cx="592" cy="640" r="10" stroke="#3399ff" opacity="1" stroke-width="2" fill="none"/>
  <circle cx="496" cy="592" r="10" stroke="#3399ff" opacity="1" stroke-width="2" fill="none"/>
  <circle cx="528" cy="576" r="10" stroke="#3399ff" opacity="1" stroke-width="2" fill="none"/>
  <circle cx="560" cy="560" r="10" stroke="#3399ff" opacity="1" stroke-width="2" fill="none"/>
  <circle cx="592" cy="576" r="10" stroke="#3399ff" opacity="1" stroke-width="2" fill="none"/>
  <circle cx="624" cy="624" r="10" stroke="#3399ff" opacity="1" stroke-width="2" fill="none"/>
  <circle cx="512" cy="608" r="10" stroke="#3399ff" opacity="1" stroke-width="2" fill="none"/>
  <circle cx="544" cy="624" r="10" stroke="#3399ff" opacity="1" stroke-width="2" fill="none"/>
  <circle cx="560" cy="640" r="10" stroke="#3399ff" opacity="1" stroke-width="2" fill="none"/>
  <circle cx="544" cy="656" r="10" stroke="#3399ff" opacity="1" stroke-width="2" fill="none"/>
  <circle cx="544" cy="672" r="10" stroke="#3399ff" opacity="1" stroke-width="2" fill="none"/>
  <circle cx="560" cy="688" r="10" stroke="#3399ff" opacity="1" stroke-width="2" fill="none"/>
  <circle cx="560" cy="624" r="10" stroke="#3399ff" opacity="1" stroke-width="2" fill="none"/>
  <circle cx="560" cy="656" r="10" stroke="#3399ff" opacity="1" stroke-width="2" fill="none"/>
  <circle cx="544" cy="688" r="10" stroke="#3399ff" opacity="1" stroke-width="2" fill="none"/>
  <circle cx="608" cy="672" r="10" stroke="#3399ff" opacity="1" stroke-width="2" fill="none"/>
  <circle cx="640" cy="640" r="10" stroke="#3399ff" opacity="1" stroke-width="2" fill="none"/>
  <circle cx="656" cy="656" r="10" stroke="#3399ff" opacity="1" stroke-width="2" fill="none"/>
  <circle cx="640" cy="672" r="10" stroke="#3399ff" opacity="1" stroke-width="2" fill="none"/>
  <circle cx="592" cy="704" r="10" stroke="#3399ff" opacity="1" stroke-width="2" fill="none"/>
  <circle cx="608" cy="720" r="10" stroke="#3399ff" opacity="1" stroke-width="2" fill="none"/>
  <circle cx="624" cy="736" r="10" stroke="#3399ff" opacity="1" stroke-width="2" fill="none"/>
  <circle cx="624" cy="704" r="10" stroke="#3399ff" opacity="1" stroke-width="2" fill="none"/>
  <circle cx="592" cy="736" r="10" stroke="#3399ff" opacity="1" stroke-width="2" fill="none"/>
  <circle cx="560" cy="720" r="10" stroke="#3399ff" opacity="1" stroke-width="2" fill="none"/>
  <circle cx="576" cy="720" r="10" stroke="#3399ff" opacity="1" stroke-width="2" fill="none"/>
  <circle cx="512" cy="720" r="10" stroke="#3399ff" opacity="1" stroke-width="2" fill="none"/>
  <circle cx="496" cy="688" r="10" stroke="#3399ff" opacity="1" stroke-width="2" fill="none"/>
  <circle cx="512" cy="704" r="10" stroke="#3399ff" opacity="1" stroke-width="2" fill="none"/>
  <circle cx="528" cy="704" r="10" stroke="#3399ff" opacity="1" stroke-width="2" fill="none"/>
  <circle cx="480" cy="688" r="10" stroke="#3399ff" opacity="1" stroke-width="2" fill="none"/>
  <circle cx="464" cy="720" r="10" stroke="#3399ff" opacity="1" stroke-width="2" fill="none"/>
  <circle cx="480" cy="736" r="10" stroke="#3399ff" opacity="1" stroke-width="2" fill="none"/>
  <circle cx="464" cy="736" r="10" stroke="#3399ff" opacity="1" stroke-width="2" fill="none"/>
  <circle cx="480" cy="752" r="10" stroke="#3399ff" opacity="1" stroke-width="2" fill="none"/>
  <circle cx="480" cy="768" r="10" stroke="#3399ff" opacity="1" stroke-width="2" fill="none"/>
  <circle cx="512" cy="752" r="10" stroke="#3399ff" opacity="1" stroke-width="2" fill="none"/>
  <circle cx="528" cy="768" r="10" stroke="#3399ff" opacity="1" stroke-width="2" fill="none"/>
  <circle cx="576" cy="784" r="10" stroke="#3399ff" opacity="1" stroke-width="2" fill="none"/>
  <circle cx="592" cy="768" r="10" stroke="#3399ff" opacity="1" stroke-width="2" fill="none"/>
  <circle cx="608" cy="752" r="6" stroke="#3399ff" opacity="1" stroke-width="2" fill="none"/>
  <circle cx="592" cy="784" r="10" stroke="#3399ff" opacity="1" stroke-width="2" fill="none"/>
  <circle cx="608" cy="768" r="10" stroke="#3399ff" opacity="1" stroke-width="2" fill="none"/>
  <circle cx="640" cy="752" r="10" stroke="#3399ff" opacity="1" stroke-width="2" fill="none"/>
  <circle cx="640" cy="768" r="10" stroke="#3399ff" opacity="1" stroke-width="2" fill="none"/>
  <circle cx="640" cy="736" r="10" stroke="#3399ff" opacity="1" stroke-width="2" fill="none"/>
  <circle cx="656" cy="768" r="10" stroke="#3399ff" opacity="1" stroke-width="2" fill="none"/>
  <circle cx="672" cy="752" r="10" stroke="#3399ff" opacity="1" stroke-width="2" fill="none"/>
  <circle cx="688" cy="736" r="10" stroke="#3399ff" opacity="1" stroke-width="2" fill="none"/>
  <circle cx="688" cy="752" r="10" stroke="#3399ff" opacity="1" stroke-width="2" fill="none"/>
  <circle cx="672" cy="768" r="10" stroke="#3399ff" opacity="1" stroke-width="2" fill="none"/>
  <circle cx="640" cy="720" r="10" stroke="#3399ff" opacity="1" stroke-width="2" fill="none"/>
  <circle cx="672" cy="688" r="10" stroke="#3399ff" opacity="1" stroke-width="2" fill="none"/>
  <circle cx="672" cy="672" r="10" stroke="#3399ff" opacity="1" stroke-width="2" fill="none"/>
  <circle cx="688" cy="672" r="10" stroke="#3399ff" opacity="1" stroke-width="2" fill="none"/>
  <circle cx="688" cy="656" r="10" stroke="#3399ff" opacity="1" stroke-width="2" fill="none"/>
  <circle cx="688" cy="640" r="10" stroke="#3399ff" opacity="1" stroke-width="2" fill="none"/>
  <circle cx="672" cy="624" r="10" stroke="#3399ff" opacity="1" stroke-width="2" fill="none"/>
  <circle cx="656" cy="608" r="10" stroke="#3399ff" opacity="1" stroke-width="2" fill="none"/>
  <circle cx="608" cy="592" r="10" stroke="#3399ff" opacity="1" stroke-width="2" fill="none"/>
  <circle cx="608" cy="576" r="10" stroke="#3399ff" opacity="1" stroke-width="2" fill="none"/>
  <circle cx="608" cy="560" r="10" stroke="#3399ff" opacity="1" stroke-width="2" fill="none"/>
  <circle cx="608" cy="544" r="10" stroke="#3399ff" opacity="1" stroke-width="2" fill="none"/>
  <circle cx="672" cy="608" r="10" stroke="#3399ff" opacity="1" stroke-width="2" fill="none"/>
  <circle cx="688" cy="624" r="10" stroke="#3399ff" opacity="1" stroke-width="2" fill="none"/>
  <circle cx="624" cy="576" r="10" stroke="#3399ff" opacity="1" stroke-width="2" fill="none"/>
  <circle cx="640" cy="544" r="10" stroke="#3399ff" opacity="1" stroke-width="2" fill="none"/>
  <circle cx="640" cy="528" r="10" stroke="#3399ff" opacity="1" stroke-width="2" fill="none"/>
  <circle cx="528" cy="528" r="10" stroke="#3399ff" opacity="1" stroke-width="2" fill="none"/>
  <circle cx="528" cy="512" r="10" stroke="#3399ff" opacity="1" stroke-width="2" fill="none"/>
  <circle cx="416" cy="528" r="10" stroke="#3399ff" opacity="1" stroke-width="2" fill="none"/>
  <circle cx="416" cy="496" r="10" stroke="#3399ff" opacity="1" stroke-width="2" fill="none"/>
  <circle cx="448" cy="496" r="10" stroke="#3399ff" opacity="1" stroke-width="2" fill="none"/>
  <circle cx="480" cy="480" r="10" stroke="#3399ff" opacity="1" stroke-width="2" fill="none"/>
  <circle cx="496" cy="496" r="10" stroke="#3399ff" opacity="1" stroke-width="2" fill="none"/>
  <circle cx="496" cy="464" r="10" stroke="#3399ff" opacity="1" stroke-width="2" fill="none"/>
  <circle cx="560" cy="512" r="10" stroke="#3399ff" opacity="1" stroke-width="2" fill="none"/>
  <circle cx="608" cy="496" r="19" stroke="#3399ff" opacity="1" stroke-width="2" fill="none"/>
  <circle cx="608" cy="464" r="19" stroke="#3399ff" opacity="1" stroke-width="2" fill="none"/>
  <circle cx="672" cy="480" r="19" stroke="#3399ff" opacity="1" stroke-width="2" fill="none"/>
  <circle cx="672" cy="528" r="19" stroke="#3399ff" opacity="1" stroke-width="2" fill="none"/>
  <circle cx="704" cy="544" r="19" stroke="#3399ff" opacity="1" stroke-width="2" fill="none"/>
  <circle cx="736" cy="560" r="15" stroke="#3399ff" opacity="1" stroke-width="2" fill="none"/>
  <circle cx="704" cy="576" r="10" stroke="#3399ff" opacity="1" stroke-width="2" fill="none"/>
  <circle cx="752" cy="608" r="10" stroke="#3399ff" opacity="1" stroke-width="2" fill="none"/>
  <circle cx="720" cy="608" r="10" stroke="#3399ff" opacity="1" stroke-width="2" fill="none"/>
  <circle cx="736" cy="640" r="10" stroke="#3399ff" opacity="1" stroke-width="2" fill="none"/>
  <circle cx="720" cy="784" r="17" stroke="#3399ff" opacity="1" stroke-width="2" fill="none"/>
  <circle cx="720" cy="816" r="15" stroke="#3399ff" opacity="1" stroke-width="2" fill="none"/>
  <circle cx="640" cy="832" r="16" stroke="#3399ff" opacity="1" stroke-width="2" fill="none"/>
  <circle cx="592" cy="784" r="16" stroke="#3399ff" opacity="1" stroke-width="2" fill="none"/>
  <circle cx="592" cy="784" r="15" stroke="#3399ff" opacity="1" stroke-width="2" fill="none"/>
  <circle cx="592" cy="784" r="14" stroke="#3399ff" opacity="1" stroke-width="2" fill="none"/>
  <circle cx="592" cy="784" r="13" stroke="#3399ff" opacity="1" stroke-width="2" fill="none"/>
  <circle cx="608" cy="816" r="11" stroke="#3399ff" opacity="1" stroke-width="2" fill="none"/>
  <circle cx="608" cy="832" r="10" stroke="#3399ff" opacity="1" stroke-width="2" fill="none"/>
  <circle cx="576" cy="800" r="11" stroke="#3399ff" opacity="1" stroke-width="2" fill="none"/>
  <circle cx="544" cy="816" r="11" stroke="#3399ff" opacity="1" stroke-width="2" fill="none"/>
  <circle cx="544" cy="800" r="10" stroke="#3399ff" opacity="1" stroke-width="2" fill="none"/>
  <circle cx="384" cy="784" r="10" stroke="#3399ff" opacity="1" stroke-width="2" fill="none"/>
  <circle cx="448" cy="816" r="10" stroke="#3399ff" opacity="1" stroke-width="2" fill="none"/>
  <circle cx="496" cy="800" r="10" stroke="#3399ff" opacity="1" stroke-width="2" fill="none"/>
  <circle cx="448" cy="784" r="10" stroke="#3399ff" opacity="1" stroke-width="2" fill="none"/>
  <circle cx="368" cy="784" r="10" stroke="#3399ff" opacity="1" stroke-width="2" fill="none"/>
  <circle cx="352" cy="624" r="50" stroke="#3399ff" opacity="1" stroke-width="2" fill="none"/>
  <circle cx="416" cy="592" r="30" stroke="#3399ff" opacity="1" stroke-width="2" fill="none"/>
  <circle cx="400" cy="656" r="10" stroke="#3399ff" opacity="1" stroke-width="2" fill="none"/>
  <circle cx="432" cy="640" r="10" stroke="#3399ff" opacity="1" stroke-width="2" fill="none"/>
  <circle cx="384" cy="544" r="10" stroke="#3399ff" opacity="1" stroke-width="2" fill="none"/>
  <circle cx="400" cy="512" r="10" stroke="#3399ff" opacity="1" stroke-width="2" fill="none"/>
  <circle cx="384" cy="496" r="10" stroke="#3399ff" opacity="1" stroke-width="2" fill="none"/>
  <circle cx="400" cy="480" r="10" stroke="#3399ff" opacity="1" stroke-width="2" fill="none"/>
  <circle cx="368" cy="496" r="10" stroke="#3399ff" opacity="1" stroke-width="2" fill="none"/>
  <circle cx="352" cy="496" r="10" stroke="#3399ff" opacity="1" stroke-width="2" fill="none"/>
  <circle cx="368" cy="528" r="10" stroke="#3399ff" opacity="1" stroke-width="2" fill="none"/>
  <circle cx="352" cy="512" r="10" stroke="#3399ff" opacity="1" stroke-width="2" fill="none"/>
  <circle cx="368" cy="480" r="10" stroke="#3399ff" opacity="1" stroke-width="2" fill="none"/>
  <circle cx="432" cy="464" r="10" stroke="#3399ff" opacity="1" stroke-width="2" fill="none"/>
  <circle cx="464" cy="448" r="10" stroke="#3399ff" opacity="1" stroke-width="2" fill="none"/>
  <circle cx="496" cy="432" r="10" stroke="#3399ff" opacity="1" stroke-width="2" fill="none"/>
  <circle cx="544" cy="480" r="10" stroke="#3399ff" opacity="1" stroke-width="2" fill="none"/>
  <circle cx="624" cy="416" r="10" stroke="#3399ff" opacity="1" stroke-width="2" fill="none"/>
  <circle cx="672" cy="416" r="10" stroke="#3399ff" opacity="1" stroke-width="2" fill="none"/>
  <circle cx="672" cy="432" r="10" stroke="#3399ff" opacity="1" stroke-width="2" fill="none"/>
  <circle cx="672" cy="448" r="9" stroke="#3399ff" opacity="1" stroke-width="2" fill="none"/>
  <circle cx="688" cy="464" r="10" stroke="#3399ff" opacity="1" stroke-width="2" fill="none"/>
  <circle cx="688" cy="432" r="10" stroke="#3399ff" opacity="1" stroke-width="2" fill="none"/>
  <circle cx="704" cy="432" r="10" stroke="#3399ff" opacity="1" stroke-width="2" fill="none"/>
  <circle cx="704" cy="448" r="10" stroke="#3399ff" opacity="1" stroke-width="2" fill="none"/>
  <circle cx="720" cy="416" r="10" stroke="#3399ff" opacity="1" stroke-width="2" fill="none"/>
  <circle cx="736" cy="432" r="10" stroke="#3399ff" opacity="1" stroke-width="2" fill="none"/>
  <circle cx="736" cy="448" r="10" stroke="#3399ff" opacity="1" stroke-width="2" fill="none"/>
  <circle cx="736" cy="464" r="10" stroke="#3399ff" opacity="1" stroke-width="2" fill="none"/>
  <circle cx="720" cy="480" r="10" stroke="#3399ff" opacity="1" stroke-width="2" fill="none"/>
  <circle cx="736" cy="480" r="10" stroke="#3399ff" opacity="1" stroke-width="2" fill="none"/>
  <circle cx="320" cy="736" r="33" stroke="#3399ff" opacity="1" stroke-width="2" fill="none"/>
  <circle cx="352" cy="800" r="30" stroke="#3399ff" opacity="1" stroke-width="2" fill="none"/>
  <circle cx="384" cy="704" r="10" stroke="#3399ff" opacity="1" stroke-width="2" fill="none"/>
  <circle cx="384" cy="672" r="10" stroke="#3399ff" opacity="1" stroke-width="2" fill="none"/>
  <circle cx="320" cy="496" r="10" stroke="#3399ff" opacity="1" stroke-width="2" fill="none"/>
  <circle cx="416" cy="544" r="10" stroke="#3399ff" opacity="1" stroke-width="2" fill="none"/>
  <circle cx="720" cy="800" r="3" stroke="#3399ff" opacity="1" stroke-width="2" fill="none"/>
  <circle cx="592" cy="784" r="11" stroke="#3399ff" opacity="1" stroke-width="2" fill="none"/>
  <circle cx="592" cy="784" r="12" stroke="#3399ff" opacity="1" stroke-width="2" fill="none"/>
  <circle cx="592" cy="784" r="9" stroke="#3399ff" opacity="1" stroke-width="2" fill="none"/>
  <circle cx="592" cy="784" r="8" stroke="#3399ff" opacity="1" stroke-width="2" fill="none"/>
  <circle cx="592" cy="784" r="7" stroke="#3399ff" opacity="1" stroke-width="2" fill="none"/>
  <circle cx="592" cy="784" r="6" stroke="#3399ff" opacity="1" stroke-width="2" fill="none"/>
  <circle cx="592" cy="784" r="5" stroke="#3399ff" opacity="1" stroke-width="2" fill="none"/>
  <circle cx="592" cy="784" r="4" stroke="#3399ff" opacity="1" stroke-width="2" fill="none"/>
  <path marker-end="url(#spawn)" stroke-width="0.5" stroke="red" d="M 0 0 0 1" transform="translate(424,740) scale(1 -1) rotate(-90) matrix(0,1,-1,0,0,0)" fill="none"/>
</svg>
