<?xml version="1.0" encoding="UTF-8" standalone="no"?>
<svg xmlns="http://www.w3.org/2000/svg" viewBox="59,-21,1098,634" width="100%" height="100%">
  <defs>
    <marker id="spawn" markerWidth="30" markerHeight="40" refX="2" refY="15" orient="auto" viewBox="0 0 40 30">
      <path d="M -5,0 -5,20 -15,20 0,40 15,20 5,20 5,0 Z" fill="magenta" transform="translate(0,15) rotate(-90)"/>
    </marker>
  </defs>
  <polyline points="512,224 448,288 448,320 512,384 544,384 608,320 544,256 672,256 608,320 672,384 704,384 768,320 768,288 704,224" stroke="white" stroke-width="2" fill="none"/>
  <polyline points="512,224 576,160 576,224" stroke="white" stroke-width="2" fill="none"/>
  <polyline points="704,224 640,160 640,224" stroke="white" stroke-width="2" fill="none"/>
  <polyline points="592,384 560,416 304,416 576,144 592,160 624,160 640,144 912,416 656,416 624,384" stroke="white" stroke-width="2" fill="none"/>
  <polyline points="544,384 560,384 576,368 640,368 656,384 672,384" stroke="white" stroke-width="2" fill="none"/>
  <polyline points="608,320 608,448" stroke="white" stroke-width="2" fill="none"/>
  <polyline points="560,416 592,448 592,496" stroke="white" stroke-width="2" fill="none"/>
  <polyline points="656,416 624,448 624,496" stroke="white" stroke-width="2" fill="none"/>
  <polyline points="304,448 528,448 608,528 688,448 912,448" stroke="white" stroke-width="2" fill="none"/>
  <polyline points="1088,272 912,448" stroke="white" stroke-width="2" fill="none"/>
  <polyline points="128,272 352,48 592,48 592,144" stroke="white" stroke-width="2" fill="none"/>
  <polyline points="1088,272 864,48 624,48 624,144" stroke="white" stroke-width="2" fill="none"/>
  <polyline points="304,416 304,112" stroke="white" stroke-width="2" fill="none"/>
  <polyline points="912,416 912,112" stroke="white" stroke-width="2" fill="none"/>
  <polyline points="592,112 320,112" stroke="white" stroke-width="2" fill="none"/>
  <polyline points="624,112 896,112" stroke="white" stroke-width="2" fill="none"/>
  <polyline points="304,112 336,80 528,80" stroke="white" stroke-width="2" fill="none"/>
  <polyline points="912,112 880,80 688,80" stroke="white" stroke-width="2" fill="none"/>
  <polyline points="496,448 464,432" stroke="white" stroke-width="2" fill="none"/>
  <polyline points="432,416 432,432" stroke="white" stroke-width="2" fill="none"/>
  <polyline points="416,432 400,448" stroke="white" stroke-width="2" fill="none"/>
  <polyline points="384,416 336,432" stroke="white" stroke-width="2" fill="none"/>
  <polyline points="336,448 384,432" stroke="white" stroke-width="2" fill="none"/>
  <polyline points="304,448 320,432" stroke="white" stroke-width="2" fill="none"/>
  <polyline points="912,448 896,432" stroke="white" stroke-width="2" fill="none"/>
  <polyline points="880,448 832,432" stroke="white" stroke-width="2" fill="none"/>
  <polyline points="832,416 880,432" stroke="white" stroke-width="2" fill="none"/>
  <polyline points="816,448 800,432" stroke="white" stroke-width="2" fill="none"/>
  <polyline points="784,416 784,432" stroke="white" stroke-width="2" fill="none"/>
  <polyline points="720,448 752,432" stroke="white" stroke-width="2" fill="none"/>
  <polyline points="688,448 640,448" stroke="white" stroke-width="2" fill="none"/>
  <polyline points="528,448 576,448" stroke="white" stroke-width="2" fill="none"/>
  <polyline points="592,464 560,464" stroke="white" stroke-width="2" fill="none"/>
  <polyline points="624,464 656,464" stroke="white" stroke-width="2" fill="none"/>
  <polyline points="560,480 576,480" stroke="white" stroke-width="2" fill="none"/>
  <polyline points="656,480 640,480" stroke="white" stroke-width="2" fill="none"/>
  <polyline points="944,368 912,416" stroke="white" stroke-width="2" fill="none"/>
  <polyline points="272,368 304,416" stroke="white" stroke-width="2" fill="none"/>
  <polyline points="256,352 288,336 288,384" stroke="white" stroke-width="2" fill="none"/>
  <polyline points="960,352 928,336 928,384" stroke="white" stroke-width="2" fill="none"/>
  <polyline points="208,336 272,336" stroke="white" stroke-width="2" fill="none"/>
  <polyline points="1008,336 944,336" stroke="white" stroke-width="2" fill="none"/>
  <polyline points="192,336 192,320" stroke="white" stroke-width="2" fill="none"/>
  <polyline points="1024,336 1024,320" stroke="white" stroke-width="2" fill="none"/>
  <polyline points="1040,240 1056,272 1040,304" stroke="white" stroke-width="2" fill="none"/>
  <polyline points="176,240 160,272 176,304" stroke="white" stroke-width="2" fill="none"/>
  <polyline points="240,208 272,176" stroke="white" stroke-width="2" fill="none"/>
  <polyline points="976,208 944,176" stroke="white" stroke-width="2" fill="none"/>
  <polyline points="960,144 928,176 928,224" stroke="white" stroke-width="2" fill="none"/>
  <polyline points="256,144 288,176 288,224" stroke="white" stroke-width="2" fill="none"/>
  <polyline points="528,64 528,96" stroke="white" stroke-width="2" fill="none"/>
  <polyline points="688,64 688,96" stroke="white" stroke-width="2" fill="none"/>
  <polyline points="336,320 368,320" stroke="white" stroke-width="2" fill="none"/>
  <polyline points="880,320 848,320" stroke="white" stroke-width="2" fill="none"/>
  <polyline points="816,320 816,256 768,256 768,224 720,224" stroke="white" stroke-width="2" fill="none"/>
  <polyline points="400,320 400,256 448,256 448,224 496,224" stroke="white" stroke-width="2" fill="none"/>
  <polyline points="448,128 464,128 528,192" stroke="white" stroke-width="2" fill="none"/>
  <polyline points="768,128 752,128 688,192" stroke="white" stroke-width="2" fill="none"/>
  <polyline points="352,-16 864,-16 1152,272 816,608 400,608 64,272 352,-16" stroke="white" stroke-width="2" fill="none"/>
  <polyline points="608,16 619,21 624,32 619,43 608,48 597,43 592,32 597,21 608,16" stroke="white" stroke-width="2" fill="none"/>
  <polyline points="608,-16 619,-11 624,0 619,11 608,16 597,11 592,0 597,-11 608,-16" stroke="white" stroke-width="2" fill="none"/>
  <polyline points="576,16 576,48" stroke="white" stroke-width="2" fill="none"/>
  <polyline points="640,16 640,48" stroke="white" stroke-width="2" fill="none"/>
  <polyline points="544,256 528,272 528,368" stroke="white" stroke-width="2" fill="none"/>
  <polyline points="672,256 688,272 688,368" stroke="white" stroke-width="2" fill="none"/>
  <polyline points="128,272 304,448" stroke="white" stroke-width="2" fill="none"/>
  <polyline points="928,464 688,464 624,528" stroke="white" stroke-width="2" fill="none"/>
  <polyline points="288,464 528,464 592,528" stroke="white" stroke-width="2" fill="none"/>
  <polyline points="304,480 400,576 592,576 496,480" stroke="white" stroke-width="2" fill="none"/>
  <polyline points="912,480 816,576 624,576 720,480" stroke="white" stroke-width="2" fill="none"/>
  <circle cx="480" cy="528" r="22" stroke="#00ff99" opacity="1" stroke-width="2" fill="none"/>
  <circle cx="736" cy="528" r="22" stroke="#00ff99" opacity="1" stroke-width="2" fill="none"/>
  <circle cx="432" cy="368" r="47" stroke="#3399ff" opacity="1" stroke-width="2" fill="none"/>
  <circle cx="784" cy="368" r="47" stroke="#3399ff" opacity="1" stroke-width="2" fill="none"/>
  <circle cx="592" cy="384" r="15" stroke="#3399ff" opacity="1" stroke-width="2" fill="none"/>
  <circle cx="592" cy="336" r="31" stroke="#3399ff" opacity="1" stroke-width="2" fill="none"/>
  <circle cx="624" cy="336" r="31" stroke="#3399ff" opacity="1" stroke-width="2" fill="none"/>
  <circle cx="624" cy="384" r="15" stroke="#3399ff" opacity="1" stroke-width="2" fill="none"/>
  <circle cx="608" cy="416" r="15" stroke="#3399ff" opacity="1" stroke-width="2" fill="none"/>
  <circle cx="624" cy="432" r="10" stroke="#3399ff" opacity="1" stroke-width="2" fill="none"/>
  <circle cx="592" cy="432" r="10" stroke="#3399ff" opacity="1" stroke-width="2" fill="none"/>
  <circle cx="608" cy="464" r="15" stroke="#3399ff" opacity="1" stroke-width="2" fill="none"/>
  <circle cx="240" cy="272" r="64.1" stroke="#3399ff" opacity="1" stroke-width="2" fill="none"/>
  <circle cx="976" cy="272" r="64.1" stroke="#3399ff" opacity="1" stroke-width="2" fill="none"/>
  <circle cx="240" cy="368" r="16" stroke="#3399ff" opacity="1" stroke-width="2" fill="none"/>
  <circle cx="976" cy="368" r="16" stroke="#3399ff" opacity="1" stroke-width="2" fill="none"/>
  <circle cx="256" cy="352" r="10" stroke="#3399ff" opacity="1" stroke-width="2" fill="none"/>
  <circle cx="960" cy="352" r="10" stroke="#3399ff" opacity="1" stroke-width="2" fill="none"/>
  <circle cx="992" cy="352" r="10" stroke="#3399ff" opacity="1" stroke-width="2" fill="none"/>
  <circle cx="224" cy="352" r="10" stroke="#3399ff" opacity="1" stroke-width="2" fill="none"/>
  <circle cx="240" cy="336" r="10" stroke="#3399ff" opacity="1" stroke-width="2" fill="none"/>
  <circle cx="976" cy="336" r="10" stroke="#3399ff" opacity="1" stroke-width="2" fill="none"/>
  <circle cx="640" cy="448" r="10" stroke="#3399ff" opacity="1" stroke-width="2" fill="none"/>
  <circle cx="576" cy="448" r="10" stroke="#3399ff" opacity="1" stroke-width="2" fill="none"/>
  <circle cx="560" cy="464" r="10" stroke="#3399ff" opacity="1" stroke-width="2" fill="none"/>
  <circle cx="656" cy="464" r="10" stroke="#3399ff" opacity="1" stroke-width="2" fill="none"/>
  <circle cx="640" cy="480" r="10" stroke="#3399ff" opacity="1" stroke-width="2" fill="none"/>
  <circle cx="576" cy="480" r="10" stroke="#3399ff" opacity="1" stroke-width="2" fill="none"/>
  <circle cx="592" cy="496" r="10" stroke="#3399ff" opacity="1" stroke-width="2" fill="none"/>
  <circle cx="624" cy="496" r="10" stroke="#3399ff" opacity="1" stroke-width="2" fill="none"/>
  <circle cx="608" cy="512" r="8" stroke="#3399ff" opacity="1" stroke-width="2" fill="none"/>
  <circle cx="944" cy="368" r="10" stroke="#3399ff" opacity="1" stroke-width="2" fill="none"/>
  <circle cx="272" cy="368" r="10" stroke="#3399ff" opacity="1" stroke-width="2" fill="none"/>
  <circle cx="256" cy="384" r="10" stroke="#3399ff" opacity="1" stroke-width="2" fill="none"/>
  <circle cx="960" cy="384" r="10" stroke="#3399ff" opacity="1" stroke-width="2" fill="none"/>
  <circle cx="176" cy="272" r="10" stroke="#3399ff" opacity="1" stroke-width="2" fill="none"/>
  <circle cx="1040" cy="272" r="10" stroke="#3399ff" opacity="1" stroke-width="2" fill="none"/>
  <circle cx="976" cy="160" r="10" stroke="#3399ff" opacity="1" stroke-width="2" fill="none"/>
  <circle cx="976" cy="176" r="10" stroke="#3399ff" opacity="1" stroke-width="2" fill="none"/>
  <circle cx="976" cy="192" r="10" stroke="#3399ff" opacity="1" stroke-width="2" fill="none"/>
  <circle cx="240" cy="160" r="10" stroke="#3399ff" opacity="1" stroke-width="2" fill="none"/>
  <circle cx="240" cy="176" r="10" stroke="#3399ff" opacity="1" stroke-width="2" fill="none"/>
  <circle cx="240" cy="192" r="10" stroke="#3399ff" opacity="1" stroke-width="2" fill="none"/>
  <circle cx="288" cy="208" r="10" stroke="#3399ff" opacity="1" stroke-width="2" fill="none"/>
  <circle cx="928" cy="208" r="10" stroke="#3399ff" opacity="1" stroke-width="2" fill="none"/>
  <circle cx="944" cy="176" r="10" stroke="#3399ff" opacity="1" stroke-width="2" fill="none"/>
  <circle cx="272" cy="176" r="10" stroke="#3399ff" opacity="1" stroke-width="2" fill="none"/>
  <circle cx="304" cy="144" r="16" stroke="#3399ff" opacity="1" stroke-width="2" fill="none"/>
  <circle cx="912" cy="144" r="16" stroke="#3399ff" opacity="1" stroke-width="2" fill="none"/>
  <circle cx="320" cy="128" r="10" stroke="#3399ff" opacity="1" stroke-width="2" fill="none"/>
  <circle cx="896" cy="128" r="10" stroke="#3399ff" opacity="1" stroke-width="2" fill="none"/>
  <circle cx="656" cy="80" r="31" stroke="#3399ff" opacity="1" stroke-width="2" fill="none"/>
  <circle cx="560" cy="80" r="31" stroke="#3399ff" opacity="1" stroke-width="2" fill="none"/>
  <circle cx="816" cy="176" r="64.1" stroke="#3399ff" opacity="1" stroke-width="2" fill="none"/>
  <circle cx="400" cy="176" r="64.1" stroke="#3399ff" opacity="1" stroke-width="2" fill="none"/>
  <circle cx="336" cy="144" r="10" stroke="#3399ff" opacity="1" stroke-width="2" fill="none"/>
  <circle cx="880" cy="144" r="10" stroke="#3399ff" opacity="1" stroke-width="2" fill="none"/>
  <circle cx="352" cy="272" r="47" stroke="#3399ff" opacity="1" stroke-width="2" fill="none"/>
  <circle cx="864" cy="272" r="47" stroke="#3399ff" opacity="1" stroke-width="2" fill="none"/>
  <circle cx="896" cy="160" r="10" stroke="#3399ff" opacity="1" stroke-width="2" fill="none"/>
  <circle cx="320" cy="160" r="10" stroke="#3399ff" opacity="1" stroke-width="2" fill="none"/>
  <circle cx="336" cy="176" r="10" stroke="#3399ff" opacity="1" stroke-width="2" fill="none"/>
  <circle cx="880" cy="176" r="10" stroke="#3399ff" opacity="1" stroke-width="2" fill="none"/>
  <circle cx="896" cy="208" r="16" stroke="#3399ff" opacity="1" stroke-width="2" fill="none"/>
  <circle cx="320" cy="208" r="16" stroke="#3399ff" opacity="1" stroke-width="2" fill="none"/>
  <circle cx="352" cy="336" r="16" stroke="#3399ff" opacity="1" stroke-width="2" fill="none"/>
  <circle cx="864" cy="336" r="16" stroke="#3399ff" opacity="1" stroke-width="2" fill="none"/>
  <circle cx="528" cy="144" r="32.1" stroke="#3399ff" opacity="1" stroke-width="2" fill="none"/>
  <circle cx="688" cy="144" r="32.1" stroke="#3399ff" opacity="1" stroke-width="2" fill="none"/>
  <circle cx="608" cy="160" r="16" stroke="#3399ff" opacity="1" stroke-width="2" fill="none"/>
  <circle cx="640" cy="144" r="10" stroke="#3399ff" opacity="1" stroke-width="2" fill="none"/>
  <circle cx="576" cy="144" r="10" stroke="#3399ff" opacity="1" stroke-width="2" fill="none"/>
  <circle cx="464" cy="144" r="10" stroke="#3399ff" opacity="1" stroke-width="2" fill="none"/>
  <circle cx="752" cy="144" r="10" stroke="#3399ff" opacity="1" stroke-width="2" fill="none"/>
  <circle cx="608" cy="32" r="16" stroke="#3399ff" opacity="1" stroke-width="2" fill="none"/>
  <circle cx="608" cy="0" r="16" stroke="#3399ff" opacity="1" stroke-width="2" fill="none"/>
  <circle cx="640" cy="16" r="10" stroke="#3399ff" opacity="1" stroke-width="2" fill="none"/>
  <circle cx="576" cy="16" r="10" stroke="#3399ff" opacity="1" stroke-width="2" fill="none"/>
  <circle cx="512" cy="16" r="31" stroke="#3399ff" opacity="1" stroke-width="2" fill="none"/>
  <circle cx="704" cy="16" r="31" stroke="#3399ff" opacity="1" stroke-width="2" fill="none"/>
  <circle cx="448" cy="16" r="31" stroke="#3399ff" opacity="1" stroke-width="2" fill="none"/>
  <circle cx="768" cy="16" r="31" stroke="#3399ff" opacity="1" stroke-width="2" fill="none"/>
  <circle cx="384" cy="16" r="31" stroke="#3399ff" opacity="1" stroke-width="2" fill="none"/>
  <circle cx="832" cy="16" r="31" stroke="#3399ff" opacity="1" stroke-width="2" fill="none"/>
  <circle cx="880" cy="32" r="20" stroke="#3399ff" opacity="1" stroke-width="2" fill="none"/>
  <circle cx="336" cy="32" r="20" stroke="#3399ff" opacity="1" stroke-width="2" fill="none"/>
  <circle cx="912" cy="64" r="22" stroke="#3399ff" opacity="1" stroke-width="2" fill="none"/>
  <circle cx="304" cy="64" r="22" stroke="#3399ff" opacity="1" stroke-width="2" fill="none"/>
  <circle cx="272" cy="96" r="22" stroke="#3399ff" opacity="1" stroke-width="2" fill="none"/>
  <circle cx="944" cy="96" r="22" stroke="#3399ff" opacity="1" stroke-width="2" fill="none"/>
  <circle cx="1024" cy="176" r="22" stroke="#3399ff" opacity="1" stroke-width="2" fill="none"/>
  <circle cx="192" cy="176" r="22" stroke="#3399ff" opacity="1" stroke-width="2" fill="none"/>
  <circle cx="160" cy="208" r="22" stroke="#3399ff" opacity="1" stroke-width="2" fill="none"/>
  <circle cx="128" cy="240" r="22" stroke="#3399ff" opacity="1" stroke-width="2" fill="none"/>
  <circle cx="96" cy="272" r="22" stroke="#3399ff" opacity="1" stroke-width="2" fill="none"/>
  <circle cx="1056" cy="208" r="22" stroke="#3399ff" opacity="1" stroke-width="2" fill="none"/>
  <circle cx="1088" cy="240" r="22" stroke="#3399ff" opacity="1" stroke-width="2" fill="none"/>
  <circle cx="1120" cy="272" r="22" stroke="#3399ff" opacity="1" stroke-width="2" fill="none"/>
  <circle cx="240" cy="128" r="18" stroke="#3399ff" opacity="1" stroke-width="2" fill="none"/>
  <circle cx="976" cy="128" r="18" stroke="#3399ff" opacity="1" stroke-width="2" fill="none"/>
  <circle cx="256" cy="112" r="8" stroke="#3399ff" opacity="1" stroke-width="2" fill="none"/>
  <circle cx="960" cy="112" r="8" stroke="#3399ff" opacity="1" stroke-width="2" fill="none"/>
  <circle cx="1008" cy="160" r="18" stroke="#3399ff" opacity="1" stroke-width="2" fill="none"/>
  <circle cx="208" cy="160" r="18" stroke="#3399ff" opacity="1" stroke-width="2" fill="none"/>
  <circle cx="224" cy="144" r="10" stroke="#3399ff" opacity="1" stroke-width="2" fill="none"/>
  <circle cx="992" cy="144" r="10" stroke="#3399ff" opacity="1" stroke-width="2" fill="none"/>
  <circle cx="128" cy="304" r="22" stroke="#3399ff" opacity="1" stroke-width="2" fill="none"/>
  <circle cx="160" cy="336" r="22" stroke="#3399ff" opacity="1" stroke-width="2" fill="none"/>
  <circle cx="192" cy="368" r="22" stroke="#3399ff" opacity="1" stroke-width="2" fill="none"/>
  <circle cx="224" cy="400" r="22" stroke="#3399ff" opacity="1" stroke-width="2" fill="none"/>
  <circle cx="256" cy="432" r="22" stroke="#3399ff" opacity="1" stroke-width="2" fill="none"/>
  <circle cx="1088" cy="304" r="22" stroke="#3399ff" opacity="1" stroke-width="2" fill="none"/>
  <circle cx="1056" cy="336" r="22" stroke="#3399ff" opacity="1" stroke-width="2" fill="none"/>
  <circle cx="1024" cy="368" r="22" stroke="#3399ff" opacity="1" stroke-width="2" fill="none"/>
  <circle cx="992" cy="400" r="22" stroke="#3399ff" opacity="1" stroke-width="2" fill="none"/>
  <circle cx="960" cy="432" r="22" stroke="#3399ff" opacity="1" stroke-width="2" fill="none"/>
  <circle cx="288" cy="464" r="22" stroke="#3399ff" opacity="1" stroke-width="2" fill="none"/>
  <circle cx="928" cy="464" r="22" stroke="#3399ff" opacity="1" stroke-width="2" fill="none"/>
  <circle cx="672" cy="512" r="22" stroke="#3399ff" opacity="1" stroke-width="2" fill="none"/>
  <circle cx="544" cy="512" r="22" stroke="#3399ff" opacity="1" stroke-width="2" fill="none"/>
  <circle cx="480" cy="496" r="31" stroke="#3399ff" opacity="1" stroke-width="2" fill="none"/>
  <circle cx="736" cy="496" r="31" stroke="#3399ff" opacity="1" stroke-width="2" fill="none"/>
  <circle cx="432" cy="496" r="22" stroke="#3399ff" opacity="1" stroke-width="2" fill="none"/>
  <circle cx="384" cy="496" r="22" stroke="#3399ff" opacity="1" stroke-width="2" fill="none"/>
  <circle cx="768" cy="496" r="22" stroke="#3399ff" opacity="1" stroke-width="2" fill="none"/>
  <circle cx="816" cy="496" r="22" stroke="#3399ff" opacity="1" stroke-width="2" fill="none"/>
  <circle cx="528" cy="256" r="22" stroke="#3399ff" opacity="1" stroke-width="2" fill="none"/>
  <circle cx="688" cy="256" r="22" stroke="#3399ff" opacity="1" stroke-width="2" fill="none"/>
  <circle cx="640" cy="224" r="22" stroke="#3399ff" opacity="1" stroke-width="2" fill="none"/>
  <circle cx="576" cy="224" r="22" stroke="#3399ff" opacity="1" stroke-width="2" fill="none"/>
  <circle cx="608" cy="560" r="16" stroke="#3399ff" opacity="1" stroke-width="2" fill="none"/>
  <circle cx="608" cy="544" r="16" stroke="#3399ff" opacity="1" stroke-width="2" fill="none"/>
  <circle cx="288" cy="480" r="11" stroke="#3399ff" opacity="1" stroke-width="2" fill="none"/>
  <circle cx="928" cy="480" r="11" stroke="#3399ff" opacity="1" stroke-width="2" fill="none"/>
  <path marker-end="url(#spawn)" stroke-width="0.5" stroke="red" d="M 0 0 0 1" transform="translate(669,288) scale(1 -1) rotate(-90) matrix(0,-1,1,0,0,0)" fill="none"/>
  <path marker-end="url(#spawn)" stroke-width="0.5" stroke="red" d="M 0 0 0 1" transform="translate(670,288) scale(1 -1) rotate(-90) matrix(0,-1,1,0,0,0)" fill="none"/>
  <path marker-end="url(#spawn)" stroke-width="0.5" stroke="red" d="M 0 0 0 1" transform="translate(671,288) scale(1 -1) rotate(-90) matrix(0,-1,1,0,0,0)" fill="none"/>
  <path marker-end="url(#spawn)" stroke-width="0.5" stroke="red" d="M 0 0 0 1" transform="translate(672,288) scale(1 -1) rotate(-90) matrix(0,-1,1,0,0,0)" fill="none"/>
  <path marker-end="url(#spawn)" stroke-width="0.5" stroke="red" d="M 0 0 0 1" transform="translate(673,288) scale(1 -1) rotate(-90) matrix(0,-1,1,0,0,0)" fill="none"/>
  <path marker-end="url(#spawn)" stroke-width="0.5" stroke="red" d="M 0 0 0 1" transform="translate(674,288) scale(1 -1) rotate(-90) matrix(0,-1,1,0,0,0)" fill="none"/>
  <path marker-end="url(#spawn)" stroke-width="0.5" stroke="red" d="M 0 0 0 1" transform="translate(675,288) scale(1 -1) rotate(-90) matrix(0,-1,1,0,0,0)" fill="none"/>
  <path marker-end="url(#spawn)" stroke-width="0.5" stroke="red" d="M 0 0 0 1" transform="translate(541,288) scale(1 -1) rotate(-90) matrix(0,-1,1,0,0,0)" fill="none"/>
  <path marker-end="url(#spawn)" stroke-width="0.5" stroke="red" d="M 0 0 0 1" transform="translate(542,288) scale(1 -1) rotate(-90) matrix(0,-1,1,0,0,0)" fill="none"/>
  <path marker-end="url(#spawn)" stroke-width="0.5" stroke="red" d="M 0 0 0 1" transform="translate(543,288) scale(1 -1) rotate(-90) matrix(0,-1,1,0,0,0)" fill="none"/>
  <path marker-end="url(#spawn)" stroke-width="0.5" stroke="red" d="M 0 0 0 1" transform="translate(544,288) scale(1 -1) rotate(-90) matrix(0,-1,1,0,0,0)" fill="none"/>
  <path marker-end="url(#spawn)" stroke-width="0.5" stroke="red" d="M 0 0 0 1" transform="translate(545,288) scale(1 -1) rotate(-90) matrix(0,-1,1,0,0,0)" fill="none"/>
  <path marker-end="url(#spawn)" stroke-width="0.5" stroke="red" d="M 0 0 0 1" transform="translate(546,288) scale(1 -1) rotate(-90) matrix(0,-1,1,0,0,0)" fill="none"/>
  <path marker-end="url(#spawn)" stroke-width="0.5" stroke="red" d="M 0 0 0 1" transform="translate(547,288) scale(1 -1) rotate(-90) matrix(0,-1,1,0,0,0)" fill="none"/>
</svg>
