<?xml version="1.0" encoding="UTF-8" standalone="no"?>
<svg xmlns="http://www.w3.org/2000/svg" viewBox="75,-901,1034,1034" width="100%" height="100%">
  <defs>
    <marker id="spawn" markerWidth="30" markerHeight="40" refX="2" refY="15" orient="auto" viewBox="0 0 40 30">
      <path d="M -5,0 -5,20 -15,20 0,40 15,20 5,20 5,0 Z" fill="magenta" transform="translate(0,15) rotate(-90)"/>
    </marker>
  </defs>
  <polyline points="560,-272 560,-512 624,-512 624,-272" stroke="white" stroke-width="2" fill="none"/>
  <polyline points="528,-544 528,-112 656,-112 656,-544" stroke="white" stroke-width="2" fill="none"/>
  <polyline points="528,-544 576,-544 576,-560" stroke="white" stroke-width="2" fill="none"/>
  <polyline points="656,-544 608,-544 608,-560" stroke="white" stroke-width="2" fill="none"/>
  <polyline points="592,-576 496,-576 496,-544 512,-528 512,-128 496,-112 496,-96 512,-80 576,-80 576,-64" stroke="white" stroke-width="2" fill="none"/>
  <polyline points="608,-64 608,-80 672,-80 688,-96 688,-112 672,-128 672,-528 688,-544 688,-576 592,-576" stroke="white" stroke-width="2" fill="none"/>
  <polyline points="592,-48 528,-48 480,-96 480,-560 464,-576 464,-592 480,-608 576,-608 576,-832" stroke="white" stroke-width="2" fill="none"/>
  <polyline points="608,-832 608,-608 704,-608 720,-592 720,-576 704,-560 704,-96 656,-48 592,-48" stroke="white" stroke-width="2" fill="none"/>
  <polyline points="592,-896 636,-894 680,-888 724,-878 767,-865 808,-848 847,-827 885,-803 921,-776 954,-746 984,-713 1011,-677 1035,-640 1056,-600 1073,-559 1086,-516 1096,-472 1102,-428 1104,-384 1102,-340 1096,-296 1086,-252 1073,-209 1056,-168 1035,-129 1011,-91 984,-55 954,-22 921,8 885,35 847,59 808,80 767,97 724,110 680,120 636,126 592,128 548,126 504,120 460,110 417,97 376,80 336,59 299,35 263,8 230,-22 200,-55 173,-91 149,-128 128,-168 111,-209 98,-252 88,-296 82,-340 80,-384 82,-428 88,-472 98,-516 111,-559 128,-600 149,-640 173,-677 200,-713 230,-746 263,-776 299,-803 336,-827 376,-848 417,-865 460,-878 504,-888 548,-894 592,-896" stroke="white" stroke-width="2" fill="none"/>
  <polyline points="608,-832 631,-830 669,-825 707,-816 745,-804 781,-790 815,-771 848,-750 879,-727 908,-700 935,-671 958,-640 979,-608 998,-573 1012,-537 1024,-499 1033,-461 1038,-423 1040,-384 1038,-345 1033,-307 1024,-269 1012,-231 998,-195 979,-161 958,-128 935,-97 908,-68 879,-41 848,-18 815,3 781,22 745,36 707,48 669,57 631,62 592,64 553,62 515,57 477,48 439,36 403,22 368,3 336,-18 305,-41 276,-68 249,-97 226,-128 205,-160 186,-195 172,-231 160,-269 151,-307 146,-345 144,-384 146,-423 151,-461 160,-499 172,-537 186,-573 205,-608 226,-640 249,-671 276,-700 305,-727 336,-750 368,-771 403,-790 439,-804 477,-816 515,-825 553,-830 576,-832" stroke="white" stroke-width="2" fill="none"/>
  <polyline points="576,-832 592,-848 592,-896" stroke="white" stroke-width="2" fill="none"/>
  <circle cx="560" cy="-256" r="16" stroke="#3399ff" opacity="1" stroke-width="2" fill="none"/>
  <circle cx="624" cy="-256" r="16" stroke="#3399ff" opacity="1" stroke-width="2" fill="none"/>
  <circle cx="624" cy="-224" r="16" stroke="#3399ff" opacity="1" stroke-width="2" fill="none"/>
  <circle cx="624" cy="-192" r="16" stroke="#3399ff" opacity="1" stroke-width="2" fill="none"/>
  <circle cx="560" cy="-224" r="16" stroke="#3399ff" opacity="1" stroke-width="2" fill="none"/>
  <circle cx="560" cy="-192" r="16" stroke="#3399ff" opacity="1" stroke-width="2" fill="none"/>
  <circle cx="560" cy="-160" r="16" stroke="#3399ff" opacity="1" stroke-width="2" fill="none"/>
  <circle cx="624" cy="-160" r="16" stroke="#3399ff" opacity="1" stroke-width="2" fill="none"/>
  <circle cx="592" cy="-112" r="16" stroke="#3399ff" opacity="1" stroke-width="2" fill="none"/>
  <circle cx="560" cy="-112" r="16" stroke="#3399ff" opacity="1" stroke-width="2" fill="none"/>
  <circle cx="624" cy="-112" r="16" stroke="#3399ff" opacity="1" stroke-width="2" fill="none"/>
  <circle cx="656" cy="-112" r="16" stroke="#3399ff" opacity="1" stroke-width="2" fill="none"/>
  <circle cx="528" cy="-112" r="16" stroke="#3399ff" opacity="1" stroke-width="2" fill="none"/>
  <circle cx="624" cy="-512" r="16" stroke="#3399ff" opacity="1" stroke-width="2" fill="none"/>
  <circle cx="560" cy="-512" r="16" stroke="#3399ff" opacity="1" stroke-width="2" fill="none"/>
  <circle cx="528" cy="-544" r="16" stroke="#3399ff" opacity="1" stroke-width="2" fill="none"/>
  <circle cx="656" cy="-544" r="16" stroke="#3399ff" opacity="1" stroke-width="2" fill="none"/>
  <circle cx="592" cy="-528" r="16" stroke="#3399ff" opacity="1" stroke-width="2" fill="none"/>
  <circle cx="592" cy="-576" r="16" stroke="#3399ff" opacity="1" stroke-width="2" fill="none"/>
  <circle cx="496" cy="-576" r="16" stroke="#3399ff" opacity="1" stroke-width="2" fill="none"/>
  <circle cx="688" cy="-576" r="16" stroke="#3399ff" opacity="1" stroke-width="2" fill="none"/>
  <circle cx="592" cy="-96" r="16" stroke="#3399ff" opacity="1" stroke-width="2" fill="none"/>
  <circle cx="592" cy="-48" r="16" stroke="#3399ff" opacity="1" stroke-width="2" fill="none"/>
  <circle cx="480" cy="-528" r="16" stroke="#3399ff" opacity="1" stroke-width="2" fill="none"/>
  <circle cx="704" cy="-528" r="16" stroke="#3399ff" opacity="1" stroke-width="2" fill="none"/>
  <circle cx="656" cy="-608" r="16" stroke="#3399ff" opacity="1" stroke-width="2" fill="none"/>
  <circle cx="528" cy="-608" r="16" stroke="#3399ff" opacity="1" stroke-width="2" fill="none"/>
  <circle cx="560" cy="-864" r="32" stroke="#33ff33" opacity="1" stroke-width="2" fill="none"/>
  <circle cx="592" cy="-864" r="32" stroke="#3399ff" opacity="1" stroke-width="2" fill="none"/>
  <circle cx="688" cy="-848" r="16" stroke="#3399ff" opacity="1" stroke-width="2" fill="none"/>
  <circle cx="752" cy="-832" r="16" stroke="#3399ff" opacity="1" stroke-width="2" fill="none"/>
  <circle cx="816" cy="-800" r="16" stroke="#3399ff" opacity="1" stroke-width="2" fill="none"/>
  <circle cx="880" cy="-768" r="16" stroke="#3399ff" opacity="1" stroke-width="2" fill="none"/>
  <circle cx="928" cy="-720" r="16" stroke="#3399ff" opacity="1" stroke-width="2" fill="none"/>
  <circle cx="976" cy="-672" r="16" stroke="#3399ff" opacity="1" stroke-width="2" fill="none"/>
  <circle cx="1008" cy="-624" r="16" stroke="#3399ff" opacity="1" stroke-width="2" fill="none"/>
  <circle cx="1040" cy="-560" r="16" stroke="#3399ff" opacity="1" stroke-width="2" fill="none"/>
  <circle cx="1056" cy="-480" r="16" stroke="#3399ff" opacity="1" stroke-width="2" fill="none"/>
  <circle cx="1072" cy="-384" r="16" stroke="#3399ff" opacity="1" stroke-width="2" fill="none"/>
  <circle cx="1056" cy="-304" r="16" stroke="#3399ff" opacity="1" stroke-width="2" fill="none"/>
  <circle cx="1040" cy="-224" r="16" stroke="#3399ff" opacity="1" stroke-width="2" fill="none"/>
  <circle cx="1008" cy="-160" r="16" stroke="#3399ff" opacity="1" stroke-width="2" fill="none"/>
  <circle cx="976" cy="-96" r="16" stroke="#3399ff" opacity="1" stroke-width="2" fill="none"/>
  <circle cx="928" cy="-32" r="16" stroke="#3399ff" opacity="1" stroke-width="2" fill="none"/>
  <circle cx="880" cy="0" r="16" stroke="#3399ff" opacity="1" stroke-width="2" fill="none"/>
  <circle cx="816" cy="32" r="16" stroke="#3399ff" opacity="1" stroke-width="2" fill="none"/>
  <circle cx="752" cy="64" r="16" stroke="#3399ff" opacity="1" stroke-width="2" fill="none"/>
  <circle cx="592" cy="96" r="16" stroke="#3399ff" opacity="1" stroke-width="2" fill="none"/>
  <circle cx="672" cy="96" r="16" stroke="#3399ff" opacity="1" stroke-width="2" fill="none"/>
  <circle cx="512" cy="96" r="16" stroke="#3399ff" opacity="1" stroke-width="2" fill="none"/>
  <circle cx="432" cy="64" r="16" stroke="#3399ff" opacity="1" stroke-width="2" fill="none"/>
  <circle cx="352" cy="32" r="16" stroke="#3399ff" opacity="1" stroke-width="2" fill="none"/>
  <circle cx="288" cy="-16" r="16" stroke="#3399ff" opacity="1" stroke-width="2" fill="none"/>
  <circle cx="224" cy="-80" r="16" stroke="#3399ff" opacity="1" stroke-width="2" fill="none"/>
  <circle cx="176" cy="-144" r="16" stroke="#3399ff" opacity="1" stroke-width="2" fill="none"/>
  <circle cx="144" cy="-208" r="16" stroke="#3399ff" opacity="1" stroke-width="2" fill="none"/>
  <circle cx="128" cy="-288" r="16" stroke="#3399ff" opacity="1" stroke-width="2" fill="none"/>
  <circle cx="112" cy="-384" r="16" stroke="#3399ff" opacity="1" stroke-width="2" fill="none"/>
  <circle cx="128" cy="-496" r="16" stroke="#3399ff" opacity="1" stroke-width="2" fill="none"/>
  <circle cx="160" cy="-592" r="16" stroke="#3399ff" opacity="1" stroke-width="2" fill="none"/>
  <circle cx="224" cy="-688" r="16" stroke="#3399ff" opacity="1" stroke-width="2" fill="none"/>
  <circle cx="288" cy="-752" r="16" stroke="#3399ff" opacity="1" stroke-width="2" fill="none"/>
  <circle cx="352" cy="-800" r="16" stroke="#3399ff" opacity="1" stroke-width="2" fill="none"/>
  <circle cx="416" cy="-832" r="16" stroke="#3399ff" opacity="1" stroke-width="2" fill="none"/>
  <circle cx="480" cy="-848" r="16" stroke="#3399ff" opacity="1" stroke-width="2" fill="none"/>
  <circle cx="192" cy="-640" r="16" stroke="#3399ff" opacity="1" stroke-width="2" fill="none"/>
  <path marker-end="url(#spawn)" stroke-width="0.5" stroke="red" d="M 0 0 0 1" transform="translate(592,-496) scale(1 -1) rotate(-90) matrix(0,-1,1,0,0,0)" fill="none"/>
</svg>
