<?xml version="1.0" encoding="UTF-8" standalone="no"?>
<svg xmlns="http://www.w3.org/2000/svg" viewBox="-10005,-10005.01,20010,20010.02" width="100%" height="100%">
  <defs>
    <marker id="spawn" markerWidth="30" markerHeight="40" refX="2" refY="15" orient="auto" viewBox="0 0 40 30">
      <path d="M -5,0 -5,20 -15,20 0,40 15,20 5,20 5,0 Z" fill="magenta" transform="translate(0,15) rotate(-90)"/>
    </marker>
  </defs>
  <polyline points="535,-3995 535,-3990 540,-3990 540,-3995 535,-3995" stroke="white" stroke-width="2" fill="none"/>
  <polyline points="520,-3990 520,-3985 525,-3985 525,-3990 520,-3990" stroke="white" stroke-width="2" fill="none"/>
  <polyline points="550,-3990 550,-3985 555,-3985 555,-3990 550,-3990" stroke="white" stroke-width="2" fill="none"/>
  <polyline points="510,-3980 510,-3975 515,-3975 515,-3980 510,-3980" stroke="white" stroke-width="2" fill="none"/>
  <polyline points="560,-3980 560,-3975 565,-3975 565,-3980 560,-3980" stroke="white" stroke-width="2" fill="none"/>
  <polyline points="505,-3965 505,-3960 510,-3960 510,-3965 505,-3965" stroke="white" stroke-width="2" fill="none"/>
  <polyline points="565,-3965 565,-3960 570,-3960 570,-3965 565,-3965" stroke="white" stroke-width="2" fill="none"/>
  <polyline points="510,-3950 510,-3945 515,-3945 515,-3950 510,-3950" stroke="white" stroke-width="2" fill="none"/>
  <polyline points="560,-3950 560,-3945 565,-3945 565,-3950 560,-3950" stroke="white" stroke-width="2" fill="none"/>
  <polyline points="520,-3940 520,-3935 525,-3935 525,-3940 520,-3940" stroke="white" stroke-width="2" fill="none"/>
  <polyline points="550,-3940 550,-3935 555,-3935 555,-3940 550,-3940" stroke="white" stroke-width="2" fill="none"/>
  <polyline points="0,-2840 525,-2840 545,-2860 545,-2880 520,-2905 520,-3005 515,-3005 515,-3105 510,-3105 510,-3220 520,-3220 520,-3315 515,-3315 515,-3440 540,-3465 540,-3630 520,-3650 0,-3650 0,-2840" stroke="white" stroke-width="2" fill="none"/>
  <polyline points="1000,-2840 570,-2840 550,-2860 550,-2880 575,-2905 575,-3030 570,-3030 570,-3145 565,-3145 565,-3210 575,-3210 575,-3330 570,-3330 570,-3440 545,-3465 545,-3630 565,-3650 1000,-3650 1000,-2840" stroke="white" stroke-width="2" fill="none"/>
  <polyline points="540,-3430 540,-3355 545,-3355 545,-3430 540,-3430" stroke="white" stroke-width="2" fill="none"/>
  <polyline points="525,-3415 525,-3340 530,-3340 530,-3415 525,-3415" stroke="white" stroke-width="2" fill="none"/>
  <polyline points="555,-3425 555,-3350 560,-3350 560,-3425 555,-3425" stroke="white" stroke-width="2" fill="none"/>
  <polyline points="545,-3340 545,-3265 550,-3265 550,-3340 545,-3340" stroke="white" stroke-width="2" fill="none"/>
  <polyline points="530,-3325 530,-3250 535,-3250 535,-3325 530,-3325" stroke="white" stroke-width="2" fill="none"/>
  <polyline points="560,-3310 560,-3235 565,-3235 565,-3310 560,-3310" stroke="white" stroke-width="2" fill="none"/>
  <polyline points="535,-3235 535,-3160 540,-3160 540,-3235 535,-3235" stroke="white" stroke-width="2" fill="none"/>
  <polyline points="550,-3225 550,-3150 555,-3150 555,-3225 550,-3225" stroke="white" stroke-width="2" fill="none"/>
  <polyline points="520,-3200 520,-3125 525,-3125 525,-3200 520,-3200" stroke="white" stroke-width="2" fill="none"/>
  <polyline points="540,-3140 540,-3065 545,-3065 545,-3140 540,-3140" stroke="white" stroke-width="2" fill="none"/>
  <polyline points="555,-3130 555,-3055 560,-3055 560,-3130 555,-3130" stroke="white" stroke-width="2" fill="none"/>
  <polyline points="525,-3095 525,-3020 530,-3020 530,-3095 525,-3095" stroke="white" stroke-width="2" fill="none"/>
  <polyline points="545,-3045 545,-2970 550,-2970 550,-3045 545,-3045" stroke="white" stroke-width="2" fill="none"/>
  <polyline points="560,-3010 560,-2935 565,-2935 565,-3010 560,-3010" stroke="white" stroke-width="2" fill="none"/>
  <polyline points="530,-2995 530,-2920 535,-2920 535,-2995 530,-2995" stroke="white" stroke-width="2" fill="none"/>
  <polyline points="540,-2840 545,-2845 550,-2845 555,-2840 540,-2840" stroke="white" stroke-width="2" fill="none"/>
  <polyline points="0,-2575 550,-2575 550,-2580 540,-2580 540,-2590 530,-2590 530,-2600 0,-2600 0,-2575" stroke="white" stroke-width="2" fill="none"/>
  <polyline points="555,-2575 555,-2585 545,-2585 545,-2595 535,-2595 535,-2600 570,-2600 570,-2590 560,-2590 560,-2575 555,-2575" stroke="white" stroke-width="2" fill="none"/>
  <polyline points="1000,-2600 1000,-2575 565,-2575 565,-2585 575,-2585 575,-2600 1000,-2600" stroke="white" stroke-width="2" fill="none"/>
  <polyline points="0,-2450 0,-2475 535,-2475 535,-2460 525,-2460 525,-2450 0,-2450" stroke="white" stroke-width="2" fill="none"/>
  <polyline points="530,-2450 530,-2455 540,-2455 540,-2475 555,-2475 555,-2470 545,-2470 545,-2455 555,-2455 555,-2450 530,-2450" stroke="white" stroke-width="2" fill="none"/>
  <polyline points="1000,-2475 560,-2475 560,-2465 550,-2465 550,-2460 560,-2460 560,-2450 1000,-2450 1000,-2475" stroke="white" stroke-width="2" fill="none"/>
  <polyline points="0,-2325 540,-2325 540,-2335 550,-2335 550,-2340 540,-2340 540,-2350 0,-2350 0,-2325" stroke="white" stroke-width="2" fill="none"/>
  <polyline points="545,-2325 545,-2330 555,-2330 555,-2345 545,-2345 545,-2350 570,-2350 570,-2345 560,-2345 560,-2325 545,-2325" stroke="white" stroke-width="2" fill="none"/>
  <polyline points="1000,-2350 1000,-2325 565,-2325 565,-2340 575,-2340 575,-2350 1000,-2350" stroke="white" stroke-width="2" fill="none"/>
  <polyline points="390,-1750 810,-1750 910,-1850 910,-1950 740,-1950 740,-1920 745,-1910 760,-1905 775,-1910 780,-1920 815,-1920 820,-1910 835,-1905 850,-1910 855,-1920 905,-1920 905,-1875 895,-1855 855,-1855 850,-1870 835,-1875 820,-1870 815,-1855 780,-1855 775,-1870 760,-1875 745,-1870 740,-1855 700,-1855 555,-2000 440,-1885 405,-1885 405,-1890 400,-1895 395,-1895 390,-1890 390,-1885 395,-1880 445,-1880 450,-1890 460,-1895 470,-1895 480,-1890 485,-1880 485,-1870 480,-1860 470,-1855 445,-1855 445,-1850 485,-1850 490,-1860 500,-1865 510,-1865 520,-1860 525,-1850 525,-1840 520,-1830 510,-1825 335,-1825 335,-1830 330,-1835 325,-1835 320,-1830 320,-1820 390,-1750" stroke="white" stroke-width="2" fill="none"/>
  <polyline points="445,-1865 465,-1865 470,-1870 470,-1875 465,-1880 460,-1880 455,-1875 455,-1870 445,-1870 445,-1865" stroke="white" stroke-width="2" fill="none"/>
  <polyline points="400,-1850 400,-1855 370,-1855 370,-1860 365,-1865 360,-1865 355,-1860 355,-1855 360,-1850 400,-1850" stroke="white" stroke-width="2" fill="none"/>
  <polyline points="445,-1835 505,-1835 510,-1840 510,-1845 505,-1850 500,-1850 495,-1845 495,-1840 445,-1840 445,-1835" stroke="white" stroke-width="2" fill="none"/>
  <polyline points="399.99,-1870 445.01,-1870" stroke="white" stroke-width="2" fill="none"/>
  <polyline points="399.99,-1865 445.01,-1865" stroke="white" stroke-width="2" fill="none"/>
  <polyline points="399.99,-1840 445.01,-1840" stroke="white" stroke-width="2" fill="none"/>
  <polyline points="399.99,-1835 445.01,-1835" stroke="white" stroke-width="2" fill="none"/>
  <polyline points="375,-1750 0,-1750 0,-2070 530,-2070 550,-2050 550,-2010 435,-1895 415,-1895 410,-1905 400,-1910 390,-1910 380,-1905 375,-1895 375,-1885 380,-1875 390,-1870 400,-1870 400,-1865 380,-1865 375,-1875 365,-1880 355,-1880 345,-1875 340,-1865 340,-1855 345,-1845 355,-1840 400,-1840 400,-1835 345,-1835 340,-1845 330,-1850 320,-1850 310,-1845 305,-1835 305,-1825 310,-1815 375,-1750" stroke="white" stroke-width="2" fill="none"/>
  <polyline points="825,-1750 1000,-1750 1000,-2070 580,-2070 560,-2050 560,-2010 705,-1865 730,-1865 730,-1885 780,-1885 785,-1875 800,-1870 815,-1875 820,-1885 855,-1885 860,-1875 875,-1870 890,-1875 895,-1890 890,-1905 875,-1910 860,-1905 855,-1895 820,-1895 815,-1905 800,-1910 785,-1905 780,-1895 730,-1895 730,-1960 920,-1960 920,-1845 825,-1750" stroke="white" stroke-width="2" fill="none"/>
  <polyline points="389.0001,-1751 590,-1550 610,-1550 810.9999,-1751" stroke="white" stroke-width="2" fill="none"/>
  <polyline points="373.9999,-1751 585,-1540 585,-1435 570,-1420 570,-1390 580,-1380 570,-1370 570,-1310 555,-1310 525,-1280 525,-1250 535,-1240 525,-1230 525,-1195 510,-1180 510,-1135 520,-1125 510,-1115 510,-1049" stroke="white" stroke-width="2" fill="none"/>
  <polyline points="825.9999,-1751 615,-1540 615,-1415 630,-1400 630,-1360 645,-1360 645,-1285 660,-1270 660,-1235 640,-1215 660,-1195 660,-1150 680,-1130 680,-1049" stroke="white" stroke-width="2" fill="none"/>
  <polyline points="605,-1495 595,-1485 605,-1475 605,-1495" stroke="white" stroke-width="2" fill="none"/>
  <polyline points="595,-1475 605,-1465 595,-1455 595,-1475" stroke="white" stroke-width="2" fill="none"/>
  <polyline points="600,-1395 580,-1415 580,-1395 600,-1395" stroke="white" stroke-width="2" fill="none"/>
  <polyline points="635,-1350 620,-1335 605,-1350 635,-1350" stroke="white" stroke-width="2" fill="none"/>
  <polyline points="610,-1315 600,-1325 590,-1315 610,-1315" stroke="white" stroke-width="2" fill="none"/>
  <polyline points="580,-1295 570,-1285 560,-1295 580,-1295" stroke="white" stroke-width="2" fill="none"/>
  <polyline points="560,-1275 550,-1285 540,-1275 560,-1275" stroke="white" stroke-width="2" fill="none"/>
  <polyline points="615,-1275 635,-1275 625,-1265 615,-1275" stroke="white" stroke-width="2" fill="none"/>
  <polyline points="650,-1265 650,-1245 630,-1245 650,-1265" stroke="white" stroke-width="2" fill="none"/>
  <polyline points="565,-1245 585,-1245 565,-1265 565,-1245" stroke="white" stroke-width="2" fill="none"/>
  <polyline points="555,-1255 545,-1245 535,-1255 555,-1255" stroke="white" stroke-width="2" fill="none"/>
  <polyline points="615,-1255 600,-1240 615,-1225 615,-1255" stroke="white" stroke-width="2" fill="none"/>
  <polyline points="595,-1225 585,-1235 575,-1225 595,-1225" stroke="white" stroke-width="2" fill="none"/>
  <polyline points="570,-1215 555,-1230 540,-1215 570,-1215" stroke="white" stroke-width="2" fill="none"/>
  <polyline points="595,-1215 595,-1200 580,-1200 595,-1215" stroke="white" stroke-width="2" fill="none"/>
  <polyline points="625,-1215 635,-1205 625,-1195 625,-1215" stroke="white" stroke-width="2" fill="none"/>
  <polyline points="555,-1200 555,-1170 570,-1185 555,-1200" stroke="white" stroke-width="2" fill="none"/>
  <polyline points="615,-1190 585,-1190 600,-1175 615,-1190" stroke="white" stroke-width="2" fill="none"/>
  <polyline points="535,-1190 535,-1175 520,-1175 535,-1190" stroke="white" stroke-width="2" fill="none"/>
  <polyline points="585,-1170 585,-1150 565,-1150 585,-1170" stroke="white" stroke-width="2" fill="none"/>
  <polyline points="650,-1170 635,-1185 620,-1170 650,-1170" stroke="white" stroke-width="2" fill="none"/>
  <polyline points="620,-1155 610,-1165 600,-1155 620,-1155" stroke="white" stroke-width="2" fill="none"/>
  <polyline points="555,-1145 540,-1160 525,-1145 555,-1145" stroke="white" stroke-width="2" fill="none"/>
  <polyline points="665,-1130 645,-1150 645,-1130 665,-1130" stroke="white" stroke-width="2" fill="none"/>
  <polyline points="625,-1140 615,-1130 605,-1140 625,-1140" stroke="white" stroke-width="2" fill="none"/>
  <polyline points="620,-1115 635,-1130 635,-1115 620,-1115" stroke="white" stroke-width="2" fill="none"/>
  <polyline points="600,-1130 585,-1115 570,-1130 600,-1130" stroke="white" stroke-width="2" fill="none"/>
  <polyline points="570,-1110 550,-1130 550,-1110 570,-1110" stroke="white" stroke-width="2" fill="none"/>
  <polyline points="520,-1110 535,-1125 535,-1110 520,-1110" stroke="white" stroke-width="2" fill="none"/>
  <polyline points="670,-1095 655,-1110 640,-1095 670,-1095" stroke="white" stroke-width="2" fill="none"/>
  <polyline points="555,-1100 545,-1090 535,-1100 555,-1100" stroke="white" stroke-width="2" fill="none"/>
  <polyline points="635,-1065 595,-1105 555,-1065 635,-1065" stroke="white" stroke-width="2" fill="none"/>
  <polyline points="0,0 0,-1050 525,-1050 525,-1000 500,-1000 500,-935 520,-915 500,-895 575,-830 592,-830 592,-820 582,-815 592,-810 592,-800 582,-795 592,-790 592,-780 582,-775 592,-770 592,-760 582,-755 592,-750 592,-740 582,-735 592,-730 592,-720 582,-715 592,-710 592,-700 585,-690 585,-650 556,-621 532,-595 514,-569 505,-540 507,-519 525,-480 550,-450 580,-430 550,-410 526,-397 510,-390 493,-381 480,-375 469,-358 465,-340 466,-322 483,-292 510,-267 530,-255 537,-243 540,-230 541,-217 541,-205 535,-190 525,-180 512,-171 500,-161 493,-145 490,-126 490,-108 490,-90 485,-87 472,-78 463,-65 460,-50 472,-22 485,-13 500,-10 515,-13 528,-22 537,-35 540,-50 537,-65 528,-78 515,-87 510,-90 510,-108 510,-126 513,-145 520,-155 530,-165 542,-173 550,-183 553,-191 556,-204 557,-215 557,-227 554,-238 550,-255 551,-264 553,-271 558,-283 572,-297 590,-305 614,-314 637,-330 653,-352 658,-373 655,-390 646,-407 630,-421 609,-433 630,-451 650,-476 670,-506 680,-526 680,-550 672,-574 654,-601 635,-624 605,-650 605,-690 598,-700 598,-710 608,-715 598,-720 598,-730 608,-735 598,-740 598,-750 608,-755 598,-760 598,-770 608,-775 598,-780 598,-790 608,-795 598,-800 598,-810 608,-815 598,-820 598,-830 615,-830 690,-895 670,-915 690,-935 690,-1000 665,-1000 665,-1050 1000,-1050 1000,0 0,0" stroke="white" stroke-width="2" fill="none"/>
  <polyline points="530,-1050 530,-1000 555,-1000 594,-934 575,-915 595,-895 615,-915 596,-934 635,-1000 660,-1000 660,-1050 530,-1050" stroke="white" stroke-width="2" fill="none"/>
  <polyline points="567,-915 547,-895 527,-915 547,-935 567,-915" stroke="white" stroke-width="2" fill="none"/>
  <polyline points="663,-915 643,-895 623,-915 643,-935 663,-915" stroke="white" stroke-width="2" fill="none"/>
  <polyline points="594,-445 574,-465 554,-489 538,-513 533,-528 531,-541 538,-560 551,-580 574,-605 593,-623 613,-607 634,-584 654,-557 658,-540 656,-527 651,-516 634,-492 614,-467 594,-445" stroke="white" stroke-width="2" fill="none"/>
  <polyline points="534,-280 520,-288 505,-299 496,-312 487,-328 487,-341 496,-355 513,-366 537,-375 561,-388 581,-403 596,-419 613,-407 628,-393 633,-387 635,-377 633,-366 628,-358 616,-344 600,-335 581,-327 568,-321 555,-312 543,-301 537,-292 534,-280" stroke="white" stroke-width="2" fill="none"/>
  <polyline points="-10000,10000 -10000,10000.01" stroke="white" stroke-width="2" fill="none"/>
  <polyline points="-10000,-10000 -10000,-10000.01" stroke="white" stroke-width="2" fill="none"/>
  <polyline points="10000,-10000 10000,-10000.01" stroke="white" stroke-width="2" fill="none"/>
  <polyline points="10000,10000 10000,10000.01" stroke="white" stroke-width="2" fill="none"/>
  <circle cx="537" cy="-3962" r="25" stroke="#33ff33" opacity="1" stroke-width="2" fill="none"/>
  <circle cx="537" cy="-3852" r="3" stroke="#3399ff" opacity="1" stroke-width="2" fill="none"/>
  <circle cx="532" cy="-3837" r="3" stroke="#3399ff" opacity="1" stroke-width="2" fill="none"/>
  <circle cx="537" cy="-3827" r="3" stroke="#3399ff" opacity="1" stroke-width="2" fill="none"/>
  <circle cx="552" cy="-3827" r="3" stroke="#3399ff" opacity="1" stroke-width="2" fill="none"/>
  <circle cx="572" cy="-3827" r="3" stroke="#3399ff" opacity="1" stroke-width="2" fill="none"/>
  <circle cx="527" cy="-3822" r="3" stroke="#3399ff" opacity="1" stroke-width="2" fill="none"/>
  <circle cx="502" cy="-3812" r="3" stroke="#3399ff" opacity="1" stroke-width="2" fill="none"/>
  <circle cx="547" cy="-3812" r="3" stroke="#3399ff" opacity="1" stroke-width="2" fill="none"/>
  <circle cx="537" cy="-3802" r="3" stroke="#3399ff" opacity="1" stroke-width="2" fill="none"/>
  <circle cx="542" cy="-3792" r="3" stroke="#3399ff" opacity="1" stroke-width="2" fill="none"/>
  <circle cx="522" cy="-3787" r="3" stroke="#3399ff" opacity="1" stroke-width="2" fill="none"/>
  <circle cx="532" cy="-3782" r="3" stroke="#3399ff" opacity="1" stroke-width="2" fill="none"/>
  <circle cx="577" cy="-3782" r="3" stroke="#3399ff" opacity="1" stroke-width="2" fill="none"/>
  <circle cx="547" cy="-3777" r="3" stroke="#3399ff" opacity="1" stroke-width="2" fill="none"/>
  <circle cx="537" cy="-3762" r="3" stroke="#3399ff" opacity="1" stroke-width="2" fill="none"/>
  <circle cx="552" cy="-3767" r="3" stroke="#3399ff" opacity="1" stroke-width="2" fill="none"/>
  <circle cx="557" cy="-3842" r="8" stroke="#3399ff" opacity="1" stroke-width="2" fill="none"/>
  <circle cx="512" cy="-3832" r="8" stroke="#3399ff" opacity="1" stroke-width="2" fill="none"/>
  <circle cx="562" cy="-3817" r="8" stroke="#3399ff" opacity="1" stroke-width="2" fill="none"/>
  <circle cx="517" cy="-3807" r="8" stroke="#3399ff" opacity="1" stroke-width="2" fill="none"/>
  <circle cx="557" cy="-3792" r="8" stroke="#3399ff" opacity="1" stroke-width="2" fill="none"/>
  <circle cx="517" cy="-3767" r="8" stroke="#3399ff" opacity="1" stroke-width="2" fill="none"/>
  <circle cx="482" cy="-3822" r="13" stroke="#3399ff" opacity="1" stroke-width="2" fill="none"/>
  <circle cx="497" cy="-3787" r="13" stroke="#3399ff" opacity="1" stroke-width="2" fill="none"/>
  <circle cx="587" cy="-3807" r="13" stroke="#3399ff" opacity="1" stroke-width="2" fill="none"/>
  <circle cx="577" cy="-3782" r="13" stroke="#3399ff" opacity="1" stroke-width="2" fill="none"/>
  <circle cx="457" cy="-3792" r="33" stroke="#3399ff" opacity="1" stroke-width="2" fill="none"/>
  <circle cx="617" cy="-3777" r="33" stroke="#3399ff" opacity="1" stroke-width="2" fill="none"/>
  <circle cx="547.5" cy="-2839" r="8" stroke="#3399ff" opacity="1" stroke-width="2" fill="none"/>
  <circle cx="0" cy="-2462" r="117" stroke="#3399ff" opacity="1" stroke-width="2" fill="none"/>
  <circle cx="1000" cy="-2462" r="117" stroke="#3399ff" opacity="1" stroke-width="2" fill="none"/>
  <circle cx="535" cy="-2055" r="15" stroke="#3399ff" opacity="1" stroke-width="2" fill="none"/>
  <circle cx="575" cy="-2055" r="15" stroke="#3399ff" opacity="1" stroke-width="2" fill="none"/>
  <circle cx="397" cy="-1887" r="9" stroke="#3399ff" opacity="1" stroke-width="2" fill="none"/>
  <circle cx="462" cy="-1872" r="9" stroke="#3399ff" opacity="1" stroke-width="2" fill="none"/>
  <circle cx="362" cy="-1857" r="9" stroke="#3399ff" opacity="1" stroke-width="2" fill="none"/>
  <circle cx="502" cy="-1842" r="9" stroke="#3399ff" opacity="1" stroke-width="2" fill="none"/>
  <circle cx="326" cy="-1827" r="9.75" stroke="#3399ff" opacity="1" stroke-width="2" fill="none"/>
  <circle cx="402.5" cy="-1852.5" r="2.75" stroke="#3399ff" opacity="1" stroke-width="2" fill="none"/>
  <circle cx="407.5" cy="-1852.5" r="2.75" stroke="#3399ff" opacity="1" stroke-width="2" fill="none"/>
  <circle cx="412.5" cy="-1852.5" r="2.75" stroke="#3399ff" opacity="1" stroke-width="2" fill="none"/>
  <circle cx="417.5" cy="-1852.5" r="2.75" stroke="#3399ff" opacity="1" stroke-width="2" fill="none"/>
  <circle cx="422.5" cy="-1852.5" r="2.75" stroke="#3399ff" opacity="1" stroke-width="2" fill="none"/>
  <circle cx="427.5" cy="-1852.5" r="2.75" stroke="#3399ff" opacity="1" stroke-width="2" fill="none"/>
  <circle cx="432.5" cy="-1852.5" r="2.75" stroke="#3399ff" opacity="1" stroke-width="2" fill="none"/>
  <circle cx="437.5" cy="-1852.5" r="2.75" stroke="#3399ff" opacity="1" stroke-width="2" fill="none"/>
  <circle cx="442.5" cy="-1852.5" r="2.75" stroke="#3399ff" opacity="1" stroke-width="2" fill="none"/>
  <circle cx="600" cy="-1550" r="10" stroke="#3399ff" opacity="1" stroke-width="2" fill="none"/>
  <circle cx="595" cy="-1275" r="10" stroke="#3399ff" opacity="1" stroke-width="2" fill="none"/>
  <circle cx="190" cy="-1400" r="354" stroke="#3399ff" opacity="1" stroke-width="2" fill="none"/>
  <circle cx="1000" cy="-1400" r="354" stroke="#3399ff" opacity="1" stroke-width="2" fill="none"/>
  <circle cx="595" cy="-915" r="21" stroke="#3399ff" opacity="1" stroke-width="2" fill="none"/>
  <circle cx="500" cy="-915" r="21" stroke="#3399ff" opacity="1" stroke-width="2" fill="none"/>
  <circle cx="690" cy="-915" r="21" stroke="#3399ff" opacity="1" stroke-width="2" fill="none"/>
  <circle cx="547" cy="-915" r="21" stroke="#3399ff" opacity="1" stroke-width="2" fill="none"/>
  <circle cx="643" cy="-915" r="21" stroke="#3399ff" opacity="1" stroke-width="2" fill="none"/>
  <circle cx="587" cy="-815" r="6" stroke="#3399ff" opacity="1" stroke-width="2" fill="none"/>
  <circle cx="587" cy="-795" r="6" stroke="#3399ff" opacity="1" stroke-width="2" fill="none"/>
  <circle cx="587" cy="-775" r="6" stroke="#3399ff" opacity="1" stroke-width="2" fill="none"/>
  <circle cx="587" cy="-755" r="6" stroke="#3399ff" opacity="1" stroke-width="2" fill="none"/>
  <circle cx="587" cy="-735" r="6" stroke="#3399ff" opacity="1" stroke-width="2" fill="none"/>
  <circle cx="587" cy="-715" r="6" stroke="#3399ff" opacity="1" stroke-width="2" fill="none"/>
  <circle cx="603" cy="-815" r="6" stroke="#3399ff" opacity="1" stroke-width="2" fill="none"/>
  <circle cx="603" cy="-795" r="6" stroke="#3399ff" opacity="1" stroke-width="2" fill="none"/>
  <circle cx="603" cy="-775" r="6" stroke="#3399ff" opacity="1" stroke-width="2" fill="none"/>
  <circle cx="603" cy="-755" r="6" stroke="#3399ff" opacity="1" stroke-width="2" fill="none"/>
  <circle cx="603" cy="-735" r="6" stroke="#3399ff" opacity="1" stroke-width="2" fill="none"/>
  <circle cx="603" cy="-715" r="6" stroke="#3399ff" opacity="1" stroke-width="2" fill="none"/>
  <circle cx="595" cy="-431" r="5" stroke="#3399ff" opacity="1" stroke-width="2" fill="none"/>
  <circle cx="595" cy="-431" r="3" stroke="#3399ff" opacity="1" stroke-width="2" fill="none"/>
  <path marker-end="url(#spawn)" stroke-width="0.5" stroke="red" d="M 0 0 0 1" transform="translate(502.75,-20) scale(1 -1) rotate(-90) matrix(0,1,-1,0,0,0)" fill="none"/>
</svg>
