<?xml version="1.0" encoding="UTF-8" standalone="no"?>
<svg xmlns="http://www.w3.org/2000/svg" viewBox="699,-565,634,506" width="100%" height="100%">
  <defs>
    <marker id="spawn" markerWidth="30" markerHeight="40" refX="2" refY="15" orient="auto" viewBox="0 0 40 30">
      <path d="M -5,0 -5,20 -15,20 0,40 15,20 5,20 5,0 Z" fill="magenta" transform="translate(0,15) rotate(-90)"/>
    </marker>
  </defs>
  <polyline points="864,-192 1152,-192 1200,-240 1200,-432" stroke="white" stroke-width="2" fill="none"/>
  <polyline points="864,-192 864,-224 1152,-224 1184,-256 1184,-448 1200,-464 1216,-448 1216,-224" stroke="white" stroke-width="2" fill="none"/>
  <polyline points="1216,-224 1152,-160 848,-160 832,-176 832,-240 848,-256 1136,-256 1152,-272 1152,-432" stroke="white" stroke-width="2" fill="none"/>
  <polyline points="1200,-464 1184,-480 1136,-480 1120,-464 1120,-288 864,-288" stroke="white" stroke-width="2" fill="none"/>
  <polyline points="848,-256 832,-272 832,-304 848,-320 1088,-320" stroke="white" stroke-width="2" fill="none"/>
  <polyline points="1104,-288 1120,-304" stroke="white" stroke-width="2" fill="none"/>
  <polyline points="1120,-336 1104,-352 864,-352" stroke="white" stroke-width="2" fill="none"/>
  <polyline points="848,-320 832,-336 832,-368 848,-384 1088,-384" stroke="white" stroke-width="2" fill="none"/>
  <polyline points="1104,-352 1120,-368" stroke="white" stroke-width="2" fill="none"/>
  <polyline points="1120,-400 1104,-416 864,-416" stroke="white" stroke-width="2" fill="none"/>
  <polyline points="848,-384 832,-400 832,-432 848,-448 1088,-448" stroke="white" stroke-width="2" fill="none"/>
  <polyline points="1120,-464 1104,-480 864,-480 816,-432 816,-176 848,-144 1152,-144 1232,-224 1232,-448 1184,-496 864,-496 800,-432 800,-160" stroke="white" stroke-width="2" fill="none"/>
  <polyline points="832,-160 832,-144 816,-128 784,-128 768,-144 768,-416" stroke="white" stroke-width="2" fill="none"/>
  <polyline points="800,-432 784,-448 752,-448 736,-432 736,-160 800,-96 1200,-96" stroke="white" stroke-width="2" fill="none"/>
  <polyline points="816,-128 832,-112 1184,-112 1232,-160" stroke="white" stroke-width="2" fill="none"/>
  <polyline points="1200,-96 1264,-160 1264,-176 1248,-192 1232,-192 1168,-128 848,-128" stroke="white" stroke-width="2" fill="none"/>
  <polyline points="1248,-192 1248,-496" stroke="white" stroke-width="2" fill="none"/>
  <polyline points="1184,-496 1232,-544 1264,-544 1312,-496 1312,-96" stroke="white" stroke-width="2" fill="none"/>
  <polyline points="1264,-160 1296,-128" stroke="white" stroke-width="2" fill="none"/>
  <polyline points="1312,-96 1264,-144" stroke="white" stroke-width="2" fill="none"/>
  <polyline points="1248,-144 1280,-112" stroke="white" stroke-width="2" fill="none"/>
  <polyline points="1312,-96 1280,-96 1248,-128" stroke="white" stroke-width="2" fill="none"/>
  <polyline points="1232,-128 1248,-112" stroke="white" stroke-width="2" fill="none"/>
  <polyline points="1280,-96 1232,-96 1200,-64 752,-64 720,-96 720,-112" stroke="white" stroke-width="2" fill="none"/>
  <polyline points="768,-64 768,-112" stroke="white" stroke-width="2" fill="none"/>
  <polyline points="752,-144 752,-80" stroke="white" stroke-width="2" fill="none"/>
  <polyline points="736,-80 736,-144" stroke="white" stroke-width="2" fill="none"/>
  <polyline points="720,-128 720,-160 736,-160" stroke="white" stroke-width="2" fill="none"/>
  <polyline points="720,-96 704,-112 704,-160 720,-176 720,-432 800,-512 1168,-512" stroke="white" stroke-width="2" fill="none"/>
  <polyline points="1200,-512 1184,-528 736,-528" stroke="white" stroke-width="2" fill="none"/>
  <polyline points="720,-432 720,-544 1200,-544 1200,-528" stroke="white" stroke-width="2" fill="none"/>
  <polyline points="1200,-544 1216,-560 1264,-560 1328,-496 1328,-64 1200,-64" stroke="white" stroke-width="2" fill="none"/>
  <polyline points="736,-448 736,-496" stroke="white" stroke-width="2" fill="none"/>
  <polyline points="752,-528 752,-480" stroke="white" stroke-width="2" fill="none"/>
  <polyline points="768,-480 768,-512" stroke="white" stroke-width="2" fill="none"/>
  <polyline points="784,-528 784,-512" stroke="white" stroke-width="2" fill="none"/>
  <circle cx="1200" cy="-432" r="12" stroke="#3399ff" opacity="1" stroke-width="2" fill="none"/>
  <circle cx="1152" cy="-448" r="16" stroke="#3399ff" opacity="1" stroke-width="2" fill="none"/>
  <circle cx="864" cy="-288" r="16" stroke="#3399ff" opacity="1" stroke-width="2" fill="none"/>
  <circle cx="1088" cy="-320" r="16" stroke="#3399ff" opacity="1" stroke-width="2" fill="none"/>
  <circle cx="864" cy="-352" r="16" stroke="#3399ff" opacity="1" stroke-width="2" fill="none"/>
  <circle cx="1088" cy="-384" r="16" stroke="#3399ff" opacity="1" stroke-width="2" fill="none"/>
  <circle cx="864" cy="-416" r="16" stroke="#3399ff" opacity="1" stroke-width="2" fill="none"/>
  <circle cx="1088" cy="-448" r="16" stroke="#3399ff" opacity="1" stroke-width="2" fill="none"/>
  <circle cx="800" cy="-160" r="16" stroke="#3399ff" opacity="1" stroke-width="2" fill="none"/>
  <circle cx="768" cy="-416" r="16" stroke="#3399ff" opacity="1" stroke-width="2" fill="none"/>
  <circle cx="1200" cy="-96" r="16" stroke="#3399ff" opacity="1" stroke-width="2" fill="none"/>
  <circle cx="1200" cy="-160" r="16" stroke="#3399ff" opacity="1" stroke-width="2" fill="none"/>
  <circle cx="848" cy="-128" r="12" stroke="#3399ff" opacity="1" stroke-width="2" fill="none"/>
  <circle cx="1248" cy="-496" r="32" stroke="#3399ff" opacity="1" stroke-width="2" fill="none"/>
  <circle cx="1296" cy="-464" r="16" stroke="#3399ff" opacity="1" stroke-width="2" fill="none"/>
  <circle cx="1296" cy="-128" r="10" stroke="#3399ff" opacity="1" stroke-width="2" fill="none"/>
  <circle cx="1264" cy="-144" r="10" stroke="#3399ff" opacity="1" stroke-width="2" fill="none"/>
  <circle cx="1280" cy="-112" r="10" stroke="#3399ff" opacity="1" stroke-width="2" fill="none"/>
  <circle cx="1248" cy="-128" r="10" stroke="#3399ff" opacity="1" stroke-width="2" fill="none"/>
  <circle cx="768" cy="-112" r="10" stroke="#3399ff" opacity="1" stroke-width="2" fill="none"/>
  <circle cx="752" cy="-80" r="10" stroke="#3399ff" opacity="1" stroke-width="2" fill="none"/>
  <circle cx="736" cy="-144" r="10" stroke="#3399ff" opacity="1" stroke-width="2" fill="none"/>
  <circle cx="1168" cy="-512" r="10" stroke="#3399ff" opacity="1" stroke-width="2" fill="none"/>
  <circle cx="848" cy="-208" r="12" stroke="#3399ff" opacity="1" stroke-width="2" fill="none"/>
  <circle cx="848" cy="-240" r="12" stroke="#3399ff" opacity="1" stroke-width="2" fill="none"/>
  <circle cx="848" cy="-176" r="12" stroke="#3399ff" opacity="1" stroke-width="2" fill="none"/>
  <circle cx="720" cy="-128" r="8" stroke="#3399ff" opacity="1" stroke-width="2" fill="none"/>
  <circle cx="1200" cy="-528" r="8" stroke="#3399ff" opacity="1" stroke-width="2" fill="none"/>
  <circle cx="1232" cy="-80" r="8" stroke="#33ff33" opacity="1" stroke-width="2" fill="none"/>
  <circle cx="736" cy="-528" r="8" stroke="#3399ff" opacity="1" stroke-width="2" fill="none"/>
  <circle cx="736" cy="-496" r="8" stroke="#3399ff" opacity="1" stroke-width="2" fill="none"/>
  <circle cx="752" cy="-480" r="8" stroke="#3399ff" opacity="1" stroke-width="2" fill="none"/>
  <circle cx="768" cy="-512" r="8" stroke="#3399ff" opacity="1" stroke-width="2" fill="none"/>
  <circle cx="1232" cy="-544" r="8" stroke="#3399ff" opacity="1" stroke-width="2" fill="none"/>
  <circle cx="1216" cy="-544" r="8" stroke="#3399ff" opacity="1" stroke-width="2" fill="none"/>
  <circle cx="1248" cy="-80" r="8" stroke="#3399ff" opacity="1" stroke-width="2" fill="none"/>
  <circle cx="1264" cy="-80" r="8" stroke="#3399ff" opacity="1" stroke-width="2" fill="none"/>
  <circle cx="1280" cy="-80" r="8" stroke="#3399ff" opacity="1" stroke-width="2" fill="none"/>
  <circle cx="1296" cy="-80" r="8" stroke="#3399ff" opacity="1" stroke-width="2" fill="none"/>
  <circle cx="1312" cy="-96" r="8" stroke="#3399ff" opacity="1" stroke-width="2" fill="none"/>
  <circle cx="1312" cy="-64" r="8" stroke="#3399ff" opacity="1" stroke-width="2" fill="none"/>
  <circle cx="1328" cy="-80" r="8" stroke="#3399ff" opacity="1" stroke-width="2" fill="none"/>
  <circle cx="1328" cy="-112" r="8" stroke="#3399ff" opacity="1" stroke-width="2" fill="none"/>
  <circle cx="1232" cy="-96" r="8" stroke="#3399ff" opacity="1" stroke-width="2" fill="none"/>
  <circle cx="1232" cy="-64" r="8" stroke="#3399ff" opacity="1" stroke-width="2" fill="none"/>
  <path marker-end="url(#spawn)" stroke-width="0.5" stroke="red" d="M 0 0 0 1" transform="translate(880,-208) scale(1 -1) rotate(-90) matrix(1,0,0,1,0,0)" fill="none"/>
</svg>
