<?xml version="1.0" encoding="UTF-8" standalone="no"?>
<svg xmlns="http://www.w3.org/2000/svg" viewBox="-53,123,602,602" width="100%" height="100%">
  <defs>
    <marker id="spawn" markerWidth="30" markerHeight="40" refX="2" refY="15" orient="auto" viewBox="0 0 40 30">
      <path d="M -5,0 -5,20 -15,20 0,40 15,20 5,20 5,0 Z" fill="magenta" transform="translate(0,15) rotate(-90)"/>
    </marker>
  </defs>
  <polyline points="192,384 288,480" stroke="white" stroke-width="2" fill="none"/>
  <polyline points="176,400 272,496" stroke="white" stroke-width="2" fill="none"/>
  <polyline points="272,496 224,496 192,528 192,592 320,720 336,720 368,688 432,688 544,576 544,512 528,496 480,448 464,448 416,400 400,400 336,464 336,480 400,544 400,560 368,560 288,480" stroke="white" stroke-width="2" fill="none"/>
  <polyline points="96,400 16,320 16,240 96,160 144,160 176,192 192,208 240,256 240,272 208,304 176,272 144,240 128,224 112,224 80,256 80,304 176,400" stroke="white" stroke-width="2" fill="none"/>
  <polyline points="272,496 368,592 416,592 448,560 448,544 384,480 416,448 432,448 464,480 496,512 512,528 512,576 432,656 352,656 320,688 224,592 224,544 240,528 272,528 368,624 432,624 480,576 480,528 432,480" stroke="white" stroke-width="2" fill="none"/>
  <polyline points="208,256 160,208 144,192 96,192 48,240 48,304 128,384 128,416 112,432 64,432 -16,352 16,320" stroke="white" stroke-width="2" fill="none"/>
  <polyline points="352,656 272,576" stroke="white" stroke-width="2" fill="none"/>
  <polyline points="192,384 112,304 112,288 128,272 208,352 224,352 288,288 288,272 224,208 224,192 160,128 96,128 -16,240 -16,304 -48,336 -48,352 64,464 128,464 160,432 160,384" stroke="white" stroke-width="2" fill="none"/>
  <circle cx="272" cy="576" r="10" stroke="#3399ff" opacity="1" stroke-width="2" fill="none"/>
  <circle cx="288" cy="592" r="10" stroke="#3399ff" opacity="1" stroke-width="2" fill="none"/>
  <circle cx="304" cy="608" r="10" stroke="#3399ff" opacity="1" stroke-width="2" fill="none"/>
  <circle cx="320" cy="624" r="10" stroke="#3399ff" opacity="1" stroke-width="2" fill="none"/>
  <circle cx="336" cy="640" r="10" stroke="#3399ff" opacity="1" stroke-width="2" fill="none"/>
  <circle cx="352" cy="656" r="10" stroke="#3399ff" opacity="1" stroke-width="2" fill="none"/>
  <circle cx="336" cy="672" r="10" stroke="#3399ff" opacity="1" stroke-width="2" fill="none"/>
  <circle cx="320" cy="688" r="10" stroke="#3399ff" opacity="1" stroke-width="2" fill="none"/>
  <circle cx="304" cy="672" r="10" stroke="#3399ff" opacity="1" stroke-width="2" fill="none"/>
  <circle cx="288" cy="656" r="10" stroke="#3399ff" opacity="1" stroke-width="2" fill="none"/>
  <circle cx="272" cy="640" r="10" stroke="#3399ff" opacity="1" stroke-width="2" fill="none"/>
  <circle cx="256" cy="624" r="10" stroke="#3399ff" opacity="1" stroke-width="2" fill="none"/>
  <circle cx="240" cy="608" r="10" stroke="#3399ff" opacity="1" stroke-width="2" fill="none"/>
  <circle cx="224" cy="592" r="10" stroke="#3399ff" opacity="1" stroke-width="2" fill="none"/>
  <circle cx="224" cy="576" r="10" stroke="#3399ff" opacity="1" stroke-width="2" fill="none"/>
  <circle cx="224" cy="560" r="10" stroke="#3399ff" opacity="1" stroke-width="2" fill="none"/>
  <circle cx="224" cy="544" r="10" stroke="#3399ff" opacity="1" stroke-width="2" fill="none"/>
  <circle cx="240" cy="528" r="10" stroke="#3399ff" opacity="1" stroke-width="2" fill="none"/>
  <circle cx="256" cy="528" r="10" stroke="#3399ff" opacity="1" stroke-width="2" fill="none"/>
  <circle cx="272" cy="528" r="10" stroke="#3399ff" opacity="1" stroke-width="2" fill="none"/>
  <circle cx="288" cy="544" r="10" stroke="#3399ff" opacity="1" stroke-width="2" fill="none"/>
  <circle cx="304" cy="560" r="10" stroke="#3399ff" opacity="1" stroke-width="2" fill="none"/>
  <circle cx="320" cy="576" r="10" stroke="#3399ff" opacity="1" stroke-width="2" fill="none"/>
  <circle cx="336" cy="592" r="10" stroke="#3399ff" opacity="1" stroke-width="2" fill="none"/>
  <circle cx="352" cy="608" r="10" stroke="#3399ff" opacity="1" stroke-width="2" fill="none"/>
  <circle cx="368" cy="624" r="10" stroke="#3399ff" opacity="1" stroke-width="2" fill="none"/>
  <circle cx="384" cy="624" r="10" stroke="#3399ff" opacity="1" stroke-width="2" fill="none"/>
  <circle cx="400" cy="624" r="10" stroke="#3399ff" opacity="1" stroke-width="2" fill="none"/>
  <circle cx="416" cy="624" r="10" stroke="#3399ff" opacity="1" stroke-width="2" fill="none"/>
  <circle cx="432" cy="624" r="10" stroke="#3399ff" opacity="1" stroke-width="2" fill="none"/>
  <circle cx="448" cy="608" r="10" stroke="#3399ff" opacity="1" stroke-width="2" fill="none"/>
  <circle cx="464" cy="592" r="10" stroke="#3399ff" opacity="1" stroke-width="2" fill="none"/>
  <circle cx="480" cy="576" r="10" stroke="#3399ff" opacity="1" stroke-width="2" fill="none"/>
  <circle cx="480" cy="560" r="10" stroke="#3399ff" opacity="1" stroke-width="2" fill="none"/>
  <circle cx="480" cy="544" r="10" stroke="#3399ff" opacity="1" stroke-width="2" fill="none"/>
  <circle cx="480" cy="528" r="10" stroke="#3399ff" opacity="1" stroke-width="2" fill="none"/>
  <circle cx="464" cy="512" r="10" stroke="#3399ff" opacity="1" stroke-width="2" fill="none"/>
  <circle cx="448" cy="496" r="10" stroke="#3399ff" opacity="1" stroke-width="2" fill="none"/>
  <circle cx="432" cy="480" r="10" stroke="#3399ff" opacity="1" stroke-width="2" fill="none"/>
  <circle cx="368" cy="656" r="10" stroke="#3399ff" opacity="1" stroke-width="2" fill="none"/>
  <circle cx="384" cy="656" r="10" stroke="#3399ff" opacity="1" stroke-width="2" fill="none"/>
  <circle cx="400" cy="656" r="10" stroke="#3399ff" opacity="1" stroke-width="2" fill="none"/>
  <circle cx="416" cy="656" r="10" stroke="#3399ff" opacity="1" stroke-width="2" fill="none"/>
  <circle cx="432" cy="656" r="10" stroke="#3399ff" opacity="1" stroke-width="2" fill="none"/>
  <circle cx="448" cy="640" r="10" stroke="#3399ff" opacity="1" stroke-width="2" fill="none"/>
  <circle cx="464" cy="624" r="10" stroke="#3399ff" opacity="1" stroke-width="2" fill="none"/>
  <circle cx="480" cy="608" r="10" stroke="#3399ff" opacity="1" stroke-width="2" fill="none"/>
  <circle cx="496" cy="592" r="10" stroke="#3399ff" opacity="1" stroke-width="2" fill="none"/>
  <circle cx="512" cy="576" r="10" stroke="#3399ff" opacity="1" stroke-width="2" fill="none"/>
  <circle cx="512" cy="560" r="10" stroke="#3399ff" opacity="1" stroke-width="2" fill="none"/>
  <circle cx="512" cy="544" r="10" stroke="#3399ff" opacity="1" stroke-width="2" fill="none"/>
  <circle cx="512" cy="528" r="10" stroke="#3399ff" opacity="1" stroke-width="2" fill="none"/>
  <circle cx="448" cy="464" r="10" stroke="#3399ff" opacity="1" stroke-width="2" fill="none"/>
  <circle cx="432" cy="448" r="10" stroke="#3399ff" opacity="1" stroke-width="2" fill="none"/>
  <circle cx="384" cy="464" r="10" stroke="#3399ff" opacity="1" stroke-width="2" fill="none"/>
  <circle cx="400" cy="496" r="10" stroke="#3399ff" opacity="1" stroke-width="2" fill="none"/>
  <circle cx="432" cy="528" r="10" stroke="#3399ff" opacity="1" stroke-width="2" fill="none"/>
  <circle cx="448" cy="560" r="10" stroke="#3399ff" opacity="1" stroke-width="2" fill="none"/>
  <circle cx="432" cy="576" r="10" stroke="#3399ff" opacity="1" stroke-width="2" fill="none"/>
  <circle cx="416" cy="592" r="10" stroke="#3399ff" opacity="1" stroke-width="2" fill="none"/>
  <circle cx="400" cy="592" r="10" stroke="#3399ff" opacity="1" stroke-width="2" fill="none"/>
  <circle cx="384" cy="592" r="10" stroke="#3399ff" opacity="1" stroke-width="2" fill="none"/>
  <circle cx="368" cy="592" r="10" stroke="#3399ff" opacity="1" stroke-width="2" fill="none"/>
  <circle cx="352" cy="576" r="10" stroke="#3399ff" opacity="1" stroke-width="2" fill="none"/>
  <circle cx="336" cy="560" r="10" stroke="#3399ff" opacity="1" stroke-width="2" fill="none"/>
  <circle cx="320" cy="544" r="10" stroke="#3399ff" opacity="1" stroke-width="2" fill="none"/>
  <circle cx="304" cy="528" r="10" stroke="#3399ff" opacity="1" stroke-width="2" fill="none"/>
  <circle cx="288" cy="512" r="10" stroke="#3399ff" opacity="1" stroke-width="2" fill="none"/>
  <circle cx="384" cy="480" r="10" stroke="#3399ff" opacity="1" stroke-width="2" fill="none"/>
  <circle cx="416" cy="512" r="10" stroke="#3399ff" opacity="1" stroke-width="2" fill="none"/>
  <circle cx="496" cy="512" r="10" stroke="#3399ff" opacity="1" stroke-width="2" fill="none"/>
  <circle cx="480" cy="496" r="10" stroke="#3399ff" opacity="1" stroke-width="2" fill="none"/>
  <circle cx="464" cy="480" r="10" stroke="#3399ff" opacity="1" stroke-width="2" fill="none"/>
  <circle cx="400" cy="448" r="10" stroke="#3399ff" opacity="1" stroke-width="2" fill="none"/>
  <circle cx="272" cy="496" r="10" stroke="#3399ff" opacity="1" stroke-width="2" fill="none"/>
  <circle cx="256" cy="496" r="10" stroke="#3399ff" opacity="1" stroke-width="2" fill="none"/>
  <circle cx="240" cy="496" r="10" stroke="#3399ff" opacity="1" stroke-width="2" fill="none"/>
  <circle cx="224" cy="496" r="10" stroke="#3399ff" opacity="1" stroke-width="2" fill="none"/>
  <circle cx="208" cy="512" r="10" stroke="#3399ff" opacity="1" stroke-width="2" fill="none"/>
  <circle cx="192" cy="528" r="10" stroke="#3399ff" opacity="1" stroke-width="2" fill="none"/>
  <circle cx="192" cy="544" r="10" stroke="#3399ff" opacity="1" stroke-width="2" fill="none"/>
  <circle cx="192" cy="560" r="10" stroke="#3399ff" opacity="1" stroke-width="2" fill="none"/>
  <circle cx="192" cy="576" r="10" stroke="#3399ff" opacity="1" stroke-width="2" fill="none"/>
  <circle cx="192" cy="592" r="10" stroke="#3399ff" opacity="1" stroke-width="2" fill="none"/>
  <circle cx="208" cy="608" r="10" stroke="#3399ff" opacity="1" stroke-width="2" fill="none"/>
  <circle cx="224" cy="624" r="10" stroke="#3399ff" opacity="1" stroke-width="2" fill="none"/>
  <circle cx="240" cy="640" r="10" stroke="#3399ff" opacity="1" stroke-width="2" fill="none"/>
  <circle cx="256" cy="656" r="10" stroke="#3399ff" opacity="1" stroke-width="2" fill="none"/>
  <circle cx="272" cy="672" r="10" stroke="#3399ff" opacity="1" stroke-width="2" fill="none"/>
  <circle cx="288" cy="688" r="10" stroke="#3399ff" opacity="1" stroke-width="2" fill="none"/>
  <circle cx="304" cy="704" r="10" stroke="#3399ff" opacity="1" stroke-width="2" fill="none"/>
  <circle cx="320" cy="720" r="10" stroke="#3399ff" opacity="1" stroke-width="2" fill="none"/>
  <circle cx="336" cy="720" r="10" stroke="#3399ff" opacity="1" stroke-width="2" fill="none"/>
  <circle cx="352" cy="704" r="10" stroke="#3399ff" opacity="1" stroke-width="2" fill="none"/>
  <circle cx="368" cy="688" r="10" stroke="#3399ff" opacity="1" stroke-width="2" fill="none"/>
  <circle cx="384" cy="688" r="10" stroke="#3399ff" opacity="1" stroke-width="2" fill="none"/>
  <circle cx="400" cy="688" r="10" stroke="#3399ff" opacity="1" stroke-width="2" fill="none"/>
  <circle cx="416" cy="688" r="10" stroke="#3399ff" opacity="1" stroke-width="2" fill="none"/>
  <circle cx="432" cy="688" r="10" stroke="#3399ff" opacity="1" stroke-width="2" fill="none"/>
  <circle cx="448" cy="672" r="10" stroke="#3399ff" opacity="1" stroke-width="2" fill="none"/>
  <circle cx="464" cy="656" r="10" stroke="#3399ff" opacity="1" stroke-width="2" fill="none"/>
  <circle cx="480" cy="640" r="10" stroke="#3399ff" opacity="1" stroke-width="2" fill="none"/>
  <circle cx="496" cy="624" r="10" stroke="#3399ff" opacity="1" stroke-width="2" fill="none"/>
  <circle cx="512" cy="608" r="10" stroke="#3399ff" opacity="1" stroke-width="2" fill="none"/>
  <circle cx="528" cy="592" r="10" stroke="#3399ff" opacity="1" stroke-width="2" fill="none"/>
  <circle cx="544" cy="576" r="10" stroke="#3399ff" opacity="1" stroke-width="2" fill="none"/>
  <circle cx="544" cy="560" r="10" stroke="#3399ff" opacity="1" stroke-width="2" fill="none"/>
  <circle cx="544" cy="544" r="10" stroke="#3399ff" opacity="1" stroke-width="2" fill="none"/>
  <circle cx="544" cy="528" r="10" stroke="#3399ff" opacity="1" stroke-width="2" fill="none"/>
  <circle cx="544" cy="512" r="10" stroke="#3399ff" opacity="1" stroke-width="2" fill="none"/>
  <circle cx="512" cy="480" r="10" stroke="#3399ff" opacity="1" stroke-width="2" fill="none"/>
  <circle cx="496" cy="464" r="10" stroke="#3399ff" opacity="1" stroke-width="2" fill="none"/>
  <circle cx="480" cy="448" r="10" stroke="#3399ff" opacity="1" stroke-width="2" fill="none"/>
  <circle cx="464" cy="448" r="10" stroke="#3399ff" opacity="1" stroke-width="2" fill="none"/>
  <circle cx="528" cy="496" r="10" stroke="#3399ff" opacity="1" stroke-width="2" fill="none"/>
  <circle cx="448" cy="432" r="10" stroke="#3399ff" opacity="1" stroke-width="2" fill="none"/>
  <circle cx="432" cy="416" r="10" stroke="#3399ff" opacity="1" stroke-width="2" fill="none"/>
  <circle cx="416" cy="400" r="10" stroke="#3399ff" opacity="1" stroke-width="2" fill="none"/>
  <circle cx="400" cy="400" r="10" stroke="#3399ff" opacity="1" stroke-width="2" fill="none"/>
  <circle cx="384" cy="416" r="10" stroke="#3399ff" opacity="1" stroke-width="2" fill="none"/>
  <circle cx="368" cy="432" r="10" stroke="#3399ff" opacity="1" stroke-width="2" fill="none"/>
  <circle cx="352" cy="448" r="10" stroke="#3399ff" opacity="1" stroke-width="2" fill="none"/>
  <circle cx="336" cy="464" r="10" stroke="#3399ff" opacity="1" stroke-width="2" fill="none"/>
  <circle cx="336" cy="480" r="10" stroke="#3399ff" opacity="1" stroke-width="2" fill="none"/>
  <circle cx="352" cy="496" r="10" stroke="#3399ff" opacity="1" stroke-width="2" fill="none"/>
  <circle cx="368" cy="512" r="10" stroke="#3399ff" opacity="1" stroke-width="2" fill="none"/>
  <circle cx="384" cy="528" r="10" stroke="#3399ff" opacity="1" stroke-width="2" fill="none"/>
  <circle cx="400" cy="544" r="10" stroke="#3399ff" opacity="1" stroke-width="2" fill="none"/>
  <circle cx="400" cy="560" r="10" stroke="#3399ff" opacity="1" stroke-width="2" fill="none"/>
  <circle cx="384" cy="560" r="10" stroke="#3399ff" opacity="1" stroke-width="2" fill="none"/>
  <circle cx="368" cy="560" r="10" stroke="#3399ff" opacity="1" stroke-width="2" fill="none"/>
  <circle cx="352" cy="544" r="10" stroke="#3399ff" opacity="1" stroke-width="2" fill="none"/>
  <circle cx="336" cy="528" r="10" stroke="#3399ff" opacity="1" stroke-width="2" fill="none"/>
  <circle cx="320" cy="512" r="10" stroke="#3399ff" opacity="1" stroke-width="2" fill="none"/>
  <circle cx="304" cy="496" r="10" stroke="#3399ff" opacity="1" stroke-width="2" fill="none"/>
  <circle cx="288" cy="480" r="10" stroke="#3399ff" opacity="1" stroke-width="2" fill="none"/>
  <circle cx="192" cy="384" r="10" stroke="#3399ff" opacity="1" stroke-width="2" fill="none"/>
  <circle cx="176" cy="368" r="10" stroke="#3399ff" opacity="1" stroke-width="2" fill="none"/>
  <circle cx="160" cy="352" r="10" stroke="#3399ff" opacity="1" stroke-width="2" fill="none"/>
  <circle cx="144" cy="336" r="10" stroke="#3399ff" opacity="1" stroke-width="2" fill="none"/>
  <circle cx="128" cy="320" r="10" stroke="#3399ff" opacity="1" stroke-width="2" fill="none"/>
  <circle cx="160" cy="304" r="10" stroke="#3399ff" opacity="1" stroke-width="2" fill="none"/>
  <circle cx="176" cy="320" r="10" stroke="#3399ff" opacity="1" stroke-width="2" fill="none"/>
  <circle cx="192" cy="336" r="10" stroke="#3399ff" opacity="1" stroke-width="2" fill="none"/>
  <circle cx="208" cy="352" r="10" stroke="#3399ff" opacity="1" stroke-width="2" fill="none"/>
  <circle cx="224" cy="352" r="10" stroke="#3399ff" opacity="1" stroke-width="2" fill="none"/>
  <circle cx="240" cy="336" r="10" stroke="#3399ff" opacity="1" stroke-width="2" fill="none"/>
  <circle cx="256" cy="320" r="10" stroke="#3399ff" opacity="1" stroke-width="2" fill="none"/>
  <circle cx="272" cy="304" r="10" stroke="#3399ff" opacity="1" stroke-width="2" fill="none"/>
  <circle cx="288" cy="288" r="10" stroke="#3399ff" opacity="1" stroke-width="2" fill="none"/>
  <circle cx="288" cy="272" r="10" stroke="#3399ff" opacity="1" stroke-width="2" fill="none"/>
  <circle cx="272" cy="256" r="10" stroke="#3399ff" opacity="1" stroke-width="2" fill="none"/>
  <circle cx="256" cy="240" r="10" stroke="#3399ff" opacity="1" stroke-width="2" fill="none"/>
  <circle cx="240" cy="224" r="10" stroke="#3399ff" opacity="1" stroke-width="2" fill="none"/>
  <circle cx="224" cy="208" r="10" stroke="#3399ff" opacity="1" stroke-width="2" fill="none"/>
  <circle cx="224" cy="192" r="10" stroke="#3399ff" opacity="1" stroke-width="2" fill="none"/>
  <circle cx="208" cy="176" r="10" stroke="#3399ff" opacity="1" stroke-width="2" fill="none"/>
  <circle cx="192" cy="160" r="10" stroke="#3399ff" opacity="1" stroke-width="2" fill="none"/>
  <circle cx="176" cy="144" r="10" stroke="#3399ff" opacity="1" stroke-width="2" fill="none"/>
  <circle cx="160" cy="128" r="10" stroke="#3399ff" opacity="1" stroke-width="2" fill="none"/>
  <circle cx="144" cy="128" r="10" stroke="#3399ff" opacity="1" stroke-width="2" fill="none"/>
  <circle cx="128" cy="128" r="10" stroke="#3399ff" opacity="1" stroke-width="2" fill="none"/>
  <circle cx="112" cy="128" r="10" stroke="#3399ff" opacity="1" stroke-width="2" fill="none"/>
  <circle cx="96" cy="128" r="10" stroke="#3399ff" opacity="1" stroke-width="2" fill="none"/>
  <circle cx="80" cy="144" r="10" stroke="#3399ff" opacity="1" stroke-width="2" fill="none"/>
  <circle cx="64" cy="160" r="10" stroke="#3399ff" opacity="1" stroke-width="2" fill="none"/>
  <circle cx="48" cy="176" r="10" stroke="#3399ff" opacity="1" stroke-width="2" fill="none"/>
  <circle cx="32" cy="192" r="10" stroke="#3399ff" opacity="1" stroke-width="2" fill="none"/>
  <circle cx="16" cy="208" r="10" stroke="#3399ff" opacity="1" stroke-width="2" fill="none"/>
  <circle cx="0" cy="224" r="10" stroke="#3399ff" opacity="1" stroke-width="2" fill="none"/>
  <circle cx="-16" cy="240" r="10" stroke="#3399ff" opacity="1" stroke-width="2" fill="none"/>
  <circle cx="-16" cy="256" r="10" stroke="#3399ff" opacity="1" stroke-width="2" fill="none"/>
  <circle cx="-16" cy="272" r="10" stroke="#3399ff" opacity="1" stroke-width="2" fill="none"/>
  <circle cx="-16" cy="288" r="10" stroke="#3399ff" opacity="1" stroke-width="2" fill="none"/>
  <circle cx="-16" cy="304" r="10" stroke="#3399ff" opacity="1" stroke-width="2" fill="none"/>
  <circle cx="-32" cy="320" r="10" stroke="#3399ff" opacity="1" stroke-width="2" fill="none"/>
  <circle cx="-48" cy="336" r="10" stroke="#3399ff" opacity="1" stroke-width="2" fill="none"/>
  <circle cx="-48" cy="352" r="10" stroke="#3399ff" opacity="1" stroke-width="2" fill="none"/>
  <circle cx="-32" cy="368" r="10" stroke="#3399ff" opacity="1" stroke-width="2" fill="none"/>
  <circle cx="-16" cy="384" r="10" stroke="#3399ff" opacity="1" stroke-width="2" fill="none"/>
  <circle cx="0" cy="400" r="10" stroke="#3399ff" opacity="1" stroke-width="2" fill="none"/>
  <circle cx="16" cy="416" r="10" stroke="#3399ff" opacity="1" stroke-width="2" fill="none"/>
  <circle cx="32" cy="432" r="10" stroke="#3399ff" opacity="1" stroke-width="2" fill="none"/>
  <circle cx="48" cy="448" r="10" stroke="#3399ff" opacity="1" stroke-width="2" fill="none"/>
  <circle cx="64" cy="464" r="10" stroke="#3399ff" opacity="1" stroke-width="2" fill="none"/>
  <circle cx="80" cy="464" r="10" stroke="#3399ff" opacity="1" stroke-width="2" fill="none"/>
  <circle cx="96" cy="464" r="10" stroke="#3399ff" opacity="1" stroke-width="2" fill="none"/>
  <circle cx="112" cy="464" r="10" stroke="#3399ff" opacity="1" stroke-width="2" fill="none"/>
  <circle cx="128" cy="464" r="10" stroke="#3399ff" opacity="1" stroke-width="2" fill="none"/>
  <circle cx="144" cy="448" r="10" stroke="#3399ff" opacity="1" stroke-width="2" fill="none"/>
  <circle cx="160" cy="432" r="10" stroke="#3399ff" opacity="1" stroke-width="2" fill="none"/>
  <circle cx="160" cy="416" r="10" stroke="#3399ff" opacity="1" stroke-width="2" fill="none"/>
  <circle cx="160" cy="400" r="10" stroke="#3399ff" opacity="1" stroke-width="2" fill="none"/>
  <circle cx="160" cy="384" r="10" stroke="#3399ff" opacity="1" stroke-width="2" fill="none"/>
  <circle cx="144" cy="368" r="10" stroke="#3399ff" opacity="1" stroke-width="2" fill="none"/>
  <circle cx="128" cy="352" r="10" stroke="#3399ff" opacity="1" stroke-width="2" fill="none"/>
  <circle cx="112" cy="336" r="10" stroke="#3399ff" opacity="1" stroke-width="2" fill="none"/>
  <circle cx="96" cy="320" r="10" stroke="#3399ff" opacity="1" stroke-width="2" fill="none"/>
  <circle cx="64" cy="432" r="10" stroke="#3399ff" opacity="1" stroke-width="2" fill="none"/>
  <circle cx="80" cy="432" r="10" stroke="#3399ff" opacity="1" stroke-width="2" fill="none"/>
  <circle cx="96" cy="432" r="10" stroke="#3399ff" opacity="1" stroke-width="2" fill="none"/>
  <circle cx="112" cy="432" r="10" stroke="#3399ff" opacity="1" stroke-width="2" fill="none"/>
  <circle cx="128" cy="416" r="10" stroke="#3399ff" opacity="1" stroke-width="2" fill="none"/>
  <circle cx="128" cy="400" r="10" stroke="#3399ff" opacity="1" stroke-width="2" fill="none"/>
  <circle cx="128" cy="384" r="10" stroke="#3399ff" opacity="1" stroke-width="2" fill="none"/>
  <circle cx="112" cy="368" r="10" stroke="#3399ff" opacity="1" stroke-width="2" fill="none"/>
  <circle cx="96" cy="352" r="10" stroke="#3399ff" opacity="1" stroke-width="2" fill="none"/>
  <circle cx="80" cy="336" r="10" stroke="#3399ff" opacity="1" stroke-width="2" fill="none"/>
  <circle cx="48" cy="416" r="10" stroke="#3399ff" opacity="1" stroke-width="2" fill="none"/>
  <circle cx="32" cy="400" r="10" stroke="#3399ff" opacity="1" stroke-width="2" fill="none"/>
  <circle cx="16" cy="384" r="10" stroke="#3399ff" opacity="1" stroke-width="2" fill="none"/>
  <circle cx="0" cy="368" r="10" stroke="#3399ff" opacity="1" stroke-width="2" fill="none"/>
  <circle cx="-16" cy="352" r="10" stroke="#3399ff" opacity="1" stroke-width="2" fill="none"/>
  <circle cx="0" cy="336" r="10" stroke="#3399ff" opacity="1" stroke-width="2" fill="none"/>
  <circle cx="16" cy="320" r="10" stroke="#3399ff" opacity="1" stroke-width="2" fill="none"/>
  <circle cx="16" cy="304" r="10" stroke="#3399ff" opacity="1" stroke-width="2" fill="none"/>
  <circle cx="16" cy="288" r="10" stroke="#3399ff" opacity="1" stroke-width="2" fill="none"/>
  <circle cx="16" cy="272" r="10" stroke="#3399ff" opacity="1" stroke-width="2" fill="none"/>
  <circle cx="16" cy="256" r="10" stroke="#3399ff" opacity="1" stroke-width="2" fill="none"/>
  <circle cx="32" cy="224" r="10" stroke="#3399ff" opacity="1" stroke-width="2" fill="none"/>
  <circle cx="16" cy="240" r="10" stroke="#3399ff" opacity="1" stroke-width="2" fill="none"/>
  <circle cx="48" cy="208" r="10" stroke="#3399ff" opacity="1" stroke-width="2" fill="none"/>
  <circle cx="64" cy="192" r="10" stroke="#3399ff" opacity="1" stroke-width="2" fill="none"/>
  <circle cx="80" cy="176" r="10" stroke="#3399ff" opacity="1" stroke-width="2" fill="none"/>
  <circle cx="96" cy="160" r="10" stroke="#3399ff" opacity="1" stroke-width="2" fill="none"/>
  <circle cx="112" cy="160" r="10" stroke="#3399ff" opacity="1" stroke-width="2" fill="none"/>
  <circle cx="128" cy="160" r="10" stroke="#3399ff" opacity="1" stroke-width="2" fill="none"/>
  <circle cx="144" cy="160" r="10" stroke="#3399ff" opacity="1" stroke-width="2" fill="none"/>
  <circle cx="176" cy="192" r="10" stroke="#3399ff" opacity="1" stroke-width="2" fill="none"/>
  <circle cx="192" cy="208" r="10" stroke="#3399ff" opacity="1" stroke-width="2" fill="none"/>
  <circle cx="208" cy="224" r="10" stroke="#3399ff" opacity="1" stroke-width="2" fill="none"/>
  <circle cx="96" cy="400" r="10" stroke="#3399ff" opacity="1" stroke-width="2" fill="none"/>
  <circle cx="80" cy="384" r="10" stroke="#3399ff" opacity="1" stroke-width="2" fill="none"/>
  <circle cx="64" cy="368" r="10" stroke="#3399ff" opacity="1" stroke-width="2" fill="none"/>
  <circle cx="48" cy="352" r="10" stroke="#3399ff" opacity="1" stroke-width="2" fill="none"/>
  <circle cx="32" cy="336" r="10" stroke="#3399ff" opacity="1" stroke-width="2" fill="none"/>
  <circle cx="64" cy="320" r="10" stroke="#3399ff" opacity="1" stroke-width="2" fill="none"/>
  <circle cx="48" cy="304" r="10" stroke="#3399ff" opacity="1" stroke-width="2" fill="none"/>
  <circle cx="48" cy="288" r="10" stroke="#3399ff" opacity="1" stroke-width="2" fill="none"/>
  <circle cx="48" cy="272" r="10" stroke="#3399ff" opacity="1" stroke-width="2" fill="none"/>
  <circle cx="48" cy="256" r="10" stroke="#3399ff" opacity="1" stroke-width="2" fill="none"/>
  <circle cx="48" cy="240" r="10" stroke="#3399ff" opacity="1" stroke-width="2" fill="none"/>
  <circle cx="64" cy="224" r="10" stroke="#3399ff" opacity="1" stroke-width="2" fill="none"/>
  <circle cx="80" cy="208" r="10" stroke="#3399ff" opacity="1" stroke-width="2" fill="none"/>
  <circle cx="96" cy="192" r="10" stroke="#3399ff" opacity="1" stroke-width="2" fill="none"/>
  <circle cx="112" cy="192" r="10" stroke="#3399ff" opacity="1" stroke-width="2" fill="none"/>
  <circle cx="128" cy="192" r="10" stroke="#3399ff" opacity="1" stroke-width="2" fill="none"/>
  <circle cx="144" cy="192" r="10" stroke="#3399ff" opacity="1" stroke-width="2" fill="none"/>
  <circle cx="160" cy="208" r="10" stroke="#3399ff" opacity="1" stroke-width="2" fill="none"/>
  <circle cx="176" cy="224" r="10" stroke="#3399ff" opacity="1" stroke-width="2" fill="none"/>
  <circle cx="192" cy="240" r="10" stroke="#3399ff" opacity="1" stroke-width="2" fill="none"/>
  <circle cx="224" cy="240" r="10" stroke="#3399ff" opacity="1" stroke-width="2" fill="none"/>
  <circle cx="240" cy="256" r="10" stroke="#3399ff" opacity="1" stroke-width="2" fill="none"/>
  <circle cx="240" cy="288" r="10" stroke="#3399ff" opacity="1" stroke-width="2" fill="none"/>
  <circle cx="224" cy="304" r="10" stroke="#3399ff" opacity="1" stroke-width="2" fill="none"/>
  <circle cx="208" cy="304" r="10" stroke="#3399ff" opacity="1" stroke-width="2" fill="none"/>
  <circle cx="192" cy="288" r="10" stroke="#3399ff" opacity="1" stroke-width="2" fill="none"/>
  <circle cx="176" cy="272" r="10" stroke="#3399ff" opacity="1" stroke-width="2" fill="none"/>
  <circle cx="208" cy="256" r="10" stroke="#3399ff" opacity="1" stroke-width="2" fill="none"/>
  <circle cx="128" cy="224" r="10" stroke="#3399ff" opacity="1" stroke-width="2" fill="none"/>
  <circle cx="112" cy="224" r="10" stroke="#3399ff" opacity="1" stroke-width="2" fill="none"/>
  <circle cx="96" cy="240" r="10" stroke="#3399ff" opacity="1" stroke-width="2" fill="none"/>
  <circle cx="80" cy="256" r="10" stroke="#3399ff" opacity="1" stroke-width="2" fill="none"/>
  <circle cx="80" cy="272" r="10" stroke="#3399ff" opacity="1" stroke-width="2" fill="none"/>
  <circle cx="80" cy="288" r="10" stroke="#3399ff" opacity="1" stroke-width="2" fill="none"/>
  <circle cx="80" cy="304" r="10" stroke="#3399ff" opacity="1" stroke-width="2" fill="none"/>
  <circle cx="112" cy="288" r="10" stroke="#3399ff" opacity="1" stroke-width="2" fill="none"/>
  <circle cx="112" cy="304" r="10" stroke="#3399ff" opacity="1" stroke-width="2" fill="none"/>
  <circle cx="176" cy="400" r="10" stroke="#3399ff" opacity="1" stroke-width="2" fill="none"/>
  <circle cx="232" cy="440" r="10" stroke="#33ff33" opacity="1" stroke-width="2" fill="none"/>
  <circle cx="160" cy="176" r="10" stroke="#3399ff" opacity="1" stroke-width="2" fill="none"/>
  <circle cx="448" cy="544" r="10" stroke="#3399ff" opacity="1" stroke-width="2" fill="none"/>
  <circle cx="240" cy="272" r="10" stroke="#3399ff" opacity="1" stroke-width="2" fill="none"/>
  <circle cx="144" cy="240" r="10" stroke="#3399ff" opacity="1" stroke-width="2" fill="none"/>
  <circle cx="160" cy="256" r="10" stroke="#3399ff" opacity="1" stroke-width="2" fill="none"/>
  <circle cx="128" cy="272" r="10" stroke="#3399ff" opacity="1" stroke-width="2" fill="none"/>
  <circle cx="144" cy="288" r="10" stroke="#3399ff" opacity="1" stroke-width="2" fill="none"/>
  <path marker-end="url(#spawn)" stroke-width="0.5" stroke="red" d="M 0 0 0 1" transform="translate(320,656) scale(1 -1) rotate(-90) matrix(0,1,-1,0,0,0)" fill="none"/>
  <path marker-end="url(#spawn)" stroke-width="0.5" stroke="red" d="M 0 0 0 1" transform="translate(16,352) scale(1 -1) rotate(-90) matrix(0,-1,1,0,0,0)" fill="none"/>
</svg>
