<?xml version="1.0" encoding="UTF-8" standalone="no"?>
<svg xmlns="http://www.w3.org/2000/svg" viewBox="1403,571,394,394" width="100%" height="100%">
  <defs>
    <marker id="spawn" markerWidth="30" markerHeight="40" refX="2" refY="15" orient="auto" viewBox="0 0 40 30">
      <path d="M -5,0 -5,20 -15,20 0,40 15,20 5,20 5,0 Z" fill="magenta" transform="translate(0,15) rotate(-90)"/>
    </marker>
  </defs>
  <polyline points="1408,576 1408,960 1792,960 1792,576 1408,576" stroke="white" stroke-width="2" fill="none"/>
  <polyline points="1440,656 1440,640 1456,640 1456,656 1440,656" stroke="white" stroke-width="2" fill="none"/>
  <polyline points="1792,736 1776,736 1776,752 1792,752" stroke="white" stroke-width="2" fill="none"/>
  <polyline points="1792,608 1776,608 1776,624 1792,624" stroke="white" stroke-width="2" fill="none"/>
  <polyline points="1744,624 1744,608 1760,608 1760,624 1744,624" stroke="white" stroke-width="2" fill="none"/>
  <polyline points="1408,608 1424,608 1424,624 1408,624" stroke="white" stroke-width="2" fill="none"/>
  <polyline points="1440,624 1440,608 1456,608 1456,624 1440,624" stroke="white" stroke-width="2" fill="none"/>
  <polyline points="1408,736 1424,736 1424,752 1408,752" stroke="white" stroke-width="2" fill="none"/>
  <polyline points="1760,752 1760,736 1744,736 1744,752 1760,752" stroke="white" stroke-width="2" fill="none"/>
  <polyline points="1440,752 1440,736 1456,736 1456,752 1440,752" stroke="white" stroke-width="2" fill="none"/>
  <polyline points="1440,704 1440,688 1424,688 1424,704 1440,704" stroke="white" stroke-width="2" fill="none"/>
  <polyline points="1616,736 1616,752 1632,752 1632,736 1616,736" stroke="white" stroke-width="2" fill="none"/>
  <polyline points="1664,736 1664,752 1680,752 1680,736 1664,736" stroke="white" stroke-width="2" fill="none"/>
  <polyline points="1712,736 1712,752 1728,752 1728,736 1712,736" stroke="white" stroke-width="2" fill="none"/>
  <polyline points="1744,656 1744,640 1760,640 1760,656 1744,656" stroke="white" stroke-width="2" fill="none"/>
  <polyline points="1680,656 1680,640 1696,640 1696,656 1680,656" stroke="white" stroke-width="2" fill="none"/>
  <polyline points="1776,704 1776,688 1760,688 1760,704 1776,704" stroke="white" stroke-width="2" fill="none"/>
  <polyline points="1728,704 1728,688 1712,688 1712,704 1728,704" stroke="white" stroke-width="2" fill="none"/>
  <polyline points="1504,656 1504,640 1520,640 1520,656 1504,656" stroke="white" stroke-width="2" fill="none"/>
  <polyline points="1472,704 1472,688 1488,688 1488,704 1472,704" stroke="white" stroke-width="2" fill="none"/>
  <polyline points="1536,704 1536,688 1568,688 1568,704 1536,704" stroke="white" stroke-width="2" fill="none"/>
  <polyline points="1584,656 1584,640 1616,640 1616,656 1584,656" stroke="white" stroke-width="2" fill="none"/>
  <polyline points="1632,704 1632,688 1664,688 1664,704 1632,704" stroke="white" stroke-width="2" fill="none"/>
  <polyline points="1568,752 1568,736 1584,736 1584,752 1568,752" stroke="white" stroke-width="2" fill="none"/>
  <polyline points="1536,736 1520,736 1520,752 1536,752 1536,736" stroke="white" stroke-width="2" fill="none"/>
  <polyline points="1472,752 1472,736 1488,736 1488,752 1472,752" stroke="white" stroke-width="2" fill="none"/>
  <polyline points="1584,784 1584,800 1616,800 1616,784 1584,784" stroke="white" stroke-width="2" fill="none"/>
  <polyline points="1648,784 1648,800 1680,800 1680,784 1648,784" stroke="white" stroke-width="2" fill="none"/>
  <polyline points="1712,784 1712,800 1744,800 1744,784 1712,784" stroke="white" stroke-width="2" fill="none"/>
  <polyline points="1792,784 1776,784 1776,800 1792,800" stroke="white" stroke-width="2" fill="none"/>
  <polyline points="1408,784 1424,784 1424,800 1408,800" stroke="white" stroke-width="2" fill="none"/>
  <polyline points="1456,800 1456,784 1488,784 1488,800 1456,800" stroke="white" stroke-width="2" fill="none"/>
  <polyline points="1520,800 1520,784 1552,784 1552,800 1520,800" stroke="white" stroke-width="2" fill="none"/>
  <circle cx="1424" cy="592" r="10" stroke="#33ff33" opacity="1" stroke-width="2" fill="none"/>
  <circle cx="1776" cy="592" r="10" stroke="#33ff33" opacity="1" stroke-width="2" fill="none"/>
  <circle cx="1408" cy="864" r="10" stroke="#3399ff" opacity="1" stroke-width="2" fill="none"/>
  <circle cx="1472" cy="864" r="10" stroke="#3399ff" opacity="1" stroke-width="2" fill="none"/>
  <circle cx="1536" cy="864" r="10" stroke="#3399ff" opacity="1" stroke-width="2" fill="none"/>
  <circle cx="1600" cy="864" r="10" stroke="#3399ff" opacity="1" stroke-width="2" fill="none"/>
  <circle cx="1664" cy="864" r="10" stroke="#3399ff" opacity="1" stroke-width="2" fill="none"/>
  <circle cx="1728" cy="864" r="10" stroke="#3399ff" opacity="1" stroke-width="2" fill="none"/>
  <circle cx="1696" cy="720" r="10" stroke="#3399ff" opacity="1" stroke-width="2" fill="none"/>
  <circle cx="1648" cy="720" r="10" stroke="#3399ff" opacity="1" stroke-width="2" fill="none"/>
  <circle cx="1552" cy="720" r="10" stroke="#3399ff" opacity="1" stroke-width="2" fill="none"/>
  <circle cx="1504" cy="720" r="10" stroke="#3399ff" opacity="1" stroke-width="2" fill="none"/>
  <circle cx="1472" cy="656" r="10" stroke="#3399ff" opacity="1" stroke-width="2" fill="none"/>
  <circle cx="1488" cy="656" r="10" stroke="#3399ff" opacity="1" stroke-width="2" fill="none"/>
  <circle cx="1552" cy="656" r="10" stroke="#3399ff" opacity="1" stroke-width="2" fill="none"/>
  <circle cx="1648" cy="656" r="10" stroke="#3399ff" opacity="1" stroke-width="2" fill="none"/>
  <circle cx="1712" cy="656" r="10" stroke="#3399ff" opacity="1" stroke-width="2" fill="none"/>
  <circle cx="1728" cy="656" r="10" stroke="#3399ff" opacity="1" stroke-width="2" fill="none"/>
  <circle cx="1456" cy="704" r="10" stroke="#3399ff" opacity="1" stroke-width="2" fill="none"/>
  <circle cx="1744" cy="704" r="10" stroke="#3399ff" opacity="1" stroke-width="2" fill="none"/>
  <circle cx="1600" cy="688" r="10" stroke="#3399ff" opacity="1" stroke-width="2" fill="none"/>
  <circle cx="1568" cy="816" r="10" stroke="#3399ff" opacity="1" stroke-width="2" fill="none"/>
  <circle cx="1504" cy="816" r="10" stroke="#3399ff" opacity="1" stroke-width="2" fill="none"/>
  <circle cx="1696" cy="816" r="10" stroke="#3399ff" opacity="1" stroke-width="2" fill="none"/>
  <circle cx="1632" cy="816" r="10" stroke="#3399ff" opacity="1" stroke-width="2" fill="none"/>
  <circle cx="1440" cy="816" r="10" stroke="#3399ff" opacity="1" stroke-width="2" fill="none"/>
  <circle cx="1760" cy="816" r="10" stroke="#3399ff" opacity="1" stroke-width="2" fill="none"/>
  <circle cx="1680" cy="688" r="10" stroke="#3399ff" opacity="1" stroke-width="2" fill="none"/>
  <circle cx="1520" cy="688" r="10" stroke="#3399ff" opacity="1" stroke-width="2" fill="none"/>
  <circle cx="1792" cy="864" r="10" stroke="#3399ff" opacity="1" stroke-width="2" fill="none"/>
  <circle cx="1600" cy="752" r="10" stroke="#3399ff" opacity="1" stroke-width="2" fill="none"/>
  <circle cx="1456" cy="608" r="10" stroke="#3399ff" opacity="1" stroke-width="2" fill="none"/>
  <circle cx="1504" cy="608" r="10" stroke="#3399ff" opacity="1" stroke-width="2" fill="none"/>
  <circle cx="1520" cy="608" r="10" stroke="#3399ff" opacity="1" stroke-width="2" fill="none"/>
  <circle cx="1584" cy="608" r="10" stroke="#3399ff" opacity="1" stroke-width="2" fill="none"/>
  <circle cx="1600" cy="608" r="10" stroke="#3399ff" opacity="1" stroke-width="2" fill="none"/>
  <circle cx="1616" cy="608" r="10" stroke="#3399ff" opacity="1" stroke-width="2" fill="none"/>
  <circle cx="1680" cy="608" r="10" stroke="#3399ff" opacity="1" stroke-width="2" fill="none"/>
  <circle cx="1696" cy="608" r="10" stroke="#3399ff" opacity="1" stroke-width="2" fill="none"/>
  <circle cx="1744" cy="608" r="10" stroke="#3399ff" opacity="1" stroke-width="2" fill="none"/>
  <circle cx="1648" cy="624" r="10" stroke="#3399ff" opacity="1" stroke-width="2" fill="none"/>
  <circle cx="1552" cy="624" r="10" stroke="#3399ff" opacity="1" stroke-width="2" fill="none"/>
  <circle cx="1488" cy="624" r="10" stroke="#3399ff" opacity="1" stroke-width="2" fill="none"/>
  <circle cx="1712" cy="624" r="10" stroke="#3399ff" opacity="1" stroke-width="2" fill="none"/>
  <circle cx="1424" cy="656" r="10" stroke="#3399ff" opacity="1" stroke-width="2" fill="none"/>
  <circle cx="1440" cy="640" r="10" stroke="#3399ff" opacity="1" stroke-width="2" fill="none"/>
  <circle cx="1760" cy="640" r="10" stroke="#3399ff" opacity="1" stroke-width="2" fill="none"/>
  <circle cx="1776" cy="656" r="10" stroke="#3399ff" opacity="1" stroke-width="2" fill="none"/>
  <circle cx="1792" cy="688" r="10" stroke="#3399ff" opacity="1" stroke-width="2" fill="none"/>
  <circle cx="1408" cy="688" r="10" stroke="#3399ff" opacity="1" stroke-width="2" fill="none"/>
  <circle cx="1456" cy="576" r="10" stroke="#3399ff" opacity="1" stroke-width="2" fill="none"/>
  <circle cx="1744" cy="576" r="10" stroke="#3399ff" opacity="1" stroke-width="2" fill="none"/>
  <circle cx="1648" cy="592" r="10" stroke="#3399ff" opacity="1" stroke-width="2" fill="none"/>
  <circle cx="1552" cy="592" r="10" stroke="#3399ff" opacity="1" stroke-width="2" fill="none"/>
  <path marker-end="url(#spawn)" stroke-width="0.5" stroke="red" d="M 0 0 0 1" transform="translate(1600,944) scale(1 -1) rotate(-90) matrix(0,1,-1,0,0,0)" fill="none"/>
</svg>
