<?xml version="1.0" encoding="UTF-8" standalone="no"?>
<svg xmlns="http://www.w3.org/2000/svg" viewBox="635,-1525,554,938" width="100%" height="100%">
  <defs>
    <marker id="spawn" markerWidth="30" markerHeight="40" refX="2" refY="15" orient="auto" viewBox="0 0 40 30">
      <path d="M -5,0 -5,20 -15,20 0,40 15,20 5,20 5,0 Z" fill="magenta" transform="translate(0,15) rotate(-90)"/>
    </marker>
  </defs>
  <polyline points="848,-864 848,-1120 976,-1120 976,-864" stroke="white" stroke-width="2" fill="none"/>
  <polyline points="912,-816 864,-768 800,-768 752,-816 752,-1200" stroke="white" stroke-width="2" fill="none"/>
  <polyline points="1072,-1200 1072,-816 1024,-768 960,-768 912,-816" stroke="white" stroke-width="2" fill="none"/>
  <polyline points="896,-1200 896,-1408" stroke="white" stroke-width="2" fill="none"/>
  <polyline points="928,-1408 928,-1200" stroke="white" stroke-width="2" fill="none"/>
  <polyline points="928,-1200 1072,-1200" stroke="white" stroke-width="2" fill="none"/>
  <polyline points="896,-1200 752,-1200" stroke="white" stroke-width="2" fill="none"/>
  <polyline points="896,-1408 864,-1440 752,-1440 720,-1408 720,-1200" stroke="white" stroke-width="2" fill="none"/>
  <polyline points="912,-1456 704,-1456 704,-720 896,-720 896,-608" stroke="white" stroke-width="2" fill="none"/>
  <polyline points="928,-608 928,-720 1120,-720 1120,-1456 912,-1456" stroke="white" stroke-width="2" fill="none"/>
  <polyline points="928,-1408 960,-1440 1072,-1440 1104,-1408 1104,-1200" stroke="white" stroke-width="2" fill="none"/>
  <polyline points="896,-608 864,-608 864,-688 848,-704 688,-704 672,-720 672,-1472 688,-1488 1136,-1488 1152,-1472 1152,-720 1136,-704 976,-704 960,-688 960,-608 928,-608" stroke="white" stroke-width="2" fill="none"/>
  <polyline points="1184,-1504 1168,-1520 656,-1520 640,-1504 640,-592 1184,-592 1184,-1504" stroke="white" stroke-width="2" fill="none"/>
  <polyline points="960,-592 976,-608 976,-672 992,-688 1008,-688 1024,-672 1024,-608 1040,-592" stroke="white" stroke-width="2" fill="none"/>
  <polyline points="1056,-592 1072,-608 1072,-672 1088,-688 1104,-688 1120,-672 1120,-608 1136,-592" stroke="white" stroke-width="2" fill="none"/>
  <polyline points="864,-592 848,-608 848,-672 832,-688 816,-688 800,-672 800,-608 784,-592" stroke="white" stroke-width="2" fill="none"/>
  <polyline points="768,-592 752,-608 752,-672 736,-688 720,-688 704,-672 704,-608 688,-592" stroke="white" stroke-width="2" fill="none"/>
  <polyline points="752,-704 768,-688 768,-624 784,-624 784,-688 800,-704" stroke="white" stroke-width="2" fill="none"/>
  <polyline points="1024,-704 1040,-688 1040,-624 1056,-624 1056,-688 1072,-704" stroke="white" stroke-width="2" fill="none"/>
  <polyline points="688,-704 688,-624 672,-608 656,-624 656,-704 672,-720" stroke="white" stroke-width="2" fill="none"/>
  <polyline points="1152,-720 1168,-704 1168,-624 1152,-608 1136,-624 1136,-704" stroke="white" stroke-width="2" fill="none"/>
  <circle cx="912" cy="-1120" r="32" stroke="#3399ff" opacity="1" stroke-width="2" fill="none"/>
  <circle cx="848" cy="-1120" r="32" stroke="#3399ff" opacity="1" stroke-width="2" fill="none"/>
  <circle cx="976" cy="-1120" r="32" stroke="#3399ff" opacity="1" stroke-width="2" fill="none"/>
  <circle cx="848" cy="-1056" r="32" stroke="#3399ff" opacity="1" stroke-width="2" fill="none"/>
  <circle cx="976" cy="-1056" r="32" stroke="#3399ff" opacity="1" stroke-width="2" fill="none"/>
  <circle cx="976" cy="-992" r="32" stroke="#3399ff" opacity="1" stroke-width="2" fill="none"/>
  <circle cx="976" cy="-928" r="32" stroke="#3399ff" opacity="1" stroke-width="2" fill="none"/>
  <circle cx="976" cy="-864" r="32" stroke="#3399ff" opacity="1" stroke-width="2" fill="none"/>
  <circle cx="848" cy="-992" r="32" stroke="#3399ff" opacity="1" stroke-width="2" fill="none"/>
  <circle cx="848" cy="-928" r="32" stroke="#3399ff" opacity="1" stroke-width="2" fill="none"/>
  <circle cx="848" cy="-864" r="32" stroke="#3399ff" opacity="1" stroke-width="2" fill="none"/>
  <circle cx="912" cy="-816" r="32" stroke="#3399ff" opacity="1" stroke-width="2" fill="none"/>
  <circle cx="864" cy="-768" r="32" stroke="#3399ff" opacity="1" stroke-width="2" fill="none"/>
  <circle cx="960" cy="-768" r="32" stroke="#3399ff" opacity="1" stroke-width="2" fill="none"/>
  <circle cx="1024" cy="-768" r="32" stroke="#3399ff" opacity="1" stroke-width="2" fill="none"/>
  <circle cx="1072" cy="-816" r="32" stroke="#3399ff" opacity="1" stroke-width="2" fill="none"/>
  <circle cx="1072" cy="-880" r="32" stroke="#3399ff" opacity="1" stroke-width="2" fill="none"/>
  <circle cx="1072" cy="-944" r="32" stroke="#3399ff" opacity="1" stroke-width="2" fill="none"/>
  <circle cx="1072" cy="-1008" r="32" stroke="#3399ff" opacity="1" stroke-width="2" fill="none"/>
  <circle cx="1072" cy="-1072" r="32" stroke="#3399ff" opacity="1" stroke-width="2" fill="none"/>
  <circle cx="1072" cy="-1136" r="32" stroke="#3399ff" opacity="1" stroke-width="2" fill="none"/>
  <circle cx="752" cy="-1136" r="32" stroke="#3399ff" opacity="1" stroke-width="2" fill="none"/>
  <circle cx="752" cy="-1072" r="32" stroke="#3399ff" opacity="1" stroke-width="2" fill="none"/>
  <circle cx="752" cy="-1008" r="32" stroke="#3399ff" opacity="1" stroke-width="2" fill="none"/>
  <circle cx="752" cy="-944" r="32" stroke="#3399ff" opacity="1" stroke-width="2" fill="none"/>
  <circle cx="752" cy="-880" r="32" stroke="#3399ff" opacity="1" stroke-width="2" fill="none"/>
  <circle cx="752" cy="-816" r="32" stroke="#3399ff" opacity="1" stroke-width="2" fill="none"/>
  <circle cx="800" cy="-768" r="32" stroke="#3399ff" opacity="1" stroke-width="2" fill="none"/>
  <circle cx="752" cy="-1200" r="32" stroke="#3399ff" opacity="1" stroke-width="2" fill="none"/>
  <circle cx="816" cy="-1200" r="32" stroke="#3399ff" opacity="1" stroke-width="2" fill="none"/>
  <circle cx="864" cy="-1200" r="32" stroke="#3399ff" opacity="1" stroke-width="2" fill="none"/>
  <circle cx="960" cy="-1200" r="32" stroke="#3399ff" opacity="1" stroke-width="2" fill="none"/>
  <circle cx="1072" cy="-1200" r="32" stroke="#3399ff" opacity="1" stroke-width="2" fill="none"/>
  <circle cx="1008" cy="-1200" r="32" stroke="#3399ff" opacity="1" stroke-width="2" fill="none"/>
  <circle cx="912" cy="-1456" r="32" stroke="#3399ff" opacity="1" stroke-width="2" fill="none"/>
  <circle cx="912" cy="-1488" r="10" stroke="#33ff33" opacity="1" stroke-width="2" fill="none"/>
  <circle cx="912" cy="-1520" r="30" stroke="#3399ff" opacity="1" stroke-width="2" fill="none"/>
  <circle cx="728" cy="-680" r="16" stroke="#3399ff" opacity="1" stroke-width="2" fill="none"/>
  <circle cx="824" cy="-680" r="16" stroke="#3399ff" opacity="1" stroke-width="2" fill="none"/>
  <circle cx="1000" cy="-680" r="16" stroke="#3399ff" opacity="1" stroke-width="2" fill="none"/>
  <circle cx="1096" cy="-680" r="16" stroke="#3399ff" opacity="1" stroke-width="2" fill="none"/>
  <circle cx="1048" cy="-624" r="16" stroke="#3399ff" opacity="1" stroke-width="2" fill="none"/>
  <circle cx="776" cy="-624" r="16" stroke="#3399ff" opacity="1" stroke-width="2" fill="none"/>
  <circle cx="672" cy="-616" r="16" stroke="#3399ff" opacity="1" stroke-width="2" fill="none"/>
  <circle cx="1152" cy="-616" r="16" stroke="#3399ff" opacity="1" stroke-width="2" fill="none"/>
  <circle cx="1160" cy="-1496" r="16" stroke="#3399ff" opacity="1" stroke-width="2" fill="none"/>
  <circle cx="664" cy="-1496" r="16" stroke="#3399ff" opacity="1" stroke-width="2" fill="none"/>
  <circle cx="688" cy="-1472" r="32" stroke="#3399ff" opacity="1" stroke-width="2" fill="none"/>
  <circle cx="1136" cy="-1472" r="32" stroke="#3399ff" opacity="1" stroke-width="2" fill="none"/>
  <circle cx="912" cy="-720" r="10" stroke="#3399ff" opacity="1" stroke-width="2" fill="none"/>
  <circle cx="912" cy="-688" r="10" stroke="#3399ff" opacity="1" stroke-width="2" fill="none"/>
  <circle cx="912" cy="-640" r="10" stroke="#3399ff" opacity="1" stroke-width="2" fill="none"/>
  <circle cx="912" cy="-608" r="10" stroke="#3399ff" opacity="1" stroke-width="2" fill="none"/>
  <circle cx="912" cy="-752" r="10" stroke="#3399ff" opacity="1" stroke-width="2" fill="none"/>
  <circle cx="912" cy="-784" r="10" stroke="#3399ff" opacity="1" stroke-width="2" fill="none"/>
  <circle cx="720" cy="-736" r="16" stroke="#3399ff" opacity="1" stroke-width="2" fill="none"/>
  <circle cx="1072" cy="-768" r="16" stroke="#3399ff" opacity="1" stroke-width="2" fill="none"/>
  <circle cx="752" cy="-768" r="16" stroke="#3399ff" opacity="1" stroke-width="2" fill="none"/>
  <circle cx="1104" cy="-736" r="16" stroke="#3399ff" opacity="1" stroke-width="2" fill="none"/>
  <path marker-end="url(#spawn)" stroke-width="0.5" stroke="red" d="M 0 0 0 1" transform="translate(912,-1072) scale(1 -1) rotate(-90) matrix(0,-1,1,0,0,0)" fill="none"/>
</svg>
