<?xml version="1.0" encoding="UTF-8" standalone="no"?>
<svg xmlns="http://www.w3.org/2000/svg" viewBox="123,363,234,282" width="100%" height="100%">
  <defs>
    <marker id="spawn" markerWidth="30" markerHeight="40" refX="2" refY="15" orient="auto" viewBox="0 0 40 30">
      <path d="M -5,0 -5,20 -15,20 0,40 15,20 5,20 5,0 Z" fill="magenta" transform="translate(0,15) rotate(-90)"/>
    </marker>
  </defs>
  <polyline points="240,416 285,435 304,480 285,525 240,544 195,525 176,480 195,435 240,416" stroke="white" stroke-width="2" fill="none"/>
  <polyline points="224,640 224,560 256,560 256,640 224,640" stroke="white" stroke-width="2" fill="none"/>
  <polyline points="304,576 304,544 336,544 336,576 304,576" stroke="white" stroke-width="2" fill="none"/>
  <polyline points="320,496 320,464 352,464 352,496 320,496" stroke="white" stroke-width="2" fill="none"/>
  <polyline points="304,416 304,384 336,384 336,416 304,416" stroke="white" stroke-width="2" fill="none"/>
  <polyline points="256,400 256,368 224,368 224,400 256,400" stroke="white" stroke-width="2" fill="none"/>
  <polyline points="160,496 160,464 128,464 128,496 160,496" stroke="white" stroke-width="2" fill="none"/>
  <polyline points="176,544 176,576 144,576 144,544 176,544" stroke="white" stroke-width="2" fill="none"/>
  <polyline points="176,384 144,384 144,416 176,416 176,384" stroke="white" stroke-width="2" fill="none"/>
  <circle cx="240" cy="480" r="58" stroke="#33ff33" opacity="1" stroke-width="2" fill="none"/>
  <circle cx="240" cy="576" r="24" stroke="#0055ff" opacity="1" stroke-width="2" fill="none"/>
  <circle cx="320" cy="560" r="24" stroke="#0055ff" opacity="1" stroke-width="2" fill="none"/>
  <circle cx="336" cy="480" r="24" stroke="#0055ff" opacity="1" stroke-width="2" fill="none"/>
  <circle cx="320" cy="400" r="24" stroke="#0055ff" opacity="1" stroke-width="2" fill="none"/>
  <circle cx="240" cy="384" r="24" stroke="#0055ff" opacity="1" stroke-width="2" fill="none"/>
  <circle cx="160" cy="400" r="24" stroke="#0055ff" opacity="1" stroke-width="2" fill="none"/>
  <circle cx="144" cy="480" r="24" stroke="#0055ff" opacity="1" stroke-width="2" fill="none"/>
  <circle cx="160" cy="560" r="24" stroke="#0055ff" opacity="1" stroke-width="2" fill="none"/>
  <path marker-end="url(#spawn)" stroke-width="0.5" stroke="red" d="M 0 0 0 1" transform="translate(240,624) scale(1 -1) rotate(-90) matrix(0,1,-1,0,0,0)" fill="none"/>
</svg>
