<?xml version="1.0" encoding="UTF-8" standalone="no"?>
<svg xmlns="http://www.w3.org/2000/svg" viewBox="2811,2043,266,266" width="100%" height="100%">
  <defs>
    <marker id="spawn" markerWidth="30" markerHeight="40" refX="2" refY="15" orient="auto" viewBox="0 0 40 30">
      <path d="M -5,0 -5,20 -15,20 0,40 15,20 5,20 5,0 Z" fill="magenta" transform="translate(0,15) rotate(-90)"/>
    </marker>
  </defs>
  <polyline points="2816,2048 2816,2304 3072,2304 3072,2048 2816,2048" stroke="white" stroke-width="2" fill="none"/>
  <polyline points="2816,2080 3056,2080 3056,2288" stroke="white" stroke-width="2" fill="none"/>
  <polyline points="3056,2304 2848,2096" stroke="white" stroke-width="2" fill="none"/>
  <polyline points="3056,2288 2880,2112" stroke="white" stroke-width="2" fill="none"/>
  <polyline points="2848,2096 3040,2096 3040,2256" stroke="white" stroke-width="2" fill="none"/>
  <polyline points="2896,2096 3008,2208 3008,2128" stroke="white" stroke-width="2" fill="none"/>
  <polyline points="3024,2256 3024,2112 2992,2112 2992,2176" stroke="white" stroke-width="2" fill="none"/>
  <polyline points="2992,2112 2928,2112 2960,2144" stroke="white" stroke-width="2" fill="none"/>
  <polyline points="2976,2176 2976,2128 2960,2128" stroke="white" stroke-width="2" fill="none"/>
  <polyline points="2848,2096 2848,2288 3008,2288" stroke="white" stroke-width="2" fill="none"/>
  <polyline points="2848,2096 2832,2112 2832,2144 2848,2160" stroke="white" stroke-width="2" fill="none"/>
  <polyline points="2816,2144 2832,2160 2832,2192 2816,2208" stroke="white" stroke-width="2" fill="none"/>
  <polyline points="2848,2192 2832,2208 2832,2240 2848,2256" stroke="white" stroke-width="2" fill="none"/>
  <polyline points="2816,2240 2832,2256 2832,2288 2816,2304" stroke="white" stroke-width="2" fill="none"/>
  <polyline points="3024,2304 3024,2288 2864,2128" stroke="white" stroke-width="2" fill="none"/>
  <polyline points="3008,2288 2896,2176" stroke="white" stroke-width="2" fill="none"/>
  <polyline points="2880,2144 2880,2272 2976,2272" stroke="white" stroke-width="2" fill="none"/>
  <polyline points="2880,2192 2896,2192 2944,2240" stroke="white" stroke-width="2" fill="none"/>
  <polyline points="2976,2256 2896,2256 2896,2208" stroke="white" stroke-width="2" fill="none"/>
  <polyline points="2928,2256 2928,2240" stroke="white" stroke-width="2" fill="none"/>
  <polyline points="2912,2240 2912,2208" stroke="white" stroke-width="2" fill="none"/>
  <polyline points="2880,2256 2864,2272 2864,2240 2880,2256" stroke="white" stroke-width="2" fill="none"/>
  <polyline points="2848,2208 2864,2224 2864,2192 2848,2208" stroke="white" stroke-width="2" fill="none"/>
  <polyline points="2880,2160 2864,2176" stroke="white" stroke-width="2" fill="none"/>
  <polyline points="2848,2144 2864,2144 2864,2160" stroke="white" stroke-width="2" fill="none"/>
  <polyline points="2880,2096 2944,2160" stroke="white" stroke-width="2" fill="none"/>
  <polyline points="2944,2176 2960,2176 3024,2240" stroke="white" stroke-width="2" fill="none"/>
  <circle cx="2832" cy="2096" r="10" stroke="#3399ff" opacity="1" stroke-width="2" fill="none"/>
  <circle cx="3040" cy="2304" r="10" stroke="#33ff33" opacity="1" stroke-width="2" fill="none"/>
  <path marker-end="url(#spawn)" stroke-width="0.5" stroke="red" d="M 0 0 0 1" transform="translate(2832,2064) scale(1 -1) rotate(-90) matrix(1,0,0,1,0,0)" fill="none"/>
</svg>
