<?xml version="1.0" encoding="UTF-8" standalone="no"?>
<svg xmlns="http://www.w3.org/2000/svg" viewBox="-5,-277,266,282" width="100%" height="100%">
  <defs>
    <marker id="spawn" markerWidth="30" markerHeight="40" refX="2" refY="15" orient="auto" viewBox="0 0 40 30">
      <path d="M -5,0 -5,20 -15,20 0,40 15,20 5,20 5,0 Z" fill="magenta" transform="translate(0,15) rotate(-90)"/>
    </marker>
  </defs>
  <polyline points="0,-16 16,0 240,0 256,-16 256,-192 176,-272 80,-272 0,-192 0,-16" stroke="white" stroke-width="2" fill="none"/>
  <polyline points="16,-176 32,-176 64,-192 80,-208 96,-240 160,-240 176,-208 192,-192 224,-176 240,-176" stroke="white" stroke-width="2" fill="none"/>
  <polyline points="48,-160 80,-176 96,-192 112,-224" stroke="white" stroke-width="2" fill="none"/>
  <polyline points="208,-160 176,-176 160,-192 144,-224" stroke="white" stroke-width="2" fill="none"/>
  <polyline points="0,-160 16,-144 112,-144 120,-160 120,-224" stroke="white" stroke-width="2" fill="none"/>
  <polyline points="256,-160 240,-144 144,-144 136,-160 136,-224" stroke="white" stroke-width="2" fill="none"/>
  <polyline points="96,-160 112,-176" stroke="white" stroke-width="2" fill="none"/>
  <polyline points="160,-160 144,-176" stroke="white" stroke-width="2" fill="none"/>
  <polyline points="48,-96 64,-112 96,-112 112,-96 112,-64 64,-16 48,-16 0,-64 0,-80 16,-96 16,-112 0,-128" stroke="white" stroke-width="2" fill="none"/>
  <polyline points="208,-96 192,-112 160,-112 144,-96 144,-64 192,-16 208,-16 256,-64 256,-80 240,-96 240,-112 256,-128" stroke="white" stroke-width="2" fill="none"/>
  <polyline points="96,-80 96,-64 48,-64 32,-80 32,-128 224,-128 224,-80 208,-64 160,-64 160,-80" stroke="white" stroke-width="2" fill="none"/>
  <polyline points="64,-80 80,-96" stroke="white" stroke-width="2" fill="none"/>
  <polyline points="192,-80 176,-96" stroke="white" stroke-width="2" fill="none"/>
  <circle cx="128" cy="-16" r="16" stroke="#00ff99" opacity="1" stroke-width="2" fill="none"/>
  <circle cx="0" cy="-32" r="16" stroke="#00ff99" opacity="1" stroke-width="2" fill="none"/>
  <circle cx="256" cy="-32" r="16" stroke="#00ff99" opacity="1" stroke-width="2" fill="none"/>
  <circle cx="48" cy="-224" r="16" stroke="#3399ff" opacity="1" stroke-width="2" fill="none"/>
  <circle cx="208" cy="-224" r="16" stroke="#3399ff" opacity="1" stroke-width="2" fill="none"/>
  <circle cx="128" cy="-16" r="32" stroke="#3399ff" opacity="1" stroke-width="2" fill="none"/>
  <circle cx="48" cy="-48" r="16" stroke="#3399ff" opacity="1" stroke-width="2" fill="none"/>
  <circle cx="208" cy="-48" r="16" stroke="#3399ff" opacity="1" stroke-width="2" fill="none"/>
  <circle cx="80" cy="-16" r="4" stroke="#3399ff" opacity="1" stroke-width="2" fill="none"/>
  <circle cx="176" cy="-16" r="4" stroke="#3399ff" opacity="1" stroke-width="2" fill="none"/>
  <circle cx="0" cy="-144" r="16" stroke="#3399ff" opacity="1" stroke-width="2" fill="none"/>
  <circle cx="256" cy="-144" r="16" stroke="#3399ff" opacity="1" stroke-width="2" fill="none"/>
  <circle cx="80" cy="-48" r="6" stroke="#3399ff" opacity="1" stroke-width="2" fill="none"/>
  <circle cx="176" cy="-48" r="6" stroke="#3399ff" opacity="1" stroke-width="2" fill="none"/>
  <circle cx="176" cy="-80" r="6" stroke="#3399ff" opacity="1" stroke-width="2" fill="none"/>
  <circle cx="80" cy="-80" r="6" stroke="#3399ff" opacity="1" stroke-width="2" fill="none"/>
  <circle cx="64" cy="-96" r="4" stroke="#3399ff" opacity="1" stroke-width="2" fill="none"/>
  <circle cx="192" cy="-96" r="4" stroke="#3399ff" opacity="1" stroke-width="2" fill="none"/>
  <circle cx="112" cy="-64" r="6" stroke="#3399ff" opacity="1" stroke-width="2" fill="none"/>
  <circle cx="144" cy="-64" r="6" stroke="#3399ff" opacity="1" stroke-width="2" fill="none"/>
  <circle cx="128" cy="-96" r="10" stroke="#3399ff" opacity="1" stroke-width="2" fill="none"/>
  <circle cx="128" cy="-128" r="10" stroke="#3399ff" opacity="1" stroke-width="2" fill="none"/>
  <circle cx="32" cy="-160" r="10" stroke="#3399ff" opacity="1" stroke-width="2" fill="none"/>
  <circle cx="224" cy="-160" r="10" stroke="#3399ff" opacity="1" stroke-width="2" fill="none"/>
  <circle cx="32" cy="-192" r="8" stroke="#3399ff" opacity="1" stroke-width="2" fill="none"/>
  <circle cx="224" cy="-192" r="8" stroke="#3399ff" opacity="1" stroke-width="2" fill="none"/>
  <circle cx="16" cy="-48" r="4" stroke="#3399ff" opacity="1" stroke-width="2" fill="none"/>
  <circle cx="240" cy="-48" r="4" stroke="#3399ff" opacity="1" stroke-width="2" fill="none"/>
  <circle cx="240" cy="-80" r="6" stroke="#3399ff" opacity="1" stroke-width="2" fill="none"/>
  <circle cx="16" cy="-80" r="6" stroke="#3399ff" opacity="1" stroke-width="2" fill="none"/>
  <circle cx="32" cy="-128" r="6" stroke="#3399ff" opacity="1" stroke-width="2" fill="none"/>
  <circle cx="224" cy="-128" r="6" stroke="#3399ff" opacity="1" stroke-width="2" fill="none"/>
  <circle cx="96" cy="-176" r="5" stroke="#3399ff" opacity="1" stroke-width="2" fill="none"/>
  <circle cx="160" cy="-176" r="5" stroke="#3399ff" opacity="1" stroke-width="2" fill="none"/>
  <circle cx="80" cy="-192" r="5" stroke="#3399ff" opacity="1" stroke-width="2" fill="none"/>
  <circle cx="176" cy="-192" r="5" stroke="#3399ff" opacity="1" stroke-width="2" fill="none"/>
  <circle cx="128" cy="-240" r="6" stroke="#3399ff" opacity="1" stroke-width="2" fill="none"/>
  <circle cx="48" cy="-112" r="5" stroke="#3399ff" opacity="1" stroke-width="2" fill="none"/>
  <circle cx="208" cy="-112" r="5" stroke="#3399ff" opacity="1" stroke-width="2" fill="none"/>
  <circle cx="96" cy="-112" r="5" stroke="#3399ff" opacity="1" stroke-width="2" fill="none"/>
  <circle cx="160" cy="-112" r="5" stroke="#3399ff" opacity="1" stroke-width="2" fill="none"/>
  <circle cx="96" cy="-224" r="5" stroke="#3399ff" opacity="1" stroke-width="2" fill="none"/>
  <circle cx="160" cy="-224" r="5" stroke="#3399ff" opacity="1" stroke-width="2" fill="none"/>
  <circle cx="176" cy="-144" r="6" stroke="#3399ff" opacity="1" stroke-width="2" fill="none"/>
  <circle cx="80" cy="-144" r="6" stroke="#3399ff" opacity="1" stroke-width="2" fill="none"/>
  <circle cx="256" cy="-176" r="6" stroke="#3399ff" opacity="1" stroke-width="2" fill="none"/>
  <circle cx="0" cy="-176" r="6" stroke="#3399ff" opacity="1" stroke-width="2" fill="none"/>
  <circle cx="40" cy="-72" r="8" stroke="#3399ff" opacity="1" stroke-width="2" fill="none"/>
  <circle cx="216" cy="-72" r="8" stroke="#3399ff" opacity="1" stroke-width="2" fill="none"/>
  <path marker-end="url(#spawn)" stroke-width="0.5" stroke="red" d="M 0 0 0 1" transform="translate(136,-256) scale(1 -1) rotate(-90) matrix(1,0,0,1,0,0)" fill="none"/>
  <path marker-end="url(#spawn)" stroke-width="0.5" stroke="red" d="M 0 0 0 1" transform="translate(120,-256) scale(1 -1) rotate(-90) matrix(-1,0,0,-1,0,0)" fill="none"/>
</svg>
