<?xml version="1.0" encoding="UTF-8" standalone="no"?>
<svg xmlns="http://www.w3.org/2000/svg" viewBox="251,187,666,266" width="100%" height="100%">
  <defs>
    <marker id="spawn" markerWidth="30" markerHeight="40" refX="2" refY="15" orient="auto" viewBox="0 0 40 30">
      <path d="M -5,0 -5,20 -15,20 0,40 15,20 5,20 5,0 Z" fill="magenta" transform="translate(0,15) rotate(-90)"/>
    </marker>
  </defs>
  <polyline points="384,192 256,192 256,336 336,336 336,400 256,400 256,448 384,448 384,288 304,288 304,224 384,224 384,192" stroke="white" stroke-width="2" fill="none"/>
  <polyline points="464,192 400,192 400,224 448,224 448,448 480,448 480,224 528,224 528,192 464,192" stroke="white" stroke-width="2" fill="none"/>
  <polyline points="720,224 720,192 752,192 816,256 880,192 912,192 912,224 832,304" stroke="white" stroke-width="2" fill="none"/>
  <polyline points="720,224 800,304" stroke="white" stroke-width="2" fill="none"/>
  <polyline points="800,304 800,336 720,416 720,448 752,448 816,384 880,448 912,448 912,416 832,336 832,304" stroke="white" stroke-width="2" fill="none"/>
  <polyline points="320,192 304,208 288,224 288,288 304,304 352,304 368,320 368,416 352,432 304,432" stroke="white" stroke-width="2" fill="none"/>
  <polyline points="272,448 304,416 336,416 352,400 352,336 336,320 288,320 272,304 272,224 288,208" stroke="white" stroke-width="2" fill="none"/>
  <polyline points="304,400 272,432" stroke="white" stroke-width="2" fill="none"/>
  <polyline points="496,192 480,208 448,208 432,192" stroke="white" stroke-width="2" fill="none"/>
  <polyline points="464,208 464,432" stroke="white" stroke-width="2" fill="none"/>
  <polyline points="576,192 544,192 544,224 608,288 608,448 640,448 640,288 704,224 704,192 672,192" stroke="white" stroke-width="2" fill="none"/>
  <polyline points="576,192 624,240 672,192" stroke="white" stroke-width="2" fill="none"/>
  <polyline points="576,240 576,224 592,224 624,256 624,272 608,272 576,240" stroke="white" stroke-width="2" fill="none"/>
  <polyline points="624,256 656,224 672,224 672,240 640,272 624,272" stroke="white" stroke-width="2" fill="none"/>
  <polyline points="752,400 816,336 880,400" stroke="white" stroke-width="2" fill="none"/>
  <polyline points="720,416 752,416 800,368" stroke="white" stroke-width="2" fill="none"/>
  <polyline points="912,416 880,416 832,368" stroke="white" stroke-width="2" fill="none"/>
  <polyline points="752,432 816,368 880,432" stroke="white" stroke-width="2" fill="none"/>
  <polyline points="752,448 736,432" stroke="white" stroke-width="2" fill="none"/>
  <polyline points="880,448 896,432" stroke="white" stroke-width="2" fill="none"/>
  <polyline points="912,224 864,224 832,256" stroke="white" stroke-width="2" fill="none"/>
  <polyline points="720,224 768,224 800,256" stroke="white" stroke-width="2" fill="none"/>
  <polyline points="752,240 768,240 816,288 864,240 880,240" stroke="white" stroke-width="2" fill="none"/>
  <polyline points="832,304 832,288 864,256 880,256" stroke="white" stroke-width="2" fill="none"/>
  <polyline points="752,256 768,256 800,288 800,304" stroke="white" stroke-width="2" fill="none"/>
  <polyline points="560,240 560,224" stroke="white" stroke-width="2" fill="none"/>
  <polyline points="592,208 576,208" stroke="white" stroke-width="2" fill="none"/>
  <polyline points="656,208 672,208" stroke="white" stroke-width="2" fill="none"/>
  <polyline points="688,240 688,224" stroke="white" stroke-width="2" fill="none"/>
  <polyline points="608,400 616,392 616,352 608,344" stroke="white" stroke-width="2" fill="none"/>
  <polyline points="640,400 632,392 632,352 640,344" stroke="white" stroke-width="2" fill="none"/>
  <polyline points="624,344 616,336 616,296 624,288 632,296 632,336 624,344" stroke="white" stroke-width="2" fill="none"/>
  <circle cx="720" cy="448" r="10" stroke="#33ff33" opacity="1" stroke-width="2" fill="none"/>
  <circle cx="912" cy="448" r="10" stroke="#33ff33" opacity="1" stroke-width="2" fill="none"/>
  <circle cx="816" cy="304" r="7" stroke="#3399ff" opacity="1" stroke-width="2" fill="none"/>
  <circle cx="816" cy="320" r="7" stroke="#3399ff" opacity="1" stroke-width="2" fill="none"/>
  <circle cx="272" cy="416" r="10" stroke="#0055ff" opacity="1" stroke-width="2" fill="none"/>
  <circle cx="512" cy="208" r="10" stroke="#0055ff" opacity="1" stroke-width="2" fill="none"/>
  <circle cx="560" cy="208" r="10" stroke="#0055ff" opacity="1" stroke-width="2" fill="none"/>
  <circle cx="688" cy="208" r="10" stroke="#0055ff" opacity="1" stroke-width="2" fill="none"/>
  <path marker-end="url(#spawn)" stroke-width="0.5" stroke="red" d="M 0 0 0 1" transform="translate(368,208) scale(1 -1) rotate(-90) matrix(-1,0,0,-1,0,0)" fill="none"/>
</svg>
