<?xml version="1.0" encoding="UTF-8" standalone="no"?>
<svg xmlns="http://www.w3.org/2000/svg" viewBox="-5,-357,618,362" width="100%" height="100%">
  <defs>
    <marker id="spawn" markerWidth="30" markerHeight="40" refX="2" refY="15" orient="auto" viewBox="0 0 40 30">
      <path d="M -5,0 -5,20 -15,20 0,40 15,20 5,20 5,0 Z" fill="magenta" transform="translate(0,15) rotate(-90)"/>
    </marker>
  </defs>
  <polyline points="352,-176 496,-176" stroke="white" stroke-width="2" fill="none"/>
  <polyline points="352,-192 176,-240" stroke="white" stroke-width="2" fill="none"/>
  <polyline points="352,-160 176,-112 144,-176 176,-240" stroke="white" stroke-width="2" fill="none"/>
  <polyline points="496,-176 176,-304" stroke="white" stroke-width="2" fill="none"/>
  <polyline points="496,-176 176,-48" stroke="white" stroke-width="2" fill="none"/>
  <polyline points="160,-304 80,-192" stroke="white" stroke-width="2" fill="none"/>
  <polyline points="80,-160 160,-48" stroke="white" stroke-width="2" fill="none"/>
  <polyline points="160,-304 160,-288" stroke="white" stroke-width="2" fill="none"/>
  <polyline points="176,-304 176,-288" stroke="white" stroke-width="2" fill="none"/>
  <polyline points="160,-48 160,-64" stroke="white" stroke-width="2" fill="none"/>
  <polyline points="176,-48 176,-64" stroke="white" stroke-width="2" fill="none"/>
  <polyline points="80,-160 96,-160" stroke="white" stroke-width="2" fill="none"/>
  <polyline points="80,-192 96,-192" stroke="white" stroke-width="2" fill="none"/>
  <polyline points="128,-256 128,-352 608,-176" stroke="white" stroke-width="2" fill="none"/>
  <polyline points="128,-96 128,0 608,-176" stroke="white" stroke-width="2" fill="none"/>
  <polyline points="128,-352 0,-176 128,0" stroke="white" stroke-width="2" fill="none"/>
  <circle cx="576" cy="-176" r="21" stroke="#00ff99" opacity="1" stroke-width="2" fill="none"/>
  <circle cx="544" cy="-208" r="28" stroke="#3399ff" opacity="1" stroke-width="2" fill="none"/>
  <circle cx="544" cy="-144" r="28" stroke="#3399ff" opacity="1" stroke-width="2" fill="none"/>
  <circle cx="432" cy="-160" r="28" stroke="#3399ff" opacity="1" stroke-width="2" fill="none"/>
  <circle cx="432" cy="-192" r="28" stroke="#3399ff" opacity="1" stroke-width="2" fill="none"/>
  <circle cx="160" cy="-208" r="28" stroke="#3399ff" opacity="1" stroke-width="2" fill="none"/>
  <circle cx="160" cy="-144" r="28" stroke="#3399ff" opacity="1" stroke-width="2" fill="none"/>
  <circle cx="80" cy="-208" r="28" stroke="#3399ff" opacity="1" stroke-width="2" fill="none"/>
  <circle cx="80" cy="-144" r="28" stroke="#3399ff" opacity="1" stroke-width="2" fill="none"/>
  <circle cx="80" cy="-64" r="28" stroke="#3399ff" opacity="1" stroke-width="2" fill="none"/>
  <circle cx="80" cy="-288" r="28" stroke="#3399ff" opacity="1" stroke-width="2" fill="none"/>
  <circle cx="128" cy="-288" r="16" stroke="#3399ff" opacity="1" stroke-width="2" fill="none"/>
  <circle cx="128" cy="-64" r="16" stroke="#3399ff" opacity="1" stroke-width="2" fill="none"/>
  <circle cx="96" cy="-32" r="18" stroke="#3399ff" opacity="1" stroke-width="2" fill="none"/>
  <circle cx="96" cy="-320" r="18" stroke="#3399ff" opacity="1" stroke-width="2" fill="none"/>
  <circle cx="112" cy="-336" r="13" stroke="#00ff99" opacity="1" stroke-width="2" fill="none"/>
  <circle cx="112" cy="-16" r="13" stroke="#00ff99" opacity="1" stroke-width="2" fill="none"/>
  <circle cx="336" cy="-176" r="4" stroke="#3399ff" opacity="1" stroke-width="2" fill="none"/>
  <path marker-end="url(#spawn)" stroke-width="0.5" stroke="red" d="M 0 0 0 1" transform="translate(176,-176) scale(1 -1) rotate(-90) matrix(1,0,0,1,0,0)" fill="none"/>
</svg>
