<?xml version="1.0" encoding="UTF-8" standalone="no"?>
<svg xmlns="http://www.w3.org/2000/svg" viewBox="235,-261,778,842" width="100%" height="100%">
  <defs>
    <marker id="spawn" markerWidth="30" markerHeight="40" refX="2" refY="15" orient="auto" viewBox="0 0 40 30">
      <path d="M -5,0 -5,20 -15,20 0,40 15,20 5,20 5,0 Z" fill="magenta" transform="translate(0,15) rotate(-90)"/>
    </marker>
  </defs>
  <polyline points="384,256 864,256 944,336" stroke="white" stroke-width="2" fill="none"/>
  <polyline points="384,256 320,320" stroke="white" stroke-width="2" fill="none"/>
  <polyline points="336,368 304,368 272,336 272,304 352,224 608,224 608,64" stroke="white" stroke-width="2" fill="none"/>
  <polyline points="336,368 400,304 608,304" stroke="white" stroke-width="2" fill="none"/>
  <polyline points="640,304 848,304 928,384 960,384 992,352 992,320 896,224 640,224 640,96" stroke="white" stroke-width="2" fill="none"/>
  <polyline points="608,544 608,464 544,400 544,368 608,304" stroke="white" stroke-width="2" fill="none"/>
  <polyline points="640,304 704,368 704,400 640,464 640,544" stroke="white" stroke-width="2" fill="none"/>
  <polyline points="608,544 640,544" stroke="white" stroke-width="2" fill="none"/>
  <polyline points="640,96 768,96 768,-224 448,-224 448,96 576,96 576,192 240,192 240,544 528,544 528,320 576,320" stroke="white" stroke-width="2" fill="none"/>
  <polyline points="368,192 288,272" stroke="white" stroke-width="2" fill="none"/>
  <polyline points="272,304 272,256 320,208" stroke="white" stroke-width="2" fill="none"/>
  <polyline points="304,192 272,224" stroke="white" stroke-width="2" fill="none"/>
  <polyline points="272,256 256,240 256,208 272,208" stroke="white" stroke-width="2" fill="none"/>
  <polyline points="576,320 528,368" stroke="white" stroke-width="2" fill="none"/>
  <polyline points="528,416 592,480 592,560 608,576 640,576 656,560 656,480 736,400 736,368 704,336" stroke="white" stroke-width="2" fill="none"/>
  <polyline points="704,336 688,320 768,320 768,368 880,368 928,416 1008,416 1008,176 688,176" stroke="white" stroke-width="2" fill="none"/>
  <polyline points="960,288 960,256 992,224" stroke="white" stroke-width="2" fill="none"/>
  <polyline points="1008,208 976,208 944,240" stroke="white" stroke-width="2" fill="none"/>
  <polyline points="928,256 928,224 960,192 992,192" stroke="white" stroke-width="2" fill="none"/>
  <polyline points="944,176 912,208" stroke="white" stroke-width="2" fill="none"/>
  <polyline points="896,224 896,192" stroke="white" stroke-width="2" fill="none"/>
  <polyline points="784,320 832,320 864,352 784,352 784,320" stroke="white" stroke-width="2" fill="none"/>
  <polyline points="640,128 944,128" stroke="white" stroke-width="2" fill="none"/>
  <polyline points="1008,176 1008,80 816,80" stroke="white" stroke-width="2" fill="none"/>
  <polyline points="256,240 256,352 400,496 432,496 464,464 464,432 400,368" stroke="white" stroke-width="2" fill="none"/>
  <polyline points="240,368 400,528 448,528 496,480 496,432 400,336 368,368 448,448 416,480 336,400" stroke="white" stroke-width="2" fill="none"/>
  <polyline points="320,416 320,384 352,384 416,448" stroke="white" stroke-width="2" fill="none"/>
  <polyline points="352,384 352,352" stroke="white" stroke-width="2" fill="none"/>
  <polyline points="400,336 448,336 528,416" stroke="white" stroke-width="2" fill="none"/>
  <polyline points="512,368 448,304" stroke="white" stroke-width="2" fill="none"/>
  <polyline points="528,352 496,320" stroke="white" stroke-width="2" fill="none"/>
  <polyline points="768,32 960,32" stroke="white" stroke-width="2" fill="none"/>
  <polyline points="944,80 944,48 976,48 976,16 800,16 800,-256 416,-256 416,192" stroke="white" stroke-width="2" fill="none"/>
  <polyline points="448,96 448,160" stroke="white" stroke-width="2" fill="none"/>
  <polyline points="480,192 480,128" stroke="white" stroke-width="2" fill="none"/>
  <polyline points="512,96 512,160" stroke="white" stroke-width="2" fill="none"/>
  <polyline points="544,192 544,128" stroke="white" stroke-width="2" fill="none"/>
  <circle cx="320" cy="320" r="32" stroke="#3399ff" opacity="1" stroke-width="2" fill="none"/>
  <circle cx="944" cy="336" r="32" stroke="#3399ff" opacity="1" stroke-width="2" fill="none"/>
  <circle cx="624" cy="384" r="64" stroke="#3399ff" opacity="1" stroke-width="2" fill="none"/>
  <circle cx="608" cy="288" r="10" stroke="#3399ff" opacity="1" stroke-width="2" fill="none"/>
  <circle cx="608" cy="272" r="10" stroke="#3399ff" opacity="1" stroke-width="2" fill="none"/>
  <circle cx="640" cy="272" r="10" stroke="#3399ff" opacity="1" stroke-width="2" fill="none"/>
  <circle cx="640" cy="288" r="10" stroke="#3399ff" opacity="1" stroke-width="2" fill="none"/>
  <circle cx="608" cy="-64" r="128" stroke="#3399ff" opacity="1" stroke-width="2" fill="none"/>
  <circle cx="592" cy="80" r="16" stroke="#3399ff" opacity="1" stroke-width="2" fill="none"/>
  <circle cx="592" cy="208" r="16" stroke="#3399ff" opacity="1" stroke-width="2" fill="none"/>
  <circle cx="624" cy="80" r="16" stroke="#3399ff" opacity="1" stroke-width="2" fill="none"/>
  <circle cx="272" cy="208" r="8" stroke="#3399ff" opacity="1" stroke-width="2" fill="none"/>
  <circle cx="320" cy="208" r="8" stroke="#3399ff" opacity="1" stroke-width="2" fill="none"/>
  <circle cx="288" cy="272" r="8" stroke="#3399ff" opacity="1" stroke-width="2" fill="none"/>
  <circle cx="576" cy="320" r="8" stroke="#3399ff" opacity="1" stroke-width="2" fill="none"/>
  <circle cx="688" cy="320" r="8" stroke="#3399ff" opacity="1" stroke-width="2" fill="none"/>
  <circle cx="1008" cy="400" r="32" stroke="#3399ff" opacity="1" stroke-width="2" fill="none"/>
  <circle cx="1008" cy="272" r="32" stroke="#3399ff" opacity="1" stroke-width="2" fill="none"/>
  <circle cx="992" cy="192" r="8" stroke="#3399ff" opacity="1" stroke-width="2" fill="none"/>
  <circle cx="992" cy="224" r="8" stroke="#3399ff" opacity="1" stroke-width="2" fill="none"/>
  <circle cx="944" cy="240" r="8" stroke="#3399ff" opacity="1" stroke-width="2" fill="none"/>
  <circle cx="912" cy="208" r="8" stroke="#3399ff" opacity="1" stroke-width="2" fill="none"/>
  <circle cx="896" cy="192" r="8" stroke="#3399ff" opacity="1" stroke-width="2" fill="none"/>
  <circle cx="688" cy="176" r="32" stroke="#3399ff" opacity="1" stroke-width="2" fill="none"/>
  <circle cx="848" cy="320" r="8" stroke="#3399ff" opacity="1" stroke-width="2" fill="none"/>
  <circle cx="880" cy="352" r="8" stroke="#3399ff" opacity="1" stroke-width="2" fill="none"/>
  <circle cx="912" cy="384" r="8" stroke="#3399ff" opacity="1" stroke-width="2" fill="none"/>
  <circle cx="944" cy="128" r="32" stroke="#3399ff" opacity="1" stroke-width="2" fill="none"/>
  <circle cx="816" cy="80" r="32" stroke="#3399ff" opacity="1" stroke-width="2" fill="none"/>
  <circle cx="400" cy="368" r="12" stroke="#3399ff" opacity="1" stroke-width="2" fill="none"/>
  <circle cx="512" cy="368" r="10" stroke="#3399ff" opacity="1" stroke-width="2" fill="none"/>
  <circle cx="496" cy="320" r="10" stroke="#3399ff" opacity="1" stroke-width="2" fill="none"/>
  <circle cx="336" cy="400" r="10" stroke="#3399ff" opacity="1" stroke-width="2" fill="none"/>
  <circle cx="416" cy="448" r="12" stroke="#3399ff" opacity="1" stroke-width="2" fill="none"/>
  <circle cx="624" cy="560" r="10" stroke="#3399ff" opacity="1" stroke-width="2" fill="none"/>
  <circle cx="784" cy="352" r="10" stroke="#3399ff" opacity="1" stroke-width="2" fill="none"/>
  <circle cx="768" cy="320" r="10" stroke="#3399ff" opacity="1" stroke-width="2" fill="none"/>
  <circle cx="960" cy="32" r="10" stroke="#3399ff" opacity="1" stroke-width="2" fill="none"/>
  <circle cx="560" cy="176" r="16" stroke="#33ff33" opacity="1" stroke-width="2" fill="none"/>
  <circle cx="448" cy="480" r="16" stroke="#3399ff" opacity="1" stroke-width="2" fill="none"/>
  <circle cx="448" cy="160" r="16" stroke="#3399ff" opacity="1" stroke-width="2" fill="none"/>
  <circle cx="480" cy="128" r="16" stroke="#3399ff" opacity="1" stroke-width="2" fill="none"/>
  <circle cx="512" cy="160" r="16" stroke="#3399ff" opacity="1" stroke-width="2" fill="none"/>
  <circle cx="544" cy="128" r="16" stroke="#3399ff" opacity="1" stroke-width="2" fill="none"/>
  <circle cx="448" cy="-224" r="16" stroke="#3399ff" opacity="1" stroke-width="2" fill="none"/>
  <circle cx="416" cy="-256" r="16" stroke="#3399ff" opacity="1" stroke-width="2" fill="none"/>
  <circle cx="768" cy="-224" r="16" stroke="#3399ff" opacity="1" stroke-width="2" fill="none"/>
  <circle cx="800" cy="-256" r="16" stroke="#3399ff" opacity="1" stroke-width="2" fill="none"/>
  <circle cx="768" cy="32" r="16" stroke="#3399ff" opacity="1" stroke-width="2" fill="none"/>
  <circle cx="800" cy="0" r="16" stroke="#3399ff" opacity="1" stroke-width="2" fill="none"/>
  <circle cx="768" cy="112" r="16" stroke="#3399ff" opacity="1" stroke-width="2" fill="none"/>
  <path marker-end="url(#spawn)" stroke-width="0.5" stroke="red" d="M 0 0 0 1" transform="translate(624,528) scale(1 -1) rotate(-90) matrix(0,1,-1,0,0,0)" fill="none"/>
</svg>
