<?xml version="1.0" encoding="UTF-8" standalone="no"?>
<svg xmlns="http://www.w3.org/2000/svg" viewBox="-5,-661,2058,666" width="100%" height="100%">
  <defs>
    <marker id="spawn" markerWidth="30" markerHeight="40" refX="2" refY="15" orient="auto" viewBox="0 0 40 30">
      <path d="M -5,0 -5,20 -15,20 0,40 15,20 5,20 5,0 Z" fill="magenta" transform="translate(0,15) rotate(-90)"/>
    </marker>
  </defs>
  <polyline points="160,-160 128,-192 32,-192 0,-160 32,-128 160,-128" stroke="white" stroke-width="2" fill="none"/>
  <polyline points="192,-160 256,-224" stroke="white" stroke-width="2" fill="none"/>
  <polyline points="192,-160 256,-160" stroke="white" stroke-width="2" fill="none"/>
  <polyline points="192,-128 256,-128" stroke="white" stroke-width="2" fill="none"/>
  <polyline points="192,-128 256,-64" stroke="white" stroke-width="2" fill="none"/>
  <polyline points="160,-128 240,-48" stroke="white" stroke-width="2" fill="none"/>
  <polyline points="160,-160 256,-256" stroke="white" stroke-width="2" fill="none"/>
  <polyline points="240,-48 256,-32" stroke="white" stroke-width="2" fill="none"/>
  <polyline points="256,-160 288,-192" stroke="white" stroke-width="2" fill="none"/>
  <polyline points="256,-224 288,-192" stroke="white" stroke-width="2" fill="none"/>
  <polyline points="288,-192 448,-192" stroke="white" stroke-width="2" fill="none"/>
  <polyline points="256,-128 288,-96" stroke="white" stroke-width="2" fill="none"/>
  <polyline points="256,-64 288,-96" stroke="white" stroke-width="2" fill="none"/>
  <polyline points="288,-96 448,-96" stroke="white" stroke-width="2" fill="none"/>
  <polyline points="256,-32 288,0 448,0" stroke="white" stroke-width="2" fill="none"/>
  <polyline points="256,-256 288,-288 448,-288" stroke="white" stroke-width="2" fill="none"/>
  <polyline points="448,-192 464,-208" stroke="white" stroke-width="2" fill="none"/>
  <polyline points="448,-192 464,-176" stroke="white" stroke-width="2" fill="none"/>
  <polyline points="448,-96 464,-112" stroke="white" stroke-width="2" fill="none"/>
  <polyline points="448,-96 464,-80" stroke="white" stroke-width="2" fill="none"/>
  <polyline points="448,0 464,-16" stroke="white" stroke-width="2" fill="none"/>
  <polyline points="448,-288 464,-272" stroke="white" stroke-width="2" fill="none"/>
  <polyline points="464,-176 624,-176" stroke="white" stroke-width="2" fill="none"/>
  <polyline points="464,-112 688,-112" stroke="white" stroke-width="2" fill="none"/>
  <polyline points="464,-208 592,-208" stroke="white" stroke-width="2" fill="none"/>
  <polyline points="464,-272 528,-272" stroke="white" stroke-width="2" fill="none"/>
  <polyline points="464,-80 720,-80" stroke="white" stroke-width="2" fill="none"/>
  <polyline points="464,-16 784,-16" stroke="white" stroke-width="2" fill="none"/>
  <polyline points="528,-272 544,-288" stroke="white" stroke-width="2" fill="none"/>
  <polyline points="592,-208 608,-224" stroke="white" stroke-width="2" fill="none"/>
  <polyline points="624,-176 640,-192" stroke="white" stroke-width="2" fill="none"/>
  <polyline points="688,-112 704,-128" stroke="white" stroke-width="2" fill="none"/>
  <polyline points="720,-80 736,-96" stroke="white" stroke-width="2" fill="none"/>
  <polyline points="784,-16 800,-32" stroke="white" stroke-width="2" fill="none"/>
  <polyline points="608,-224 608,-464" stroke="white" stroke-width="2" fill="none"/>
  <polyline points="544,-288 544,-528" stroke="white" stroke-width="2" fill="none"/>
  <polyline points="640,-192 640,-432" stroke="white" stroke-width="2" fill="none"/>
  <polyline points="704,-128 704,-368" stroke="white" stroke-width="2" fill="none"/>
  <polyline points="736,-96 736,-336" stroke="white" stroke-width="2" fill="none"/>
  <polyline points="800,-32 800,-272" stroke="white" stroke-width="2" fill="none"/>
  <polyline points="736,-336 752,-352" stroke="white" stroke-width="2" fill="none"/>
  <polyline points="800,-272 816,-288" stroke="white" stroke-width="2" fill="none"/>
  <polyline points="704,-368 720,-384" stroke="white" stroke-width="2" fill="none"/>
  <polyline points="640,-432 656,-448" stroke="white" stroke-width="2" fill="none"/>
  <polyline points="608,-464 624,-480" stroke="white" stroke-width="2" fill="none"/>
  <polyline points="544,-528 560,-544" stroke="white" stroke-width="2" fill="none"/>
  <polyline points="816,-288 1120,-288" stroke="white" stroke-width="2" fill="none"/>
  <polyline points="752,-352 1120,-352" stroke="white" stroke-width="2" fill="none"/>
  <polyline points="720,-384 1120,-384" stroke="white" stroke-width="2" fill="none"/>
  <polyline points="656,-448 1120,-448" stroke="white" stroke-width="2" fill="none"/>
  <polyline points="624,-480 1120,-480" stroke="white" stroke-width="2" fill="none"/>
  <polyline points="560,-544 1120,-544" stroke="white" stroke-width="2" fill="none"/>
  <polyline points="1120,-448 1296,-448" stroke="white" stroke-width="2" fill="none"/>
  <polyline points="1120,-384 1296,-384" stroke="white" stroke-width="2" fill="none"/>
  <polyline points="1120,-480 1328,-480 1328,-416 1296,-416" stroke="white" stroke-width="2" fill="none"/>
  <polyline points="1328,-416 1328,-352 1120,-352" stroke="white" stroke-width="2" fill="none"/>
  <polyline points="1120,-544 1328,-544 1344,-560" stroke="white" stroke-width="2" fill="none"/>
  <polyline points="1120,-288 1328,-288 1344,-272" stroke="white" stroke-width="2" fill="none"/>
  <polyline points="1344,-560 1616,-560 1712,-656" stroke="white" stroke-width="2" fill="none"/>
  <polyline points="1344,-272 1616,-272 1712,-176" stroke="white" stroke-width="2" fill="none"/>
  <polyline points="1328,-384 1344,-400" stroke="white" stroke-width="2" fill="none"/>
  <polyline points="1328,-448 1344,-432" stroke="white" stroke-width="2" fill="none"/>
  <polyline points="1344,-432 1616,-432" stroke="white" stroke-width="2" fill="none"/>
  <polyline points="1344,-400 1616,-400" stroke="white" stroke-width="2" fill="none"/>
  <polyline points="1616,-432 1696,-432 1808,-544 1920,-432" stroke="white" stroke-width="2" fill="none"/>
  <polyline points="1616,-400 1696,-400 1808,-288 1920,-400" stroke="white" stroke-width="2" fill="none"/>
  <polyline points="1712,-176 1856,-176" stroke="white" stroke-width="2" fill="none"/>
  <polyline points="1712,-656 1856,-656" stroke="white" stroke-width="2" fill="none"/>
  <polyline points="1856,-656 2048,-464" stroke="white" stroke-width="2" fill="none"/>
  <polyline points="1856,-176 2048,-368 2048,-464" stroke="white" stroke-width="2" fill="none"/>
  <circle cx="288" cy="-128" r="22" stroke="#3399ff" opacity="1" stroke-width="2" fill="none"/>
  <circle cx="320" cy="-96" r="28" stroke="#3399ff" opacity="1" stroke-width="2" fill="none"/>
  <circle cx="336" cy="-192" r="28" stroke="#3399ff" opacity="1" stroke-width="2" fill="none"/>
  <circle cx="368" cy="-144" r="23" stroke="#3399ff" opacity="1" stroke-width="2" fill="none"/>
  <circle cx="384" cy="-80" r="23" stroke="#3399ff" opacity="1" stroke-width="2" fill="none"/>
  <circle cx="416" cy="-144" r="37" stroke="#3399ff" opacity="1" stroke-width="2" fill="none"/>
  <circle cx="464" cy="-144" r="17" stroke="#3399ff" opacity="1" stroke-width="2" fill="none"/>
  <circle cx="272" cy="-48" r="17" stroke="#3399ff" opacity="1" stroke-width="2" fill="none"/>
  <circle cx="256" cy="-256" r="25" stroke="#3399ff" opacity="1" stroke-width="2" fill="none"/>
  <circle cx="288" cy="-240" r="26" stroke="#3399ff" opacity="1" stroke-width="2" fill="none"/>
  <circle cx="368" cy="-240" r="39" stroke="#3399ff" opacity="1" stroke-width="2" fill="none"/>
  <circle cx="336" cy="-272" r="12" stroke="#3399ff" opacity="1" stroke-width="2" fill="none"/>
  <circle cx="480" cy="-160" r="12" stroke="#3399ff" opacity="1" stroke-width="2" fill="none"/>
  <circle cx="448" cy="-256" r="35" stroke="#3399ff" opacity="1" stroke-width="2" fill="none"/>
  <circle cx="320" cy="0" r="30" stroke="#3399ff" opacity="1" stroke-width="2" fill="none"/>
  <circle cx="352" cy="-48" r="18" stroke="#3399ff" opacity="1" stroke-width="2" fill="none"/>
  <circle cx="400" cy="-16" r="29" stroke="#3399ff" opacity="1" stroke-width="2" fill="none"/>
  <circle cx="448" cy="-64" r="29" stroke="#3399ff" opacity="1" stroke-width="2" fill="none"/>
  <circle cx="528" cy="-224" r="29" stroke="#3399ff" opacity="1" stroke-width="2" fill="none"/>
  <circle cx="528" cy="-128" r="29" stroke="#3399ff" opacity="1" stroke-width="2" fill="none"/>
  <circle cx="512" cy="-16" r="39" stroke="#3399ff" opacity="1" stroke-width="2" fill="none"/>
  <circle cx="592" cy="-64" r="39" stroke="#3399ff" opacity="1" stroke-width="2" fill="none"/>
  <circle cx="608" cy="-160" r="40" stroke="#3399ff" opacity="1" stroke-width="2" fill="none"/>
  <circle cx="688" cy="-128" r="40" stroke="#3399ff" opacity="1" stroke-width="2" fill="none"/>
  <circle cx="656" cy="-224" r="40" stroke="#3399ff" opacity="1" stroke-width="2" fill="none"/>
  <circle cx="544" cy="-320" r="3" stroke="#3399ff" opacity="1" stroke-width="2" fill="none"/>
  <circle cx="592" cy="-400" r="29" stroke="#3399ff" opacity="1" stroke-width="2" fill="none"/>
  <circle cx="576" cy="-448" r="24" stroke="#3399ff" opacity="1" stroke-width="2" fill="none"/>
  <circle cx="576" cy="-480" r="19" stroke="#3399ff" opacity="1" stroke-width="2" fill="none"/>
  <circle cx="608" cy="-512" r="19" stroke="#3399ff" opacity="1" stroke-width="2" fill="none"/>
  <circle cx="576" cy="-544" r="19" stroke="#3399ff" opacity="1" stroke-width="2" fill="none"/>
  <circle cx="640" cy="-512" r="19" stroke="#3399ff" opacity="1" stroke-width="2" fill="none"/>
  <circle cx="672" cy="-512" r="19" stroke="#3399ff" opacity="1" stroke-width="2" fill="none"/>
  <circle cx="472" cy="-192" r="14" stroke="#00ff99" opacity="1" stroke-width="2" fill="none"/>
  <circle cx="472" cy="-96" r="14" stroke="#00ff99" opacity="1" stroke-width="2" fill="none"/>
  <circle cx="1344" cy="-416" r="14" stroke="#00ff99" opacity="1" stroke-width="2" fill="none"/>
  <circle cx="704" cy="-512" r="19" stroke="#3399ff" opacity="1" stroke-width="2" fill="none"/>
  <circle cx="736" cy="-512" r="19" stroke="#3399ff" opacity="1" stroke-width="2" fill="none"/>
  <circle cx="768" cy="-512" r="19" stroke="#3399ff" opacity="1" stroke-width="2" fill="none"/>
  <circle cx="800" cy="-512" r="19" stroke="#3399ff" opacity="1" stroke-width="2" fill="none"/>
  <circle cx="832" cy="-496" r="8" stroke="#3399ff" opacity="1" stroke-width="2" fill="none"/>
  <circle cx="832" cy="-528" r="8" stroke="#3399ff" opacity="1" stroke-width="2" fill="none"/>
  <circle cx="848" cy="-544" r="18" stroke="#3399ff" opacity="1" stroke-width="2" fill="none"/>
  <circle cx="848" cy="-480" r="18" stroke="#3399ff" opacity="1" stroke-width="2" fill="none"/>
  <circle cx="880" cy="-512" r="18" stroke="#3399ff" opacity="1" stroke-width="2" fill="none"/>
  <circle cx="688" cy="-304" r="33" stroke="#3399ff" opacity="1" stroke-width="2" fill="none"/>
  <circle cx="656" cy="-368" r="25" stroke="#3399ff" opacity="1" stroke-width="2" fill="none"/>
  <circle cx="720" cy="-384" r="25" stroke="#3399ff" opacity="1" stroke-width="2" fill="none"/>
  <circle cx="736" cy="-416" r="25" stroke="#3399ff" opacity="1" stroke-width="2" fill="none"/>
  <circle cx="656" cy="-432" r="25" stroke="#3399ff" opacity="1" stroke-width="2" fill="none"/>
  <circle cx="656" cy="-16" r="30" stroke="#3399ff" opacity="1" stroke-width="2" fill="none"/>
  <circle cx="752" cy="-32" r="30" stroke="#3399ff" opacity="1" stroke-width="2" fill="none"/>
  <circle cx="784" cy="-64" r="30" stroke="#3399ff" opacity="1" stroke-width="2" fill="none"/>
  <circle cx="768" cy="-128" r="20" stroke="#3399ff" opacity="1" stroke-width="2" fill="none"/>
  <circle cx="752" cy="-128" r="17" stroke="#3399ff" opacity="1" stroke-width="2" fill="none"/>
  <circle cx="704" cy="-64" r="17" stroke="#3399ff" opacity="1" stroke-width="2" fill="none"/>
  <circle cx="848" cy="-240" r="97" stroke="#3399ff" opacity="1" stroke-width="2" fill="none"/>
  <circle cx="784" cy="-304" r="41" stroke="#3399ff" opacity="1" stroke-width="2" fill="none"/>
  <circle cx="976" cy="-336" r="37" stroke="#3399ff" opacity="1" stroke-width="2" fill="none"/>
  <circle cx="1040" cy="-496" r="37" stroke="#3399ff" opacity="1" stroke-width="2" fill="none"/>
  <circle cx="1392" cy="-496" r="37" stroke="#3399ff" opacity="1" stroke-width="2" fill="none"/>
  <circle cx="1392" cy="-368" r="37" stroke="#3399ff" opacity="1" stroke-width="2" fill="none"/>
  <circle cx="1456" cy="-352" r="37" stroke="#3399ff" opacity="1" stroke-width="2" fill="none"/>
  <circle cx="1520" cy="-368" r="37" stroke="#3399ff" opacity="1" stroke-width="2" fill="none"/>
  <circle cx="1072" cy="-288" r="37" stroke="#3399ff" opacity="1" stroke-width="2" fill="none"/>
  <circle cx="1168" cy="-304" r="43" stroke="#3399ff" opacity="1" stroke-width="2" fill="none"/>
  <circle cx="1280" cy="-336" r="39" stroke="#3399ff" opacity="1" stroke-width="2" fill="none"/>
  <circle cx="944" cy="-416" r="27" stroke="#3399ff" opacity="1" stroke-width="2" fill="none"/>
  <circle cx="896" cy="-416" r="27" stroke="#3399ff" opacity="1" stroke-width="2" fill="none"/>
  <circle cx="848" cy="-416" r="27" stroke="#3399ff" opacity="1" stroke-width="2" fill="none"/>
  <circle cx="800" cy="-416" r="27" stroke="#3399ff" opacity="1" stroke-width="2" fill="none"/>
  <circle cx="992" cy="-416" r="27" stroke="#3399ff" opacity="1" stroke-width="2" fill="none"/>
  <circle cx="1040" cy="-416" r="27" stroke="#3399ff" opacity="1" stroke-width="2" fill="none"/>
  <circle cx="1088" cy="-416" r="27" stroke="#3399ff" opacity="1" stroke-width="2" fill="none"/>
  <circle cx="1184" cy="-416" r="27" stroke="#3399ff" opacity="1" stroke-width="2" fill="none"/>
  <circle cx="1232" cy="-416" r="27" stroke="#3399ff" opacity="1" stroke-width="2" fill="none"/>
  <circle cx="1280" cy="-416" r="27" stroke="#3399ff" opacity="1" stroke-width="2" fill="none"/>
  <circle cx="1136" cy="-448" r="22" stroke="#3399ff" opacity="1" stroke-width="2" fill="none"/>
  <circle cx="1136" cy="-384" r="22" stroke="#3399ff" opacity="1" stroke-width="2" fill="none"/>
  <circle cx="1808" cy="-416" r="41" stroke="#3399ff" opacity="1" stroke-width="2" fill="none"/>
  <circle cx="1808" cy="-464" r="41" stroke="#3399ff" opacity="1" stroke-width="2" fill="none"/>
  <circle cx="1808" cy="-368" r="41" stroke="#3399ff" opacity="1" stroke-width="2" fill="none"/>
  <circle cx="1856" cy="-416" r="41" stroke="#3399ff" opacity="1" stroke-width="2" fill="none"/>
  <circle cx="1760" cy="-416" r="41" stroke="#3399ff" opacity="1" stroke-width="2" fill="none"/>
  <circle cx="1808" cy="-576" r="26" stroke="#3399ff" opacity="1" stroke-width="2" fill="none"/>
  <circle cx="1808" cy="-256" r="24" stroke="#3399ff" opacity="1" stroke-width="2" fill="none"/>
  <circle cx="1456" cy="-464" r="41" stroke="#3399ff" opacity="1" stroke-width="2" fill="none"/>
  <circle cx="1504" cy="-544" r="41" stroke="#3399ff" opacity="1" stroke-width="2" fill="none"/>
  <circle cx="1408" cy="-592" r="41" stroke="#3399ff" opacity="1" stroke-width="2" fill="none"/>
  <circle cx="1120" cy="-528" r="32" stroke="#3399ff" opacity="1" stroke-width="2" fill="none"/>
  <circle cx="1200" cy="-496" r="32" stroke="#3399ff" opacity="1" stroke-width="2" fill="none"/>
  <circle cx="1296" cy="-528" r="32" stroke="#3399ff" opacity="1" stroke-width="2" fill="none"/>
  <circle cx="1616" cy="-304" r="46" stroke="#3399ff" opacity="1" stroke-width="2" fill="none"/>
  <circle cx="1696" cy="-352" r="18" stroke="#3399ff" opacity="1" stroke-width="2" fill="none"/>
  <circle cx="1696" cy="-320" r="17" stroke="#3399ff" opacity="1" stroke-width="2" fill="none"/>
  <circle cx="1696" cy="-288" r="17" stroke="#3399ff" opacity="1" stroke-width="2" fill="none"/>
  <circle cx="1696" cy="-256" r="17" stroke="#3399ff" opacity="1" stroke-width="2" fill="none"/>
  <circle cx="1696" cy="-224" r="17" stroke="#3399ff" opacity="1" stroke-width="2" fill="none"/>
  <circle cx="1680" cy="-464" r="16" stroke="#3399ff" opacity="1" stroke-width="2" fill="none"/>
  <circle cx="1680" cy="-480" r="17" stroke="#3399ff" opacity="1" stroke-width="2" fill="none"/>
  <circle cx="1680" cy="-512" r="17" stroke="#3399ff" opacity="1" stroke-width="2" fill="none"/>
  <circle cx="1680" cy="-544" r="17" stroke="#3399ff" opacity="1" stroke-width="2" fill="none"/>
  <circle cx="1680" cy="-592" r="17" stroke="#3399ff" opacity="1" stroke-width="2" fill="none"/>
  <circle cx="1680" cy="-560" r="17" stroke="#3399ff" opacity="1" stroke-width="2" fill="none"/>
  <circle cx="1712" cy="-624" r="17" stroke="#3399ff" opacity="1" stroke-width="2" fill="none"/>
  <circle cx="1744" cy="-624" r="17" stroke="#3399ff" opacity="1" stroke-width="2" fill="none"/>
  <circle cx="1776" cy="-624" r="17" stroke="#3399ff" opacity="1" stroke-width="2" fill="none"/>
  <circle cx="1808" cy="-624" r="17" stroke="#3399ff" opacity="1" stroke-width="2" fill="none"/>
  <circle cx="1840" cy="-624" r="17" stroke="#3399ff" opacity="1" stroke-width="2" fill="none"/>
  <circle cx="1856" cy="-608" r="17" stroke="#3399ff" opacity="1" stroke-width="2" fill="none"/>
  <circle cx="1872" cy="-592" r="17" stroke="#3399ff" opacity="1" stroke-width="2" fill="none"/>
  <circle cx="1888" cy="-576" r="17" stroke="#3399ff" opacity="1" stroke-width="2" fill="none"/>
  <circle cx="1936" cy="-560" r="17" stroke="#3399ff" opacity="1" stroke-width="2" fill="none"/>
  <circle cx="1920" cy="-544" r="17" stroke="#3399ff" opacity="1" stroke-width="2" fill="none"/>
  <circle cx="1904" cy="-528" r="17" stroke="#3399ff" opacity="1" stroke-width="2" fill="none"/>
  <circle cx="1872" cy="-528" r="17" stroke="#3399ff" opacity="1" stroke-width="2" fill="none"/>
  <circle cx="1760" cy="-192" r="38" stroke="#3399ff" opacity="1" stroke-width="2" fill="none"/>
  <circle cx="1920" cy="-288" r="47" stroke="#3399ff" opacity="1" stroke-width="2" fill="none"/>
  <circle cx="1936" cy="-384" r="27" stroke="#3399ff" opacity="1" stroke-width="2" fill="none"/>
  <circle cx="1920" cy="-464" r="27" stroke="#3399ff" opacity="1" stroke-width="2" fill="none"/>
  <circle cx="1968" cy="-464" r="27" stroke="#3399ff" opacity="1" stroke-width="2" fill="none"/>
  <circle cx="1984" cy="-384" r="27" stroke="#3399ff" opacity="1" stroke-width="2" fill="none"/>
  <circle cx="2032" cy="-432" r="27" stroke="#3399ff" opacity="1" stroke-width="2" fill="none"/>
  <circle cx="1600" cy="-400" r="27" stroke="#3399ff" opacity="1" stroke-width="2" fill="none"/>
  <circle cx="1536" cy="-448" r="27" stroke="#3399ff" opacity="1" stroke-width="2" fill="none"/>
  <circle cx="1392" cy="-272" r="39" stroke="#3399ff" opacity="1" stroke-width="2" fill="none"/>
  <circle cx="1680" cy="-448" r="16" stroke="#3399ff" opacity="1" stroke-width="2" fill="none"/>
  <path marker-end="url(#spawn)" stroke-width="0.5" stroke="red" d="M 0 0 0 1" transform="translate(32,-156) scale(1 -1) rotate(-90) matrix(1,0,0,1,0,0)" fill="none"/>
</svg>
