<?xml version="1.0" encoding="UTF-8" standalone="no"?>
<svg xmlns="http://www.w3.org/2000/svg" viewBox="-5,-5,810,8010" width="100%" height="100%">
  <defs>
    <marker id="spawn" markerWidth="30" markerHeight="40" refX="2" refY="15" orient="auto" viewBox="0 0 40 30">
      <path d="M -5,0 -5,20 -15,20 0,40 15,20 5,20 5,0 Z" fill="magenta" transform="translate(0,15) rotate(-90)"/>
    </marker>
  </defs>
  <polyline points="0,0 0,4" stroke="white" stroke-width="2" fill="none"/>
  <polyline points="800,8000 796,8000" stroke="white" stroke-width="2" fill="none"/>
  <polyline points="384,176 384,1776" stroke="white" stroke-width="2" fill="none"/>
  <polyline points="416,176 416,1776" stroke="white" stroke-width="2" fill="none"/>
  <polyline points="384,1776 248,1912" stroke="white" stroke-width="2" fill="none"/>
  <polyline points="240,1920 184,1976" stroke="white" stroke-width="2" fill="none"/>
  <polyline points="168,1992 136,2024" stroke="white" stroke-width="2" fill="none"/>
  <polyline points="384,176 208,352" stroke="white" stroke-width="2" fill="none"/>
  <polyline points="120,440 192,368 192,608 320,480" stroke="white" stroke-width="2" fill="none"/>
  <polyline points="28,424 120,556" stroke="white" stroke-width="2" fill="none"/>
  <polyline points="160,536 112,596" stroke="white" stroke-width="2" fill="none"/>
  <polyline points="88,604 132,656" stroke="white" stroke-width="2" fill="none"/>
  <polyline points="204,584 204,648" stroke="white" stroke-width="2" fill="none"/>
  <polyline points="204,652 204,792 132,864" stroke="white" stroke-width="2" fill="none"/>
  <polyline points="132,872 88,916 124,952 100,976 172,1048 140,1080 212,1152 212,1392" stroke="white" stroke-width="2" fill="none"/>
  <polyline points="32,904 80,952 60,972 144,1056 124,1076 208,1160 208,1392" stroke="white" stroke-width="2" fill="none"/>
  <polyline points="112,2048 24,2136" stroke="white" stroke-width="2" fill="none"/>
  <polyline points="384,1808 512,1936" stroke="white" stroke-width="2" fill="none"/>
  <polyline points="516,1940 544,1968" stroke="white" stroke-width="2" fill="none"/>
  <polyline points="552,1976 584,2008" stroke="white" stroke-width="2" fill="none"/>
  <polyline points="596,2020 632,2056" stroke="white" stroke-width="2" fill="none"/>
  <polyline points="648,2072 744,2168" stroke="white" stroke-width="2" fill="none"/>
  <polyline points="584,320 736,168" stroke="white" stroke-width="2" fill="none"/>
  <polyline points="584,324 472,436 568,340 568,1492 556,1480" stroke="white" stroke-width="2" fill="none"/>
  <polyline points="552,1476 504,1428" stroke="white" stroke-width="2" fill="none"/>
  <polyline points="484,1408 416,1340" stroke="white" stroke-width="2" fill="none"/>
  <polyline points="436,452 540,628" stroke="white" stroke-width="2" fill="none"/>
  <polyline points="492,712 568,624 640,712" stroke="white" stroke-width="2" fill="none"/>
  <polyline points="448,672 504,728" stroke="white" stroke-width="2" fill="none"/>
  <polyline points="504,736 512,728" stroke="white" stroke-width="2" fill="none"/>
  <polyline points="496,736 504,744" stroke="white" stroke-width="2" fill="none"/>
  <polyline points="504,752 512,744" stroke="white" stroke-width="2" fill="none"/>
  <polyline points="504,760 496,752" stroke="white" stroke-width="2" fill="none"/>
  <polyline points="524,740 500,776" stroke="white" stroke-width="2" fill="none"/>
  <polyline points="476,756 512,808" stroke="white" stroke-width="2" fill="none"/>
  <polyline points="540,784 488,872" stroke="white" stroke-width="2" fill="none"/>
  <polyline points="456,876 540,996" stroke="white" stroke-width="2" fill="none"/>
  <polyline points="416,1112 440,1048 464,1112" stroke="white" stroke-width="2" fill="none"/>
  <polyline points="568,1112 544,1048 520,1112" stroke="white" stroke-width="2" fill="none"/>
  <polyline points="468,1112 492,1048 516,1112" stroke="white" stroke-width="2" fill="none"/>
  <polyline points="696,872 728,872" stroke="white" stroke-width="2" fill="none"/>
  <polyline points="592,976 664,976" stroke="white" stroke-width="2" fill="none"/>
  <polyline points="680,1112 692,1112" stroke="white" stroke-width="2" fill="none"/>
  <polyline points="492,1048 492,952" stroke="white" stroke-width="2" fill="none"/>
  <polyline points="416,1688 528,1688 528,1948" stroke="white" stroke-width="2" fill="none"/>
  <polyline points="400,1824 400,6760" stroke="white" stroke-width="2" fill="none"/>
  <polyline points="216,4464 216,6760" stroke="white" stroke-width="2" fill="none"/>
  <polyline points="304,4560 640,4560" stroke="white" stroke-width="2" fill="none"/>
  <polyline points="680,4560 776,4560" stroke="white" stroke-width="2" fill="none"/>
  <polyline points="216,4464 352,4880 216,5520 352,6024 216,6760" stroke="white" stroke-width="2" fill="none"/>
  <polyline points="420,4808 264,5520 400,6024 264,6760" stroke="white" stroke-width="2" fill="none"/>
  <polyline points="776,3240 656,3240" stroke="white" stroke-width="2" fill="none"/>
  <polyline points="648,3240 544,3240" stroke="white" stroke-width="2" fill="none"/>
  <polyline points="416,3312 472,3312" stroke="white" stroke-width="2" fill="none"/>
  <polyline points="488,3312 584,3312" stroke="white" stroke-width="2" fill="none"/>
  <polyline points="600,3312 712,3312" stroke="white" stroke-width="2" fill="none"/>
  <polyline points="336,3544 528,3544" stroke="white" stroke-width="2" fill="none"/>
  <polyline points="544,3544 560,3544 560,4144 600,4144" stroke="white" stroke-width="2" fill="none"/>
  <polyline points="600,4144 600,3544 616,3544" stroke="white" stroke-width="2" fill="none"/>
  <polyline points="632,3544 776,3544" stroke="white" stroke-width="2" fill="none"/>
  <polyline points="400,4232 464,4232" stroke="white" stroke-width="2" fill="none"/>
  <polyline points="488,4232 576,4232" stroke="white" stroke-width="2" fill="none"/>
  <polyline points="656,4232 744,4232 656,4536 656,4232 600,4288 600,4328 556,4372" stroke="white" stroke-width="2" fill="none"/>
  <polyline points="436,4640 528,5028" stroke="white" stroke-width="2" fill="none"/>
  <polyline points="500,4636 580,5016" stroke="white" stroke-width="2" fill="none"/>
  <polyline points="564,4628 628,5008" stroke="white" stroke-width="2" fill="none"/>
  <polyline points="632,4628 668,4996" stroke="white" stroke-width="2" fill="none"/>
  <polyline points="684,4640 724,4996" stroke="white" stroke-width="2" fill="none"/>
  <polyline points="384,5192 432,5116" stroke="white" stroke-width="2" fill="none"/>
  <polyline points="420,5228 484,5112" stroke="white" stroke-width="2" fill="none"/>
  <polyline points="464,5268 552,5112" stroke="white" stroke-width="2" fill="none"/>
  <polyline points="536,5264 620,5112" stroke="white" stroke-width="2" fill="none"/>
  <polyline points="612,5264 696,5112" stroke="white" stroke-width="2" fill="none"/>
  <polyline points="760,5112 696,5264" stroke="white" stroke-width="2" fill="none"/>
  <polyline points="392,5288 436,5416" stroke="white" stroke-width="2" fill="none"/>
  <polyline points="408,5288 452,5416" stroke="white" stroke-width="2" fill="none"/>
  <polyline points="424,5288 468,5416" stroke="white" stroke-width="2" fill="none"/>
  <polyline points="440,5288 484,5416" stroke="white" stroke-width="2" fill="none"/>
  <polyline points="456,5288 500,5416" stroke="white" stroke-width="2" fill="none"/>
  <polyline points="472,5288 516,5416" stroke="white" stroke-width="2" fill="none"/>
  <polyline points="488,5288 532,5416" stroke="white" stroke-width="2" fill="none"/>
  <polyline points="504,5288 548,5416" stroke="white" stroke-width="2" fill="none"/>
  <polyline points="520,5288 564,5416" stroke="white" stroke-width="2" fill="none"/>
  <polyline points="536,5288 580,5416" stroke="white" stroke-width="2" fill="none"/>
  <polyline points="552,5288 596,5416" stroke="white" stroke-width="2" fill="none"/>
  <polyline points="568,5288 612,5416" stroke="white" stroke-width="2" fill="none"/>
  <polyline points="584,5288 628,5416" stroke="white" stroke-width="2" fill="none"/>
  <polyline points="600,5288 644,5416" stroke="white" stroke-width="2" fill="none"/>
  <polyline points="616,5288 660,5416" stroke="white" stroke-width="2" fill="none"/>
  <polyline points="632,5288 676,5416" stroke="white" stroke-width="2" fill="none"/>
  <polyline points="648,5288 692,5416" stroke="white" stroke-width="2" fill="none"/>
  <polyline points="664,5288 708,5416 760,5288" stroke="white" stroke-width="2" fill="none"/>
  <polyline points="468,5416 468,5904 484,5904 484,5416" stroke="white" stroke-width="2" fill="none"/>
  <polyline points="452,5416 452,5904 404,6024" stroke="white" stroke-width="2" fill="none"/>
  <polyline points="500,5416 500,5936 516,5952 516,5416" stroke="white" stroke-width="2" fill="none"/>
  <polyline points="532,5416 532,5648" stroke="white" stroke-width="2" fill="none"/>
  <polyline points="548,5416 548,6392 552,6432" stroke="white" stroke-width="2" fill="none"/>
  <polyline points="552,6440 564,6392 564,5416" stroke="white" stroke-width="2" fill="none"/>
  <polyline points="580,5416 580,6100 588,6028 596,6100 596,5416" stroke="white" stroke-width="2" fill="none"/>
  <polyline points="580,6100 580,7028" stroke="white" stroke-width="2" fill="none"/>
  <polyline points="580,7036 580,7068" stroke="white" stroke-width="2" fill="none"/>
  <polyline points="580,7076 580,7108" stroke="white" stroke-width="2" fill="none"/>
  <polyline points="580,7116 580,7140" stroke="white" stroke-width="2" fill="none"/>
  <polyline points="580,7148 580,7180" stroke="white" stroke-width="2" fill="none"/>
  <polyline points="580,7188 580,7220" stroke="white" stroke-width="2" fill="none"/>
  <polyline points="580,7228 580,7260" stroke="white" stroke-width="2" fill="none"/>
  <polyline points="580,7332 580,7468" stroke="white" stroke-width="2" fill="none"/>
  <polyline points="552,6440 552,7056" stroke="white" stroke-width="2" fill="none"/>
  <polyline points="552,7064 552,7120" stroke="white" stroke-width="2" fill="none"/>
  <polyline points="552,7176 552,7312" stroke="white" stroke-width="2" fill="none"/>
  <polyline points="552,7328 552,7408 400,7568 248,7408" stroke="white" stroke-width="2" fill="none"/>
  <polyline points="612,5416 612,6960 636,6888 636,5416" stroke="white" stroke-width="2" fill="none"/>
  <polyline points="660,5416 660,6808 632,6912 676,6912 676,5416" stroke="white" stroke-width="2" fill="none"/>
  <polyline points="692,5416 692,7320" stroke="white" stroke-width="2" fill="none"/>
  <polyline points="444,5440 420,5492 436,5564 416,5656 444,5720 408,5776 436,5848" stroke="white" stroke-width="2" fill="none"/>
  <polyline points="420,5420 392,5480 420,5572 388,5692 420,5700 396,5776 432,5872" stroke="white" stroke-width="2" fill="none"/>
  <polyline points="452,5484 440,5496 452,5564 440,5656 452,5720 424,5776 452,5864" stroke="white" stroke-width="2" fill="none"/>
  <polyline points="392,6108 456,5984 480,6104" stroke="white" stroke-width="2" fill="none"/>
  <polyline points="472,6144 496,6084 508,6148" stroke="white" stroke-width="2" fill="none"/>
  <polyline points="540,6068 524,6032 508,6108" stroke="white" stroke-width="2" fill="none"/>
  <polyline points="452,6280 484,6196 544,6328" stroke="white" stroke-width="2" fill="none"/>
  <polyline points="464,6212 444,6124 412,6208" stroke="white" stroke-width="2" fill="none"/>
  <polyline points="392,6332 420,6252 440,6328" stroke="white" stroke-width="2" fill="none"/>
  <polyline points="424,6416 460,6312 492,6404" stroke="white" stroke-width="2" fill="none"/>
  <polyline points="492,6456 516,6408 532,6428" stroke="white" stroke-width="2" fill="none"/>
  <polyline points="524,6472 552,6520" stroke="white" stroke-width="2" fill="none"/>
  <polyline points="392,6360 420,6460" stroke="white" stroke-width="2" fill="none"/>
  <polyline points="424,6472 444,6532 460,6472 484,6548" stroke="white" stroke-width="2" fill="none"/>
  <polyline points="472,6592 516,6512 552,6608" stroke="white" stroke-width="2" fill="none"/>
  <polyline points="396,6556 408,6512 484,6636" stroke="white" stroke-width="2" fill="none"/>
  <polyline points="472,6688 504,6624 524,6684" stroke="white" stroke-width="2" fill="none"/>
  <polyline points="412,6756 436,6672 500,6760 544,6684" stroke="white" stroke-width="2" fill="none"/>
  <polyline points="692,6520 752,6720 692,6744" stroke="white" stroke-width="2" fill="none"/>
  <polyline points="24,4536 100,4536 24,4616 72,4616 24,4664 24,4736 136,4736 24,4848 72,4848 24,4896 24,4976 100,4976 24,5052 24,5176 64,5176 24,5216 96,5216 24,5288 24,5336 128,5336 24,5440 24,5600 56,5600 80,5624 80,5656 64,5672 64,5712 120,5768 120,5824 80,5864 80,5912 104,5936 104,5976 24,6056 24,6464 104,6544 104,6576 72,6608 128,6664 128,6760 24,6864" stroke="white" stroke-width="2" fill="none"/>
  <polyline points="216,4536 144,4536 216,4608" stroke="white" stroke-width="2" fill="none"/>
  <polyline points="96,4616 184,4616 140,4660 96,4616" stroke="white" stroke-width="2" fill="none"/>
  <polyline points="216,4736 160,4736 216,4792" stroke="white" stroke-width="2" fill="none"/>
  <polyline points="216,4848 192,4848 216,4872" stroke="white" stroke-width="2" fill="none"/>
  <polyline points="176,4848 88,4848 132,4892 176,4848" stroke="white" stroke-width="2" fill="none"/>
  <polyline points="216,4976 120,4976 216,5072" stroke="white" stroke-width="2" fill="none"/>
  <polyline points="112,5000 80,5032 112,5064 144,5032 112,5000" stroke="white" stroke-width="2" fill="none"/>
  <polyline points="160,5048 128,5080 160,5112 192,5080 160,5048" stroke="white" stroke-width="2" fill="none"/>
  <polyline points="56,5088 80,5064 104,5088 80,5112 56,5088" stroke="white" stroke-width="2" fill="none"/>
  <polyline points="96,5176 136,5216 176,5176 96,5176" stroke="white" stroke-width="2" fill="none"/>
  <polyline points="112,5216 120,5216 116,5220 112,5216" stroke="white" stroke-width="2" fill="none"/>
  <polyline points="216,5216 160,5216 216,5272" stroke="white" stroke-width="2" fill="none"/>
  <polyline points="136,5232 160,5256 144,5272 128,5256 120,5264 112,5256 136,5232" stroke="white" stroke-width="2" fill="none"/>
  <polyline points="96,5272 72,5296" stroke="white" stroke-width="2" fill="none"/>
  <polyline points="128,5360 208,5360 168,5400 128,5360" stroke="white" stroke-width="2" fill="none"/>
  <polyline points="104,5384 136,5384 120,5400 104,5384" stroke="white" stroke-width="2" fill="none"/>
  <polyline points="56,5424 112,5424 84,5452 56,5424" stroke="white" stroke-width="2" fill="none"/>
  <polyline points="216,5424 168,5424 216,5472" stroke="white" stroke-width="2" fill="none"/>
  <polyline points="128,5424 148,5424 136,5448 128,5424" stroke="white" stroke-width="2" fill="none"/>
  <polyline points="80,5576 104,5608 104,5672 88,5692 144,5744 144,5848 104,5888 128,5912 128,5976 176,6024 176,5928 144,5896 184,5856 184,5724 144,5684 144,5608 176,5576 152,5488 124,5576 84,5488 80,5576" stroke="white" stroke-width="2" fill="none"/>
  <polyline points="220,5588 184,5616 180,5672 224,5708 220,5864 192,5892 232,5932" stroke="white" stroke-width="2" fill="none"/>
  <polyline points="56,6088 116,6028 176,6088 120,6144 176,6200 120,6256 176,6312 120,6368 176,6424 120,6480 56,6416 56,6088" stroke="white" stroke-width="2" fill="none"/>
  <polyline points="216,6072 144,6144 196,6196 136,6256 188,6308 128,6368 184,6424 144,6464 144,6560 96,6608 144,6656 144,6760 180,6796 216,6760" stroke="white" stroke-width="2" fill="none"/>
  <polyline points="456,3392 616,3384" stroke="white" stroke-width="2" fill="none"/>
  <polyline points="680,3392 800,3384" stroke="white" stroke-width="2" fill="none"/>
  <polyline points="528,3488 568,3488" stroke="white" stroke-width="2" fill="none"/>
  <polyline points="592,3488 632,3488" stroke="white" stroke-width="2" fill="none"/>
  <polyline points="608,2976 624,2976" stroke="white" stroke-width="2" fill="none"/>
  <polyline points="628,2976 648,2976" stroke="white" stroke-width="2" fill="none"/>
  <polyline points="656,2976 680,2976" stroke="white" stroke-width="2" fill="none"/>
  <polyline points="692,2976 712,2976" stroke="white" stroke-width="2" fill="none"/>
  <polyline points="728,2976 736,2976" stroke="white" stroke-width="2" fill="none"/>
  <polyline points="604,2028 712,2204" stroke="white" stroke-width="2" fill="none"/>
  <polyline points="720,2200 760,2160" stroke="white" stroke-width="2" fill="none"/>
  <polyline points="708,2212 768,2284" stroke="white" stroke-width="2" fill="none"/>
  <polyline points="528,1952 424,2056 424,2648" stroke="white" stroke-width="2" fill="none"/>
  <polyline points="480,4240 452,4320" stroke="white" stroke-width="2" fill="none"/>
  <polyline points="688,4124 692,4100 700,4136" stroke="white" stroke-width="2" fill="none"/>
  <polyline points="184,1976 248,2112" stroke="white" stroke-width="2" fill="none"/>
  <polyline points="136,2024 160,2112" stroke="white" stroke-width="2" fill="none"/>
  <circle cx="24" cy="24" r="25.6" stroke="#33ff33" opacity="1" stroke-width="2" fill="none"/>
  <circle cx="72" cy="24" r="25.6" stroke="#33ff33" opacity="1" stroke-width="2" fill="none"/>
  <circle cx="120" cy="24" r="25.6" stroke="#33ff33" opacity="1" stroke-width="2" fill="none"/>
  <circle cx="168" cy="24" r="25.6" stroke="#33ff33" opacity="1" stroke-width="2" fill="none"/>
  <circle cx="216" cy="24" r="25.6" stroke="#33ff33" opacity="1" stroke-width="2" fill="none"/>
  <circle cx="264" cy="24" r="25.6" stroke="#33ff33" opacity="1" stroke-width="2" fill="none"/>
  <circle cx="312" cy="24" r="25.6" stroke="#33ff33" opacity="1" stroke-width="2" fill="none"/>
  <circle cx="360" cy="24" r="25.6" stroke="#33ff33" opacity="1" stroke-width="2" fill="none"/>
  <circle cx="440" cy="24" r="25.6" stroke="#33ff33" opacity="1" stroke-width="2" fill="none"/>
  <circle cx="488" cy="24" r="25.6" stroke="#33ff33" opacity="1" stroke-width="2" fill="none"/>
  <circle cx="536" cy="24" r="25.6" stroke="#33ff33" opacity="1" stroke-width="2" fill="none"/>
  <circle cx="584" cy="24" r="25.6" stroke="#33ff33" opacity="1" stroke-width="2" fill="none"/>
  <circle cx="632" cy="24" r="25.6" stroke="#33ff33" opacity="1" stroke-width="2" fill="none"/>
  <circle cx="680" cy="24" r="25.6" stroke="#33ff33" opacity="1" stroke-width="2" fill="none"/>
  <circle cx="728" cy="24" r="25.6" stroke="#33ff33" opacity="1" stroke-width="2" fill="none"/>
  <circle cx="776" cy="24" r="25.6" stroke="#33ff33" opacity="1" stroke-width="2" fill="none"/>
  <circle cx="400" cy="24" r="17.6" stroke="#33ff33" opacity="1" stroke-width="2" fill="none"/>
  <circle cx="24" cy="72" r="25.6" stroke="#3399ff" opacity="1" stroke-width="2" fill="none"/>
  <circle cx="24" cy="120" r="25.6" stroke="#3399ff" opacity="1" stroke-width="2" fill="none"/>
  <circle cx="24" cy="168" r="25.6" stroke="#3399ff" opacity="1" stroke-width="2" fill="none"/>
  <circle cx="24" cy="216" r="25.6" stroke="#3399ff" opacity="1" stroke-width="2" fill="none"/>
  <circle cx="24" cy="264" r="25.6" stroke="#3399ff" opacity="1" stroke-width="2" fill="none"/>
  <circle cx="24" cy="312" r="25.6" stroke="#3399ff" opacity="1" stroke-width="2" fill="none"/>
  <circle cx="24" cy="360" r="25.6" stroke="#3399ff" opacity="1" stroke-width="2" fill="none"/>
  <circle cx="24" cy="408" r="25.6" stroke="#3399ff" opacity="1" stroke-width="2" fill="none"/>
  <circle cx="24" cy="456" r="25.6" stroke="#3399ff" opacity="1" stroke-width="2" fill="none"/>
  <circle cx="24" cy="504" r="25.6" stroke="#3399ff" opacity="1" stroke-width="2" fill="none"/>
  <circle cx="24" cy="552" r="25.6" stroke="#3399ff" opacity="1" stroke-width="2" fill="none"/>
  <circle cx="24" cy="600" r="25.6" stroke="#3399ff" opacity="1" stroke-width="2" fill="none"/>
  <circle cx="24" cy="648" r="25.6" stroke="#3399ff" opacity="1" stroke-width="2" fill="none"/>
  <circle cx="24" cy="696" r="25.6" stroke="#3399ff" opacity="1" stroke-width="2" fill="none"/>
  <circle cx="24" cy="744" r="25.6" stroke="#3399ff" opacity="1" stroke-width="2" fill="none"/>
  <circle cx="24" cy="792" r="25.6" stroke="#3399ff" opacity="1" stroke-width="2" fill="none"/>
  <circle cx="24" cy="840" r="25.6" stroke="#3399ff" opacity="1" stroke-width="2" fill="none"/>
  <circle cx="24" cy="888" r="25.6" stroke="#3399ff" opacity="1" stroke-width="2" fill="none"/>
  <circle cx="24" cy="936" r="25.6" stroke="#3399ff" opacity="1" stroke-width="2" fill="none"/>
  <circle cx="24" cy="984" r="25.6" stroke="#3399ff" opacity="1" stroke-width="2" fill="none"/>
  <circle cx="24" cy="1032" r="25.6" stroke="#3399ff" opacity="1" stroke-width="2" fill="none"/>
  <circle cx="24" cy="1080" r="25.6" stroke="#3399ff" opacity="1" stroke-width="2" fill="none"/>
  <circle cx="24" cy="1128" r="25.6" stroke="#3399ff" opacity="1" stroke-width="2" fill="none"/>
  <circle cx="24" cy="1176" r="25.6" stroke="#3399ff" opacity="1" stroke-width="2" fill="none"/>
  <circle cx="24" cy="1224" r="25.6" stroke="#3399ff" opacity="1" stroke-width="2" fill="none"/>
  <circle cx="24" cy="1272" r="25.6" stroke="#3399ff" opacity="1" stroke-width="2" fill="none"/>
  <circle cx="24" cy="1320" r="25.6" stroke="#3399ff" opacity="1" stroke-width="2" fill="none"/>
  <circle cx="24" cy="1368" r="25.6" stroke="#3399ff" opacity="1" stroke-width="2" fill="none"/>
  <circle cx="24" cy="1416" r="25.6" stroke="#3399ff" opacity="1" stroke-width="2" fill="none"/>
  <circle cx="24" cy="1464" r="25.6" stroke="#3399ff" opacity="1" stroke-width="2" fill="none"/>
  <circle cx="24" cy="1512" r="25.6" stroke="#3399ff" opacity="1" stroke-width="2" fill="none"/>
  <circle cx="24" cy="1560" r="25.6" stroke="#3399ff" opacity="1" stroke-width="2" fill="none"/>
  <circle cx="24" cy="1608" r="25.6" stroke="#3399ff" opacity="1" stroke-width="2" fill="none"/>
  <circle cx="24" cy="1656" r="25.6" stroke="#3399ff" opacity="1" stroke-width="2" fill="none"/>
  <circle cx="24" cy="1704" r="25.6" stroke="#3399ff" opacity="1" stroke-width="2" fill="none"/>
  <circle cx="24" cy="1752" r="25.6" stroke="#3399ff" opacity="1" stroke-width="2" fill="none"/>
  <circle cx="24" cy="1800" r="25.6" stroke="#3399ff" opacity="1" stroke-width="2" fill="none"/>
  <circle cx="24" cy="1848" r="25.6" stroke="#3399ff" opacity="1" stroke-width="2" fill="none"/>
  <circle cx="24" cy="1896" r="25.6" stroke="#3399ff" opacity="1" stroke-width="2" fill="none"/>
  <circle cx="24" cy="1944" r="25.6" stroke="#3399ff" opacity="1" stroke-width="2" fill="none"/>
  <circle cx="24" cy="1992" r="25.6" stroke="#3399ff" opacity="1" stroke-width="2" fill="none"/>
  <circle cx="24" cy="2040" r="25.6" stroke="#3399ff" opacity="1" stroke-width="2" fill="none"/>
  <circle cx="24" cy="2088" r="25.6" stroke="#3399ff" opacity="1" stroke-width="2" fill="none"/>
  <circle cx="24" cy="2136" r="25.6" stroke="#3399ff" opacity="1" stroke-width="2" fill="none"/>
  <circle cx="24" cy="2184" r="25.6" stroke="#3399ff" opacity="1" stroke-width="2" fill="none"/>
  <circle cx="24" cy="2232" r="25.6" stroke="#3399ff" opacity="1" stroke-width="2" fill="none"/>
  <circle cx="24" cy="2280" r="25.6" stroke="#3399ff" opacity="1" stroke-width="2" fill="none"/>
  <circle cx="24" cy="2328" r="25.6" stroke="#3399ff" opacity="1" stroke-width="2" fill="none"/>
  <circle cx="24" cy="2376" r="25.6" stroke="#3399ff" opacity="1" stroke-width="2" fill="none"/>
  <circle cx="24" cy="2424" r="25.6" stroke="#3399ff" opacity="1" stroke-width="2" fill="none"/>
  <circle cx="24" cy="2472" r="25.6" stroke="#3399ff" opacity="1" stroke-width="2" fill="none"/>
  <circle cx="24" cy="2520" r="25.6" stroke="#3399ff" opacity="1" stroke-width="2" fill="none"/>
  <circle cx="24" cy="2568" r="25.6" stroke="#3399ff" opacity="1" stroke-width="2" fill="none"/>
  <circle cx="24" cy="2616" r="25.6" stroke="#3399ff" opacity="1" stroke-width="2" fill="none"/>
  <circle cx="24" cy="2664" r="25.6" stroke="#3399ff" opacity="1" stroke-width="2" fill="none"/>
  <circle cx="24" cy="2712" r="25.6" stroke="#3399ff" opacity="1" stroke-width="2" fill="none"/>
  <circle cx="24" cy="2760" r="25.6" stroke="#3399ff" opacity="1" stroke-width="2" fill="none"/>
  <circle cx="24" cy="2808" r="25.6" stroke="#3399ff" opacity="1" stroke-width="2" fill="none"/>
  <circle cx="24" cy="2856" r="25.6" stroke="#3399ff" opacity="1" stroke-width="2" fill="none"/>
  <circle cx="24" cy="2904" r="25.6" stroke="#3399ff" opacity="1" stroke-width="2" fill="none"/>
  <circle cx="24" cy="2952" r="25.6" stroke="#3399ff" opacity="1" stroke-width="2" fill="none"/>
  <circle cx="24" cy="3000" r="25.6" stroke="#3399ff" opacity="1" stroke-width="2" fill="none"/>
  <circle cx="24" cy="3048" r="25.6" stroke="#3399ff" opacity="1" stroke-width="2" fill="none"/>
  <circle cx="24" cy="3096" r="25.6" stroke="#3399ff" opacity="1" stroke-width="2" fill="none"/>
  <circle cx="24" cy="3144" r="25.6" stroke="#3399ff" opacity="1" stroke-width="2" fill="none"/>
  <circle cx="24" cy="3192" r="25.6" stroke="#3399ff" opacity="1" stroke-width="2" fill="none"/>
  <circle cx="24" cy="3240" r="25.6" stroke="#3399ff" opacity="1" stroke-width="2" fill="none"/>
  <circle cx="24" cy="3288" r="25.6" stroke="#3399ff" opacity="1" stroke-width="2" fill="none"/>
  <circle cx="24" cy="3336" r="25.6" stroke="#3399ff" opacity="1" stroke-width="2" fill="none"/>
  <circle cx="24" cy="3384" r="25.6" stroke="#3399ff" opacity="1" stroke-width="2" fill="none"/>
  <circle cx="24" cy="3432" r="25.6" stroke="#3399ff" opacity="1" stroke-width="2" fill="none"/>
  <circle cx="24" cy="3480" r="25.6" stroke="#3399ff" opacity="1" stroke-width="2" fill="none"/>
  <circle cx="24" cy="3528" r="25.6" stroke="#3399ff" opacity="1" stroke-width="2" fill="none"/>
  <circle cx="24" cy="3576" r="25.6" stroke="#3399ff" opacity="1" stroke-width="2" fill="none"/>
  <circle cx="24" cy="3624" r="25.6" stroke="#3399ff" opacity="1" stroke-width="2" fill="none"/>
  <circle cx="24" cy="3672" r="25.6" stroke="#3399ff" opacity="1" stroke-width="2" fill="none"/>
  <circle cx="24" cy="3720" r="25.6" stroke="#3399ff" opacity="1" stroke-width="2" fill="none"/>
  <circle cx="24" cy="3768" r="25.6" stroke="#3399ff" opacity="1" stroke-width="2" fill="none"/>
  <circle cx="24" cy="3816" r="25.6" stroke="#3399ff" opacity="1" stroke-width="2" fill="none"/>
  <circle cx="24" cy="3864" r="25.6" stroke="#3399ff" opacity="1" stroke-width="2" fill="none"/>
  <circle cx="24" cy="3912" r="25.6" stroke="#3399ff" opacity="1" stroke-width="2" fill="none"/>
  <circle cx="24" cy="3960" r="25.6" stroke="#3399ff" opacity="1" stroke-width="2" fill="none"/>
  <circle cx="24" cy="4008" r="25.6" stroke="#3399ff" opacity="1" stroke-width="2" fill="none"/>
  <circle cx="24" cy="4056" r="25.6" stroke="#3399ff" opacity="1" stroke-width="2" fill="none"/>
  <circle cx="24" cy="4104" r="25.6" stroke="#3399ff" opacity="1" stroke-width="2" fill="none"/>
  <circle cx="24" cy="4152" r="25.6" stroke="#3399ff" opacity="1" stroke-width="2" fill="none"/>
  <circle cx="24" cy="4200" r="25.6" stroke="#3399ff" opacity="1" stroke-width="2" fill="none"/>
  <circle cx="24" cy="4248" r="25.6" stroke="#3399ff" opacity="1" stroke-width="2" fill="none"/>
  <circle cx="24" cy="4296" r="25.6" stroke="#3399ff" opacity="1" stroke-width="2" fill="none"/>
  <circle cx="24" cy="4344" r="25.6" stroke="#3399ff" opacity="1" stroke-width="2" fill="none"/>
  <circle cx="24" cy="4392" r="25.6" stroke="#3399ff" opacity="1" stroke-width="2" fill="none"/>
  <circle cx="24" cy="4440" r="25.6" stroke="#3399ff" opacity="1" stroke-width="2" fill="none"/>
  <circle cx="24" cy="4488" r="25.6" stroke="#3399ff" opacity="1" stroke-width="2" fill="none"/>
  <circle cx="24" cy="4536" r="25.6" stroke="#3399ff" opacity="1" stroke-width="2" fill="none"/>
  <circle cx="24" cy="4584" r="25.6" stroke="#3399ff" opacity="1" stroke-width="2" fill="none"/>
  <circle cx="24" cy="4632" r="25.6" stroke="#3399ff" opacity="1" stroke-width="2" fill="none"/>
  <circle cx="24" cy="4680" r="25.6" stroke="#3399ff" opacity="1" stroke-width="2" fill="none"/>
  <circle cx="24" cy="4728" r="25.6" stroke="#3399ff" opacity="1" stroke-width="2" fill="none"/>
  <circle cx="24" cy="4776" r="25.6" stroke="#3399ff" opacity="1" stroke-width="2" fill="none"/>
  <circle cx="24" cy="4824" r="25.6" stroke="#3399ff" opacity="1" stroke-width="2" fill="none"/>
  <circle cx="24" cy="4872" r="25.6" stroke="#3399ff" opacity="1" stroke-width="2" fill="none"/>
  <circle cx="24" cy="4920" r="25.6" stroke="#3399ff" opacity="1" stroke-width="2" fill="none"/>
  <circle cx="24" cy="4968" r="25.6" stroke="#3399ff" opacity="1" stroke-width="2" fill="none"/>
  <circle cx="24" cy="5016" r="25.6" stroke="#3399ff" opacity="1" stroke-width="2" fill="none"/>
  <circle cx="24" cy="5064" r="25.6" stroke="#3399ff" opacity="1" stroke-width="2" fill="none"/>
  <circle cx="24" cy="5112" r="25.6" stroke="#3399ff" opacity="1" stroke-width="2" fill="none"/>
  <circle cx="24" cy="5160" r="25.6" stroke="#3399ff" opacity="1" stroke-width="2" fill="none"/>
  <circle cx="24" cy="5208" r="25.6" stroke="#3399ff" opacity="1" stroke-width="2" fill="none"/>
  <circle cx="24" cy="5256" r="25.6" stroke="#3399ff" opacity="1" stroke-width="2" fill="none"/>
  <circle cx="24" cy="5304" r="25.6" stroke="#3399ff" opacity="1" stroke-width="2" fill="none"/>
  <circle cx="24" cy="5352" r="25.6" stroke="#3399ff" opacity="1" stroke-width="2" fill="none"/>
  <circle cx="24" cy="5400" r="25.6" stroke="#3399ff" opacity="1" stroke-width="2" fill="none"/>
  <circle cx="24" cy="5448" r="25.6" stroke="#3399ff" opacity="1" stroke-width="2" fill="none"/>
  <circle cx="24" cy="5496" r="25.6" stroke="#3399ff" opacity="1" stroke-width="2" fill="none"/>
  <circle cx="24" cy="5544" r="25.6" stroke="#3399ff" opacity="1" stroke-width="2" fill="none"/>
  <circle cx="24" cy="5592" r="25.6" stroke="#3399ff" opacity="1" stroke-width="2" fill="none"/>
  <circle cx="24" cy="5640" r="25.6" stroke="#3399ff" opacity="1" stroke-width="2" fill="none"/>
  <circle cx="24" cy="5688" r="25.6" stroke="#3399ff" opacity="1" stroke-width="2" fill="none"/>
  <circle cx="24" cy="5736" r="25.6" stroke="#3399ff" opacity="1" stroke-width="2" fill="none"/>
  <circle cx="24" cy="5784" r="25.6" stroke="#3399ff" opacity="1" stroke-width="2" fill="none"/>
  <circle cx="24" cy="5832" r="25.6" stroke="#3399ff" opacity="1" stroke-width="2" fill="none"/>
  <circle cx="24" cy="5880" r="25.6" stroke="#3399ff" opacity="1" stroke-width="2" fill="none"/>
  <circle cx="24" cy="5928" r="25.6" stroke="#3399ff" opacity="1" stroke-width="2" fill="none"/>
  <circle cx="24" cy="5976" r="25.6" stroke="#3399ff" opacity="1" stroke-width="2" fill="none"/>
  <circle cx="24" cy="6024" r="25.6" stroke="#3399ff" opacity="1" stroke-width="2" fill="none"/>
  <circle cx="24" cy="6072" r="25.6" stroke="#3399ff" opacity="1" stroke-width="2" fill="none"/>
  <circle cx="24" cy="6120" r="25.6" stroke="#3399ff" opacity="1" stroke-width="2" fill="none"/>
  <circle cx="24" cy="6168" r="25.6" stroke="#3399ff" opacity="1" stroke-width="2" fill="none"/>
  <circle cx="24" cy="6216" r="25.6" stroke="#3399ff" opacity="1" stroke-width="2" fill="none"/>
  <circle cx="24" cy="6264" r="25.6" stroke="#3399ff" opacity="1" stroke-width="2" fill="none"/>
  <circle cx="24" cy="6312" r="25.6" stroke="#3399ff" opacity="1" stroke-width="2" fill="none"/>
  <circle cx="24" cy="6360" r="25.6" stroke="#3399ff" opacity="1" stroke-width="2" fill="none"/>
  <circle cx="24" cy="6408" r="25.6" stroke="#3399ff" opacity="1" stroke-width="2" fill="none"/>
  <circle cx="24" cy="6456" r="25.6" stroke="#3399ff" opacity="1" stroke-width="2" fill="none"/>
  <circle cx="24" cy="6504" r="25.6" stroke="#3399ff" opacity="1" stroke-width="2" fill="none"/>
  <circle cx="24" cy="6552" r="25.6" stroke="#3399ff" opacity="1" stroke-width="2" fill="none"/>
  <circle cx="24" cy="6600" r="25.6" stroke="#3399ff" opacity="1" stroke-width="2" fill="none"/>
  <circle cx="24" cy="6648" r="25.6" stroke="#3399ff" opacity="1" stroke-width="2" fill="none"/>
  <circle cx="24" cy="6696" r="25.6" stroke="#3399ff" opacity="1" stroke-width="2" fill="none"/>
  <circle cx="24" cy="6744" r="25.6" stroke="#3399ff" opacity="1" stroke-width="2" fill="none"/>
  <circle cx="24" cy="6792" r="25.6" stroke="#3399ff" opacity="1" stroke-width="2" fill="none"/>
  <circle cx="24" cy="6840" r="25.6" stroke="#3399ff" opacity="1" stroke-width="2" fill="none"/>
  <circle cx="24" cy="6888" r="25.6" stroke="#3399ff" opacity="1" stroke-width="2" fill="none"/>
  <circle cx="24" cy="6936" r="25.6" stroke="#3399ff" opacity="1" stroke-width="2" fill="none"/>
  <circle cx="24" cy="6984" r="25.6" stroke="#3399ff" opacity="1" stroke-width="2" fill="none"/>
  <circle cx="24" cy="7032" r="25.6" stroke="#3399ff" opacity="1" stroke-width="2" fill="none"/>
  <circle cx="24" cy="7080" r="25.6" stroke="#3399ff" opacity="1" stroke-width="2" fill="none"/>
  <circle cx="24" cy="7128" r="25.6" stroke="#3399ff" opacity="1" stroke-width="2" fill="none"/>
  <circle cx="24" cy="7176" r="25.6" stroke="#3399ff" opacity="1" stroke-width="2" fill="none"/>
  <circle cx="24" cy="7224" r="25.6" stroke="#3399ff" opacity="1" stroke-width="2" fill="none"/>
  <circle cx="24" cy="7272" r="25.6" stroke="#3399ff" opacity="1" stroke-width="2" fill="none"/>
  <circle cx="24" cy="7320" r="25.6" stroke="#3399ff" opacity="1" stroke-width="2" fill="none"/>
  <circle cx="24" cy="7368" r="25.6" stroke="#3399ff" opacity="1" stroke-width="2" fill="none"/>
  <circle cx="24" cy="7416" r="25.6" stroke="#3399ff" opacity="1" stroke-width="2" fill="none"/>
  <circle cx="24" cy="7464" r="25.6" stroke="#3399ff" opacity="1" stroke-width="2" fill="none"/>
  <circle cx="776" cy="72" r="25.6" stroke="#3399ff" opacity="1" stroke-width="2" fill="none"/>
  <circle cx="776" cy="120" r="25.6" stroke="#3399ff" opacity="1" stroke-width="2" fill="none"/>
  <circle cx="776" cy="168" r="25.6" stroke="#3399ff" opacity="1" stroke-width="2" fill="none"/>
  <circle cx="776" cy="216" r="25.6" stroke="#3399ff" opacity="1" stroke-width="2" fill="none"/>
  <circle cx="776" cy="264" r="25.6" stroke="#3399ff" opacity="1" stroke-width="2" fill="none"/>
  <circle cx="776" cy="312" r="25.6" stroke="#3399ff" opacity="1" stroke-width="2" fill="none"/>
  <circle cx="776" cy="360" r="25.6" stroke="#3399ff" opacity="1" stroke-width="2" fill="none"/>
  <circle cx="776" cy="408" r="25.6" stroke="#3399ff" opacity="1" stroke-width="2" fill="none"/>
  <circle cx="776" cy="456" r="25.6" stroke="#3399ff" opacity="1" stroke-width="2" fill="none"/>
  <circle cx="776" cy="504" r="25.6" stroke="#3399ff" opacity="1" stroke-width="2" fill="none"/>
  <circle cx="776" cy="552" r="25.6" stroke="#3399ff" opacity="1" stroke-width="2" fill="none"/>
  <circle cx="776" cy="600" r="25.6" stroke="#3399ff" opacity="1" stroke-width="2" fill="none"/>
  <circle cx="776" cy="648" r="25.6" stroke="#3399ff" opacity="1" stroke-width="2" fill="none"/>
  <circle cx="776" cy="696" r="25.6" stroke="#3399ff" opacity="1" stroke-width="2" fill="none"/>
  <circle cx="776" cy="744" r="25.6" stroke="#3399ff" opacity="1" stroke-width="2" fill="none"/>
  <circle cx="776" cy="792" r="25.6" stroke="#3399ff" opacity="1" stroke-width="2" fill="none"/>
  <circle cx="776" cy="840" r="25.6" stroke="#3399ff" opacity="1" stroke-width="2" fill="none"/>
  <circle cx="776" cy="888" r="25.6" stroke="#3399ff" opacity="1" stroke-width="2" fill="none"/>
  <circle cx="776" cy="936" r="25.6" stroke="#3399ff" opacity="1" stroke-width="2" fill="none"/>
  <circle cx="776" cy="984" r="25.6" stroke="#3399ff" opacity="1" stroke-width="2" fill="none"/>
  <circle cx="776" cy="1032" r="25.6" stroke="#3399ff" opacity="1" stroke-width="2" fill="none"/>
  <circle cx="776" cy="1080" r="25.6" stroke="#3399ff" opacity="1" stroke-width="2" fill="none"/>
  <circle cx="776" cy="1128" r="25.6" stroke="#3399ff" opacity="1" stroke-width="2" fill="none"/>
  <circle cx="776" cy="1176" r="25.6" stroke="#3399ff" opacity="1" stroke-width="2" fill="none"/>
  <circle cx="776" cy="1224" r="25.6" stroke="#3399ff" opacity="1" stroke-width="2" fill="none"/>
  <circle cx="776" cy="1272" r="25.6" stroke="#3399ff" opacity="1" stroke-width="2" fill="none"/>
  <circle cx="776" cy="1320" r="25.6" stroke="#3399ff" opacity="1" stroke-width="2" fill="none"/>
  <circle cx="776" cy="1368" r="25.6" stroke="#3399ff" opacity="1" stroke-width="2" fill="none"/>
  <circle cx="776" cy="1416" r="25.6" stroke="#3399ff" opacity="1" stroke-width="2" fill="none"/>
  <circle cx="776" cy="1464" r="25.6" stroke="#3399ff" opacity="1" stroke-width="2" fill="none"/>
  <circle cx="776" cy="1512" r="25.6" stroke="#3399ff" opacity="1" stroke-width="2" fill="none"/>
  <circle cx="776" cy="1560" r="25.6" stroke="#3399ff" opacity="1" stroke-width="2" fill="none"/>
  <circle cx="776" cy="1608" r="25.6" stroke="#3399ff" opacity="1" stroke-width="2" fill="none"/>
  <circle cx="776" cy="1656" r="25.6" stroke="#3399ff" opacity="1" stroke-width="2" fill="none"/>
  <circle cx="776" cy="1704" r="25.6" stroke="#3399ff" opacity="1" stroke-width="2" fill="none"/>
  <circle cx="776" cy="1752" r="25.6" stroke="#3399ff" opacity="1" stroke-width="2" fill="none"/>
  <circle cx="776" cy="1800" r="25.6" stroke="#3399ff" opacity="1" stroke-width="2" fill="none"/>
  <circle cx="776" cy="1848" r="25.6" stroke="#3399ff" opacity="1" stroke-width="2" fill="none"/>
  <circle cx="776" cy="1896" r="25.6" stroke="#3399ff" opacity="1" stroke-width="2" fill="none"/>
  <circle cx="776" cy="1944" r="25.6" stroke="#3399ff" opacity="1" stroke-width="2" fill="none"/>
  <circle cx="776" cy="1992" r="25.6" stroke="#3399ff" opacity="1" stroke-width="2" fill="none"/>
  <circle cx="776" cy="2040" r="25.6" stroke="#3399ff" opacity="1" stroke-width="2" fill="none"/>
  <circle cx="776" cy="2088" r="25.6" stroke="#3399ff" opacity="1" stroke-width="2" fill="none"/>
  <circle cx="776" cy="2136" r="25.6" stroke="#3399ff" opacity="1" stroke-width="2" fill="none"/>
  <circle cx="776" cy="2184" r="25.6" stroke="#3399ff" opacity="1" stroke-width="2" fill="none"/>
  <circle cx="776" cy="2232" r="25.6" stroke="#3399ff" opacity="1" stroke-width="2" fill="none"/>
  <circle cx="776" cy="2280" r="25.6" stroke="#3399ff" opacity="1" stroke-width="2" fill="none"/>
  <circle cx="776" cy="2328" r="25.6" stroke="#3399ff" opacity="1" stroke-width="2" fill="none"/>
  <circle cx="776" cy="2376" r="25.6" stroke="#3399ff" opacity="1" stroke-width="2" fill="none"/>
  <circle cx="776" cy="2424" r="25.6" stroke="#3399ff" opacity="1" stroke-width="2" fill="none"/>
  <circle cx="776" cy="2472" r="25.6" stroke="#3399ff" opacity="1" stroke-width="2" fill="none"/>
  <circle cx="776" cy="2520" r="25.6" stroke="#3399ff" opacity="1" stroke-width="2" fill="none"/>
  <circle cx="776" cy="2568" r="25.6" stroke="#3399ff" opacity="1" stroke-width="2" fill="none"/>
  <circle cx="776" cy="2616" r="25.6" stroke="#3399ff" opacity="1" stroke-width="2" fill="none"/>
  <circle cx="776" cy="2664" r="25.6" stroke="#3399ff" opacity="1" stroke-width="2" fill="none"/>
  <circle cx="776" cy="2712" r="25.6" stroke="#3399ff" opacity="1" stroke-width="2" fill="none"/>
  <circle cx="776" cy="2760" r="25.6" stroke="#3399ff" opacity="1" stroke-width="2" fill="none"/>
  <circle cx="776" cy="2808" r="25.6" stroke="#3399ff" opacity="1" stroke-width="2" fill="none"/>
  <circle cx="776" cy="2856" r="25.6" stroke="#3399ff" opacity="1" stroke-width="2" fill="none"/>
  <circle cx="776" cy="2904" r="25.6" stroke="#3399ff" opacity="1" stroke-width="2" fill="none"/>
  <circle cx="776" cy="2952" r="25.6" stroke="#3399ff" opacity="1" stroke-width="2" fill="none"/>
  <circle cx="776" cy="3000" r="25.6" stroke="#3399ff" opacity="1" stroke-width="2" fill="none"/>
  <circle cx="776" cy="3048" r="25.6" stroke="#3399ff" opacity="1" stroke-width="2" fill="none"/>
  <circle cx="776" cy="3096" r="25.6" stroke="#3399ff" opacity="1" stroke-width="2" fill="none"/>
  <circle cx="776" cy="3144" r="25.6" stroke="#3399ff" opacity="1" stroke-width="2" fill="none"/>
  <circle cx="776" cy="3192" r="25.6" stroke="#3399ff" opacity="1" stroke-width="2" fill="none"/>
  <circle cx="776" cy="3240" r="25.6" stroke="#3399ff" opacity="1" stroke-width="2" fill="none"/>
  <circle cx="776" cy="3288" r="25.6" stroke="#3399ff" opacity="1" stroke-width="2" fill="none"/>
  <circle cx="776" cy="3336" r="25.6" stroke="#3399ff" opacity="1" stroke-width="2" fill="none"/>
  <circle cx="776" cy="3384" r="25.6" stroke="#3399ff" opacity="1" stroke-width="2" fill="none"/>
  <circle cx="776" cy="3432" r="25.6" stroke="#3399ff" opacity="1" stroke-width="2" fill="none"/>
  <circle cx="776" cy="3480" r="25.6" stroke="#3399ff" opacity="1" stroke-width="2" fill="none"/>
  <circle cx="776" cy="3528" r="25.6" stroke="#3399ff" opacity="1" stroke-width="2" fill="none"/>
  <circle cx="776" cy="3576" r="25.6" stroke="#3399ff" opacity="1" stroke-width="2" fill="none"/>
  <circle cx="776" cy="3624" r="25.6" stroke="#3399ff" opacity="1" stroke-width="2" fill="none"/>
  <circle cx="776" cy="3672" r="25.6" stroke="#3399ff" opacity="1" stroke-width="2" fill="none"/>
  <circle cx="776" cy="3720" r="25.6" stroke="#3399ff" opacity="1" stroke-width="2" fill="none"/>
  <circle cx="776" cy="3768" r="25.6" stroke="#3399ff" opacity="1" stroke-width="2" fill="none"/>
  <circle cx="776" cy="3816" r="25.6" stroke="#3399ff" opacity="1" stroke-width="2" fill="none"/>
  <circle cx="776" cy="3864" r="25.6" stroke="#3399ff" opacity="1" stroke-width="2" fill="none"/>
  <circle cx="776" cy="3912" r="25.6" stroke="#3399ff" opacity="1" stroke-width="2" fill="none"/>
  <circle cx="776" cy="3960" r="25.6" stroke="#3399ff" opacity="1" stroke-width="2" fill="none"/>
  <circle cx="776" cy="4008" r="25.6" stroke="#3399ff" opacity="1" stroke-width="2" fill="none"/>
  <circle cx="776" cy="4056" r="25.6" stroke="#3399ff" opacity="1" stroke-width="2" fill="none"/>
  <circle cx="776" cy="4104" r="25.6" stroke="#3399ff" opacity="1" stroke-width="2" fill="none"/>
  <circle cx="776" cy="4152" r="25.6" stroke="#3399ff" opacity="1" stroke-width="2" fill="none"/>
  <circle cx="776" cy="4200" r="25.6" stroke="#3399ff" opacity="1" stroke-width="2" fill="none"/>
  <circle cx="776" cy="4248" r="25.6" stroke="#3399ff" opacity="1" stroke-width="2" fill="none"/>
  <circle cx="776" cy="4296" r="25.6" stroke="#3399ff" opacity="1" stroke-width="2" fill="none"/>
  <circle cx="776" cy="4344" r="25.6" stroke="#3399ff" opacity="1" stroke-width="2" fill="none"/>
  <circle cx="776" cy="4392" r="25.6" stroke="#3399ff" opacity="1" stroke-width="2" fill="none"/>
  <circle cx="776" cy="4440" r="25.6" stroke="#3399ff" opacity="1" stroke-width="2" fill="none"/>
  <circle cx="776" cy="4488" r="25.6" stroke="#3399ff" opacity="1" stroke-width="2" fill="none"/>
  <circle cx="776" cy="4536" r="25.6" stroke="#3399ff" opacity="1" stroke-width="2" fill="none"/>
  <circle cx="776" cy="4584" r="25.6" stroke="#3399ff" opacity="1" stroke-width="2" fill="none"/>
  <circle cx="776" cy="4632" r="25.6" stroke="#3399ff" opacity="1" stroke-width="2" fill="none"/>
  <circle cx="776" cy="4680" r="25.6" stroke="#3399ff" opacity="1" stroke-width="2" fill="none"/>
  <circle cx="776" cy="4728" r="25.6" stroke="#3399ff" opacity="1" stroke-width="2" fill="none"/>
  <circle cx="776" cy="4776" r="25.6" stroke="#3399ff" opacity="1" stroke-width="2" fill="none"/>
  <circle cx="776" cy="4824" r="25.6" stroke="#3399ff" opacity="1" stroke-width="2" fill="none"/>
  <circle cx="776" cy="4872" r="25.6" stroke="#3399ff" opacity="1" stroke-width="2" fill="none"/>
  <circle cx="776" cy="4920" r="25.6" stroke="#3399ff" opacity="1" stroke-width="2" fill="none"/>
  <circle cx="776" cy="4968" r="25.6" stroke="#3399ff" opacity="1" stroke-width="2" fill="none"/>
  <circle cx="776" cy="5016" r="25.6" stroke="#3399ff" opacity="1" stroke-width="2" fill="none"/>
  <circle cx="776" cy="5064" r="25.6" stroke="#3399ff" opacity="1" stroke-width="2" fill="none"/>
  <circle cx="776" cy="5112" r="25.6" stroke="#3399ff" opacity="1" stroke-width="2" fill="none"/>
  <circle cx="776" cy="5160" r="25.6" stroke="#3399ff" opacity="1" stroke-width="2" fill="none"/>
  <circle cx="776" cy="5208" r="25.6" stroke="#3399ff" opacity="1" stroke-width="2" fill="none"/>
  <circle cx="776" cy="5256" r="25.6" stroke="#3399ff" opacity="1" stroke-width="2" fill="none"/>
  <circle cx="776" cy="5304" r="25.6" stroke="#3399ff" opacity="1" stroke-width="2" fill="none"/>
  <circle cx="776" cy="5352" r="25.6" stroke="#3399ff" opacity="1" stroke-width="2" fill="none"/>
  <circle cx="776" cy="5400" r="25.6" stroke="#3399ff" opacity="1" stroke-width="2" fill="none"/>
  <circle cx="776" cy="5448" r="25.6" stroke="#3399ff" opacity="1" stroke-width="2" fill="none"/>
  <circle cx="776" cy="5496" r="25.6" stroke="#3399ff" opacity="1" stroke-width="2" fill="none"/>
  <circle cx="776" cy="5544" r="25.6" stroke="#3399ff" opacity="1" stroke-width="2" fill="none"/>
  <circle cx="776" cy="5592" r="25.6" stroke="#3399ff" opacity="1" stroke-width="2" fill="none"/>
  <circle cx="776" cy="5640" r="25.6" stroke="#3399ff" opacity="1" stroke-width="2" fill="none"/>
  <circle cx="776" cy="5688" r="25.6" stroke="#3399ff" opacity="1" stroke-width="2" fill="none"/>
  <circle cx="776" cy="5736" r="25.6" stroke="#3399ff" opacity="1" stroke-width="2" fill="none"/>
  <circle cx="776" cy="5784" r="25.6" stroke="#3399ff" opacity="1" stroke-width="2" fill="none"/>
  <circle cx="776" cy="5832" r="25.6" stroke="#3399ff" opacity="1" stroke-width="2" fill="none"/>
  <circle cx="776" cy="5880" r="25.6" stroke="#3399ff" opacity="1" stroke-width="2" fill="none"/>
  <circle cx="776" cy="5928" r="25.6" stroke="#3399ff" opacity="1" stroke-width="2" fill="none"/>
  <circle cx="776" cy="5976" r="25.6" stroke="#3399ff" opacity="1" stroke-width="2" fill="none"/>
  <circle cx="776" cy="6024" r="25.6" stroke="#3399ff" opacity="1" stroke-width="2" fill="none"/>
  <circle cx="776" cy="6072" r="25.6" stroke="#3399ff" opacity="1" stroke-width="2" fill="none"/>
  <circle cx="776" cy="6120" r="25.6" stroke="#3399ff" opacity="1" stroke-width="2" fill="none"/>
  <circle cx="776" cy="6168" r="25.6" stroke="#3399ff" opacity="1" stroke-width="2" fill="none"/>
  <circle cx="776" cy="6216" r="25.6" stroke="#3399ff" opacity="1" stroke-width="2" fill="none"/>
  <circle cx="776" cy="6264" r="25.6" stroke="#3399ff" opacity="1" stroke-width="2" fill="none"/>
  <circle cx="776" cy="6312" r="25.6" stroke="#3399ff" opacity="1" stroke-width="2" fill="none"/>
  <circle cx="776" cy="6360" r="25.6" stroke="#3399ff" opacity="1" stroke-width="2" fill="none"/>
  <circle cx="776" cy="6408" r="25.6" stroke="#3399ff" opacity="1" stroke-width="2" fill="none"/>
  <circle cx="776" cy="6456" r="25.6" stroke="#3399ff" opacity="1" stroke-width="2" fill="none"/>
  <circle cx="776" cy="6504" r="25.6" stroke="#3399ff" opacity="1" stroke-width="2" fill="none"/>
  <circle cx="776" cy="6552" r="25.6" stroke="#3399ff" opacity="1" stroke-width="2" fill="none"/>
  <circle cx="776" cy="6600" r="25.6" stroke="#3399ff" opacity="1" stroke-width="2" fill="none"/>
  <circle cx="776" cy="6648" r="25.6" stroke="#3399ff" opacity="1" stroke-width="2" fill="none"/>
  <circle cx="776" cy="6696" r="25.6" stroke="#3399ff" opacity="1" stroke-width="2" fill="none"/>
  <circle cx="776" cy="6744" r="25.6" stroke="#3399ff" opacity="1" stroke-width="2" fill="none"/>
  <circle cx="776" cy="6792" r="25.6" stroke="#3399ff" opacity="1" stroke-width="2" fill="none"/>
  <circle cx="776" cy="6840" r="25.6" stroke="#3399ff" opacity="1" stroke-width="2" fill="none"/>
  <circle cx="776" cy="6888" r="25.6" stroke="#3399ff" opacity="1" stroke-width="2" fill="none"/>
  <circle cx="776" cy="6936" r="25.6" stroke="#3399ff" opacity="1" stroke-width="2" fill="none"/>
  <circle cx="776" cy="6984" r="25.6" stroke="#3399ff" opacity="1" stroke-width="2" fill="none"/>
  <circle cx="776" cy="7032" r="25.6" stroke="#3399ff" opacity="1" stroke-width="2" fill="none"/>
  <circle cx="776" cy="7080" r="25.6" stroke="#3399ff" opacity="1" stroke-width="2" fill="none"/>
  <circle cx="776" cy="7128" r="25.6" stroke="#3399ff" opacity="1" stroke-width="2" fill="none"/>
  <circle cx="776" cy="7176" r="25.6" stroke="#3399ff" opacity="1" stroke-width="2" fill="none"/>
  <circle cx="776" cy="7224" r="25.6" stroke="#3399ff" opacity="1" stroke-width="2" fill="none"/>
  <circle cx="776" cy="7272" r="25.6" stroke="#3399ff" opacity="1" stroke-width="2" fill="none"/>
  <circle cx="776" cy="7320" r="25.6" stroke="#3399ff" opacity="1" stroke-width="2" fill="none"/>
  <circle cx="776" cy="7368" r="25.6" stroke="#3399ff" opacity="1" stroke-width="2" fill="none"/>
  <circle cx="776" cy="7416" r="25.6" stroke="#3399ff" opacity="1" stroke-width="2" fill="none"/>
  <circle cx="776" cy="7464" r="25.6" stroke="#3399ff" opacity="1" stroke-width="2" fill="none"/>
  <circle cx="400" cy="7976" r="416" stroke="#00ff99" opacity="1" stroke-width="2" fill="none"/>
  <circle cx="104" cy="7544" r="113.13708498985" stroke="#3399ff" opacity="1" stroke-width="2" fill="none"/>
  <circle cx="696" cy="7544" r="113.13708498985" stroke="#3399ff" opacity="1" stroke-width="2" fill="none"/>
  <circle cx="352" cy="120" r="44" stroke="#3399ff" opacity="1" stroke-width="2" fill="none"/>
  <circle cx="448" cy="120" r="44" stroke="#3399ff" opacity="1" stroke-width="2" fill="none"/>
  <circle cx="384" cy="172" r="12" stroke="#3399ff" opacity="1" stroke-width="2" fill="none"/>
  <circle cx="416" cy="172" r="12" stroke="#3399ff" opacity="1" stroke-width="2" fill="none"/>
  <circle cx="384" cy="208" r="16.8" stroke="#3399ff" opacity="1" stroke-width="2" fill="none"/>
  <circle cx="384" cy="272" r="16.8" stroke="#3399ff" opacity="1" stroke-width="2" fill="none"/>
  <circle cx="384" cy="336" r="16.8" stroke="#3399ff" opacity="1" stroke-width="2" fill="none"/>
  <circle cx="384" cy="400" r="16.8" stroke="#3399ff" opacity="1" stroke-width="2" fill="none"/>
  <circle cx="384" cy="464" r="16.8" stroke="#3399ff" opacity="1" stroke-width="2" fill="none"/>
  <circle cx="384" cy="528" r="16.8" stroke="#3399ff" opacity="1" stroke-width="2" fill="none"/>
  <circle cx="384" cy="592" r="16.8" stroke="#3399ff" opacity="1" stroke-width="2" fill="none"/>
  <circle cx="384" cy="656" r="16.8" stroke="#3399ff" opacity="1" stroke-width="2" fill="none"/>
  <circle cx="384" cy="720" r="16.8" stroke="#3399ff" opacity="1" stroke-width="2" fill="none"/>
  <circle cx="384" cy="784" r="16.8" stroke="#3399ff" opacity="1" stroke-width="2" fill="none"/>
  <circle cx="384" cy="848" r="16.8" stroke="#3399ff" opacity="1" stroke-width="2" fill="none"/>
  <circle cx="384" cy="912" r="16.8" stroke="#3399ff" opacity="1" stroke-width="2" fill="none"/>
  <circle cx="384" cy="976" r="16.8" stroke="#3399ff" opacity="1" stroke-width="2" fill="none"/>
  <circle cx="384" cy="1040" r="16.8" stroke="#3399ff" opacity="1" stroke-width="2" fill="none"/>
  <circle cx="384" cy="1104" r="16.8" stroke="#3399ff" opacity="1" stroke-width="2" fill="none"/>
  <circle cx="384" cy="1168" r="16.8" stroke="#3399ff" opacity="1" stroke-width="2" fill="none"/>
  <circle cx="384" cy="1232" r="16.8" stroke="#3399ff" opacity="1" stroke-width="2" fill="none"/>
  <circle cx="384" cy="1296" r="16.8" stroke="#3399ff" opacity="1" stroke-width="2" fill="none"/>
  <circle cx="384" cy="1360" r="16.8" stroke="#3399ff" opacity="1" stroke-width="2" fill="none"/>
  <circle cx="384" cy="1424" r="16.8" stroke="#3399ff" opacity="1" stroke-width="2" fill="none"/>
  <circle cx="384" cy="1488" r="16.8" stroke="#3399ff" opacity="1" stroke-width="2" fill="none"/>
  <circle cx="384" cy="1552" r="16.8" stroke="#3399ff" opacity="1" stroke-width="2" fill="none"/>
  <circle cx="384" cy="1616" r="16.8" stroke="#3399ff" opacity="1" stroke-width="2" fill="none"/>
  <circle cx="384" cy="1680" r="16.8" stroke="#3399ff" opacity="1" stroke-width="2" fill="none"/>
  <circle cx="384" cy="1744" r="16.8" stroke="#3399ff" opacity="1" stroke-width="2" fill="none"/>
  <circle cx="384" cy="1808" r="16.8" stroke="#3399ff" opacity="1" stroke-width="2" fill="none"/>
  <circle cx="416" cy="240" r="16.8" stroke="#3399ff" opacity="1" stroke-width="2" fill="none"/>
  <circle cx="416" cy="304" r="16.8" stroke="#3399ff" opacity="1" stroke-width="2" fill="none"/>
  <circle cx="416" cy="368" r="16.8" stroke="#3399ff" opacity="1" stroke-width="2" fill="none"/>
  <circle cx="416" cy="432" r="16.8" stroke="#3399ff" opacity="1" stroke-width="2" fill="none"/>
  <circle cx="416" cy="496" r="16.8" stroke="#3399ff" opacity="1" stroke-width="2" fill="none"/>
  <circle cx="416" cy="560" r="16.8" stroke="#3399ff" opacity="1" stroke-width="2" fill="none"/>
  <circle cx="416" cy="624" r="16.8" stroke="#3399ff" opacity="1" stroke-width="2" fill="none"/>
  <circle cx="416" cy="688" r="16.8" stroke="#3399ff" opacity="1" stroke-width="2" fill="none"/>
  <circle cx="416" cy="752" r="16.8" stroke="#3399ff" opacity="1" stroke-width="2" fill="none"/>
  <circle cx="416" cy="816" r="16.8" stroke="#3399ff" opacity="1" stroke-width="2" fill="none"/>
  <circle cx="416" cy="880" r="16.8" stroke="#3399ff" opacity="1" stroke-width="2" fill="none"/>
  <circle cx="416" cy="944" r="16.8" stroke="#3399ff" opacity="1" stroke-width="2" fill="none"/>
  <circle cx="416" cy="1008" r="16.8" stroke="#3399ff" opacity="1" stroke-width="2" fill="none"/>
  <circle cx="416" cy="1072" r="16.8" stroke="#3399ff" opacity="1" stroke-width="2" fill="none"/>
  <circle cx="416" cy="1136" r="16.8" stroke="#3399ff" opacity="1" stroke-width="2" fill="none"/>
  <circle cx="416" cy="1200" r="16.8" stroke="#3399ff" opacity="1" stroke-width="2" fill="none"/>
  <circle cx="416" cy="1264" r="16.8" stroke="#3399ff" opacity="1" stroke-width="2" fill="none"/>
  <circle cx="416" cy="1328" r="16.8" stroke="#3399ff" opacity="1" stroke-width="2" fill="none"/>
  <circle cx="416" cy="1392" r="16.8" stroke="#3399ff" opacity="1" stroke-width="2" fill="none"/>
  <circle cx="416" cy="1456" r="16.8" stroke="#3399ff" opacity="1" stroke-width="2" fill="none"/>
  <circle cx="416" cy="1520" r="16.8" stroke="#3399ff" opacity="1" stroke-width="2" fill="none"/>
  <circle cx="416" cy="1584" r="16.8" stroke="#3399ff" opacity="1" stroke-width="2" fill="none"/>
  <circle cx="416" cy="1648" r="16.8" stroke="#3399ff" opacity="1" stroke-width="2" fill="none"/>
  <circle cx="416" cy="1712" r="16.8" stroke="#3399ff" opacity="1" stroke-width="2" fill="none"/>
  <circle cx="416" cy="1776" r="16.8" stroke="#3399ff" opacity="1" stroke-width="2" fill="none"/>
  <circle cx="320" cy="1568" r="40" stroke="#3399ff" opacity="1" stroke-width="2" fill="none"/>
  <circle cx="200" cy="1712" r="16" stroke="#3399ff" opacity="1" stroke-width="2" fill="none"/>
  <circle cx="168" cy="1832" r="80" stroke="#3399ff" opacity="1" stroke-width="2" fill="none"/>
  <circle cx="508" cy="236" r="3.2" stroke="#3399ff" opacity="1" stroke-width="2" fill="none"/>
  <circle cx="688" cy="1672" r="80" stroke="#3399ff" opacity="1" stroke-width="2" fill="none"/>
  <circle cx="24" cy="2424" r="320" stroke="#3399ff" opacity="1" stroke-width="2" fill="none"/>
  <circle cx="400" cy="2976" r="200" stroke="#3399ff" opacity="1" stroke-width="2" fill="none"/>
  <circle cx="208" cy="3320" r="152" stroke="#3399ff" opacity="1" stroke-width="2" fill="none"/>
  <circle cx="336" cy="3544" r="64" stroke="#3399ff" opacity="1" stroke-width="2" fill="none"/>
  <circle cx="392" cy="3584" r="8.4" stroke="#3399ff" opacity="1" stroke-width="2" fill="none"/>
  <circle cx="24" cy="3720" r="200" stroke="#3399ff" opacity="1" stroke-width="2" fill="none"/>
  <circle cx="312" cy="4088" r="120" stroke="#3399ff" opacity="1" stroke-width="2" fill="none"/>
  <circle cx="24" cy="4096" r="120" stroke="#3399ff" opacity="1" stroke-width="2" fill="none"/>
  <circle cx="216" cy="4352" r="120" stroke="#3399ff" opacity="1" stroke-width="2" fill="none"/>
  <circle cx="524" cy="2040" r="19.2" stroke="#3399ff" opacity="1" stroke-width="2" fill="none"/>
  <circle cx="476" cy="2108" r="19.2" stroke="#3399ff" opacity="1" stroke-width="2" fill="none"/>
  <circle cx="564" cy="2088" r="19.2" stroke="#3399ff" opacity="1" stroke-width="2" fill="none"/>
  <circle cx="632" cy="2160" r="19.2" stroke="#3399ff" opacity="1" stroke-width="2" fill="none"/>
  <circle cx="536" cy="2180" r="19.2" stroke="#3399ff" opacity="1" stroke-width="2" fill="none"/>
  <circle cx="596" cy="2232" r="19.2" stroke="#3399ff" opacity="1" stroke-width="2" fill="none"/>
  <circle cx="692" cy="2280" r="19.2" stroke="#3399ff" opacity="1" stroke-width="2" fill="none"/>
  <circle cx="472" cy="2256" r="19.2" stroke="#3399ff" opacity="1" stroke-width="2" fill="none"/>
  <circle cx="512" cy="2328" r="19.2" stroke="#3399ff" opacity="1" stroke-width="2" fill="none"/>
  <circle cx="620" cy="2376" r="19.2" stroke="#3399ff" opacity="1" stroke-width="2" fill="none"/>
  <circle cx="700" cy="2360" r="19.2" stroke="#3399ff" opacity="1" stroke-width="2" fill="none"/>
  <circle cx="544" cy="2408" r="19.2" stroke="#3399ff" opacity="1" stroke-width="2" fill="none"/>
  <circle cx="452" cy="2400" r="19.2" stroke="#3399ff" opacity="1" stroke-width="2" fill="none"/>
  <circle cx="484" cy="2480" r="19.2" stroke="#3399ff" opacity="1" stroke-width="2" fill="none"/>
  <circle cx="620" cy="2480" r="19.2" stroke="#3399ff" opacity="1" stroke-width="2" fill="none"/>
  <circle cx="700" cy="2448" r="19.2" stroke="#3399ff" opacity="1" stroke-width="2" fill="none"/>
  <circle cx="712" cy="2552" r="19.2" stroke="#3399ff" opacity="1" stroke-width="2" fill="none"/>
  <circle cx="604" cy="2576" r="19.2" stroke="#3399ff" opacity="1" stroke-width="2" fill="none"/>
  <circle cx="492" cy="2580" r="19.2" stroke="#3399ff" opacity="1" stroke-width="2" fill="none"/>
  <circle cx="540" cy="2660" r="19.2" stroke="#3399ff" opacity="1" stroke-width="2" fill="none"/>
  <circle cx="660" cy="2640" r="19.2" stroke="#3399ff" opacity="1" stroke-width="2" fill="none"/>
  <circle cx="552" cy="2520" r="19.2" stroke="#3399ff" opacity="1" stroke-width="2" fill="none"/>
  <circle cx="624" cy="2716" r="19.2" stroke="#3399ff" opacity="1" stroke-width="2" fill="none"/>
  <circle cx="716" cy="2716" r="19.2" stroke="#3399ff" opacity="1" stroke-width="2" fill="none"/>
  <circle cx="672" cy="2776" r="19.2" stroke="#3399ff" opacity="1" stroke-width="2" fill="none"/>
  <circle cx="628" cy="3628" r="19.2" stroke="#3399ff" opacity="1" stroke-width="2" fill="none"/>
  <circle cx="692" cy="3700" r="19.2" stroke="#3399ff" opacity="1" stroke-width="2" fill="none"/>
  <circle cx="620" cy="3780" r="19.2" stroke="#3399ff" opacity="1" stroke-width="2" fill="none"/>
  <circle cx="704" cy="3832" r="19.2" stroke="#3399ff" opacity="1" stroke-width="2" fill="none"/>
  <circle cx="600" cy="3892" r="19.2" stroke="#3399ff" opacity="1" stroke-width="2" fill="none"/>
  <circle cx="652" cy="3952" r="19.2" stroke="#3399ff" opacity="1" stroke-width="2" fill="none"/>
  <circle cx="744" cy="3964" r="19.2" stroke="#3399ff" opacity="1" stroke-width="2" fill="none"/>
  <circle cx="660" cy="4064" r="19.2" stroke="#3399ff" opacity="1" stroke-width="2" fill="none"/>
  <circle cx="524" cy="4092" r="19.2" stroke="#3399ff" opacity="1" stroke-width="2" fill="none"/>
  <circle cx="548" cy="4016" r="19.2" stroke="#3399ff" opacity="1" stroke-width="2" fill="none"/>
  <circle cx="456" cy="3972" r="19.2" stroke="#3399ff" opacity="1" stroke-width="2" fill="none"/>
  <circle cx="528" cy="3588" r="19.2" stroke="#3399ff" opacity="1" stroke-width="2" fill="none"/>
  <circle cx="540" cy="3712" r="19.2" stroke="#3399ff" opacity="1" stroke-width="2" fill="none"/>
  <circle cx="460" cy="3652" r="19.2" stroke="#3399ff" opacity="1" stroke-width="2" fill="none"/>
  <circle cx="432" cy="3764" r="19.2" stroke="#3399ff" opacity="1" stroke-width="2" fill="none"/>
  <circle cx="504" cy="3788" r="19.2" stroke="#3399ff" opacity="1" stroke-width="2" fill="none"/>
  <circle cx="448" cy="3840" r="19.2" stroke="#3399ff" opacity="1" stroke-width="2" fill="none"/>
  <circle cx="508" cy="3904" r="19.2" stroke="#3399ff" opacity="1" stroke-width="2" fill="none"/>
  <circle cx="248" cy="7408" r="19.2" stroke="#3399ff" opacity="1" stroke-width="2" fill="none"/>
  <circle cx="248" cy="7368" r="19.2" stroke="#3399ff" opacity="1" stroke-width="2" fill="none"/>
  <circle cx="248" cy="7316" r="19.2" stroke="#3399ff" opacity="1" stroke-width="2" fill="none"/>
  <circle cx="248" cy="7248" r="19.2" stroke="#3399ff" opacity="1" stroke-width="2" fill="none"/>
  <circle cx="248" cy="7160" r="19.2" stroke="#3399ff" opacity="1" stroke-width="2" fill="none"/>
  <circle cx="248" cy="7040" r="19.2" stroke="#3399ff" opacity="1" stroke-width="2" fill="none"/>
  <circle cx="224" cy="7340" r="19.2" stroke="#3399ff" opacity="1" stroke-width="2" fill="none"/>
  <circle cx="168" cy="7344" r="19.2" stroke="#3399ff" opacity="1" stroke-width="2" fill="none"/>
  <circle cx="100" cy="7260" r="19.2" stroke="#3399ff" opacity="1" stroke-width="2" fill="none"/>
  <circle cx="168" cy="7244" r="19.2" stroke="#3399ff" opacity="1" stroke-width="2" fill="none"/>
  <circle cx="208" cy="7200" r="19.2" stroke="#3399ff" opacity="1" stroke-width="2" fill="none"/>
  <circle cx="128" cy="7200" r="19.2" stroke="#3399ff" opacity="1" stroke-width="2" fill="none"/>
  <circle cx="80" cy="7152" r="19.2" stroke="#3399ff" opacity="1" stroke-width="2" fill="none"/>
  <circle cx="60" cy="7316" r="19.2" stroke="#3399ff" opacity="1" stroke-width="2" fill="none"/>
  <circle cx="164" cy="7140" r="19.2" stroke="#3399ff" opacity="1" stroke-width="2" fill="none"/>
  <circle cx="116" cy="7076" r="19.2" stroke="#3399ff" opacity="1" stroke-width="2" fill="none"/>
  <circle cx="88" cy="6956" r="19.2" stroke="#3399ff" opacity="1" stroke-width="2" fill="none"/>
  <circle cx="136" cy="6796" r="19.2" stroke="#3399ff" opacity="1" stroke-width="2" fill="none"/>
  <circle cx="184" cy="6836" r="19.2" stroke="#3399ff" opacity="1" stroke-width="2" fill="none"/>
  <circle cx="248" cy="6800" r="19.2" stroke="#3399ff" opacity="1" stroke-width="2" fill="none"/>
  <circle cx="248" cy="6872" r="19.2" stroke="#3399ff" opacity="1" stroke-width="2" fill="none"/>
  <circle cx="248" cy="6956" r="19.2" stroke="#3399ff" opacity="1" stroke-width="2" fill="none"/>
  <circle cx="100" cy="6852" r="19.2" stroke="#3399ff" opacity="1" stroke-width="2" fill="none"/>
  <circle cx="152" cy="6912" r="19.2" stroke="#3399ff" opacity="1" stroke-width="2" fill="none"/>
  <circle cx="164" cy="6996" r="32.8" stroke="#3399ff" opacity="1" stroke-width="2" fill="none"/>
  <circle cx="344" cy="6832" r="72" stroke="#3399ff" opacity="1" stroke-width="2" fill="none"/>
  <circle cx="456" cy="6976" r="100" stroke="#3399ff" opacity="1" stroke-width="2" fill="none"/>
  <circle cx="352" cy="7144" r="43.081318457076" stroke="#3399ff" opacity="1" stroke-width="2" fill="none"/>
  <circle cx="408" cy="7444" r="68.818602136341" stroke="#3399ff" opacity="1" stroke-width="2" fill="none"/>
  <circle cx="312" cy="7368" r="32.249030993194" stroke="#3399ff" opacity="1" stroke-width="2" fill="none"/>
  <circle cx="480" cy="7276" r="56.142675390473" stroke="#3399ff" opacity="1" stroke-width="2" fill="none"/>
  <circle cx="344" cy="7260" r="53.366656256505" stroke="#3399ff" opacity="1" stroke-width="2" fill="none"/>
  <circle cx="412" cy="7200" r="24" stroke="#3399ff" opacity="1" stroke-width="2" fill="none"/>
  <circle cx="488" cy="7140" r="52.153619241621" stroke="#3399ff" opacity="1" stroke-width="2" fill="none"/>
  <path marker-end="url(#spawn)" stroke-width="0.5" stroke="red" d="M 0 0 0 1" transform="translate(400,80) scale(1 -1) rotate(-90) rotate(270)" fill="none"/>
</svg>
