<?xml version="1.0" encoding="UTF-8" standalone="no"?>
<svg xmlns="http://www.w3.org/2000/svg" viewBox="-30,-2805,160,3010" width="100%" height="100%">
  <defs>
    <marker id="spawn" markerWidth="30" markerHeight="40" refX="2" refY="15" orient="auto" viewBox="0 0 40 30">
      <path d="M -5,0 -5,20 -15,20 0,40 15,20 5,20 5,0 Z" fill="magenta" transform="translate(0,15) rotate(-90)"/>
    </marker>
  </defs>
  <polyline points="10,120 10,60 15,60 20,65 20,80 15,85 10,85 20,120" stroke="white" stroke-width="2" fill="none"/>
  <polyline points="25,120 40,60 55,120 47.5,90 32.5,90" stroke="white" stroke-width="2" fill="none"/>
  <polyline points="75,65 70,60 65,60 60,65 60,115 65,120 70,120 75,115" stroke="white" stroke-width="2" fill="none"/>
  <polyline points="95,60 80,60 80,90 90,90 80,90 80,120 95,120" stroke="white" stroke-width="2" fill="none"/>
  <polyline points="50,-1125 55,-1120 55,-980 50,-975 45,-980 45,-1120 50,-1125" stroke="white" stroke-width="2" fill="none"/>
  <polyline points="0,200 100,200 100,-950 125,-975 125,-1125 75,-1175 75,-1325 100,-1350 100,-2800" stroke="white" stroke-width="2" fill="none"/>
  <polyline points="0,-2800 0,-1350 25,-1325 25,-1175 -25,-1125 -25,-975 0,-950 0,200" stroke="white" stroke-width="2" fill="none"/>
  <circle cx="50" cy="-2700" r="100" stroke="#00ff99" opacity="1" stroke-width="2" fill="none"/>
  <circle cx="101" cy="-1679" r="5" stroke="#3399ff" opacity="1" stroke-width="2" fill="none"/>
  <circle cx="17" cy="-586" r="20" stroke="#3399ff" opacity="1" stroke-width="2" fill="none"/>
  <circle cx="89" cy="-2296" r="20" stroke="#3399ff" opacity="1" stroke-width="2" fill="none"/>
  <circle cx="65" cy="-1814" r="10" stroke="#3399ff" opacity="1" stroke-width="2" fill="none"/>
  <circle cx="108" cy="-1023" r="20" stroke="#3399ff" opacity="1" stroke-width="2" fill="none"/>
  <circle cx="33" cy="-1118" r="10" stroke="#3399ff" opacity="1" stroke-width="2" fill="none"/>
  <circle cx="49" cy="-1774" r="5" stroke="#3399ff" opacity="1" stroke-width="2" fill="none"/>
  <circle cx="17" cy="-835" r="20" stroke="#3399ff" opacity="1" stroke-width="2" fill="none"/>
  <circle cx="43" cy="-1579" r="5" stroke="#3399ff" opacity="1" stroke-width="2" fill="none"/>
  <circle cx="55" cy="-420" r="20" stroke="#3399ff" opacity="1" stroke-width="2" fill="none"/>
  <circle cx="41" cy="-2128" r="20" stroke="#3399ff" opacity="1" stroke-width="2" fill="none"/>
  <circle cx="82" cy="-2464" r="5" stroke="#3399ff" opacity="1" stroke-width="2" fill="none"/>
  <circle cx="96" cy="-522" r="20" stroke="#3399ff" opacity="1" stroke-width="2" fill="none"/>
  <circle cx="63" cy="-2352" r="7" stroke="#3399ff" opacity="1" stroke-width="2" fill="none"/>
  <circle cx="90" cy="-1409" r="7" stroke="#3399ff" opacity="1" stroke-width="2" fill="none"/>
  <circle cx="18" cy="-1457" r="20" stroke="#3399ff" opacity="1" stroke-width="2" fill="none"/>
  <circle cx="94" cy="-229" r="10" stroke="#3399ff" opacity="1" stroke-width="2" fill="none"/>
  <circle cx="66" cy="-1312" r="10" stroke="#3399ff" opacity="1" stroke-width="2" fill="none"/>
  <circle cx="105" cy="-1231" r="7" stroke="#3399ff" opacity="1" stroke-width="2" fill="none"/>
  <circle cx="41" cy="-2033" r="5" stroke="#3399ff" opacity="1" stroke-width="2" fill="none"/>
  <circle cx="26" cy="-341" r="20" stroke="#3399ff" opacity="1" stroke-width="2" fill="none"/>
  <circle cx="19" cy="-127" r="20" stroke="#3399ff" opacity="1" stroke-width="2" fill="none"/>
  <circle cx="26" cy="-2427" r="7" stroke="#3399ff" opacity="1" stroke-width="2" fill="none"/>
  <circle cx="82" cy="-807" r="10" stroke="#3399ff" opacity="1" stroke-width="2" fill="none"/>
  <circle cx="11" cy="-2316" r="5" stroke="#3399ff" opacity="1" stroke-width="2" fill="none"/>
  <circle cx="76" cy="-1476" r="7" stroke="#3399ff" opacity="1" stroke-width="2" fill="none"/>
  <circle cx="95" cy="-1869" r="5" stroke="#3399ff" opacity="1" stroke-width="2" fill="none"/>
  <circle cx="90" cy="-608" r="7" stroke="#3399ff" opacity="1" stroke-width="2" fill="none"/>
  <circle cx="32" cy="-988" r="5" stroke="#3399ff" opacity="1" stroke-width="2" fill="none"/>
  <circle cx="35" cy="-1062" r="10" stroke="#3399ff" opacity="1" stroke-width="2" fill="none"/>
  <circle cx="-24" cy="-1229" r="7" stroke="#3399ff" opacity="1" stroke-width="2" fill="none"/>
  <circle cx="116" cy="-1124" r="20" stroke="#3399ff" opacity="1" stroke-width="2" fill="none"/>
  <circle cx="71" cy="-1999" r="5" stroke="#3399ff" opacity="1" stroke-width="2" fill="none"/>
  <circle cx="69" cy="-1936" r="20" stroke="#3399ff" opacity="1" stroke-width="2" fill="none"/>
  <circle cx="97" cy="-884" r="20" stroke="#3399ff" opacity="1" stroke-width="2" fill="none"/>
  <circle cx="5" cy="-686" r="5" stroke="#3399ff" opacity="1" stroke-width="2" fill="none"/>
  <circle cx="65" cy="-743" r="7" stroke="#3399ff" opacity="1" stroke-width="2" fill="none"/>
  <circle cx="83" cy="-684" r="20" stroke="#3399ff" opacity="1" stroke-width="2" fill="none"/>
  <circle cx="0" cy="-522" r="10" stroke="#3399ff" opacity="1" stroke-width="2" fill="none"/>
  <circle cx="4" cy="-1885" r="10" stroke="#3399ff" opacity="1" stroke-width="2" fill="none"/>
  <circle cx="12" cy="-1693" r="5" stroke="#3399ff" opacity="1" stroke-width="2" fill="none"/>
  <circle cx="26" cy="-242" r="7" stroke="#3399ff" opacity="1" stroke-width="2" fill="none"/>
  <circle cx="-9" cy="-1047" r="5" stroke="#3399ff" opacity="1" stroke-width="2" fill="none"/>
  <circle cx="25" cy="-1348" r="5" stroke="#3399ff" opacity="1" stroke-width="2" fill="none"/>
  <circle cx="-20" cy="-1308" r="10" stroke="#3399ff" opacity="1" stroke-width="2" fill="none"/>
  <circle cx="2" cy="-1542" r="10" stroke="#3399ff" opacity="1" stroke-width="2" fill="none"/>
  <circle cx="45" cy="-1204" r="20" stroke="#3399ff" opacity="1" stroke-width="2" fill="none"/>
  <circle cx="52" cy="-1637" r="7" stroke="#3399ff" opacity="1" stroke-width="2" fill="none"/>
  <circle cx="0" cy="-1593" r="7" stroke="#3399ff" opacity="1" stroke-width="2" fill="none"/>
  <circle cx="-13" cy="-970" r="5" stroke="#3399ff" opacity="1" stroke-width="2" fill="none"/>
  <circle cx="91" cy="-1527" r="7" stroke="#3399ff" opacity="1" stroke-width="2" fill="none"/>
  <circle cx="38" cy="-2233" r="20" stroke="#3399ff" opacity="1" stroke-width="2" fill="none"/>
  <circle cx="96" cy="-1745" r="5" stroke="#3399ff" opacity="1" stroke-width="2" fill="none"/>
  <circle cx="5" cy="-2080" r="10" stroke="#3399ff" opacity="1" stroke-width="2" fill="none"/>
  <circle cx="1" cy="-1981" r="5" stroke="#3399ff" opacity="1" stroke-width="2" fill="none"/>
  <circle cx="96" cy="-2049" r="5" stroke="#3399ff" opacity="1" stroke-width="2" fill="none"/>
  <circle cx="77" cy="-192" r="7" stroke="#3399ff" opacity="1" stroke-width="2" fill="none"/>
  <circle cx="28" cy="-1731" r="7" stroke="#3399ff" opacity="1" stroke-width="2" fill="none"/>
  <circle cx="99" cy="-104" r="20" stroke="#3399ff" opacity="1" stroke-width="2" fill="none"/>
  <circle cx="64" cy="-1358" r="7" stroke="#3399ff" opacity="1" stroke-width="2" fill="none"/>
  <circle cx="39" cy="-1269" r="5" stroke="#3399ff" opacity="1" stroke-width="2" fill="none"/>
  <circle cx="35" cy="-913" r="7" stroke="#3399ff" opacity="1" stroke-width="2" fill="none"/>
  <circle cx="7" cy="-1939" r="7" stroke="#3399ff" opacity="1" stroke-width="2" fill="none"/>
  <circle cx="66" cy="-2412" r="7" stroke="#3399ff" opacity="1" stroke-width="2" fill="none"/>
  <circle cx="104" cy="-1325" r="5" stroke="#3399ff" opacity="1" stroke-width="2" fill="none"/>
  <circle cx="56" cy="-284" r="7" stroke="#3399ff" opacity="1" stroke-width="2" fill="none"/>
  <circle cx="100" cy="-2220" r="5" stroke="#3399ff" opacity="1" stroke-width="2" fill="none"/>
  <circle cx="37" cy="-2468" r="7" stroke="#3399ff" opacity="1" stroke-width="2" fill="none"/>
  <circle cx="88" cy="-345" r="7" stroke="#3399ff" opacity="1" stroke-width="2" fill="none"/>
  <circle cx="19" cy="-754" r="7" stroke="#3399ff" opacity="1" stroke-width="2" fill="none"/>
  <circle cx="72" cy="-2183" r="7" stroke="#3399ff" opacity="1" stroke-width="2" fill="none"/>
  <path marker-end="url(#spawn)" stroke-width="0.5" stroke="red" d="M 0 0 0 1" transform="translate(45,50) scale(1 -1) rotate(-90) rotate(90)" fill="none"/>
  <path marker-end="url(#spawn)" stroke-width="0.5" stroke="red" d="M 0 0 0 1" transform="translate(35,50) scale(1 -1) rotate(-90) rotate(90)" fill="none"/>
  <path marker-end="url(#spawn)" stroke-width="0.5" stroke="red" d="M 0 0 0 1" transform="translate(55,50) scale(1 -1) rotate(-90) rotate(90)" fill="none"/>
  <path marker-end="url(#spawn)" stroke-width="0.5" stroke="red" d="M 0 0 0 1" transform="translate(25,50) scale(1 -1) rotate(-90) rotate(90)" fill="none"/>
  <path marker-end="url(#spawn)" stroke-width="0.5" stroke="red" d="M 0 0 0 1" transform="translate(65,50) scale(1 -1) rotate(-90) rotate(90)" fill="none"/>
  <path marker-end="url(#spawn)" stroke-width="0.5" stroke="red" d="M 0 0 0 1" transform="translate(15,50) scale(1 -1) rotate(-90) rotate(90)" fill="none"/>
  <path marker-end="url(#spawn)" stroke-width="0.5" stroke="red" d="M 0 0 0 1" transform="translate(75,50) scale(1 -1) rotate(-90) rotate(90)" fill="none"/>
  <path marker-end="url(#spawn)" stroke-width="0.5" stroke="red" d="M 0 0 0 1" transform="translate(5,50) scale(1 -1) rotate(-90) rotate(90)" fill="none"/>
  <path marker-end="url(#spawn)" stroke-width="0.5" stroke="red" d="M 0 0 0 1" transform="translate(85,50) scale(1 -1) rotate(-90) rotate(90)" fill="none"/>
</svg>
