<?xml version="1.0" encoding="UTF-8" standalone="no"?>
<svg xmlns="http://www.w3.org/2000/svg" viewBox="-30,-2805,160,3010" width="100%" height="100%">
  <defs>
    <marker id="spawn" markerWidth="30" markerHeight="40" refX="2" refY="15" orient="auto" viewBox="0 0 40 30">
      <path d="M -5,0 -5,20 -15,20 0,40 15,20 5,20 5,0 Z" fill="magenta" transform="translate(0,15) rotate(-90)"/>
    </marker>
  </defs>
  <polyline points="10,120 10,60 15,60 20,65 20,80 15,85 10,85 20,120" stroke="white" stroke-width="2" fill="none"/>
  <polyline points="25,120 40,60 55,120 47.5,90 32.5,90" stroke="white" stroke-width="2" fill="none"/>
  <polyline points="75,65 70,60 65,60 60,65 60,115 65,120 70,120 75,115" stroke="white" stroke-width="2" fill="none"/>
  <polyline points="95,60 80,60 80,90 90,90 80,90 80,120 95,120" stroke="white" stroke-width="2" fill="none"/>
  <polyline points="50,-1125 55,-1120 55,-980 50,-975 45,-980 45,-1120 50,-1125" stroke="white" stroke-width="2" fill="none"/>
  <polyline points="0,200 100,200 100,-950 125,-975 125,-1125 75,-1175 75,-1325 100,-1350 100,-2800" stroke="white" stroke-width="2" fill="none"/>
  <polyline points="0,-2800 0,-1350 25,-1325 25,-1175 -25,-1125 -25,-975 0,-950 0,200" stroke="white" stroke-width="2" fill="none"/>
  <circle cx="50" cy="-2700" r="100" stroke="#00ff99" opacity="1" stroke-width="2" fill="none"/>
  <circle cx="67" cy="-845" r="10" stroke="#3399ff" opacity="1" stroke-width="2" fill="none"/>
  <circle cx="80" cy="-276" r="7" stroke="#3399ff" opacity="1" stroke-width="2" fill="none"/>
  <circle cx="13" cy="-310" r="20" stroke="#3399ff" opacity="1" stroke-width="2" fill="none"/>
  <circle cx="65" cy="-610" r="5" stroke="#3399ff" opacity="1" stroke-width="2" fill="none"/>
  <circle cx="39" cy="-2236" r="7" stroke="#3399ff" opacity="1" stroke-width="2" fill="none"/>
  <circle cx="57" cy="-1000" r="5" stroke="#3399ff" opacity="1" stroke-width="2" fill="none"/>
  <circle cx="65" cy="-899" r="7" stroke="#3399ff" opacity="1" stroke-width="2" fill="none"/>
  <circle cx="56" cy="-488" r="10" stroke="#3399ff" opacity="1" stroke-width="2" fill="none"/>
  <circle cx="49" cy="-2475" r="10" stroke="#3399ff" opacity="1" stroke-width="2" fill="none"/>
  <circle cx="97" cy="-2299" r="7" stroke="#3399ff" opacity="1" stroke-width="2" fill="none"/>
  <circle cx="59" cy="-1749" r="5" stroke="#3399ff" opacity="1" stroke-width="2" fill="none"/>
  <circle cx="13" cy="-1087" r="10" stroke="#3399ff" opacity="1" stroke-width="2" fill="none"/>
  <circle cx="4" cy="-545" r="5" stroke="#3399ff" opacity="1" stroke-width="2" fill="none"/>
  <circle cx="54" cy="-726" r="7" stroke="#3399ff" opacity="1" stroke-width="2" fill="none"/>
  <circle cx="56" cy="-1652" r="5" stroke="#3399ff" opacity="1" stroke-width="2" fill="none"/>
  <circle cx="6" cy="-717" r="10" stroke="#3399ff" opacity="1" stroke-width="2" fill="none"/>
  <circle cx="94" cy="-428" r="7" stroke="#3399ff" opacity="1" stroke-width="2" fill="none"/>
  <circle cx="72" cy="-179" r="7" stroke="#3399ff" opacity="1" stroke-width="2" fill="none"/>
  <circle cx="112" cy="-1211" r="10" stroke="#3399ff" opacity="1" stroke-width="2" fill="none"/>
  <circle cx="73" cy="-2406" r="7" stroke="#3399ff" opacity="1" stroke-width="2" fill="none"/>
  <circle cx="61" cy="-2001" r="20" stroke="#3399ff" opacity="1" stroke-width="2" fill="none"/>
  <circle cx="56" cy="-1204" r="10" stroke="#3399ff" opacity="1" stroke-width="2" fill="none"/>
  <circle cx="10" cy="-1548" r="20" stroke="#3399ff" opacity="1" stroke-width="2" fill="none"/>
  <circle cx="101" cy="-822" r="7" stroke="#3399ff" opacity="1" stroke-width="2" fill="none"/>
  <circle cx="4" cy="-1776" r="10" stroke="#3399ff" opacity="1" stroke-width="2" fill="none"/>
  <circle cx="88" cy="-345" r="5" stroke="#3399ff" opacity="1" stroke-width="2" fill="none"/>
  <circle cx="64" cy="-385" r="10" stroke="#3399ff" opacity="1" stroke-width="2" fill="none"/>
  <circle cx="2" cy="-2290" r="10" stroke="#3399ff" opacity="1" stroke-width="2" fill="none"/>
  <circle cx="44" cy="-247" r="10" stroke="#3399ff" opacity="1" stroke-width="2" fill="none"/>
  <circle cx="55" cy="-2347" r="20" stroke="#3399ff" opacity="1" stroke-width="2" fill="none"/>
  <circle cx="89" cy="-1713" r="7" stroke="#3399ff" opacity="1" stroke-width="2" fill="none"/>
  <circle cx="53" cy="-2169" r="20" stroke="#3399ff" opacity="1" stroke-width="2" fill="none"/>
  <circle cx="109" cy="-1101" r="7" stroke="#3399ff" opacity="1" stroke-width="2" fill="none"/>
  <circle cx="33" cy="-2061" r="10" stroke="#3399ff" opacity="1" stroke-width="2" fill="none"/>
  <circle cx="23" cy="-1292" r="5" stroke="#3399ff" opacity="1" stroke-width="2" fill="none"/>
  <circle cx="-18" cy="-962" r="20" stroke="#3399ff" opacity="1" stroke-width="2" fill="none"/>
  <circle cx="45" cy="-132" r="5" stroke="#3399ff" opacity="1" stroke-width="2" fill="none"/>
  <circle cx="74" cy="-538" r="5" stroke="#3399ff" opacity="1" stroke-width="2" fill="none"/>
  <circle cx="44" cy="-1373" r="20" stroke="#3399ff" opacity="1" stroke-width="2" fill="none"/>
  <circle cx="127" cy="-1322" r="20" stroke="#3399ff" opacity="1" stroke-width="2" fill="none"/>
  <circle cx="79" cy="-1807" r="20" stroke="#3399ff" opacity="1" stroke-width="2" fill="none"/>
  <circle cx="37" cy="-808" r="5" stroke="#3399ff" opacity="1" stroke-width="2" fill="none"/>
  <circle cx="-20" cy="-1054" r="7" stroke="#3399ff" opacity="1" stroke-width="2" fill="none"/>
  <circle cx="89" cy="-2485" r="5" stroke="#3399ff" opacity="1" stroke-width="2" fill="none"/>
  <circle cx="99" cy="-751" r="7" stroke="#3399ff" opacity="1" stroke-width="2" fill="none"/>
  <circle cx="0" cy="-2426" r="7" stroke="#3399ff" opacity="1" stroke-width="2" fill="none"/>
  <circle cx="85" cy="-1915" r="5" stroke="#3399ff" opacity="1" stroke-width="2" fill="none"/>
  <circle cx="-9" cy="-1130" r="5" stroke="#3399ff" opacity="1" stroke-width="2" fill="none"/>
  <circle cx="-24" cy="-1223" r="20" stroke="#3399ff" opacity="1" stroke-width="2" fill="none"/>
  <circle cx="98" cy="-2057" r="10" stroke="#3399ff" opacity="1" stroke-width="2" fill="none"/>
  <circle cx="121" cy="-1013" r="20" stroke="#3399ff" opacity="1" stroke-width="2" fill="none"/>
  <circle cx="26" cy="-435" r="7" stroke="#3399ff" opacity="1" stroke-width="2" fill="none"/>
  <circle cx="27" cy="-1485" r="10" stroke="#3399ff" opacity="1" stroke-width="2" fill="none"/>
  <circle cx="79" cy="-1440" r="5" stroke="#3399ff" opacity="1" stroke-width="2" fill="none"/>
  <circle cx="3" cy="-1875" r="20" stroke="#3399ff" opacity="1" stroke-width="2" fill="none"/>
  <circle cx="37" cy="-647" r="10" stroke="#3399ff" opacity="1" stroke-width="2" fill="none"/>
  <circle cx="40" cy="-1137" r="7" stroke="#3399ff" opacity="1" stroke-width="2" fill="none"/>
  <path marker-end="url(#spawn)" stroke-width="0.5" stroke="red" d="M 0 0 0 1" transform="translate(45,50) scale(1 -1) rotate(-90) rotate(90)" fill="none"/>
  <path marker-end="url(#spawn)" stroke-width="0.5" stroke="red" d="M 0 0 0 1" transform="translate(35,50) scale(1 -1) rotate(-90) rotate(90)" fill="none"/>
  <path marker-end="url(#spawn)" stroke-width="0.5" stroke="red" d="M 0 0 0 1" transform="translate(55,50) scale(1 -1) rotate(-90) rotate(90)" fill="none"/>
  <path marker-end="url(#spawn)" stroke-width="0.5" stroke="red" d="M 0 0 0 1" transform="translate(25,50) scale(1 -1) rotate(-90) rotate(90)" fill="none"/>
  <path marker-end="url(#spawn)" stroke-width="0.5" stroke="red" d="M 0 0 0 1" transform="translate(65,50) scale(1 -1) rotate(-90) rotate(90)" fill="none"/>
  <path marker-end="url(#spawn)" stroke-width="0.5" stroke="red" d="M 0 0 0 1" transform="translate(15,50) scale(1 -1) rotate(-90) rotate(90)" fill="none"/>
  <path marker-end="url(#spawn)" stroke-width="0.5" stroke="red" d="M 0 0 0 1" transform="translate(75,50) scale(1 -1) rotate(-90) rotate(90)" fill="none"/>
  <path marker-end="url(#spawn)" stroke-width="0.5" stroke="red" d="M 0 0 0 1" transform="translate(5,50) scale(1 -1) rotate(-90) rotate(90)" fill="none"/>
  <path marker-end="url(#spawn)" stroke-width="0.5" stroke="red" d="M 0 0 0 1" transform="translate(85,50) scale(1 -1) rotate(-90) rotate(90)" fill="none"/>
</svg>
