<?xml version="1.0" encoding="UTF-8" standalone="no"?>
<svg xmlns="http://www.w3.org/2000/svg" viewBox="91,539,554,570" width="100%" height="100%">
  <defs>
    <marker id="spawn" markerWidth="30" markerHeight="40" refX="2" refY="15" orient="auto" viewBox="0 0 40 30">
      <path d="M -5,0 -5,20 -15,20 0,40 15,20 5,20 5,0 Z" fill="magenta" transform="translate(0,15) rotate(-90)"/>
    </marker>
  </defs>
  <polyline points="240,848 144,848 144,784 240,784" stroke="white" stroke-width="2" fill="none"/>
  <polyline points="272,800 272,784 256,768 208,768 192,752" stroke="white" stroke-width="2" fill="none"/>
  <polyline points="192,784 176,768 176,736 208,736 224,752 272,752 288,768" stroke="white" stroke-width="2" fill="none"/>
  <polyline points="272,800 256,816 272,832 272,848 256,864 208,864 192,880" stroke="white" stroke-width="2" fill="none"/>
  <polyline points="192,848 176,864 176,896 208,896 224,880 272,880 288,864" stroke="white" stroke-width="2" fill="none"/>
  <polyline points="272,848 304,848 304,880 288,896 256,896 240,912 240,944" stroke="white" stroke-width="2" fill="none"/>
  <polyline points="272,784 304,784 304,752 288,736 256,736 240,720 240,688" stroke="white" stroke-width="2" fill="none"/>
  <polyline points="224,880 224,960 240,976 256,960 256,912 288,912" stroke="white" stroke-width="2" fill="none"/>
  <polyline points="224,752 224,672 240,656 256,672 256,720 288,720" stroke="white" stroke-width="2" fill="none"/>
  <polyline points="288,736 304,720 304,672 240,608" stroke="white" stroke-width="2" fill="none"/>
  <polyline points="288,720 288,672 256,640" stroke="white" stroke-width="2" fill="none"/>
  <polyline points="240,608 240,640 272,672 272,704" stroke="white" stroke-width="2" fill="none"/>
  <polyline points="288,896 304,912 304,976 240,1040 240,1008 272,976 272,928" stroke="white" stroke-width="2" fill="none"/>
  <polyline points="288,912 288,976 256,1008" stroke="white" stroke-width="2" fill="none"/>
  <polyline points="224,672 224,576 320,672 320,736 304,736" stroke="white" stroke-width="2" fill="none"/>
  <polyline points="224,960 224,1072 320,976 320,896 304,896" stroke="white" stroke-width="2" fill="none"/>
  <polyline points="304,848 336,880 336,976 224,1088 208,1072 208,912" stroke="white" stroke-width="2" fill="none"/>
  <polyline points="304,784 336,752 336,672 224,560 208,576 208,720" stroke="white" stroke-width="2" fill="none"/>
  <polyline points="208,704 176,704 144,736 144,768 112,800" stroke="white" stroke-width="2" fill="none"/>
  <polyline points="208,928 176,928 144,896 144,864 112,832" stroke="white" stroke-width="2" fill="none"/>
  <polyline points="192,912 176,912 160,896 160,848" stroke="white" stroke-width="2" fill="none"/>
  <polyline points="192,720 176,720 160,736 160,784" stroke="white" stroke-width="2" fill="none"/>
  <polyline points="96,816 96,784 128,752 128,736 192,672 192,576 224,544 352,672 352,752 384,784 624,784" stroke="white" stroke-width="2" fill="none"/>
  <polyline points="336,752 384,800 608,800" stroke="white" stroke-width="2" fill="none"/>
  <polyline points="96,816 96,848 128,880 128,896 192,960 192,1072 224,1104 352,976 352,880 384,848 624,848" stroke="white" stroke-width="2" fill="none"/>
  <polyline points="336,880 384,832 608,832" stroke="white" stroke-width="2" fill="none"/>
  <polyline points="304,816 336,784 368,816 336,848 304,816" stroke="white" stroke-width="2" fill="none"/>
  <polyline points="624,784 640,800 640,832 624,848" stroke="white" stroke-width="2" fill="none"/>
  <circle cx="192" cy="880" r="10" stroke="#3399ff" opacity="1" stroke-width="2" fill="none"/>
  <circle cx="192" cy="752" r="10" stroke="#3399ff" opacity="1" stroke-width="2" fill="none"/>
  <circle cx="288" cy="768" r="10" stroke="#3399ff" opacity="1" stroke-width="2" fill="none"/>
  <circle cx="288" cy="864" r="10" stroke="#3399ff" opacity="1" stroke-width="2" fill="none"/>
  <circle cx="240" cy="944" r="10" stroke="#3399ff" opacity="1" stroke-width="2" fill="none"/>
  <circle cx="240" cy="688" r="10" stroke="#3399ff" opacity="1" stroke-width="2" fill="none"/>
  <circle cx="272" cy="816" r="10" stroke="#33ff33" opacity="1" stroke-width="2" fill="none"/>
  <circle cx="272" cy="704" r="10" stroke="#3399ff" opacity="1" stroke-width="2" fill="none"/>
  <circle cx="256" cy="640" r="10" stroke="#3399ff" opacity="1" stroke-width="2" fill="none"/>
  <circle cx="240" cy="784" r="10" stroke="#3399ff" opacity="1" stroke-width="2" fill="none"/>
  <circle cx="240" cy="848" r="10" stroke="#3399ff" opacity="1" stroke-width="2" fill="none"/>
  <circle cx="256" cy="1008" r="10" stroke="#3399ff" opacity="1" stroke-width="2" fill="none"/>
  <circle cx="320" cy="896" r="10" stroke="#3399ff" opacity="1" stroke-width="2" fill="none"/>
  <circle cx="320" cy="736" r="10" stroke="#3399ff" opacity="1" stroke-width="2" fill="none"/>
  <circle cx="208" cy="912" r="10" stroke="#3399ff" opacity="1" stroke-width="2" fill="none"/>
  <circle cx="208" cy="720" r="10" stroke="#3399ff" opacity="1" stroke-width="2" fill="none"/>
  <circle cx="336" cy="816" r="36" stroke="#3399ff" opacity="1" stroke-width="2" fill="none"/>
  <circle cx="112" cy="800" r="10" stroke="#3399ff" opacity="1" stroke-width="2" fill="none"/>
  <circle cx="112" cy="832" r="10" stroke="#3399ff" opacity="1" stroke-width="2" fill="none"/>
  <circle cx="608" cy="832" r="10" stroke="#3399ff" opacity="1" stroke-width="2" fill="none"/>
  <circle cx="608" cy="800" r="10" stroke="#3399ff" opacity="1" stroke-width="2" fill="none"/>
  <path marker-end="url(#spawn)" stroke-width="0.5" stroke="red" d="M 0 0 0 1" transform="translate(160,816) scale(1 -1) rotate(-90) matrix(1,0,0,1,0,0)" fill="none"/>
</svg>
