<?xml version="1.0" encoding="UTF-8" standalone="no"?>
<svg xmlns="http://www.w3.org/2000/svg" viewBox="107,187,426,442" width="100%" height="100%">
  <defs>
    <marker id="spawn" markerWidth="30" markerHeight="40" refX="2" refY="15" orient="auto" viewBox="0 0 40 30">
      <path d="M -5,0 -5,20 -15,20 0,40 15,20 5,20 5,0 Z" fill="magenta" transform="translate(0,15) rotate(-90)"/>
    </marker>
  </defs>
  <polyline points="416,368 320,368 320,400 448,400 448,368 432,368 432,400" stroke="white" stroke-width="2" fill="none"/>
  <polyline points="416,368 416,352 432,336 448,336 464,352 464,416 448,432 432,432 416,416" stroke="white" stroke-width="2" fill="none"/>
  <polyline points="416,416 352,416 320,448" stroke="white" stroke-width="2" fill="none"/>
  <polyline points="352,400 336,416 320,400 304,384 240,384" stroke="white" stroke-width="2" fill="none"/>
  <polyline points="320,448 304,448 304,432 320,416 304,400 256,400 240,416 208,416 192,400 192,368 208,352 240,352 256,368" stroke="white" stroke-width="2" fill="none"/>
  <polyline points="256,368 304,368" stroke="white" stroke-width="2" fill="none"/>
  <polyline points="336,368 352,352 352,320 320,288 288,288 256,320 256,352" stroke="white" stroke-width="2" fill="none"/>
  <polyline points="240,352 240,240 272,208 336,208 368,240 368,336 384,352" stroke="white" stroke-width="2" fill="none"/>
  <polyline points="272,304 256,288 256,272" stroke="white" stroke-width="2" fill="none"/>
  <polyline points="336,304 352,288 352,272" stroke="white" stroke-width="2" fill="none"/>
  <polyline points="272,272 256,256 256,224" stroke="white" stroke-width="2" fill="none"/>
  <polyline points="352,224 352,256 336,272" stroke="white" stroke-width="2" fill="none"/>
  <polyline points="416,352 400,336 400,320 432,288" stroke="white" stroke-width="2" fill="none"/>
  <polyline points="384,352 384,304 432,256 464,256 464,288 416,336" stroke="white" stroke-width="2" fill="none"/>
  <polyline points="448,336 480,304 480,240 416,240 384,272" stroke="white" stroke-width="2" fill="none"/>
  <polyline points="336,208 352,192 416,192 432,208 432,224" stroke="white" stroke-width="2" fill="none"/>
  <polyline points="368,224 352,208 416,208 400,224 368,224" stroke="white" stroke-width="2" fill="none"/>
  <polyline points="432,208 400,240" stroke="white" stroke-width="2" fill="none"/>
  <polyline points="448,240 448,208" stroke="white" stroke-width="2" fill="none"/>
  <polyline points="416,192 480,192 480,208" stroke="white" stroke-width="2" fill="none"/>
  <polyline points="464,240 464,224" stroke="white" stroke-width="2" fill="none"/>
  <polyline points="480,240 496,224" stroke="white" stroke-width="2" fill="none"/>
  <polyline points="480,192 512,224 512,320 496,336" stroke="white" stroke-width="2" fill="none"/>
  <polyline points="480,320 496,304 496,256 512,240" stroke="white" stroke-width="2" fill="none"/>
  <polyline points="464,352 496,320" stroke="white" stroke-width="2" fill="none"/>
  <polyline points="480,336 496,352 496,400" stroke="white" stroke-width="2" fill="none"/>
  <polyline points="496,336 512,352 512,416 496,432 480,416 480,368" stroke="white" stroke-width="2" fill="none"/>
  <polyline points="496,432 480,448 400,448 384,432" stroke="white" stroke-width="2" fill="none"/>
  <polyline points="368,416 352,432 368,448 352,464 336,464" stroke="white" stroke-width="2" fill="none"/>
  <polyline points="400,448 368,480 320,480 320,464 336,448" stroke="white" stroke-width="2" fill="none"/>
  <polyline points="320,480 256,480 256,448 288,416" stroke="white" stroke-width="2" fill="none"/>
  <polyline points="320,448 304,464 288,464 288,448 304,432" stroke="white" stroke-width="2" fill="none"/>
  <polyline points="192,400 160,400 112,448 112,512 160,560 224,560 288,496" stroke="white" stroke-width="2" fill="none"/>
  <polyline points="272,512 272,576 320,624 384,624 432,576 432,512 400,480" stroke="white" stroke-width="2" fill="none"/>
  <polyline points="400,448 448,496 496,496" stroke="white" stroke-width="2" fill="none"/>
  <polyline points="496,496 496,480 432,480" stroke="white" stroke-width="2" fill="none"/>
  <polyline points="432,512 512,512 528,496 528,480 512,464 448,464" stroke="white" stroke-width="2" fill="none"/>
  <polyline points="480,464 528,416 528,336 512,320" stroke="white" stroke-width="2" fill="none"/>
  <circle cx="432" cy="368" r="10" stroke="#3399ff" opacity="1" stroke-width="2" fill="none"/>
  <circle cx="448" cy="368" r="10" stroke="#3399ff" opacity="1" stroke-width="2" fill="none"/>
  <circle cx="448" cy="400" r="10" stroke="#3399ff" opacity="1" stroke-width="2" fill="none"/>
  <circle cx="432" cy="400" r="10" stroke="#3399ff" opacity="1" stroke-width="2" fill="none"/>
  <circle cx="336" cy="416" r="10" stroke="#3399ff" opacity="1" stroke-width="2" fill="none"/>
  <circle cx="320" cy="432" r="10" stroke="#3399ff" opacity="1" stroke-width="2" fill="none"/>
  <circle cx="224" cy="384" r="16" stroke="#3399ff" opacity="1" stroke-width="2" fill="none"/>
  <circle cx="304" cy="336" r="32" stroke="#3399ff" opacity="1" stroke-width="2" fill="none"/>
  <circle cx="256" cy="352" r="8" stroke="#3399ff" opacity="1" stroke-width="2" fill="none"/>
  <circle cx="304" cy="256" r="32" stroke="#3399ff" opacity="1" stroke-width="2" fill="none"/>
  <circle cx="384" cy="352" r="10" stroke="#3399ff" opacity="1" stroke-width="2" fill="none"/>
  <circle cx="256" cy="272" r="8" stroke="#3399ff" opacity="1" stroke-width="2" fill="none"/>
  <circle cx="352" cy="272" r="8" stroke="#3399ff" opacity="1" stroke-width="2" fill="none"/>
  <circle cx="432" cy="288" r="16" stroke="#3399ff" opacity="1" stroke-width="2" fill="none"/>
  <circle cx="416" cy="336" r="10" stroke="#3399ff" opacity="1" stroke-width="2" fill="none"/>
  <circle cx="464" cy="256" r="10" stroke="#3399ff" opacity="1" stroke-width="2" fill="none"/>
  <circle cx="384" cy="272" r="10" stroke="#3399ff" opacity="1" stroke-width="2" fill="none"/>
  <circle cx="384" cy="256" r="10" stroke="#3399ff" opacity="1" stroke-width="2" fill="none"/>
  <circle cx="384" cy="240" r="10" stroke="#3399ff" opacity="1" stroke-width="2" fill="none"/>
  <circle cx="384" cy="224" r="10" stroke="#3399ff" opacity="1" stroke-width="2" fill="none"/>
  <circle cx="384" cy="208" r="10" stroke="#3399ff" opacity="1" stroke-width="2" fill="none"/>
  <circle cx="432" cy="224" r="8" stroke="#3399ff" opacity="1" stroke-width="2" fill="none"/>
  <circle cx="352" cy="192" r="10" stroke="#3399ff" opacity="1" stroke-width="2" fill="none"/>
  <circle cx="416" cy="192" r="10" stroke="#3399ff" opacity="1" stroke-width="2" fill="none"/>
  <circle cx="448" cy="208" r="8" stroke="#3399ff" opacity="1" stroke-width="2" fill="none"/>
  <circle cx="464" cy="224" r="8" stroke="#3399ff" opacity="1" stroke-width="2" fill="none"/>
  <circle cx="480" cy="208" r="8" stroke="#3399ff" opacity="1" stroke-width="2" fill="none"/>
  <circle cx="496" cy="224" r="8" stroke="#3399ff" opacity="1" stroke-width="2" fill="none"/>
  <circle cx="480" cy="368" r="10" stroke="#3399ff" opacity="1" stroke-width="2" fill="none"/>
  <circle cx="496" cy="400" r="10" stroke="#3399ff" opacity="1" stroke-width="2" fill="none"/>
  <circle cx="384" cy="432" r="8" stroke="#3399ff" opacity="1" stroke-width="2" fill="none"/>
  <circle cx="464" cy="432" r="10" stroke="#3399ff" opacity="1" stroke-width="2" fill="none"/>
  <circle cx="416" cy="432" r="10" stroke="#3399ff" opacity="1" stroke-width="2" fill="none"/>
  <circle cx="368" cy="448" r="8" stroke="#3399ff" opacity="1" stroke-width="2" fill="none"/>
  <circle cx="336" cy="448" r="8" stroke="#3399ff" opacity="1" stroke-width="2" fill="none"/>
  <circle cx="288" cy="464" r="10" stroke="#3399ff" opacity="1" stroke-width="2" fill="none"/>
  <circle cx="192" cy="480" r="64" stroke="#3399ff" opacity="1" stroke-width="2" fill="none"/>
  <circle cx="352" cy="544" r="64" stroke="#3399ff" opacity="1" stroke-width="2" fill="none"/>
  <circle cx="400" cy="480" r="10" stroke="#3399ff" opacity="1" stroke-width="2" fill="none"/>
  <circle cx="288" cy="496" r="10" stroke="#3399ff" opacity="1" stroke-width="2" fill="none"/>
  <circle cx="512" cy="336" r="10" stroke="#33ff33" opacity="1" stroke-width="2" fill="none"/>
  <circle cx="448" cy="464" r="10" stroke="#3399ff" opacity="1" stroke-width="2" fill="none"/>
  <circle cx="496" cy="488" r="18" stroke="#3399ff" opacity="1" stroke-width="2" fill="none"/>
  <path marker-end="url(#spawn)" stroke-width="0.5" stroke="red" d="M 0 0 0 1" transform="translate(336,384) scale(1 -1) rotate(-90) matrix(1,0,0,1,0,0)" fill="none"/>
</svg>
