<?xml version="1.0" encoding="UTF-8" standalone="no"?>
<svg xmlns="http://www.w3.org/2000/svg" viewBox="-5,-549,186,554" width="100%" height="100%">
  <defs>
    <marker id="spawn" markerWidth="30" markerHeight="40" refX="2" refY="15" orient="auto" viewBox="0 0 40 30">
      <path d="M -5,0 -5,20 -15,20 0,40 15,20 5,20 5,0 Z" fill="magenta" transform="translate(0,15) rotate(-90)"/>
    </marker>
  </defs>
  <polyline points="0,0 176,0" stroke="white" stroke-width="2" fill="none"/>
  <polyline points="176,0 176,-384" stroke="white" stroke-width="2" fill="none"/>
  <polyline points="0,0 0,-384" stroke="white" stroke-width="2" fill="none"/>
  <polyline points="64,0 64,-64 0,0" stroke="white" stroke-width="2" fill="none"/>
  <polyline points="176,0 112,-64 112,0" stroke="white" stroke-width="2" fill="none"/>
  <polyline points="16,-32 64,-80 112,-80 160,-32" stroke="white" stroke-width="2" fill="none"/>
  <polyline points="0,-96 64,-96" stroke="white" stroke-width="2" fill="none"/>
  <polyline points="176,-96 112,-96" stroke="white" stroke-width="2" fill="none"/>
  <polyline points="0,-96 112,-208" stroke="white" stroke-width="2" fill="none"/>
  <polyline points="112,-208 128,-208" stroke="white" stroke-width="2" fill="none"/>
  <polyline points="128,-208 128,-384" stroke="white" stroke-width="2" fill="none"/>
  <polyline points="128,-208 160,-256 128,-256" stroke="white" stroke-width="2" fill="none"/>
  <polyline points="176,-272 144,-320 176,-320" stroke="white" stroke-width="2" fill="none"/>
  <polyline points="128,-336 160,-384 128,-384" stroke="white" stroke-width="2" fill="none"/>
  <polyline points="128,-384 112,-384 112,-208" stroke="white" stroke-width="2" fill="none"/>
  <polyline points="176,-384 176,-544 0,-544 0,-384" stroke="white" stroke-width="2" fill="none"/>
  <polyline points="80,-544 80,-368 48,-368 48,-544" stroke="white" stroke-width="2" fill="none"/>
  <polyline points="48,-144 80,-176 80,-352 48,-352 48,-144" stroke="white" stroke-width="2" fill="none"/>
  <polyline points="80,-240 112,-240" stroke="white" stroke-width="2" fill="none"/>
  <polyline points="16,-208 16,-160" stroke="white" stroke-width="2" fill="none"/>
  <polyline points="16,-208 16,-384" stroke="white" stroke-width="2" fill="none"/>
  <polyline points="48,-432 32,-416" stroke="white" stroke-width="2" fill="none"/>
  <polyline points="16,-384 32,-400" stroke="white" stroke-width="2" fill="none"/>
  <polyline points="16,-384 16,-448 32,-448" stroke="white" stroke-width="2" fill="none"/>
  <polyline points="48,-512 0,-448" stroke="white" stroke-width="2" fill="none"/>
  <polyline points="64,-16 96,-16" stroke="white" stroke-width="2" fill="none"/>
  <polyline points="112,-32 96,-32" stroke="white" stroke-width="2" fill="none"/>
  <polyline points="64,-32 80,-32" stroke="white" stroke-width="2" fill="none"/>
  <circle cx="16" cy="-80" r="24" stroke="#3399ff" opacity="1" stroke-width="2" fill="none"/>
  <circle cx="160" cy="-80" r="24" stroke="#3399ff" opacity="1" stroke-width="2" fill="none"/>
  <circle cx="128" cy="-416" r="40" stroke="#3399ff" opacity="1" stroke-width="2" fill="none"/>
  <circle cx="128" cy="-448" r="40" stroke="#3399ff" opacity="1" stroke-width="2" fill="none"/>
  <circle cx="128" cy="-480" r="40" stroke="#3399ff" opacity="1" stroke-width="2" fill="none"/>
  <circle cx="96" cy="-224" r="11" stroke="#00ff99" opacity="1" stroke-width="2" fill="none"/>
  <circle cx="32" cy="-336" r="19" stroke="#3399ff" opacity="1" stroke-width="2" fill="none"/>
  <circle cx="32" cy="-304" r="19" stroke="#3399ff" opacity="1" stroke-width="2" fill="none"/>
  <circle cx="32" cy="-272" r="19" stroke="#3399ff" opacity="1" stroke-width="2" fill="none"/>
  <circle cx="32" cy="-240" r="19" stroke="#3399ff" opacity="1" stroke-width="2" fill="none"/>
  <circle cx="32" cy="-208" r="19" stroke="#3399ff" opacity="1" stroke-width="2" fill="none"/>
  <circle cx="128" cy="-144" r="36" stroke="#3399ff" opacity="1" stroke-width="2" fill="none"/>
  <circle cx="33" cy="-172" r="14" stroke="#00ff99" opacity="1" stroke-width="2" fill="none"/>
  <path marker-end="url(#spawn)" stroke-width="0.5" stroke="red" d="M 0 0 0 1" transform="translate(71,-8) scale(1 -1) rotate(-90) matrix(1,0,0,1,0,0)" fill="none"/>
</svg>
