<?xml version="1.0" encoding="UTF-8" standalone="no"?>
<svg xmlns="http://www.w3.org/2000/svg" viewBox="-5,-549,954,554" width="100%" height="100%">
  <defs>
    <marker id="spawn" markerWidth="30" markerHeight="40" refX="2" refY="15" orient="auto" viewBox="0 0 40 30">
      <path d="M -5,0 -5,20 -15,20 0,40 15,20 5,20 5,0 Z" fill="magenta" transform="translate(0,15) rotate(-90)"/>
    </marker>
  </defs>
  <polyline points="32,-80 0,-96 0,0 32,-16 720,-16" stroke="white" stroke-width="2" fill="none"/>
  <polyline points="32,-80 608,-80" stroke="white" stroke-width="2" fill="none"/>
  <polyline points="720,-16 720,-80 672,-80" stroke="white" stroke-width="2" fill="none"/>
  <polyline points="608,-80 608,-208" stroke="white" stroke-width="2" fill="none"/>
  <polyline points="672,-80 672,-208" stroke="white" stroke-width="2" fill="none"/>
  <polyline points="624,-208 624,-80" stroke="white" stroke-width="2" fill="none"/>
  <polyline points="640,-208 640,-80" stroke="white" stroke-width="2" fill="none"/>
  <polyline points="656,-208 656,-80" stroke="white" stroke-width="2" fill="none"/>
  <polyline points="608,-208 416,-208" stroke="white" stroke-width="2" fill="none"/>
  <polyline points="672,-208 864,-208" stroke="white" stroke-width="2" fill="none"/>
  <polyline points="864,-208 864,-176 944,-176" stroke="white" stroke-width="2" fill="none"/>
  <polyline points="416,-208 416,-176 336,-176" stroke="white" stroke-width="2" fill="none"/>
  <polyline points="336,-176 336,-272" stroke="white" stroke-width="2" fill="none"/>
  <polyline points="944,-176 944,-272" stroke="white" stroke-width="2" fill="none"/>
  <polyline points="864,-240 864,-272 896,-272" stroke="white" stroke-width="2" fill="none"/>
  <polyline points="944,-272 928,-272" stroke="white" stroke-width="2" fill="none"/>
  <polyline points="336,-272 352,-272" stroke="white" stroke-width="2" fill="none"/>
  <polyline points="384,-272 416,-272 416,-240" stroke="white" stroke-width="2" fill="none"/>
  <polyline points="416,-256 864,-256" stroke="white" stroke-width="2" fill="none"/>
  <polyline points="928,-272 928,-464" stroke="white" stroke-width="2" fill="none"/>
  <polyline points="880,-272 880,-464" stroke="white" stroke-width="2" fill="none"/>
  <polyline points="400,-272 400,-464" stroke="white" stroke-width="2" fill="none"/>
  <polyline points="352,-272 352,-464" stroke="white" stroke-width="2" fill="none"/>
  <polyline points="352,-464 336,-464 336,-544" stroke="white" stroke-width="2" fill="none"/>
  <polyline points="416,-528 416,-544 336,-544" stroke="white" stroke-width="2" fill="none"/>
  <polyline points="896,-464 864,-464 864,-496" stroke="white" stroke-width="2" fill="none"/>
  <polyline points="864,-528 864,-544 944,-544 944,-464 928,-464" stroke="white" stroke-width="2" fill="none"/>
  <polyline points="416,-528 864,-528" stroke="white" stroke-width="2" fill="none"/>
  <polyline points="416,-480 608,-480" stroke="white" stroke-width="2" fill="none"/>
  <polyline points="672,-480 864,-480" stroke="white" stroke-width="2" fill="none"/>
  <polyline points="640,-432 512,-304" stroke="white" stroke-width="2" fill="none"/>
  <polyline points="640,-432 768,-304" stroke="white" stroke-width="2" fill="none"/>
  <polyline points="656,-432 704,-432" stroke="white" stroke-width="2" fill="none"/>
  <polyline points="672,-416 720,-416" stroke="white" stroke-width="2" fill="none"/>
  <polyline points="688,-400 736,-400" stroke="white" stroke-width="2" fill="none"/>
  <polyline points="704,-384 752,-384" stroke="white" stroke-width="2" fill="none"/>
  <polyline points="720,-368 768,-368" stroke="white" stroke-width="2" fill="none"/>
  <polyline points="736,-352 784,-352" stroke="white" stroke-width="2" fill="none"/>
  <polyline points="752,-336 800,-336" stroke="white" stroke-width="2" fill="none"/>
  <polyline points="768,-320 816,-320" stroke="white" stroke-width="2" fill="none"/>
  <polyline points="784,-304 832,-304" stroke="white" stroke-width="2" fill="none"/>
  <polyline points="624,-432 576,-432" stroke="white" stroke-width="2" fill="none"/>
  <polyline points="608,-416 560,-416" stroke="white" stroke-width="2" fill="none"/>
  <polyline points="592,-400 544,-400" stroke="white" stroke-width="2" fill="none"/>
  <polyline points="576,-384 528,-384" stroke="white" stroke-width="2" fill="none"/>
  <polyline points="560,-368 512,-368" stroke="white" stroke-width="2" fill="none"/>
  <polyline points="544,-352 496,-352" stroke="white" stroke-width="2" fill="none"/>
  <polyline points="528,-336 480,-336" stroke="white" stroke-width="2" fill="none"/>
  <polyline points="512,-320 464,-320" stroke="white" stroke-width="2" fill="none"/>
  <polyline points="496,-304 448,-304" stroke="white" stroke-width="2" fill="none"/>
  <polyline points="720,-432 768,-432" stroke="white" stroke-width="2" fill="none"/>
  <polyline points="736,-416 784,-416" stroke="white" stroke-width="2" fill="none"/>
  <polyline points="752,-400 800,-400" stroke="white" stroke-width="2" fill="none"/>
  <polyline points="768,-384 816,-384" stroke="white" stroke-width="2" fill="none"/>
  <polyline points="784,-368 832,-368" stroke="white" stroke-width="2" fill="none"/>
  <polyline points="800,-352 848,-352" stroke="white" stroke-width="2" fill="none"/>
  <polyline points="816,-336 864,-336" stroke="white" stroke-width="2" fill="none"/>
  <polyline points="832,-320 864,-320" stroke="white" stroke-width="2" fill="none"/>
  <polyline points="848,-304 864,-304" stroke="white" stroke-width="2" fill="none"/>
  <polyline points="560,-432 512,-432" stroke="white" stroke-width="2" fill="none"/>
  <polyline points="544,-416 496,-416" stroke="white" stroke-width="2" fill="none"/>
  <polyline points="528,-400 480,-400" stroke="white" stroke-width="2" fill="none"/>
  <polyline points="512,-384 464,-384" stroke="white" stroke-width="2" fill="none"/>
  <polyline points="496,-368 448,-368" stroke="white" stroke-width="2" fill="none"/>
  <polyline points="480,-352 432,-352" stroke="white" stroke-width="2" fill="none"/>
  <polyline points="464,-336 416,-336" stroke="white" stroke-width="2" fill="none"/>
  <polyline points="448,-320 416,-320" stroke="white" stroke-width="2" fill="none"/>
  <polyline points="432,-304 416,-304" stroke="white" stroke-width="2" fill="none"/>
  <polyline points="496,-432 448,-432" stroke="white" stroke-width="2" fill="none"/>
  <polyline points="480,-416 432,-416" stroke="white" stroke-width="2" fill="none"/>
  <polyline points="464,-400 416,-400" stroke="white" stroke-width="2" fill="none"/>
  <polyline points="448,-384 416,-384" stroke="white" stroke-width="2" fill="none"/>
  <polyline points="432,-368 416,-368" stroke="white" stroke-width="2" fill="none"/>
  <polyline points="784,-432 832,-432" stroke="white" stroke-width="2" fill="none"/>
  <polyline points="800,-416 848,-416" stroke="white" stroke-width="2" fill="none"/>
  <polyline points="816,-400 864,-400" stroke="white" stroke-width="2" fill="none"/>
  <polyline points="832,-384 864,-384" stroke="white" stroke-width="2" fill="none"/>
  <polyline points="848,-368 864,-368" stroke="white" stroke-width="2" fill="none"/>
  <polyline points="768,-304 656,-304" stroke="white" stroke-width="2" fill="none"/>
  <polyline points="624,-304 512,-304" stroke="white" stroke-width="2" fill="none"/>
  <polyline points="640,-320 544,-320" stroke="white" stroke-width="2" fill="none"/>
  <polyline points="640,-320 736,-320" stroke="white" stroke-width="2" fill="none"/>
  <polyline points="736,-320 656,-400" stroke="white" stroke-width="2" fill="none"/>
  <polyline points="624,-400 544,-320" stroke="white" stroke-width="2" fill="none"/>
  <polyline points="640,-384 656,-384 704,-336" stroke="white" stroke-width="2" fill="none"/>
  <polyline points="640,-384 624,-384 576,-336 624,-336" stroke="white" stroke-width="2" fill="none"/>
  <polyline points="704,-336 656,-336" stroke="white" stroke-width="2" fill="none"/>
  <polyline points="640,-352 672,-352 656,-368" stroke="white" stroke-width="2" fill="none"/>
  <polyline points="640,-352 608,-352 624,-368" stroke="white" stroke-width="2" fill="none"/>
  <polyline points="384,-464 416,-464 416,-496" stroke="white" stroke-width="2" fill="none"/>
  <circle cx="640" cy="-368" r="10" stroke="#00ff99" opacity="1" stroke-width="2" fill="none"/>
  <circle cx="80" cy="-64" r="12" stroke="#3399ff" opacity="1" stroke-width="2" fill="none"/>
  <circle cx="112" cy="-48" r="14" stroke="#3399ff" opacity="1" stroke-width="2" fill="none"/>
  <circle cx="144" cy="-80" r="14" stroke="#3399ff" opacity="1" stroke-width="2" fill="none"/>
  <circle cx="160" cy="-48" r="14" stroke="#3399ff" opacity="1" stroke-width="2" fill="none"/>
  <circle cx="80" cy="-16" r="14" stroke="#3399ff" opacity="1" stroke-width="2" fill="none"/>
  <circle cx="192" cy="-16" r="14" stroke="#3399ff" opacity="1" stroke-width="2" fill="none"/>
  <circle cx="208" cy="-32" r="14" stroke="#3399ff" opacity="1" stroke-width="2" fill="none"/>
  <circle cx="208" cy="-48" r="14" stroke="#3399ff" opacity="1" stroke-width="2" fill="none"/>
  <circle cx="224" cy="-48" r="18" stroke="#3399ff" opacity="1" stroke-width="2" fill="none"/>
  <circle cx="272" cy="-64" r="18" stroke="#3399ff" opacity="1" stroke-width="2" fill="none"/>
  <circle cx="336" cy="-32" r="18" stroke="#3399ff" opacity="1" stroke-width="2" fill="none"/>
  <circle cx="416" cy="-48" r="18" stroke="#3399ff" opacity="1" stroke-width="2" fill="none"/>
  <circle cx="464" cy="-80" r="18" stroke="#3399ff" opacity="1" stroke-width="2" fill="none"/>
  <circle cx="480" cy="-48" r="12" stroke="#3399ff" opacity="1" stroke-width="2" fill="none"/>
  <circle cx="528" cy="-48" r="16" stroke="#3399ff" opacity="1" stroke-width="2" fill="none"/>
  <circle cx="576" cy="-80" r="16" stroke="#3399ff" opacity="1" stroke-width="2" fill="none"/>
  <circle cx="592" cy="-64" r="16" stroke="#3399ff" opacity="1" stroke-width="2" fill="none"/>
  <circle cx="448" cy="-16" r="16" stroke="#3399ff" opacity="1" stroke-width="2" fill="none"/>
  <circle cx="560" cy="-16" r="16" stroke="#3399ff" opacity="1" stroke-width="2" fill="none"/>
  <circle cx="592" cy="-16" r="16" stroke="#3399ff" opacity="1" stroke-width="2" fill="none"/>
  <circle cx="704" cy="-48" r="16" stroke="#00ff99" opacity="1" stroke-width="2" fill="none"/>
  <circle cx="704" cy="-48" r="26" stroke="#3399ff" opacity="1" stroke-width="2" fill="none"/>
  <circle cx="704" cy="-48" r="20" stroke="#00ff99" opacity="1" stroke-width="2" fill="none"/>
  <circle cx="704" cy="-48" r="11" stroke="#00ff99" opacity="1" stroke-width="2" fill="none"/>
  <circle cx="704" cy="-48" r="7" stroke="#00ff99" opacity="1" stroke-width="2" fill="none"/>
  <circle cx="688" cy="-224" r="7" stroke="#3399ff" opacity="1" stroke-width="2" fill="none"/>
  <circle cx="704" cy="-208" r="7" stroke="#3399ff" opacity="1" stroke-width="2" fill="none"/>
  <circle cx="704" cy="-240" r="7" stroke="#3399ff" opacity="1" stroke-width="2" fill="none"/>
  <circle cx="720" cy="-224" r="7" stroke="#3399ff" opacity="1" stroke-width="2" fill="none"/>
  <circle cx="688" cy="-256" r="7" stroke="#3399ff" opacity="1" stroke-width="2" fill="none"/>
  <circle cx="720" cy="-256" r="7" stroke="#3399ff" opacity="1" stroke-width="2" fill="none"/>
  <circle cx="736" cy="-240" r="7" stroke="#3399ff" opacity="1" stroke-width="2" fill="none"/>
  <circle cx="736" cy="-208" r="7" stroke="#3399ff" opacity="1" stroke-width="2" fill="none"/>
  <circle cx="752" cy="-256" r="7" stroke="#3399ff" opacity="1" stroke-width="2" fill="none"/>
  <circle cx="752" cy="-224" r="7" stroke="#3399ff" opacity="1" stroke-width="2" fill="none"/>
  <circle cx="768" cy="-240" r="7" stroke="#3399ff" opacity="1" stroke-width="2" fill="none"/>
  <circle cx="784" cy="-256" r="7" stroke="#3399ff" opacity="1" stroke-width="2" fill="none"/>
  <circle cx="784" cy="-224" r="7" stroke="#3399ff" opacity="1" stroke-width="2" fill="none"/>
  <circle cx="768" cy="-208" r="7" stroke="#3399ff" opacity="1" stroke-width="2" fill="none"/>
  <circle cx="800" cy="-240" r="7" stroke="#3399ff" opacity="1" stroke-width="2" fill="none"/>
  <circle cx="800" cy="-208" r="7" stroke="#3399ff" opacity="1" stroke-width="2" fill="none"/>
  <circle cx="816" cy="-224" r="7" stroke="#3399ff" opacity="1" stroke-width="2" fill="none"/>
  <circle cx="816" cy="-256" r="7" stroke="#3399ff" opacity="1" stroke-width="2" fill="none"/>
  <circle cx="832" cy="-240" r="7" stroke="#3399ff" opacity="1" stroke-width="2" fill="none"/>
  <circle cx="832" cy="-208" r="7" stroke="#3399ff" opacity="1" stroke-width="2" fill="none"/>
  <circle cx="592" cy="-224" r="7" stroke="#3399ff" opacity="1" stroke-width="2" fill="none"/>
  <circle cx="592" cy="-256" r="7" stroke="#3399ff" opacity="1" stroke-width="2" fill="none"/>
  <circle cx="576" cy="-240" r="7" stroke="#3399ff" opacity="1" stroke-width="2" fill="none"/>
  <circle cx="576" cy="-208" r="7" stroke="#3399ff" opacity="1" stroke-width="2" fill="none"/>
  <circle cx="560" cy="-224" r="7" stroke="#3399ff" opacity="1" stroke-width="2" fill="none"/>
  <circle cx="560" cy="-256" r="7" stroke="#3399ff" opacity="1" stroke-width="2" fill="none"/>
  <circle cx="544" cy="-240" r="7" stroke="#3399ff" opacity="1" stroke-width="2" fill="none"/>
  <circle cx="544" cy="-208" r="7" stroke="#3399ff" opacity="1" stroke-width="2" fill="none"/>
  <circle cx="528" cy="-224" r="7" stroke="#3399ff" opacity="1" stroke-width="2" fill="none"/>
  <circle cx="528" cy="-256" r="7" stroke="#3399ff" opacity="1" stroke-width="2" fill="none"/>
  <circle cx="512" cy="-240" r="7" stroke="#3399ff" opacity="1" stroke-width="2" fill="none"/>
  <circle cx="512" cy="-208" r="7" stroke="#3399ff" opacity="1" stroke-width="2" fill="none"/>
  <circle cx="496" cy="-224" r="7" stroke="#3399ff" opacity="1" stroke-width="2" fill="none"/>
  <circle cx="496" cy="-256" r="7" stroke="#3399ff" opacity="1" stroke-width="2" fill="none"/>
  <circle cx="480" cy="-240" r="7" stroke="#3399ff" opacity="1" stroke-width="2" fill="none"/>
  <circle cx="480" cy="-208" r="7" stroke="#3399ff" opacity="1" stroke-width="2" fill="none"/>
  <circle cx="464" cy="-256" r="7" stroke="#3399ff" opacity="1" stroke-width="2" fill="none"/>
  <circle cx="464" cy="-224" r="7" stroke="#3399ff" opacity="1" stroke-width="2" fill="none"/>
  <circle cx="448" cy="-240" r="7" stroke="#3399ff" opacity="1" stroke-width="2" fill="none"/>
  <circle cx="448" cy="-208" r="7" stroke="#3399ff" opacity="1" stroke-width="2" fill="none"/>
  <circle cx="880" cy="-240" r="7" stroke="#3399ff" opacity="1" stroke-width="2" fill="none"/>
  <circle cx="896" cy="-272" r="7" stroke="#3399ff" opacity="1" stroke-width="2" fill="none"/>
  <circle cx="896" cy="-256" r="7" stroke="#3399ff" opacity="1" stroke-width="2" fill="none"/>
  <circle cx="400" cy="-240" r="7" stroke="#3399ff" opacity="1" stroke-width="2" fill="none"/>
  <circle cx="384" cy="-256" r="7" stroke="#3399ff" opacity="1" stroke-width="2" fill="none"/>
  <circle cx="384" cy="-272" r="7" stroke="#3399ff" opacity="1" stroke-width="2" fill="none"/>
  <circle cx="384" cy="-480" r="7" stroke="#3399ff" opacity="1" stroke-width="2" fill="none"/>
  <circle cx="400" cy="-496" r="7" stroke="#3399ff" opacity="1" stroke-width="2" fill="none"/>
  <circle cx="416" cy="-496" r="7" stroke="#3399ff" opacity="1" stroke-width="2" fill="none"/>
  <circle cx="896" cy="-480" r="7" stroke="#3399ff" opacity="1" stroke-width="2" fill="none"/>
  <circle cx="880" cy="-496" r="7" stroke="#3399ff" opacity="1" stroke-width="2" fill="none"/>
  <circle cx="864" cy="-496" r="7" stroke="#3399ff" opacity="1" stroke-width="2" fill="none"/>
  <circle cx="416" cy="-464" r="15" stroke="#3399ff" opacity="1" stroke-width="2" fill="none"/>
  <circle cx="416" cy="-272" r="15" stroke="#3399ff" opacity="1" stroke-width="2" fill="none"/>
  <circle cx="864" cy="-272" r="15" stroke="#3399ff" opacity="1" stroke-width="2" fill="none"/>
  <circle cx="864" cy="-464" r="15" stroke="#3399ff" opacity="1" stroke-width="2" fill="none"/>
  <circle cx="656" cy="-336" r="6" stroke="#3399ff" opacity="1" stroke-width="2" fill="none"/>
  <circle cx="624" cy="-336" r="6" stroke="#3399ff" opacity="1" stroke-width="2" fill="none"/>
  <circle cx="624" cy="-400" r="6" stroke="#3399ff" opacity="1" stroke-width="2" fill="none"/>
  <circle cx="656" cy="-400" r="6" stroke="#3399ff" opacity="1" stroke-width="2" fill="none"/>
  <circle cx="512" cy="-304" r="6" stroke="#3399ff" opacity="1" stroke-width="2" fill="none"/>
  <circle cx="768" cy="-304" r="6" stroke="#3399ff" opacity="1" stroke-width="2" fill="none"/>
  <circle cx="640" cy="-432" r="6" stroke="#3399ff" opacity="1" stroke-width="2" fill="none"/>
  <circle cx="848" cy="-304" r="6" stroke="#3399ff" opacity="1" stroke-width="2" fill="none"/>
  <circle cx="432" cy="-304" r="6" stroke="#3399ff" opacity="1" stroke-width="2" fill="none"/>
  <circle cx="896" cy="-224" r="11" stroke="#3399ff" opacity="1" stroke-width="2" fill="none"/>
  <circle cx="912" cy="-240" r="11" stroke="#3399ff" opacity="1" stroke-width="2" fill="none"/>
  <circle cx="928" cy="-192" r="11" stroke="#3399ff" opacity="1" stroke-width="2" fill="none"/>
  <circle cx="384" cy="-224" r="11" stroke="#3399ff" opacity="1" stroke-width="2" fill="none"/>
  <circle cx="368" cy="-240" r="11" stroke="#3399ff" opacity="1" stroke-width="2" fill="none"/>
  <circle cx="352" cy="-192" r="11" stroke="#3399ff" opacity="1" stroke-width="2" fill="none"/>
  <circle cx="368" cy="-480" r="11" stroke="#3399ff" opacity="1" stroke-width="2" fill="none"/>
  <circle cx="352" cy="-496" r="11" stroke="#3399ff" opacity="1" stroke-width="2" fill="none"/>
  <circle cx="368" cy="-528" r="11" stroke="#3399ff" opacity="1" stroke-width="2" fill="none"/>
  <circle cx="912" cy="-480" r="11" stroke="#3399ff" opacity="1" stroke-width="2" fill="none"/>
  <circle cx="928" cy="-496" r="11" stroke="#3399ff" opacity="1" stroke-width="2" fill="none"/>
  <circle cx="912" cy="-528" r="11" stroke="#3399ff" opacity="1" stroke-width="2" fill="none"/>
  <circle cx="880" cy="-512" r="11" stroke="#3399ff" opacity="1" stroke-width="2" fill="none"/>
  <circle cx="400" cy="-512" r="11" stroke="#3399ff" opacity="1" stroke-width="2" fill="none"/>
  <circle cx="352" cy="-304" r="11" stroke="#3399ff" opacity="1" stroke-width="2" fill="none"/>
  <circle cx="368" cy="-304" r="11" stroke="#3399ff" opacity="1" stroke-width="2" fill="none"/>
  <circle cx="400" cy="-336" r="11" stroke="#3399ff" opacity="1" stroke-width="2" fill="none"/>
  <circle cx="384" cy="-336" r="11" stroke="#3399ff" opacity="1" stroke-width="2" fill="none"/>
  <circle cx="352" cy="-368" r="11" stroke="#3399ff" opacity="1" stroke-width="2" fill="none"/>
  <circle cx="368" cy="-368" r="11" stroke="#3399ff" opacity="1" stroke-width="2" fill="none"/>
  <circle cx="400" cy="-400" r="11" stroke="#3399ff" opacity="1" stroke-width="2" fill="none"/>
  <circle cx="384" cy="-400" r="11" stroke="#3399ff" opacity="1" stroke-width="2" fill="none"/>
  <circle cx="368" cy="-432" r="11" stroke="#3399ff" opacity="1" stroke-width="2" fill="none"/>
  <circle cx="928" cy="-304" r="11" stroke="#3399ff" opacity="1" stroke-width="2" fill="none"/>
  <circle cx="912" cy="-304" r="11" stroke="#3399ff" opacity="1" stroke-width="2" fill="none"/>
  <circle cx="880" cy="-336" r="11" stroke="#3399ff" opacity="1" stroke-width="2" fill="none"/>
  <circle cx="928" cy="-368" r="11" stroke="#3399ff" opacity="1" stroke-width="2" fill="none"/>
  <circle cx="896" cy="-336" r="11" stroke="#3399ff" opacity="1" stroke-width="2" fill="none"/>
  <circle cx="912" cy="-368" r="11" stroke="#3399ff" opacity="1" stroke-width="2" fill="none"/>
  <circle cx="880" cy="-400" r="11" stroke="#3399ff" opacity="1" stroke-width="2" fill="none"/>
  <circle cx="896" cy="-400" r="11" stroke="#3399ff" opacity="1" stroke-width="2" fill="none"/>
  <circle cx="912" cy="-432" r="11" stroke="#3399ff" opacity="1" stroke-width="2" fill="none"/>
  <circle cx="672" cy="-480" r="26" stroke="#3399ff" opacity="1" stroke-width="2" fill="none"/>
  <circle cx="608" cy="-480" r="26" stroke="#3399ff" opacity="1" stroke-width="2" fill="none"/>
  <circle cx="752" cy="-512" r="26" stroke="#3399ff" opacity="1" stroke-width="2" fill="none"/>
  <circle cx="528" cy="-512" r="26" stroke="#3399ff" opacity="1" stroke-width="2" fill="none"/>
  <circle cx="464" cy="-480" r="26" stroke="#3399ff" opacity="1" stroke-width="2" fill="none"/>
  <circle cx="816" cy="-480" r="26" stroke="#3399ff" opacity="1" stroke-width="2" fill="none"/>
  <path marker-end="url(#spawn)" stroke-width="0.5" stroke="red" d="M 0 0 0 1" transform="translate(16,-48) scale(1 -1) rotate(-90) matrix(1,0,0,1,0,0)" fill="none"/>
</svg>
