<?xml version="1.0" encoding="UTF-8" standalone="no"?>
<svg xmlns="http://www.w3.org/2000/svg" viewBox="-30,-2805,162,3010" width="100%" height="100%">
  <defs>
    <marker id="spawn" markerWidth="30" markerHeight="40" refX="2" refY="15" orient="auto" viewBox="0 0 40 30">
      <path d="M -5,0 -5,20 -15,20 0,40 15,20 5,20 5,0 Z" fill="magenta" transform="translate(0,15) rotate(-90)"/>
    </marker>
  </defs>
  <polyline points="10,120 10,60 15,60 20,65 20,80 15,85 10,85 20,120" stroke="white" stroke-width="2" fill="none"/>
  <polyline points="25,120 40,60 55,120 47.5,90 32.5,90" stroke="white" stroke-width="2" fill="none"/>
  <polyline points="75,65 70,60 65,60 60,65 60,115 65,120 70,120 75,115" stroke="white" stroke-width="2" fill="none"/>
  <polyline points="95,60 80,60 80,90 90,90 80,90 80,120 95,120" stroke="white" stroke-width="2" fill="none"/>
  <polyline points="50,-1125 55,-1120 55,-980 50,-975 45,-980 45,-1120 50,-1125" stroke="white" stroke-width="2" fill="none"/>
  <polyline points="0,200 100,200 100,-950 125,-975 125,-1125 75,-1175 75,-1325 100,-1350 100,-2800" stroke="white" stroke-width="2" fill="none"/>
  <polyline points="0,-2800 0,-1350 25,-1325 25,-1175 -25,-1125 -25,-975 0,-950 0,200" stroke="white" stroke-width="2" fill="none"/>
  <polyline points="98,-1247 78,-1267" stroke="white" stroke-width="2" fill="none"/>
  <polyline points="-12,-1169 -14,-1179 6,-1179 4,-1169" stroke="white" stroke-width="2" fill="none"/>
  <polyline points="89,-1532 90,-1531 98,-1531 99,-1532 99,-1535 98,-1536 90,-1536 89,-1537 89,-1540 90,-1541 98,-1541 99,-1540" stroke="white" stroke-width="2" fill="none"/>
  <polyline points="37,-1069 39,-1079 55,-1079 57,-1069" stroke="white" stroke-width="2" fill="none"/>
  <polyline points="39,-725 43,-725 37,-727 45,-727 35,-729 47,-729 33,-731 33,-731 49,-731 31,-733 51,-733" stroke="white" stroke-width="2" fill="none"/>
  <polyline points="63,-1037 61,-1039 59,-1037 61,-1035 63,-1037" stroke="white" stroke-width="2" fill="none"/>
  <polyline points="3,-2147 0,-2144" stroke="white" stroke-width="2" fill="none"/>
  <polyline points="101,-1081 100,-1082 100,-1090 101,-1091 104,-1091 105,-1090 105,-1082 106,-1081 109,-1081 110,-1082 110,-1090 109,-1091" stroke="white" stroke-width="2" fill="none"/>
  <polyline points="69,-1695 67,-1705 87,-1705 85,-1695" stroke="white" stroke-width="2" fill="none"/>
  <polyline points="40,-2149 45,-2159 50,-2149 55,-2159 60,-2149" stroke="white" stroke-width="2" fill="none"/>
  <polyline points="55,-352 45,-332 55,-332 45,-352 55,-352" stroke="white" stroke-width="2" fill="none"/>
  <polyline points="60,-1830 65,-1840 70,-1830 75,-1840 80,-1830" stroke="white" stroke-width="2" fill="none"/>
  <polyline points="86,-2436 85,-2437 85,-2445 86,-2446 89,-2446 90,-2445 90,-2437 91,-2436 94,-2436 95,-2437 95,-2445 94,-2446" stroke="white" stroke-width="2" fill="none"/>
  <polyline points="38,-241 58,-241 48,-241 38,-231 48,-241 58,-231" stroke="white" stroke-width="2" fill="none"/>
  <polyline points="31,-1778 51,-1798" stroke="white" stroke-width="2" fill="none"/>
  <polyline points="111,-981 115,-981 109,-983 117,-983 107,-985 119,-985 105,-987 105,-987 121,-987 103,-989 123,-989" stroke="white" stroke-width="2" fill="none"/>
  <polyline points="98,-1912 100,-1910" stroke="white" stroke-width="2" fill="none"/>
  <polyline points="63,-2404 61,-2414 81,-2414 79,-2404" stroke="white" stroke-width="2" fill="none"/>
  <polyline points="18,-1925 38,-1925" stroke="white" stroke-width="2" fill="none"/>
  <polyline points="47,-2263 37,-2243 47,-2243 37,-2263 47,-2263" stroke="white" stroke-width="2" fill="none"/>
  <polyline points="3,-2262 0,-2259" stroke="white" stroke-width="2" fill="none"/>
  <polyline points="98,-473 100,-475" stroke="white" stroke-width="2" fill="none"/>
  <polyline points="98,-130 100,-128" stroke="white" stroke-width="2" fill="none"/>
  <polyline points="21,-1524 41,-1544" stroke="white" stroke-width="2" fill="none"/>
  <polyline points="28,-906 32,-906 26,-908 34,-908 24,-910 36,-910 22,-912 22,-912 38,-912 20,-914 40,-914" stroke="white" stroke-width="2" fill="none"/>
  <polyline points="77,-1983 82,-1993 87,-1983 92,-1993 97,-1983" stroke="white" stroke-width="2" fill="none"/>
  <polyline points="75,-1357 65,-1347 55,-1357" stroke="white" stroke-width="2" fill="none"/>
  <polyline points="23,-1125 28,-1135 33,-1125 38,-1135 43,-1125" stroke="white" stroke-width="2" fill="none"/>
  <polyline points="4,-2091 2,-2101 22,-2101 20,-2091" stroke="white" stroke-width="2" fill="none"/>
  <polyline points="89,-1800 89,-1820 79,-1820 99,-1820" stroke="white" stroke-width="2" fill="none"/>
  <polyline points="87,-592 86,-593 86,-601 87,-602 90,-602 91,-601 91,-593 92,-592 95,-592 96,-593 96,-601 95,-602" stroke="white" stroke-width="2" fill="none"/>
  <polyline points="23,-678 24,-677 32,-677 33,-678 33,-681 32,-682 24,-682 23,-683 23,-686 24,-687 32,-687 33,-686" stroke="white" stroke-width="2" fill="none"/>
  <polyline points="16,-831 16,-871 6,-861 26,-861" stroke="white" stroke-width="2" fill="none"/>
  <polyline points="13,-1414 15,-1424 31,-1424 33,-1414" stroke="white" stroke-width="2" fill="none"/>
  <polyline points="6,-1673 26,-1673" stroke="white" stroke-width="2" fill="none"/>
  <polyline points="98,-343 100,-345" stroke="white" stroke-width="2" fill="none"/>
  <polyline points="3,-2246 0,-2243" stroke="white" stroke-width="2" fill="none"/>
  <polyline points="77,-815 97,-835" stroke="white" stroke-width="2" fill="none"/>
  <polyline points="56,-914 57,-913 65,-913 66,-914 66,-917 65,-918 57,-918 56,-919 56,-922 57,-923 65,-923 66,-922" stroke="white" stroke-width="2" fill="none"/>
  <polyline points="32,-2007 34,-2017 50,-2017 52,-2007" stroke="white" stroke-width="2" fill="none"/>
  <polyline points="66,-503 86,-523 76,-513 86,-503 66,-523" stroke="white" stroke-width="2" fill="none"/>
  <polyline points="90,-737 89,-738 89,-746 90,-747 93,-747 94,-746 94,-738 95,-737 98,-737 99,-738 99,-746 98,-747" stroke="white" stroke-width="2" fill="none"/>
  <polyline points="72,-1926 92,-1926 82,-1926 72,-1916 82,-1926 92,-1916" stroke="white" stroke-width="2" fill="none"/>
  <polyline points="97,-2169 87,-2149 97,-2149 87,-2169 97,-2169" stroke="white" stroke-width="2" fill="none"/>
  <polyline points="98,-1593 100,-1591" stroke="white" stroke-width="2" fill="none"/>
  <polyline points="66,-1285 71,-1295 76,-1285 81,-1295 86,-1285" stroke="white" stroke-width="2" fill="none"/>
  <polyline points="79,-2100 83,-2100 77,-2102 85,-2102 75,-2104 87,-2104 73,-2106 73,-2106 89,-2106 71,-2108 91,-2108" stroke="white" stroke-width="2" fill="none"/>
  <polyline points="117,-1315 117,-1355 107,-1345 127,-1345" stroke="white" stroke-width="2" fill="none"/>
  <polyline points="66,-137 64,-139 62,-137 64,-135 66,-137" stroke="white" stroke-width="2" fill="none"/>
  <polyline points="82,-1236 82,-1216" stroke="white" stroke-width="2" fill="none"/>
  <polyline points="73,-2235 77,-2235 71,-2237 79,-2237 69,-2239 81,-2239 67,-2241 67,-2241 83,-2241 65,-2243 85,-2243" stroke="white" stroke-width="2" fill="none"/>
  <polyline points="3,-2502 0,-2499" stroke="white" stroke-width="2" fill="none"/>
  <polyline points="25,-370 24,-371 24,-379 25,-380 28,-380 29,-379 29,-371 30,-370 33,-370 34,-371 34,-379 33,-380" stroke="white" stroke-width="2" fill="none"/>
  <polyline points="98,-754 100,-752" stroke="white" stroke-width="2" fill="none"/>
  <polyline points="89,-871 89,-891 79,-891 99,-891" stroke="white" stroke-width="2" fill="none"/>
  <polyline points="38,-570 28,-550 38,-550 28,-570 38,-570" stroke="white" stroke-width="2" fill="none"/>
  <polyline points="-8,-1381 12,-1381" stroke="white" stroke-width="2" fill="none"/>
  <polyline points="98,-1939 100,-1937" stroke="white" stroke-width="2" fill="none"/>
  <polyline points="89,-931 89,-911" stroke="white" stroke-width="2" fill="none"/>
  <polyline points="101,-1215 121,-1215" stroke="white" stroke-width="2" fill="none"/>
  <polyline points="7,-639 17,-629 27,-639" stroke="white" stroke-width="2" fill="none"/>
  <polyline points="98,-1450 100,-1448" stroke="white" stroke-width="2" fill="none"/>
  <polyline points="15,-231 15,-211" stroke="white" stroke-width="2" fill="none"/>
  <polyline points="98,-2388 100,-2386" stroke="white" stroke-width="2" fill="none"/>
  <polyline points="68,-1773 68,-1753" stroke="white" stroke-width="2" fill="none"/>
  <polyline points="98,-497 100,-495" stroke="white" stroke-width="2" fill="none"/>
  <polyline points="98,-1836 100,-1834" stroke="white" stroke-width="2" fill="none"/>
  <polyline points="66,-597 68,-607 84,-607 86,-597" stroke="white" stroke-width="2" fill="none"/>
  <polyline points="22,-2015 20,-2017 18,-2015 20,-2013 22,-2015" stroke="white" stroke-width="2" fill="none"/>
  <polyline points="63,-1648 53,-1628 63,-1628 53,-1648 63,-1648" stroke="white" stroke-width="2" fill="none"/>
  <polyline points="61,-688 81,-688 71,-688 61,-678 71,-688 81,-678" stroke="white" stroke-width="2" fill="none"/>
  <polyline points="14,-1830 34,-1830 24,-1830 14,-1820 24,-1830 34,-1820" stroke="white" stroke-width="2" fill="none"/>
  <polyline points="98,-764 100,-766" stroke="white" stroke-width="2" fill="none"/>
  <polyline points="4,-367 14,-357 24,-367" stroke="white" stroke-width="2" fill="none"/>
  <polyline points="-3,-1253 -13,-1243 -23,-1253" stroke="white" stroke-width="2" fill="none"/>
  <polyline points="3,-669 0,-666" stroke="white" stroke-width="2" fill="none"/>
  <polyline points="0,-1309 0,-1349 -10,-1339 10,-1339" stroke="white" stroke-width="2" fill="none"/>
  <polyline points="87,-194 77,-214 67,-194" stroke="white" stroke-width="2" fill="none"/>
  <polyline points="75,-80 75,-120 65,-110 85,-110" stroke="white" stroke-width="2" fill="none"/>
  <polyline points="70,-1001 71,-1000 79,-1000 80,-1001 80,-1004 79,-1005 71,-1005 70,-1006 70,-1009 71,-1010 79,-1010 80,-1009" stroke="white" stroke-width="2" fill="none"/>
  <polyline points="81,-2446 101,-2466" stroke="white" stroke-width="2" fill="none"/>
  <polyline points="63,-1657 83,-1657 73,-1657 63,-1647 73,-1657 83,-1647" stroke="white" stroke-width="2" fill="none"/>
  <polyline points="58,-759 68,-749 78,-759" stroke="white" stroke-width="2" fill="none"/>
  <polyline points="8,-2051 18,-2061 28,-2051" stroke="white" stroke-width="2" fill="none"/>
  <polyline points="-2,-931 18,-931" stroke="white" stroke-width="2" fill="none"/>
  <polyline points="30,-2144 28,-2146 26,-2144 28,-2142 30,-2144" stroke="white" stroke-width="2" fill="none"/>
  <polyline points="11,-1777 11,-1797 1,-1797 21,-1797" stroke="white" stroke-width="2" fill="none"/>
  <polyline points="25,-1701 45,-1721" stroke="white" stroke-width="2" fill="none"/>
  <polyline points="98,-1783 100,-1781" stroke="white" stroke-width="2" fill="none"/>
  <polyline points="63,-1729 64,-1728 72,-1728 73,-1729 73,-1732 72,-1733 64,-1733 63,-1734 63,-1737 64,-1738 72,-1738 73,-1737" stroke="white" stroke-width="2" fill="none"/>
  <polyline points="71,-2376 91,-2376 81,-2376 71,-2366 81,-2376 91,-2366" stroke="white" stroke-width="2" fill="none"/>
  <polyline points="3,-1210 23,-1210" stroke="white" stroke-width="2" fill="none"/>
  <polyline points="71,-630 73,-640 89,-640 91,-630" stroke="white" stroke-width="2" fill="none"/>
  <polyline points="82,-2265 102,-2265 92,-2265 82,-2255 92,-2265 102,-2255" stroke="white" stroke-width="2" fill="none"/>
  <polyline points="12,-2300 12,-2340 2,-2330 22,-2330" stroke="white" stroke-width="2" fill="none"/>
  <polyline points="3,-813 0,-816" stroke="white" stroke-width="2" fill="none"/>
  <polyline points="106,-1275 126,-1295 116,-1285 126,-1275 106,-1295" stroke="white" stroke-width="2" fill="none"/>
  <polyline points="10,-1751 15,-1761 20,-1751 25,-1761 30,-1751" stroke="white" stroke-width="2" fill="none"/>
  <polyline points="114,-1235 115,-1234 123,-1234 124,-1235 124,-1238 123,-1239 115,-1239 114,-1240 114,-1243 115,-1244 123,-1244 124,-1243" stroke="white" stroke-width="2" fill="none"/>
  <polyline points="3,-205 0,-202" stroke="white" stroke-width="2" fill="none"/>
  <polyline points="72,-2057 82,-2067 92,-2057" stroke="white" stroke-width="2" fill="none"/>
  <polyline points="3,-1549 0,-1546" stroke="white" stroke-width="2" fill="none"/>
  <polyline points="98,-329 100,-331" stroke="white" stroke-width="2" fill="none"/>
  <polyline points="24,-293 14,-313 4,-293" stroke="white" stroke-width="2" fill="none"/>
  <polyline points="71,-1567 71,-1607 61,-1597 81,-1597" stroke="white" stroke-width="2" fill="none"/>
  <polyline points="3,-588 0,-591" stroke="white" stroke-width="2" fill="none"/>
  <polyline points="36,-1273 36,-1253" stroke="white" stroke-width="2" fill="none"/>
  <polyline points="23,-1002 43,-1022 33,-1012 43,-1002 23,-1022" stroke="white" stroke-width="2" fill="none"/>
  <polyline points="57,-883 57,-903 47,-903 67,-903" stroke="white" stroke-width="2" fill="none"/>
  <polyline points="-19,-1077 -19,-1057" stroke="white" stroke-width="2" fill="none"/>
  <circle cx="50" cy="-2700" r="100" stroke="#00ff99" opacity="1" stroke-width="2" fill="none"/>
  <circle cx="33" cy="-811" r="5" stroke="#3399ff" opacity="1" stroke-width="2" fill="none"/>
  <circle cx="43" cy="-1478" r="7" stroke="#3399ff" opacity="1" stroke-width="2" fill="none"/>
  <circle cx="20" cy="-141" r="20" stroke="#3399ff" opacity="1" stroke-width="2" fill="none"/>
  <circle cx="24" cy="-1960" r="7" stroke="#3399ff" opacity="1" stroke-width="2" fill="none"/>
  <circle cx="45" cy="-2467" r="5" stroke="#3399ff" opacity="1" stroke-width="2" fill="none"/>
  <circle cx="81" cy="-2500" r="7" stroke="#3399ff" opacity="1" stroke-width="2" fill="none"/>
  <circle cx="22" cy="-2367" r="10" stroke="#3399ff" opacity="1" stroke-width="2" fill="none"/>
  <circle cx="93" cy="-416" r="20" stroke="#3399ff" opacity="1" stroke-width="2" fill="none"/>
  <circle cx="17" cy="-1047" r="7" stroke="#3399ff" opacity="1" stroke-width="2" fill="none"/>
  <circle cx="94" cy="-2321" r="20" stroke="#3399ff" opacity="1" stroke-width="2" fill="none"/>
  <circle cx="3" cy="-2205" r="5" stroke="#3399ff" opacity="1" stroke-width="2" fill="none"/>
  <circle cx="67" cy="-1405" r="5" stroke="#3399ff" opacity="1" stroke-width="2" fill="none"/>
  <circle cx="24" cy="-1598" r="7" stroke="#3399ff" opacity="1" stroke-width="2" fill="none"/>
  <circle cx="-15" cy="-975" r="7" stroke="#3399ff" opacity="1" stroke-width="2" fill="none"/>
  <circle cx="101" cy="-277" r="20" stroke="#3399ff" opacity="1" stroke-width="2" fill="none"/>
  <circle cx="73" cy="-1875" r="5" stroke="#3399ff" opacity="1" stroke-width="2" fill="none"/>
  <circle cx="60" cy="-1184" r="7" stroke="#3399ff" opacity="1" stroke-width="2" fill="none"/>
  <circle cx="51" cy="-959" r="7" stroke="#3399ff" opacity="1" stroke-width="2" fill="none"/>
  <circle cx="10" cy="-451" r="20" stroke="#3399ff" opacity="1" stroke-width="2" fill="none"/>
  <circle cx="111" cy="-1127" r="20" stroke="#3399ff" opacity="1" stroke-width="2" fill="none"/>
  <circle cx="77" cy="-2204" r="7" stroke="#3399ff" opacity="1" stroke-width="2" fill="none"/>
  <circle cx="4" cy="-756" r="5" stroke="#3399ff" opacity="1" stroke-width="2" fill="none"/>
  <path marker-end="url(#spawn)" stroke-width="0.5" stroke="red" d="M 0 0 0 1" transform="translate(45,50) scale(1 -1) rotate(-90) rotate(90)" fill="none"/>
  <path marker-end="url(#spawn)" stroke-width="0.5" stroke="red" d="M 0 0 0 1" transform="translate(35,50) scale(1 -1) rotate(-90) rotate(90)" fill="none"/>
  <path marker-end="url(#spawn)" stroke-width="0.5" stroke="red" d="M 0 0 0 1" transform="translate(55,50) scale(1 -1) rotate(-90) rotate(90)" fill="none"/>
  <path marker-end="url(#spawn)" stroke-width="0.5" stroke="red" d="M 0 0 0 1" transform="translate(25,50) scale(1 -1) rotate(-90) rotate(90)" fill="none"/>
  <path marker-end="url(#spawn)" stroke-width="0.5" stroke="red" d="M 0 0 0 1" transform="translate(65,50) scale(1 -1) rotate(-90) rotate(90)" fill="none"/>
  <path marker-end="url(#spawn)" stroke-width="0.5" stroke="red" d="M 0 0 0 1" transform="translate(15,50) scale(1 -1) rotate(-90) rotate(90)" fill="none"/>
  <path marker-end="url(#spawn)" stroke-width="0.5" stroke="red" d="M 0 0 0 1" transform="translate(75,50) scale(1 -1) rotate(-90) rotate(90)" fill="none"/>
  <path marker-end="url(#spawn)" stroke-width="0.5" stroke="red" d="M 0 0 0 1" transform="translate(5,50) scale(1 -1) rotate(-90) rotate(90)" fill="none"/>
  <path marker-end="url(#spawn)" stroke-width="0.5" stroke="red" d="M 0 0 0 1" transform="translate(85,50) scale(1 -1) rotate(-90) rotate(90)" fill="none"/>
</svg>
