<?xml version="1.0" encoding="UTF-8" standalone="no"?>
<svg xmlns="http://www.w3.org/2000/svg" viewBox="619,-309,874,490" width="100%" height="100%">
  <defs>
    <marker id="spawn" markerWidth="30" markerHeight="40" refX="2" refY="15" orient="auto" viewBox="0 0 40 30">
      <path d="M -5,0 -5,20 -15,20 0,40 15,20 5,20 5,0 Z" fill="magenta" transform="translate(0,15) rotate(-90)"/>
    </marker>
  </defs>
  <polyline points="768,-224 1008,-224" stroke="white" stroke-width="2" fill="none"/>
  <polyline points="768,-160 1344,-160" stroke="white" stroke-width="2" fill="none"/>
  <polyline points="768,-160 768,-224" stroke="white" stroke-width="2" fill="none"/>
  <polyline points="1104,-224 1344,-224 1344,-160" stroke="white" stroke-width="2" fill="none"/>
  <polyline points="1344,-240 1168,-240 1168,-304 944,-304 944,-240 768,-240" stroke="white" stroke-width="2" fill="none"/>
  <polyline points="1344,-240 1344,-272 1488,-272 1488,-112 1344,-112 1344,-144 1088,-144 1088,32" stroke="white" stroke-width="2" fill="none"/>
  <polyline points="1024,32 1024,-144 768,-144 768,-112 624,-112 624,-272 768,-272 768,-240" stroke="white" stroke-width="2" fill="none"/>
  <polyline points="880,-80 1056,96 1232,-80" stroke="white" stroke-width="2" fill="none"/>
  <polyline points="1056,80 880,-96" stroke="white" stroke-width="2" fill="none"/>
  <polyline points="1056,80 1232,-96" stroke="white" stroke-width="2" fill="none"/>
  <polyline points="1088,32 1232,-112" stroke="white" stroke-width="2" fill="none"/>
  <polyline points="1024,32 880,-112" stroke="white" stroke-width="2" fill="none"/>
  <polyline points="880,-112 800,-112 784,-112 768,-96 768,176" stroke="white" stroke-width="2" fill="none"/>
  <polyline points="1232,-112 1328,-112 1344,-96 1344,176" stroke="white" stroke-width="2" fill="none"/>
  <polyline points="880,-96 800,-96 784,-80 784,96 800,112 1040,112" stroke="white" stroke-width="2" fill="none"/>
  <polyline points="1232,-96 1312,-96 1328,-80 1328,96 1312,112 1072,112" stroke="white" stroke-width="2" fill="none"/>
  <polyline points="1344,176 768,176" stroke="white" stroke-width="2" fill="none"/>
  <polyline points="1072,112 1248,-64 1248,-96" stroke="white" stroke-width="2" fill="none"/>
  <polyline points="1040,112 864,-64 864,-96" stroke="white" stroke-width="2" fill="none"/>
  <circle cx="1056" cy="-192" r="50" stroke="#3399ff" opacity="1" stroke-width="2" fill="none"/>
  <circle cx="1120" cy="-256" r="32" stroke="#3399ff" opacity="1" stroke-width="2" fill="none"/>
  <circle cx="992" cy="-256" r="32" stroke="#3399ff" opacity="1" stroke-width="2" fill="none"/>
  <circle cx="1056" cy="-288" r="32" stroke="#3399ff" opacity="1" stroke-width="2" fill="none"/>
  <circle cx="704" cy="-192" r="64" stroke="#3399ff" opacity="1" stroke-width="2" fill="none"/>
  <circle cx="1408" cy="-192" r="64" stroke="#3399ff" opacity="1" stroke-width="2" fill="none"/>
  <circle cx="1056" cy="-96" r="30" stroke="#3399ff" opacity="1" stroke-width="2" fill="none"/>
  <circle cx="1056" cy="-32" r="30" stroke="#3399ff" opacity="1" stroke-width="2" fill="none"/>
  <circle cx="1056" cy="88" r="5" stroke="#33ff33" opacity="1" stroke-width="2" fill="none"/>
  <circle cx="1000" cy="24" r="8" stroke="#3399ff" opacity="1" stroke-width="2" fill="none"/>
  <circle cx="976" cy="0" r="8" stroke="#3399ff" opacity="1" stroke-width="2" fill="none"/>
  <circle cx="952" cy="-24" r="8" stroke="#3399ff" opacity="1" stroke-width="2" fill="none"/>
  <circle cx="928" cy="-48" r="8" stroke="#3399ff" opacity="1" stroke-width="2" fill="none"/>
  <circle cx="904" cy="-72" r="8" stroke="#3399ff" opacity="1" stroke-width="2" fill="none"/>
  <circle cx="1112" cy="24" r="8" stroke="#3399ff" opacity="1" stroke-width="2" fill="none"/>
  <circle cx="1136" cy="0" r="8" stroke="#3399ff" opacity="1" stroke-width="2" fill="none"/>
  <circle cx="1160" cy="-24" r="8" stroke="#3399ff" opacity="1" stroke-width="2" fill="none"/>
  <circle cx="1208" cy="-72" r="8" stroke="#3399ff" opacity="1" stroke-width="2" fill="none"/>
  <circle cx="1184" cy="-48" r="8" stroke="#3399ff" opacity="1" stroke-width="2" fill="none"/>
  <circle cx="1056" cy="80" r="8" stroke="#3399ff" opacity="1" stroke-width="2" fill="none"/>
  <circle cx="1032" cy="8" r="8" stroke="#3399ff" opacity="1" stroke-width="2" fill="none"/>
  <circle cx="1048" cy="24" r="8" stroke="#3399ff" opacity="1" stroke-width="2" fill="none"/>
  <circle cx="1064" cy="24" r="8" stroke="#3399ff" opacity="1" stroke-width="2" fill="none"/>
  <circle cx="1080" cy="8" r="8" stroke="#3399ff" opacity="1" stroke-width="2" fill="none"/>
  <circle cx="1032" cy="40" r="8" stroke="#3399ff" opacity="1" stroke-width="2" fill="none"/>
  <circle cx="1048" cy="56" r="8" stroke="#3399ff" opacity="1" stroke-width="2" fill="none"/>
  <circle cx="1064" cy="56" r="8" stroke="#3399ff" opacity="1" stroke-width="2" fill="none"/>
  <circle cx="1080" cy="40" r="8" stroke="#3399ff" opacity="1" stroke-width="2" fill="none"/>
  <circle cx="1056" cy="144" r="32" stroke="#3399ff" opacity="1" stroke-width="2" fill="none"/>
  <circle cx="816" cy="144" r="16" stroke="#3399ff" opacity="1" stroke-width="2" fill="none"/>
  <circle cx="1296" cy="144" r="16" stroke="#3399ff" opacity="1" stroke-width="2" fill="none"/>
  <circle cx="880" cy="-80" r="8" stroke="#3399ff" opacity="1" stroke-width="2" fill="none"/>
  <circle cx="1232" cy="-80" r="8" stroke="#3399ff" opacity="1" stroke-width="2" fill="none"/>
  <circle cx="1056" cy="104" r="8" stroke="#3399ff" opacity="1" stroke-width="2" fill="none"/>
  <circle cx="984" cy="40" r="8" stroke="#3399ff" opacity="1" stroke-width="2" fill="none"/>
  <circle cx="960" cy="16" r="8" stroke="#3399ff" opacity="1" stroke-width="2" fill="none"/>
  <circle cx="936" cy="-8" r="8" stroke="#3399ff" opacity="1" stroke-width="2" fill="none"/>
  <circle cx="912" cy="-32" r="8" stroke="#3399ff" opacity="1" stroke-width="2" fill="none"/>
  <circle cx="888" cy="-56" r="8" stroke="#3399ff" opacity="1" stroke-width="2" fill="none"/>
  <circle cx="1128" cy="40" r="8" stroke="#3399ff" opacity="1" stroke-width="2" fill="none"/>
  <circle cx="1152" cy="16" r="8" stroke="#3399ff" opacity="1" stroke-width="2" fill="none"/>
  <circle cx="1176" cy="-8" r="8" stroke="#3399ff" opacity="1" stroke-width="2" fill="none"/>
  <circle cx="1200" cy="-32" r="8" stroke="#3399ff" opacity="1" stroke-width="2" fill="none"/>
  <circle cx="1224" cy="-56" r="8" stroke="#3399ff" opacity="1" stroke-width="2" fill="none"/>
  <path marker-end="url(#spawn)" stroke-width="0.5" stroke="red" d="M 0 0 0 1" transform="translate(784,-192) scale(1 -1) rotate(-90) matrix(1,0,0,1,0,0)" fill="none"/>
  <path marker-end="url(#spawn)" stroke-width="0.5" stroke="red" d="M 0 0 0 1" transform="translate(1328,-192) scale(1 -1) rotate(-90) matrix(-1,0,0,-1,0,0)" fill="none"/>
</svg>
