<?xml version="1.0" encoding="UTF-8" standalone="no"?>
<svg xmlns="http://www.w3.org/2000/svg" viewBox="555,11,394,650" width="100%" height="100%">
  <defs>
    <marker id="spawn" markerWidth="30" markerHeight="40" refX="2" refY="15" orient="auto" viewBox="0 0 40 30">
      <path d="M -5,0 -5,20 -15,20 0,40 15,20 5,20 5,0 Z" fill="magenta" transform="translate(0,15) rotate(-90)"/>
    </marker>
  </defs>
  <polyline points="560,16 560,512" stroke="white" stroke-width="2" fill="none"/>
  <polyline points="624,16 624,512" stroke="white" stroke-width="2" fill="none"/>
  <polyline points="560,16 624,16" stroke="white" stroke-width="2" fill="none"/>
  <polyline points="880,512 880,16 944,16 944,512" stroke="white" stroke-width="2" fill="none"/>
  <polyline points="560,512 560,656 944,656 944,512" stroke="white" stroke-width="2" fill="none"/>
  <circle cx="752" cy="512" r="128" stroke="#3399ff" opacity="1" stroke-width="2" fill="none"/>
  <circle cx="560" cy="512" r="10" stroke="#3399ff" opacity="1" stroke-width="2" fill="none"/>
  <circle cx="560" cy="528" r="10" stroke="#3399ff" opacity="1" stroke-width="2" fill="none"/>
  <circle cx="560" cy="544" r="10" stroke="#3399ff" opacity="1" stroke-width="2" fill="none"/>
  <circle cx="560" cy="560" r="10" stroke="#3399ff" opacity="1" stroke-width="2" fill="none"/>
  <circle cx="560" cy="576" r="10" stroke="#3399ff" opacity="1" stroke-width="2" fill="none"/>
  <circle cx="560" cy="592" r="10" stroke="#3399ff" opacity="1" stroke-width="2" fill="none"/>
  <circle cx="560" cy="608" r="10" stroke="#3399ff" opacity="1" stroke-width="2" fill="none"/>
  <circle cx="560" cy="624" r="10" stroke="#3399ff" opacity="1" stroke-width="2" fill="none"/>
  <circle cx="560" cy="640" r="10" stroke="#3399ff" opacity="1" stroke-width="2" fill="none"/>
  <circle cx="560" cy="656" r="10" stroke="#3399ff" opacity="1" stroke-width="2" fill="none"/>
  <circle cx="576" cy="656" r="10" stroke="#3399ff" opacity="1" stroke-width="2" fill="none"/>
  <circle cx="592" cy="656" r="10" stroke="#3399ff" opacity="1" stroke-width="2" fill="none"/>
  <circle cx="608" cy="656" r="10" stroke="#3399ff" opacity="1" stroke-width="2" fill="none"/>
  <circle cx="624" cy="656" r="10" stroke="#3399ff" opacity="1" stroke-width="2" fill="none"/>
  <circle cx="640" cy="656" r="10" stroke="#3399ff" opacity="1" stroke-width="2" fill="none"/>
  <circle cx="656" cy="656" r="10" stroke="#3399ff" opacity="1" stroke-width="2" fill="none"/>
  <circle cx="672" cy="656" r="10" stroke="#3399ff" opacity="1" stroke-width="2" fill="none"/>
  <circle cx="688" cy="656" r="10" stroke="#3399ff" opacity="1" stroke-width="2" fill="none"/>
  <circle cx="704" cy="656" r="10" stroke="#3399ff" opacity="1" stroke-width="2" fill="none"/>
  <circle cx="720" cy="656" r="10" stroke="#3399ff" opacity="1" stroke-width="2" fill="none"/>
  <circle cx="736" cy="656" r="10" stroke="#3399ff" opacity="1" stroke-width="2" fill="none"/>
  <circle cx="752" cy="656" r="10" stroke="#3399ff" opacity="1" stroke-width="2" fill="none"/>
  <circle cx="768" cy="656" r="10" stroke="#3399ff" opacity="1" stroke-width="2" fill="none"/>
  <circle cx="784" cy="656" r="10" stroke="#3399ff" opacity="1" stroke-width="2" fill="none"/>
  <circle cx="800" cy="656" r="10" stroke="#3399ff" opacity="1" stroke-width="2" fill="none"/>
  <circle cx="816" cy="656" r="10" stroke="#3399ff" opacity="1" stroke-width="2" fill="none"/>
  <circle cx="832" cy="656" r="10" stroke="#3399ff" opacity="1" stroke-width="2" fill="none"/>
  <circle cx="848" cy="656" r="10" stroke="#3399ff" opacity="1" stroke-width="2" fill="none"/>
  <circle cx="864" cy="656" r="10" stroke="#3399ff" opacity="1" stroke-width="2" fill="none"/>
  <circle cx="880" cy="656" r="10" stroke="#3399ff" opacity="1" stroke-width="2" fill="none"/>
  <circle cx="896" cy="656" r="10" stroke="#3399ff" opacity="1" stroke-width="2" fill="none"/>
  <circle cx="912" cy="656" r="10" stroke="#3399ff" opacity="1" stroke-width="2" fill="none"/>
  <circle cx="928" cy="656" r="10" stroke="#3399ff" opacity="1" stroke-width="2" fill="none"/>
  <circle cx="944" cy="656" r="10" stroke="#3399ff" opacity="1" stroke-width="2" fill="none"/>
  <circle cx="944" cy="640" r="10" stroke="#3399ff" opacity="1" stroke-width="2" fill="none"/>
  <circle cx="944" cy="624" r="10" stroke="#3399ff" opacity="1" stroke-width="2" fill="none"/>
  <circle cx="944" cy="608" r="10" stroke="#3399ff" opacity="1" stroke-width="2" fill="none"/>
  <circle cx="944" cy="592" r="10" stroke="#3399ff" opacity="1" stroke-width="2" fill="none"/>
  <circle cx="944" cy="576" r="10" stroke="#3399ff" opacity="1" stroke-width="2" fill="none"/>
  <circle cx="944" cy="560" r="10" stroke="#3399ff" opacity="1" stroke-width="2" fill="none"/>
  <circle cx="944" cy="544" r="10" stroke="#3399ff" opacity="1" stroke-width="2" fill="none"/>
  <circle cx="944" cy="528" r="10" stroke="#3399ff" opacity="1" stroke-width="2" fill="none"/>
  <circle cx="944" cy="512" r="10" stroke="#3399ff" opacity="1" stroke-width="2" fill="none"/>
  <circle cx="928" cy="32" r="16" stroke="#33ff33" opacity="1" stroke-width="2" fill="none"/>
  <circle cx="560" cy="64" r="32" stroke="#3399ff" opacity="1" stroke-width="2" fill="none"/>
  <circle cx="560" cy="160" r="32" stroke="#3399ff" opacity="1" stroke-width="2" fill="none"/>
  <circle cx="624" cy="112" r="32" stroke="#3399ff" opacity="1" stroke-width="2" fill="none"/>
  <circle cx="624" cy="208" r="32" stroke="#3399ff" opacity="1" stroke-width="2" fill="none"/>
  <circle cx="560" cy="256" r="32" stroke="#3399ff" opacity="1" stroke-width="2" fill="none"/>
  <circle cx="624" cy="304" r="32" stroke="#3399ff" opacity="1" stroke-width="2" fill="none"/>
  <circle cx="560" cy="352" r="32" stroke="#3399ff" opacity="1" stroke-width="2" fill="none"/>
  <circle cx="624" cy="400" r="32" stroke="#3399ff" opacity="1" stroke-width="2" fill="none"/>
  <circle cx="560" cy="448" r="32" stroke="#3399ff" opacity="1" stroke-width="2" fill="none"/>
  <circle cx="624" cy="496" r="32" stroke="#3399ff" opacity="1" stroke-width="2" fill="none"/>
  <circle cx="880" cy="496" r="32" stroke="#3399ff" opacity="1" stroke-width="2" fill="none"/>
  <circle cx="944" cy="464" r="32" stroke="#3399ff" opacity="1" stroke-width="2" fill="none"/>
  <circle cx="880" cy="400" r="32" stroke="#3399ff" opacity="1" stroke-width="2" fill="none"/>
  <circle cx="944" cy="352" r="32" stroke="#3399ff" opacity="1" stroke-width="2" fill="none"/>
  <circle cx="880" cy="304" r="32" stroke="#3399ff" opacity="1" stroke-width="2" fill="none"/>
  <circle cx="944" cy="256" r="32" stroke="#3399ff" opacity="1" stroke-width="2" fill="none"/>
  <circle cx="880" cy="208" r="32" stroke="#3399ff" opacity="1" stroke-width="2" fill="none"/>
  <circle cx="944" cy="160" r="32" stroke="#3399ff" opacity="1" stroke-width="2" fill="none"/>
  <circle cx="880" cy="112" r="32" stroke="#3399ff" opacity="1" stroke-width="2" fill="none"/>
  <circle cx="944" cy="64" r="32" stroke="#3399ff" opacity="1" stroke-width="2" fill="none"/>
  <circle cx="608" cy="576" r="32" stroke="#3399ff" opacity="1" stroke-width="2" fill="none"/>
  <circle cx="896" cy="576" r="32" stroke="#3399ff" opacity="1" stroke-width="2" fill="none"/>
  <circle cx="640" cy="640" r="26" stroke="#3399ff" opacity="1" stroke-width="2" fill="none"/>
  <circle cx="864" cy="640" r="26" stroke="#3399ff" opacity="1" stroke-width="2" fill="none"/>
  <circle cx="880" cy="32" r="32" stroke="#3399ff" opacity="1" stroke-width="2" fill="none"/>
  <path marker-end="url(#spawn)" stroke-width="0.5" stroke="red" d="M 0 0 0 1" transform="translate(608,32) scale(1 -1) rotate(-90) matrix(0,-1,1,0,0,0)" fill="none"/>
</svg>
