<?xml version="1.0" encoding="UTF-8" standalone="no"?>
<svg xmlns="http://www.w3.org/2000/svg" viewBox="-5,-629,474,634" width="100%" height="100%">
  <defs>
    <marker id="spawn" markerWidth="30" markerHeight="40" refX="2" refY="15" orient="auto" viewBox="0 0 40 30">
      <path d="M -5,0 -5,20 -15,20 0,40 15,20 5,20 5,0 Z" fill="magenta" transform="translate(0,15) rotate(-90)"/>
    </marker>
  </defs>
  <polyline points="192,-320 224,-320 224,-496 256,-496 256,-464 224,-464" stroke="white" stroke-width="2" fill="none"/>
  <polyline points="192,-320 192,-528 288,-528 288,-432 256,-432" stroke="white" stroke-width="2" fill="none"/>
  <polyline points="256,-432 256,-400 288,-400 288,-432" stroke="white" stroke-width="2" fill="none"/>
  <polyline points="224,-368 320,-368" stroke="white" stroke-width="2" fill="none"/>
  <polyline points="320,-400 320,-560 224,-560" stroke="white" stroke-width="2" fill="none"/>
  <polyline points="192,-528 192,-560 160,-560 160,-528 192,-528" stroke="white" stroke-width="2" fill="none"/>
  <polyline points="224,-560 224,-592 128,-592 128,-496 160,-496 160,-352 128,-352 128,-384 160,-384" stroke="white" stroke-width="2" fill="none"/>
  <polyline points="192,-320 96,-320 96,-416 128,-416 128,-464 96,-464 96,-592" stroke="white" stroke-width="2" fill="none"/>
  <polyline points="320,-368 384,-368 384,-336 352,-336 352,-368" stroke="white" stroke-width="2" fill="none"/>
  <polyline points="320,-400 416,-400 416,-304 320,-304 320,-336" stroke="white" stroke-width="2" fill="none"/>
  <polyline points="320,-336 256,-336 256,-288 128,-288 128,-256 160,-256 160,-288" stroke="white" stroke-width="2" fill="none"/>
  <polyline points="96,-320 96,-224 224,-224 224,-256 192,-256 192,-224" stroke="white" stroke-width="2" fill="none"/>
  <polyline points="256,-288 256,-192 64,-192 64,-256 32,-256 32,-224 64,-224" stroke="white" stroke-width="2" fill="none"/>
  <polyline points="96,-288 0,-288 0,-192 32,-192" stroke="white" stroke-width="2" fill="none"/>
  <polyline points="96,-592 96,-624 256,-624 256,-592 272,-592" stroke="white" stroke-width="2" fill="none"/>
  <polyline points="272,-592 320,-592" stroke="white" stroke-width="2" fill="none"/>
  <polyline points="32,-192 32,-144" stroke="white" stroke-width="2" fill="none"/>
  <polyline points="64,-144 64,-192" stroke="white" stroke-width="2" fill="none"/>
  <polyline points="320,-592 352,-592" stroke="white" stroke-width="2" fill="none"/>
  <polyline points="320,-560 352,-560" stroke="white" stroke-width="2" fill="none"/>
  <polyline points="64,-144 64,-112" stroke="white" stroke-width="2" fill="none"/>
  <polyline points="32,-144 32,-112" stroke="white" stroke-width="2" fill="none"/>
  <polyline points="32,-112 0,-80 0,-32" stroke="white" stroke-width="2" fill="none"/>
  <polyline points="64,-112 96,-80 96,-32" stroke="white" stroke-width="2" fill="none"/>
  <polyline points="352,-560 384,-528 432,-528" stroke="white" stroke-width="2" fill="none"/>
  <polyline points="352,-592 384,-624 432,-624" stroke="white" stroke-width="2" fill="none"/>
  <polyline points="432,-624 464,-592" stroke="white" stroke-width="2" fill="none"/>
  <polyline points="432,-528 464,-560" stroke="white" stroke-width="2" fill="none"/>
  <polyline points="96,-32 64,0" stroke="white" stroke-width="2" fill="none"/>
  <polyline points="32,0 0,-32" stroke="white" stroke-width="2" fill="none"/>
  <circle cx="48" cy="0" r="18" stroke="#3399ff" opacity="1" stroke-width="2" fill="none"/>
  <circle cx="464" cy="-576" r="18" stroke="#3399ff" opacity="1" stroke-width="2" fill="none"/>
  <circle cx="240" cy="-480" r="22" stroke="#3399ff" opacity="1" stroke-width="2" fill="none"/>
  <circle cx="176" cy="-544" r="22" stroke="#3399ff" opacity="1" stroke-width="2" fill="none"/>
  <circle cx="144" cy="-368" r="22" stroke="#3399ff" opacity="1" stroke-width="2" fill="none"/>
  <circle cx="368" cy="-352" r="22" stroke="#3399ff" opacity="1" stroke-width="2" fill="none"/>
  <circle cx="272" cy="-416" r="22" stroke="#3399ff" opacity="1" stroke-width="2" fill="none"/>
  <circle cx="48" cy="-64" r="43" stroke="#00ff99" opacity="1" stroke-width="2" fill="none"/>
  <circle cx="400" cy="-576" r="43" stroke="#00ff99" opacity="1" stroke-width="2" fill="none"/>
  <circle cx="208" cy="-240" r="22" stroke="#3399ff" opacity="1" stroke-width="2" fill="none"/>
  <circle cx="144" cy="-272" r="22" stroke="#3399ff" opacity="1" stroke-width="2" fill="none"/>
  <circle cx="48" cy="-240" r="22" stroke="#3399ff" opacity="1" stroke-width="2" fill="none"/>
  <path marker-end="url(#spawn)" stroke-width="0.5" stroke="red" d="M 0 0 0 1" transform="translate(208,-336) scale(1 -1) rotate(-90) matrix(0,1,-1,0,0,0)" fill="none"/>
</svg>
