<?xml version="1.0" encoding="UTF-8" standalone="no"?>
<svg xmlns="http://www.w3.org/2000/svg" viewBox="-5,-277,218,282" width="100%" height="100%">
  <defs>
    <marker id="spawn" markerWidth="30" markerHeight="40" refX="2" refY="15" orient="auto" viewBox="0 0 40 30">
      <path d="M -5,0 -5,20 -15,20 0,40 15,20 5,20 5,0 Z" fill="magenta" transform="translate(0,15) rotate(-90)"/>
    </marker>
  </defs>
  <polyline points="0,0 208,0 208,-272 0,-272 0,0" stroke="white" stroke-width="2" fill="none"/>
  <circle cx="192" cy="-240" r="10" stroke="#00ff99" opacity="1" stroke-width="2" fill="none"/>
  <circle cx="0" cy="0" r="10" stroke="#3399ff" opacity="1" stroke-width="2" fill="none"/>
  <circle cx="16" cy="0" r="10" stroke="#3399ff" opacity="1" stroke-width="2" fill="none"/>
  <circle cx="32" cy="0" r="10" stroke="#3399ff" opacity="1" stroke-width="2" fill="none"/>
  <circle cx="48" cy="0" r="10" stroke="#3399ff" opacity="1" stroke-width="2" fill="none"/>
  <circle cx="64" cy="0" r="10" stroke="#3399ff" opacity="1" stroke-width="2" fill="none"/>
  <circle cx="80" cy="0" r="10" stroke="#3399ff" opacity="1" stroke-width="2" fill="none"/>
  <circle cx="96" cy="0" r="10" stroke="#3399ff" opacity="1" stroke-width="2" fill="none"/>
  <circle cx="112" cy="0" r="10" stroke="#3399ff" opacity="1" stroke-width="2" fill="none"/>
  <circle cx="128" cy="0" r="10" stroke="#3399ff" opacity="1" stroke-width="2" fill="none"/>
  <circle cx="144" cy="0" r="10" stroke="#3399ff" opacity="1" stroke-width="2" fill="none"/>
  <circle cx="160" cy="0" r="10" stroke="#3399ff" opacity="1" stroke-width="2" fill="none"/>
  <circle cx="176" cy="0" r="10" stroke="#3399ff" opacity="1" stroke-width="2" fill="none"/>
  <circle cx="192" cy="0" r="10" stroke="#3399ff" opacity="1" stroke-width="2" fill="none"/>
  <circle cx="208" cy="0" r="10" stroke="#3399ff" opacity="1" stroke-width="2" fill="none"/>
  <circle cx="0" cy="-16" r="10" stroke="#3399ff" opacity="1" stroke-width="2" fill="none"/>
  <circle cx="80" cy="-16" r="10" stroke="#3399ff" opacity="1" stroke-width="2" fill="none"/>
  <circle cx="144" cy="-16" r="10" stroke="#3399ff" opacity="1" stroke-width="2" fill="none"/>
  <circle cx="208" cy="-16" r="10" stroke="#3399ff" opacity="1" stroke-width="2" fill="none"/>
  <circle cx="0" cy="-32" r="10" stroke="#3399ff" opacity="1" stroke-width="2" fill="none"/>
  <circle cx="112" cy="-32" r="10" stroke="#3399ff" opacity="1" stroke-width="2" fill="none"/>
  <circle cx="128" cy="-32" r="10" stroke="#3399ff" opacity="1" stroke-width="2" fill="none"/>
  <circle cx="176" cy="-32" r="10" stroke="#3399ff" opacity="1" stroke-width="2" fill="none"/>
  <circle cx="208" cy="-32" r="10" stroke="#3399ff" opacity="1" stroke-width="2" fill="none"/>
  <circle cx="0" cy="-48" r="10" stroke="#3399ff" opacity="1" stroke-width="2" fill="none"/>
  <circle cx="80" cy="-48" r="10" stroke="#3399ff" opacity="1" stroke-width="2" fill="none"/>
  <circle cx="128" cy="-48" r="10" stroke="#3399ff" opacity="1" stroke-width="2" fill="none"/>
  <circle cx="144" cy="-48" r="10" stroke="#3399ff" opacity="1" stroke-width="2" fill="none"/>
  <circle cx="176" cy="-48" r="10" stroke="#3399ff" opacity="1" stroke-width="2" fill="none"/>
  <circle cx="208" cy="-48" r="10" stroke="#3399ff" opacity="1" stroke-width="2" fill="none"/>
  <circle cx="0" cy="-64" r="10" stroke="#3399ff" opacity="1" stroke-width="2" fill="none"/>
  <circle cx="16" cy="-64" r="10" stroke="#3399ff" opacity="1" stroke-width="2" fill="none"/>
  <circle cx="32" cy="-64" r="10" stroke="#3399ff" opacity="1" stroke-width="2" fill="none"/>
  <circle cx="48" cy="-64" r="10" stroke="#3399ff" opacity="1" stroke-width="2" fill="none"/>
  <circle cx="64" cy="-64" r="10" stroke="#3399ff" opacity="1" stroke-width="2" fill="none"/>
  <circle cx="80" cy="-64" r="10" stroke="#3399ff" opacity="1" stroke-width="2" fill="none"/>
  <circle cx="96" cy="-64" r="10" stroke="#3399ff" opacity="1" stroke-width="2" fill="none"/>
  <circle cx="176" cy="-64" r="10" stroke="#3399ff" opacity="1" stroke-width="2" fill="none"/>
  <circle cx="208" cy="-64" r="10" stroke="#3399ff" opacity="1" stroke-width="2" fill="none"/>
  <circle cx="0" cy="-80" r="10" stroke="#3399ff" opacity="1" stroke-width="2" fill="none"/>
  <circle cx="64" cy="-80" r="10" stroke="#3399ff" opacity="1" stroke-width="2" fill="none"/>
  <circle cx="96" cy="-80" r="10" stroke="#3399ff" opacity="1" stroke-width="2" fill="none"/>
  <circle cx="112" cy="-80" r="10" stroke="#3399ff" opacity="1" stroke-width="2" fill="none"/>
  <circle cx="128" cy="-80" r="10" stroke="#3399ff" opacity="1" stroke-width="2" fill="none"/>
  <circle cx="144" cy="-80" r="10" stroke="#3399ff" opacity="1" stroke-width="2" fill="none"/>
  <circle cx="160" cy="-80" r="10" stroke="#3399ff" opacity="1" stroke-width="2" fill="none"/>
  <circle cx="176" cy="-80" r="10" stroke="#3399ff" opacity="1" stroke-width="2" fill="none"/>
  <circle cx="208" cy="-80" r="10" stroke="#3399ff" opacity="1" stroke-width="2" fill="none"/>
  <circle cx="0" cy="-96" r="10" stroke="#3399ff" opacity="1" stroke-width="2" fill="none"/>
  <circle cx="32" cy="-96" r="10" stroke="#3399ff" opacity="1" stroke-width="2" fill="none"/>
  <circle cx="112" cy="-96" r="10" stroke="#3399ff" opacity="1" stroke-width="2" fill="none"/>
  <circle cx="160" cy="-96" r="10" stroke="#3399ff" opacity="1" stroke-width="2" fill="none"/>
  <circle cx="208" cy="-96" r="10" stroke="#3399ff" opacity="1" stroke-width="2" fill="none"/>
  <circle cx="0" cy="-112" r="10" stroke="#3399ff" opacity="1" stroke-width="2" fill="none"/>
  <circle cx="32" cy="-112" r="10" stroke="#3399ff" opacity="1" stroke-width="2" fill="none"/>
  <circle cx="48" cy="-112" r="10" stroke="#3399ff" opacity="1" stroke-width="2" fill="none"/>
  <circle cx="64" cy="-112" r="10" stroke="#3399ff" opacity="1" stroke-width="2" fill="none"/>
  <circle cx="96" cy="-112" r="10" stroke="#3399ff" opacity="1" stroke-width="2" fill="none"/>
  <circle cx="128" cy="-112" r="10" stroke="#3399ff" opacity="1" stroke-width="2" fill="none"/>
  <circle cx="192" cy="-112" r="10" stroke="#3399ff" opacity="1" stroke-width="2" fill="none"/>
  <circle cx="208" cy="-112" r="10" stroke="#3399ff" opacity="1" stroke-width="2" fill="none"/>
  <circle cx="0" cy="-128" r="10" stroke="#3399ff" opacity="1" stroke-width="2" fill="none"/>
  <circle cx="64" cy="-128" r="10" stroke="#3399ff" opacity="1" stroke-width="2" fill="none"/>
  <circle cx="80" cy="-128" r="10" stroke="#3399ff" opacity="1" stroke-width="2" fill="none"/>
  <circle cx="96" cy="-128" r="10" stroke="#3399ff" opacity="1" stroke-width="2" fill="none"/>
  <circle cx="112" cy="-128" r="10" stroke="#3399ff" opacity="1" stroke-width="2" fill="none"/>
  <circle cx="128" cy="-128" r="10" stroke="#3399ff" opacity="1" stroke-width="2" fill="none"/>
  <circle cx="144" cy="-128" r="10" stroke="#3399ff" opacity="1" stroke-width="2" fill="none"/>
  <circle cx="160" cy="-128" r="10" stroke="#3399ff" opacity="1" stroke-width="2" fill="none"/>
  <circle cx="176" cy="-128" r="10" stroke="#3399ff" opacity="1" stroke-width="2" fill="none"/>
  <circle cx="192" cy="-128" r="10" stroke="#3399ff" opacity="1" stroke-width="2" fill="none"/>
  <circle cx="208" cy="-128" r="10" stroke="#3399ff" opacity="1" stroke-width="2" fill="none"/>
  <circle cx="0" cy="-144" r="0" stroke="#3399ff" opacity="1" stroke-width="2" fill="none"/>
  <circle cx="64" cy="-144" r="10" stroke="#3399ff" opacity="1" stroke-width="2" fill="none"/>
  <circle cx="208" cy="-144" r="10" stroke="#3399ff" opacity="1" stroke-width="2" fill="none"/>
  <circle cx="0" cy="-160" r="10" stroke="#3399ff" opacity="1" stroke-width="2" fill="none"/>
  <circle cx="80" cy="-160" r="10" stroke="#3399ff" opacity="1" stroke-width="2" fill="none"/>
  <circle cx="208" cy="-160" r="10" stroke="#3399ff" opacity="1" stroke-width="2" fill="none"/>
  <circle cx="112" cy="-160" r="4" stroke="#3399ff" opacity="1" stroke-width="2" fill="none"/>
  <circle cx="128" cy="-160" r="4" stroke="#3399ff" opacity="1" stroke-width="2" fill="none"/>
  <circle cx="144" cy="-160" r="4" stroke="#3399ff" opacity="1" stroke-width="2" fill="none"/>
  <circle cx="160" cy="-160" r="4" stroke="#3399ff" opacity="1" stroke-width="2" fill="none"/>
  <circle cx="176" cy="-160" r="4" stroke="#3399ff" opacity="1" stroke-width="2" fill="none"/>
  <circle cx="0" cy="-176" r="10" stroke="#3399ff" opacity="1" stroke-width="2" fill="none"/>
  <circle cx="16" cy="-176" r="10" stroke="#3399ff" opacity="1" stroke-width="2" fill="none"/>
  <circle cx="32" cy="-176" r="10" stroke="#3399ff" opacity="1" stroke-width="2" fill="none"/>
  <circle cx="48" cy="-176" r="10" stroke="#3399ff" opacity="1" stroke-width="2" fill="none"/>
  <circle cx="64" cy="-176" r="10" stroke="#3399ff" opacity="1" stroke-width="2" fill="none"/>
  <circle cx="80" cy="-176" r="10" stroke="#3399ff" opacity="1" stroke-width="2" fill="none"/>
  <circle cx="208" cy="-176" r="10" stroke="#3399ff" opacity="1" stroke-width="2" fill="none"/>
  <circle cx="0" cy="-192" r="10" stroke="#3399ff" opacity="1" stroke-width="2" fill="none"/>
  <circle cx="80" cy="-192" r="10" stroke="#3399ff" opacity="1" stroke-width="2" fill="none"/>
  <circle cx="96" cy="-192" r="10" stroke="#3399ff" opacity="1" stroke-width="2" fill="none"/>
  <circle cx="112" cy="-192" r="10" stroke="#3399ff" opacity="1" stroke-width="2" fill="none"/>
  <circle cx="128" cy="-192" r="10" stroke="#3399ff" opacity="1" stroke-width="2" fill="none"/>
  <circle cx="144" cy="-192" r="10" stroke="#3399ff" opacity="1" stroke-width="2" fill="none"/>
  <circle cx="160" cy="-192" r="10" stroke="#3399ff" opacity="1" stroke-width="2" fill="none"/>
  <circle cx="176" cy="-192" r="10" stroke="#3399ff" opacity="1" stroke-width="2" fill="none"/>
  <circle cx="208" cy="-192" r="10" stroke="#3399ff" opacity="1" stroke-width="2" fill="none"/>
  <circle cx="0" cy="-208" r="10" stroke="#3399ff" opacity="1" stroke-width="2" fill="none"/>
  <circle cx="32" cy="-208" r="10" stroke="#3399ff" opacity="1" stroke-width="2" fill="none"/>
  <circle cx="48" cy="-208" r="10" stroke="#3399ff" opacity="1" stroke-width="2" fill="none"/>
  <circle cx="96" cy="-208" r="10" stroke="#3399ff" opacity="1" stroke-width="2" fill="none"/>
  <circle cx="160" cy="-208" r="10" stroke="#3399ff" opacity="1" stroke-width="2" fill="none"/>
  <circle cx="208" cy="-208" r="10" stroke="#3399ff" opacity="1" stroke-width="2" fill="none"/>
  <circle cx="0" cy="-224" r="10" stroke="#3399ff" opacity="1" stroke-width="2" fill="none"/>
  <circle cx="48" cy="-224" r="10" stroke="#3399ff" opacity="1" stroke-width="2" fill="none"/>
  <circle cx="64" cy="-224" r="10" stroke="#3399ff" opacity="1" stroke-width="2" fill="none"/>
  <circle cx="128" cy="-224" r="10" stroke="#3399ff" opacity="1" stroke-width="2" fill="none"/>
  <circle cx="176" cy="-224" r="10" stroke="#3399ff" opacity="1" stroke-width="2" fill="none"/>
  <circle cx="192" cy="-224" r="10" stroke="#3399ff" opacity="1" stroke-width="2" fill="none"/>
  <circle cx="208" cy="-224" r="10" stroke="#3399ff" opacity="1" stroke-width="2" fill="none"/>
  <circle cx="0" cy="-240" r="10" stroke="#3399ff" opacity="1" stroke-width="2" fill="none"/>
  <circle cx="32" cy="-240" r="10" stroke="#3399ff" opacity="1" stroke-width="2" fill="none"/>
  <circle cx="64" cy="-240" r="10" stroke="#3399ff" opacity="1" stroke-width="2" fill="none"/>
  <circle cx="80" cy="-240" r="10" stroke="#3399ff" opacity="1" stroke-width="2" fill="none"/>
  <circle cx="96" cy="-240" r="10" stroke="#3399ff" opacity="1" stroke-width="2" fill="none"/>
  <circle cx="112" cy="-240" r="10" stroke="#3399ff" opacity="1" stroke-width="2" fill="none"/>
  <circle cx="128" cy="-240" r="10" stroke="#3399ff" opacity="1" stroke-width="2" fill="none"/>
  <circle cx="144" cy="-240" r="10" stroke="#3399ff" opacity="1" stroke-width="2" fill="none"/>
  <circle cx="160" cy="-240" r="10" stroke="#3399ff" opacity="1" stroke-width="2" fill="none"/>
  <circle cx="176" cy="-240" r="10" stroke="#3399ff" opacity="1" stroke-width="2" fill="none"/>
  <circle cx="208" cy="-240" r="10" stroke="#3399ff" opacity="1" stroke-width="2" fill="none"/>
  <circle cx="0" cy="-256" r="10" stroke="#3399ff" opacity="1" stroke-width="2" fill="none"/>
  <circle cx="192" cy="-256" r="10" stroke="#3399ff" opacity="1" stroke-width="2" fill="none"/>
  <circle cx="208" cy="-256" r="10" stroke="#3399ff" opacity="1" stroke-width="2" fill="none"/>
  <circle cx="64" cy="-256" r="1" stroke="#3399ff" opacity="1" stroke-width="2" fill="none"/>
  <circle cx="80" cy="-256" r="1.5" stroke="#3399ff" opacity="1" stroke-width="2" fill="none"/>
  <circle cx="96" cy="-256" r="2" stroke="#3399ff" opacity="1" stroke-width="2" fill="none"/>
  <circle cx="112" cy="-256" r="2.5" stroke="#3399ff" opacity="1" stroke-width="2" fill="none"/>
  <circle cx="128" cy="-256" r="3" stroke="#3399ff" opacity="1" stroke-width="2" fill="none"/>
  <circle cx="144" cy="-256" r="3.5" stroke="#3399ff" opacity="1" stroke-width="2" fill="none"/>
  <circle cx="160" cy="-256" r="4" stroke="#3399ff" opacity="1" stroke-width="2" fill="none"/>
  <circle cx="0" cy="-272" r="10" stroke="#3399ff" opacity="1" stroke-width="2" fill="none"/>
  <circle cx="16" cy="-272" r="10" stroke="#3399ff" opacity="1" stroke-width="2" fill="none"/>
  <circle cx="32" cy="-272" r="10" stroke="#3399ff" opacity="1" stroke-width="2" fill="none"/>
  <circle cx="48" cy="-272" r="10" stroke="#3399ff" opacity="1" stroke-width="2" fill="none"/>
  <circle cx="64" cy="-272" r="10" stroke="#3399ff" opacity="1" stroke-width="2" fill="none"/>
  <circle cx="80" cy="-272" r="10" stroke="#3399ff" opacity="1" stroke-width="2" fill="none"/>
  <circle cx="96" cy="-272" r="10" stroke="#3399ff" opacity="1" stroke-width="2" fill="none"/>
  <circle cx="112" cy="-272" r="10" stroke="#3399ff" opacity="1" stroke-width="2" fill="none"/>
  <circle cx="128" cy="-272" r="10" stroke="#3399ff" opacity="1" stroke-width="2" fill="none"/>
  <circle cx="144" cy="-272" r="10" stroke="#3399ff" opacity="1" stroke-width="2" fill="none"/>
  <circle cx="160" cy="-272" r="10" stroke="#3399ff" opacity="1" stroke-width="2" fill="none"/>
  <circle cx="176" cy="-272" r="10" stroke="#3399ff" opacity="1" stroke-width="2" fill="none"/>
  <circle cx="192" cy="-272" r="10" stroke="#3399ff" opacity="1" stroke-width="2" fill="none"/>
  <circle cx="208" cy="-272" r="10" stroke="#3399ff" opacity="1" stroke-width="2" fill="none"/>
  <circle cx="0" cy="-144" r="10" stroke="#3399ff" opacity="1" stroke-width="2" fill="none"/>
  <path marker-end="url(#spawn)" stroke-width="0.5" stroke="red" d="M 0 0 0 1" transform="translate(16,-32) scale(1 -1) rotate(-90) matrix(1,0,0,1,0,0)" fill="none"/>
</svg>
