<?xml version="1.0" encoding="UTF-8" standalone="no"?>
<svg xmlns="http://www.w3.org/2000/svg" viewBox="-5,-405,682,410" width="100%" height="100%">
  <defs>
    <marker id="spawn" markerWidth="30" markerHeight="40" refX="2" refY="15" orient="auto" viewBox="0 0 40 30">
      <path d="M -5,0 -5,20 -15,20 0,40 15,20 5,20 5,0 Z" fill="magenta" transform="translate(0,15) rotate(-90)"/>
    </marker>
  </defs>
  <polyline points="464,-368 208,-368 176,-336 144,-368" stroke="white" stroke-width="2" fill="none"/>
  <polyline points="144,-368 48,-368" stroke="white" stroke-width="2" fill="none"/>
  <polyline points="48,-368 48,-352 144,-352" stroke="white" stroke-width="2" fill="none"/>
  <polyline points="176,-336 144,-336" stroke="white" stroke-width="2" fill="none"/>
  <polyline points="176,-336 144,-304" stroke="white" stroke-width="2" fill="none"/>
  <polyline points="144,-320 112,-352" stroke="white" stroke-width="2" fill="none"/>
  <polyline points="144,-304 128,-304 128,-320" stroke="white" stroke-width="2" fill="none"/>
  <polyline points="128,-320 112,-336" stroke="white" stroke-width="2" fill="none"/>
  <polyline points="112,-336 112,-288" stroke="white" stroke-width="2" fill="none"/>
  <polyline points="48,-352 96,-304" stroke="white" stroke-width="2" fill="none"/>
  <polyline points="112,-288 48,-288" stroke="white" stroke-width="2" fill="none"/>
  <polyline points="48,-288 48,-336" stroke="white" stroke-width="2" fill="none"/>
  <polyline points="48,-368 32,-352 32,-272" stroke="white" stroke-width="2" fill="none"/>
  <polyline points="64,-288 64,-240" stroke="white" stroke-width="2" fill="none"/>
  <polyline points="32,-272 32,-256 64,-224" stroke="white" stroke-width="2" fill="none"/>
  <polyline points="464,-368 480,-352 624,-352" stroke="white" stroke-width="2" fill="none"/>
  <polyline points="64,-224 272,-224 368,-320 624,-320" stroke="white" stroke-width="2" fill="none"/>
  <polyline points="624,-320 640,-304 656,-320" stroke="white" stroke-width="2" fill="none"/>
  <polyline points="624,-352 640,-368 656,-352" stroke="white" stroke-width="2" fill="none"/>
  <polyline points="656,-320 656,-288 624,-288" stroke="white" stroke-width="2" fill="none"/>
  <polyline points="624,-384 176,-384" stroke="white" stroke-width="2" fill="none"/>
  <polyline points="624,-288 336,-288" stroke="white" stroke-width="2" fill="none"/>
  <polyline points="672,-384 672,-272 336,-272 272,-208 256,-208 224,-176 192,-176 176,-192" stroke="white" stroke-width="2" fill="none"/>
  <polyline points="192,-192 208,-208 208,-224" stroke="white" stroke-width="2" fill="none"/>
  <polyline points="192,-208 192,-224" stroke="white" stroke-width="2" fill="none"/>
  <polyline points="192,-192 192,-208" stroke="white" stroke-width="2" fill="none"/>
  <polyline points="176,-192 128,-192 128,0 48,0 48,-160" stroke="white" stroke-width="2" fill="none"/>
  <polyline points="672,-368 656,-384 624,-384" stroke="white" stroke-width="2" fill="none"/>
  <polyline points="672,-384 656,-384" stroke="white" stroke-width="2" fill="none"/>
  <polyline points="672,-288 656,-272" stroke="white" stroke-width="2" fill="none"/>
  <polyline points="176,-384 160,-400 48,-400 0,-352 0,-256 48,-208 48,-160" stroke="white" stroke-width="2" fill="none"/>
  <polyline points="144,-224 112,-192 112,-176" stroke="white" stroke-width="2" fill="none"/>
  <polyline points="80,-224 80,-208 64,-192 64,-176" stroke="white" stroke-width="2" fill="none"/>
  <polyline points="112,-176 80,-176" stroke="white" stroke-width="2" fill="none"/>
  <polyline points="112,-176 96,-160 112,-144 96,-128 112,-112 96,-96 112,-80 96,-64 112,-48 96,-32 112,-16" stroke="white" stroke-width="2" fill="none"/>
  <polyline points="64,-176 80,-160 64,-144 80,-128 64,-112 80,-96 64,-80 80,-64 64,-48 80,-32 64,-16" stroke="white" stroke-width="2" fill="none"/>
  <polyline points="224,-224 272,-272 320,-320" stroke="white" stroke-width="2" fill="none"/>
  <polyline points="320,-320 368,-320" stroke="white" stroke-width="2" fill="none"/>
  <polyline points="48,-176 64,-160" stroke="white" stroke-width="2" fill="none"/>
  <polyline points="48,-112 64,-96" stroke="white" stroke-width="2" fill="none"/>
  <polyline points="64,-32 48,-48" stroke="white" stroke-width="2" fill="none"/>
  <polyline points="112,-32 128,-48" stroke="white" stroke-width="2" fill="none"/>
  <polyline points="112,-96 128,-112" stroke="white" stroke-width="2" fill="none"/>
  <polyline points="112,-160 128,-176" stroke="white" stroke-width="2" fill="none"/>
  <polyline points="112,-128 128,-144" stroke="white" stroke-width="2" fill="none"/>
  <polyline points="112,-64 128,-80" stroke="white" stroke-width="2" fill="none"/>
  <polyline points="64,-64 48,-80" stroke="white" stroke-width="2" fill="none"/>
  <polyline points="64,-128 48,-144" stroke="white" stroke-width="2" fill="none"/>
  <polyline points="80,-160 80,-32" stroke="white" stroke-width="2" fill="none"/>
  <polyline points="96,-32 96,-160" stroke="white" stroke-width="2" fill="none"/>
  <circle cx="160" cy="-352" r="10" stroke="#3399ff" opacity="1" stroke-width="2" fill="none"/>
  <circle cx="144" cy="-320" r="10" stroke="#3399ff" opacity="1" stroke-width="2" fill="none"/>
  <circle cx="112" cy="-336" r="9" stroke="#3399ff" opacity="1" stroke-width="2" fill="none"/>
  <circle cx="96" cy="-336" r="9" stroke="#3399ff" opacity="1" stroke-width="2" fill="none"/>
  <circle cx="96" cy="-320" r="9" stroke="#3399ff" opacity="1" stroke-width="2" fill="none"/>
  <circle cx="80" cy="-304" r="9" stroke="#3399ff" opacity="1" stroke-width="2" fill="none"/>
  <circle cx="64" cy="-304" r="9" stroke="#3399ff" opacity="1" stroke-width="2" fill="none"/>
  <circle cx="64" cy="-320" r="9" stroke="#3399ff" opacity="1" stroke-width="2" fill="none"/>
  <circle cx="32" cy="-320" r="15" stroke="#3399ff" opacity="1" stroke-width="2" fill="none"/>
  <circle cx="32" cy="-272" r="18" stroke="#3399ff" opacity="1" stroke-width="2" fill="none"/>
  <circle cx="96" cy="-224" r="18" stroke="#3399ff" opacity="1" stroke-width="2" fill="none"/>
  <circle cx="128" cy="-256" r="18" stroke="#3399ff" opacity="1" stroke-width="2" fill="none"/>
  <circle cx="160" cy="-288" r="18" stroke="#3399ff" opacity="1" stroke-width="2" fill="none"/>
  <circle cx="192" cy="-320" r="18" stroke="#3399ff" opacity="1" stroke-width="2" fill="none"/>
  <circle cx="160" cy="-224" r="18" stroke="#3399ff" opacity="1" stroke-width="2" fill="none"/>
  <circle cx="192" cy="-256" r="18" stroke="#3399ff" opacity="1" stroke-width="2" fill="none"/>
  <circle cx="224" cy="-224" r="18" stroke="#3399ff" opacity="1" stroke-width="2" fill="none"/>
  <circle cx="224" cy="-288" r="18" stroke="#3399ff" opacity="1" stroke-width="2" fill="none"/>
  <circle cx="208" cy="-352" r="13" stroke="#3399ff" opacity="1" stroke-width="2" fill="none"/>
  <circle cx="256" cy="-352" r="13" stroke="#3399ff" opacity="1" stroke-width="2" fill="none"/>
  <circle cx="304" cy="-352" r="13" stroke="#3399ff" opacity="1" stroke-width="2" fill="none"/>
  <circle cx="352" cy="-352" r="13" stroke="#3399ff" opacity="1" stroke-width="2" fill="none"/>
  <circle cx="400" cy="-352" r="13" stroke="#3399ff" opacity="1" stroke-width="2" fill="none"/>
  <circle cx="448" cy="-352" r="13" stroke="#3399ff" opacity="1" stroke-width="2" fill="none"/>
  <circle cx="128" cy="-304" r="10" stroke="#3399ff" opacity="1" stroke-width="2" fill="none"/>
  <circle cx="112" cy="-304" r="10" stroke="#3399ff" opacity="1" stroke-width="2" fill="none"/>
  <circle cx="640" cy="-336" r="19" stroke="#3399ff" opacity="1" stroke-width="2" fill="none"/>
  <circle cx="176" cy="-384" r="17" stroke="#3399ff" opacity="1" stroke-width="2" fill="none"/>
  <circle cx="480" cy="-368" r="12" stroke="#3399ff" opacity="1" stroke-width="2" fill="none"/>
  <circle cx="512" cy="-368" r="12" stroke="#3399ff" opacity="1" stroke-width="2" fill="none"/>
  <circle cx="528" cy="-368" r="12" stroke="#3399ff" opacity="1" stroke-width="2" fill="none"/>
  <circle cx="544" cy="-368" r="12" stroke="#3399ff" opacity="1" stroke-width="2" fill="none"/>
  <circle cx="560" cy="-368" r="12" stroke="#3399ff" opacity="1" stroke-width="2" fill="none"/>
  <circle cx="576" cy="-368" r="12" stroke="#3399ff" opacity="1" stroke-width="2" fill="none"/>
  <circle cx="592" cy="-368" r="12" stroke="#3399ff" opacity="1" stroke-width="2" fill="none"/>
  <circle cx="608" cy="-368" r="12" stroke="#3399ff" opacity="1" stroke-width="2" fill="none"/>
  <circle cx="624" cy="-384" r="12" stroke="#3399ff" opacity="1" stroke-width="2" fill="none"/>
  <circle cx="368" cy="-320" r="17" stroke="#3399ff" opacity="1" stroke-width="2" fill="none"/>
  <circle cx="432" cy="-320" r="17" stroke="#3399ff" opacity="1" stroke-width="2" fill="none"/>
  <circle cx="400" cy="-320" r="17" stroke="#3399ff" opacity="1" stroke-width="2" fill="none"/>
  <circle cx="480" cy="-336" r="10" stroke="#3399ff" opacity="1" stroke-width="2" fill="none"/>
  <circle cx="512" cy="-336" r="12" stroke="#3399ff" opacity="1" stroke-width="2" fill="none"/>
  <circle cx="544" cy="-336" r="14" stroke="#3399ff" opacity="1" stroke-width="2" fill="none"/>
  <circle cx="96" cy="-384" r="13" stroke="#3399ff" opacity="1" stroke-width="2" fill="none"/>
  <circle cx="48" cy="-400" r="20" stroke="#3399ff" opacity="1" stroke-width="2" fill="none"/>
  <circle cx="0" cy="-352" r="16" stroke="#3399ff" opacity="1" stroke-width="2" fill="none"/>
  <circle cx="0" cy="-304" r="14" stroke="#3399ff" opacity="1" stroke-width="2" fill="none"/>
  <circle cx="0" cy="-288" r="14" stroke="#3399ff" opacity="1" stroke-width="2" fill="none"/>
  <circle cx="48" cy="-208" r="17" stroke="#3399ff" opacity="1" stroke-width="2" fill="none"/>
  <circle cx="119" cy="-213" r="8" stroke="#00ff99" opacity="1" stroke-width="2" fill="none"/>
  <circle cx="96" cy="-192" r="12" stroke="#3399ff" opacity="1" stroke-width="2" fill="none"/>
  <circle cx="112" cy="-160" r="9" stroke="#3399ff" opacity="1" stroke-width="2" fill="none"/>
  <circle cx="112" cy="-96" r="9" stroke="#3399ff" opacity="1" stroke-width="2" fill="none"/>
  <circle cx="112" cy="-32" r="9" stroke="#3399ff" opacity="1" stroke-width="2" fill="none"/>
  <circle cx="64" cy="-160" r="9" stroke="#3399ff" opacity="1" stroke-width="2" fill="none"/>
  <circle cx="64" cy="-96" r="9" stroke="#3399ff" opacity="1" stroke-width="2" fill="none"/>
  <circle cx="64" cy="-32" r="9" stroke="#3399ff" opacity="1" stroke-width="2" fill="none"/>
  <circle cx="80" cy="-48" r="9" stroke="#3399ff" opacity="1" stroke-width="2" fill="none"/>
  <circle cx="96" cy="-112" r="9" stroke="#3399ff" opacity="1" stroke-width="2" fill="none"/>
  <circle cx="80" cy="-144" r="9" stroke="#3399ff" opacity="1" stroke-width="2" fill="none"/>
  <circle cx="96" cy="-80" r="9" stroke="#3399ff" opacity="1" stroke-width="2" fill="none"/>
  <circle cx="80" cy="0" r="12" stroke="#3399ff" opacity="1" stroke-width="2" fill="none"/>
  <circle cx="96" cy="0" r="12" stroke="#3399ff" opacity="1" stroke-width="2" fill="none"/>
  <circle cx="672" cy="-272" r="17" stroke="#3399ff" opacity="1" stroke-width="2" fill="none"/>
  <circle cx="624" cy="-288" r="15" stroke="#3399ff" opacity="1" stroke-width="2" fill="none"/>
  <circle cx="576" cy="-272" r="15" stroke="#3399ff" opacity="1" stroke-width="2" fill="none"/>
  <circle cx="528" cy="-288" r="15" stroke="#3399ff" opacity="1" stroke-width="2" fill="none"/>
  <circle cx="480" cy="-272" r="15" stroke="#3399ff" opacity="1" stroke-width="2" fill="none"/>
  <circle cx="336" cy="-288" r="15" stroke="#3399ff" opacity="1" stroke-width="2" fill="none"/>
  <circle cx="224" cy="-176" r="26" stroke="#3399ff" opacity="1" stroke-width="2" fill="none"/>
  <circle cx="176" cy="-192" r="13" stroke="#3399ff" opacity="1" stroke-width="2" fill="none"/>
  <circle cx="128" cy="-192" r="9" stroke="#3399ff" opacity="1" stroke-width="2" fill="none"/>
  <circle cx="144" cy="-192" r="13" stroke="#3399ff" opacity="1" stroke-width="2" fill="none"/>
  <path marker-end="url(#spawn)" stroke-width="0.5" stroke="red" d="M 0 0 0 1" transform="translate(55,-359) scale(1 -1) rotate(-90) matrix(1,0,0,1,0,0)" fill="none"/>
</svg>
