<?xml version="1.0" encoding="UTF-8" standalone="no"?>
<svg xmlns="http://www.w3.org/2000/svg" viewBox="363,235,570,410" width="100%" height="100%">
  <defs>
    <marker id="spawn" markerWidth="30" markerHeight="40" refX="2" refY="15" orient="auto" viewBox="0 0 40 30">
      <path d="M -5,0 -5,20 -15,20 0,40 15,20 5,20 5,0 Z" fill="magenta" transform="translate(0,15) rotate(-90)"/>
    </marker>
  </defs>
  <polyline points="672,400 656,384 656,368 688,400 672,400" stroke="white" stroke-width="2" fill="none"/>
  <polyline points="624,400 640,384 640,368 608,400 624,400" stroke="white" stroke-width="2" fill="none"/>
  <polyline points="672,480 704,448 688,432 688,416 704,400 656,352 640,352 592,400 608,416 608,432 592,448 624,480" stroke="white" stroke-width="2" fill="none"/>
  <polyline points="640,480 624,496 608,480 608,496 640,496 640,480" stroke="white" stroke-width="2" fill="none"/>
  <polyline points="656,480 672,496 688,480 688,496 656,496 656,480" stroke="white" stroke-width="2" fill="none"/>
  <polyline points="624,400 624,464 672,464 672,400" stroke="white" stroke-width="2" fill="none"/>
  <polyline points="624,528 640,512 656,512 672,528" stroke="white" stroke-width="2" fill="none"/>
  <polyline points="656,528 656,560" stroke="white" stroke-width="2" fill="none"/>
  <polyline points="640,528 640,560" stroke="white" stroke-width="2" fill="none"/>
  <polyline points="672,528 672,560" stroke="white" stroke-width="2" fill="none"/>
  <polyline points="624,528 624,560" stroke="white" stroke-width="2" fill="none"/>
  <polyline points="640,560 624,576 640,592 640,608 608,608" stroke="white" stroke-width="2" fill="none"/>
  <polyline points="656,560 672,576 656,592 656,608 688,608" stroke="white" stroke-width="2" fill="none"/>
  <polyline points="672,592 688,576 672,560" stroke="white" stroke-width="2" fill="none"/>
  <polyline points="624,592 608,576 624,560" stroke="white" stroke-width="2" fill="none"/>
  <polyline points="688,608 736,560 736,320 672,320" stroke="white" stroke-width="2" fill="none"/>
  <polyline points="688,624 880,432 752,304 656,304 656,336 720,400 720,496" stroke="white" stroke-width="2" fill="none"/>
  <polyline points="608,608 560,560 560,320 624,320" stroke="white" stroke-width="2" fill="none"/>
  <polyline points="608,624 416,432 544,304 640,304 640,336 576,400 576,496" stroke="white" stroke-width="2" fill="none"/>
  <polyline points="752,544 752,480 784,512 848,448 848,416 800,368 752,368 752,320" stroke="white" stroke-width="2" fill="none"/>
  <polyline points="544,544 544,480 512,512 448,448 448,416 496,368 544,368 544,320" stroke="white" stroke-width="2" fill="none"/>
  <polyline points="768,544 768,512" stroke="white" stroke-width="2" fill="none"/>
  <polyline points="528,544 528,512" stroke="white" stroke-width="2" fill="none"/>
  <polyline points="800,384 736,384" stroke="white" stroke-width="2" fill="none"/>
  <polyline points="496,384 560,384" stroke="white" stroke-width="2" fill="none"/>
  <polyline points="512,480 512,496" stroke="white" stroke-width="2" fill="none"/>
  <polyline points="784,480 784,496" stroke="white" stroke-width="2" fill="none"/>
  <polyline points="496,240 800,240 928,368 928,512 800,640 496,640 368,512 368,368 496,240" stroke="white" stroke-width="2" fill="none"/>
  <polyline points="544,304 576,272" stroke="white" stroke-width="2" fill="none"/>
  <polyline points="752,304 720,272" stroke="white" stroke-width="2" fill="none"/>
  <polyline points="640,272 624,256 576,256" stroke="white" stroke-width="2" fill="none"/>
  <polyline points="656,272 672,256 720,256" stroke="white" stroke-width="2" fill="none"/>
  <polyline points="640,288 608,288 592,272 592,288" stroke="white" stroke-width="2" fill="none"/>
  <polyline points="656,288 688,288 704,272 704,288" stroke="white" stroke-width="2" fill="none"/>
  <polyline points="432,320 432,384 400,416" stroke="white" stroke-width="2" fill="none"/>
  <polyline points="864,320 864,384 896,416" stroke="white" stroke-width="2" fill="none"/>
  <polyline points="896,448 880,464" stroke="white" stroke-width="2" fill="none"/>
  <polyline points="400,448 416,464" stroke="white" stroke-width="2" fill="none"/>
  <polyline points="432,480 432,512" stroke="white" stroke-width="2" fill="none"/>
  <polyline points="864,480 864,512" stroke="white" stroke-width="2" fill="none"/>
  <polyline points="448,528 480,560 528,560" stroke="white" stroke-width="2" fill="none"/>
  <polyline points="848,528 816,560 768,560" stroke="white" stroke-width="2" fill="none"/>
  <polyline points="528,560 528,640" stroke="white" stroke-width="2" fill="none"/>
  <polyline points="768,560 768,640" stroke="white" stroke-width="2" fill="none"/>
  <polyline points="480,592 496,576" stroke="white" stroke-width="2" fill="none"/>
  <polyline points="816,592 800,576" stroke="white" stroke-width="2" fill="none"/>
  <circle cx="480" cy="608" r="10" stroke="#00ff99" opacity="1" stroke-width="2" fill="none"/>
  <circle cx="816" cy="608" r="10" stroke="#00ff99" opacity="1" stroke-width="2" fill="none"/>
  <circle cx="656" cy="640" r="10" stroke="#00ff99" opacity="1" stroke-width="2" fill="none"/>
  <circle cx="640" cy="640" r="10" stroke="#00ff99" opacity="1" stroke-width="2" fill="none"/>
  <circle cx="688" cy="400" r="10" stroke="#ffdd00" opacity="1" stroke-width="2" fill="none"/>
  <circle cx="688" cy="432" r="10" stroke="#ffdd00" opacity="1" stroke-width="2" fill="none"/>
  <circle cx="672" cy="448" r="10" stroke="#ffdd00" opacity="1" stroke-width="2" fill="none"/>
  <circle cx="624" cy="448" r="10" stroke="#ffdd00" opacity="1" stroke-width="2" fill="none"/>
  <circle cx="592" cy="448" r="10" stroke="#ffdd00" opacity="1" stroke-width="2" fill="none"/>
  <circle cx="704" cy="448" r="10" stroke="#ffdd00" opacity="1" stroke-width="2" fill="none"/>
  <circle cx="672" cy="480" r="10" stroke="#ffdd00" opacity="1" stroke-width="2" fill="none"/>
  <circle cx="624" cy="480" r="10" stroke="#ffdd00" opacity="1" stroke-width="2" fill="none"/>
  <circle cx="656" cy="496" r="10" stroke="#ffdd00" opacity="1" stroke-width="2" fill="none"/>
  <circle cx="640" cy="496" r="10" stroke="#ffdd00" opacity="1" stroke-width="2" fill="none"/>
  <circle cx="592" cy="464" r="10" stroke="#ffdd00" opacity="1" stroke-width="2" fill="none"/>
  <circle cx="592" cy="480" r="10" stroke="#ffdd00" opacity="1" stroke-width="2" fill="none"/>
  <circle cx="592" cy="496" r="10" stroke="#ffdd00" opacity="1" stroke-width="2" fill="none"/>
  <circle cx="592" cy="512" r="10" stroke="#ffdd00" opacity="1" stroke-width="2" fill="none"/>
  <circle cx="608" cy="512" r="10" stroke="#ffdd00" opacity="1" stroke-width="2" fill="none"/>
  <circle cx="624" cy="512" r="10" stroke="#ffdd00" opacity="1" stroke-width="2" fill="none"/>
  <circle cx="672" cy="512" r="10" stroke="#ffdd00" opacity="1" stroke-width="2" fill="none"/>
  <circle cx="688" cy="512" r="10" stroke="#ffdd00" opacity="1" stroke-width="2" fill="none"/>
  <circle cx="704" cy="512" r="10" stroke="#ffdd00" opacity="1" stroke-width="2" fill="none"/>
  <circle cx="704" cy="496" r="10" stroke="#ffdd00" opacity="1" stroke-width="2" fill="none"/>
  <circle cx="704" cy="480" r="10" stroke="#ffdd00" opacity="1" stroke-width="2" fill="none"/>
  <circle cx="704" cy="464" r="10" stroke="#ffdd00" opacity="1" stroke-width="2" fill="none"/>
  <circle cx="608" cy="400" r="10" stroke="#ffdd00" opacity="1" stroke-width="2" fill="none"/>
  <circle cx="608" cy="432" r="10" stroke="#ffdd00" opacity="1" stroke-width="2" fill="none"/>
  <circle cx="640" cy="576" r="10" stroke="#ffdd00" opacity="1" stroke-width="2" fill="none"/>
  <circle cx="656" cy="576" r="10" stroke="#ffdd00" opacity="1" stroke-width="2" fill="none"/>
  <circle cx="656" cy="624" r="10" stroke="#ffdd00" opacity="1" stroke-width="2" fill="none"/>
  <circle cx="640" cy="624" r="10" stroke="#ffdd00" opacity="1" stroke-width="2" fill="none"/>
  <circle cx="624" cy="624" r="10" stroke="#ffdd00" opacity="1" stroke-width="2" fill="none"/>
  <circle cx="608" cy="624" r="10" stroke="#ffdd00" opacity="1" stroke-width="2" fill="none"/>
  <circle cx="672" cy="624" r="10" stroke="#ffdd00" opacity="1" stroke-width="2" fill="none"/>
  <circle cx="688" cy="624" r="10" stroke="#ffdd00" opacity="1" stroke-width="2" fill="none"/>
  <circle cx="624" cy="592" r="10" stroke="#ffdd00" opacity="1" stroke-width="2" fill="none"/>
  <circle cx="672" cy="592" r="10" stroke="#ffdd00" opacity="1" stroke-width="2" fill="none"/>
  <circle cx="576" cy="512" r="10" stroke="#ffdd00" opacity="1" stroke-width="2" fill="none"/>
  <circle cx="560" cy="512" r="10" stroke="#ffdd00" opacity="1" stroke-width="2" fill="none"/>
  <circle cx="720" cy="512" r="10" stroke="#ffdd00" opacity="1" stroke-width="2" fill="none"/>
  <circle cx="736" cy="512" r="10" stroke="#ffdd00" opacity="1" stroke-width="2" fill="none"/>
  <circle cx="672" cy="544" r="10" stroke="#ffdd00" opacity="1" stroke-width="2" fill="none"/>
  <circle cx="624" cy="544" r="10" stroke="#ffdd00" opacity="1" stroke-width="2" fill="none"/>
  <circle cx="608" cy="528" r="10" stroke="#ffdd00" opacity="1" stroke-width="2" fill="none"/>
  <circle cx="688" cy="528" r="10" stroke="#ffdd00" opacity="1" stroke-width="2" fill="none"/>
  <circle cx="688" cy="560" r="10" stroke="#ffdd00" opacity="1" stroke-width="2" fill="none"/>
  <circle cx="704" cy="560" r="10" stroke="#ffdd00" opacity="1" stroke-width="2" fill="none"/>
  <circle cx="720" cy="560" r="10" stroke="#ffdd00" opacity="1" stroke-width="2" fill="none"/>
  <circle cx="720" cy="544" r="10" stroke="#ffdd00" opacity="1" stroke-width="2" fill="none"/>
  <circle cx="608" cy="560" r="10" stroke="#ffdd00" opacity="1" stroke-width="2" fill="none"/>
  <circle cx="592" cy="560" r="10" stroke="#ffdd00" opacity="1" stroke-width="2" fill="none"/>
  <circle cx="576" cy="560" r="10" stroke="#ffdd00" opacity="1" stroke-width="2" fill="none"/>
  <circle cx="576" cy="544" r="10" stroke="#ffdd00" opacity="1" stroke-width="2" fill="none"/>
  <circle cx="592" cy="576" r="10" stroke="#ffdd00" opacity="1" stroke-width="2" fill="none"/>
  <circle cx="704" cy="576" r="10" stroke="#ffdd00" opacity="1" stroke-width="2" fill="none"/>
  <circle cx="560" cy="496" r="10" stroke="#ffdd00" opacity="1" stroke-width="2" fill="none"/>
  <circle cx="560" cy="480" r="10" stroke="#ffdd00" opacity="1" stroke-width="2" fill="none"/>
  <circle cx="736" cy="496" r="10" stroke="#ffdd00" opacity="1" stroke-width="2" fill="none"/>
  <circle cx="736" cy="480" r="10" stroke="#ffdd00" opacity="1" stroke-width="2" fill="none"/>
  <circle cx="656" cy="352" r="10" stroke="#ffdd00" opacity="1" stroke-width="2" fill="none"/>
  <circle cx="640" cy="352" r="10" stroke="#ffdd00" opacity="1" stroke-width="2" fill="none"/>
  <circle cx="576" cy="416" r="10" stroke="#ffdd00" opacity="1" stroke-width="2" fill="none"/>
  <circle cx="592" cy="416" r="10" stroke="#ffdd00" opacity="1" stroke-width="2" fill="none"/>
  <circle cx="720" cy="416" r="10" stroke="#ffdd00" opacity="1" stroke-width="2" fill="none"/>
  <circle cx="704" cy="416" r="10" stroke="#ffdd00" opacity="1" stroke-width="2" fill="none"/>
  <circle cx="592" cy="352" r="24" stroke="#ffdd00" opacity="1" stroke-width="2" fill="none"/>
  <circle cx="704" cy="352" r="24" stroke="#ffdd00" opacity="1" stroke-width="2" fill="none"/>
  <circle cx="624" cy="320" r="10" stroke="#ffdd00" opacity="1" stroke-width="2" fill="none"/>
  <circle cx="672" cy="320" r="10" stroke="#ffdd00" opacity="1" stroke-width="2" fill="none"/>
  <circle cx="560" cy="384" r="10" stroke="#ffdd00" opacity="1" stroke-width="2" fill="none"/>
  <circle cx="736" cy="384" r="10" stroke="#ffdd00" opacity="1" stroke-width="2" fill="none"/>
  <circle cx="784" cy="432" r="48" stroke="#ffdd00" opacity="1" stroke-width="2" fill="none"/>
  <circle cx="512" cy="432" r="48" stroke="#ffdd00" opacity="1" stroke-width="2" fill="none"/>
  <circle cx="512" cy="352" r="10" stroke="#ffdd00" opacity="1" stroke-width="2" fill="none"/>
  <circle cx="528" cy="336" r="10" stroke="#ffdd00" opacity="1" stroke-width="2" fill="none"/>
  <circle cx="512" cy="336" r="10" stroke="#ffdd00" opacity="1" stroke-width="2" fill="none"/>
  <circle cx="480" cy="368" r="10" stroke="#ffdd00" opacity="1" stroke-width="2" fill="none"/>
  <circle cx="448" cy="416" r="10" stroke="#ffdd00" opacity="1" stroke-width="2" fill="none"/>
  <circle cx="432" cy="432" r="10" stroke="#ffdd00" opacity="1" stroke-width="2" fill="none"/>
  <circle cx="416" cy="432" r="10" stroke="#ffdd00" opacity="1" stroke-width="2" fill="none"/>
  <circle cx="784" cy="352" r="10" stroke="#ffdd00" opacity="1" stroke-width="2" fill="none"/>
  <circle cx="768" cy="336" r="10" stroke="#ffdd00" opacity="1" stroke-width="2" fill="none"/>
  <circle cx="784" cy="336" r="10" stroke="#ffdd00" opacity="1" stroke-width="2" fill="none"/>
  <circle cx="816" cy="368" r="10" stroke="#ffdd00" opacity="1" stroke-width="2" fill="none"/>
  <circle cx="848" cy="416" r="10" stroke="#ffdd00" opacity="1" stroke-width="2" fill="none"/>
  <circle cx="880" cy="432" r="10" stroke="#ffdd00" opacity="1" stroke-width="2" fill="none"/>
  <circle cx="864" cy="432" r="10" stroke="#ffdd00" opacity="1" stroke-width="2" fill="none"/>
  <circle cx="512" cy="512" r="10" stroke="#ffdd00" opacity="1" stroke-width="2" fill="none"/>
  <circle cx="784" cy="512" r="10" stroke="#ffdd00" opacity="1" stroke-width="2" fill="none"/>
  <circle cx="752" cy="544" r="10" stroke="#ffdd00" opacity="1" stroke-width="2" fill="none"/>
  <circle cx="544" cy="544" r="10" stroke="#ffdd00" opacity="1" stroke-width="2" fill="none"/>
  <circle cx="560" cy="320" r="10" stroke="#ffdd00" opacity="1" stroke-width="2" fill="none"/>
  <circle cx="736" cy="320" r="10" stroke="#ffdd00" opacity="1" stroke-width="2" fill="none"/>
  <circle cx="672" cy="272" r="10" stroke="#ffdd00" opacity="1" stroke-width="2" fill="none"/>
  <circle cx="624" cy="272" r="10" stroke="#ffdd00" opacity="1" stroke-width="2" fill="none"/>
  <circle cx="640" cy="256" r="10" stroke="#ffdd00" opacity="1" stroke-width="2" fill="none"/>
  <circle cx="656" cy="256" r="10" stroke="#ffdd00" opacity="1" stroke-width="2" fill="none"/>
  <circle cx="688" cy="272" r="10" stroke="#ffdd00" opacity="1" stroke-width="2" fill="none"/>
  <circle cx="608" cy="272" r="10" stroke="#ffdd00" opacity="1" stroke-width="2" fill="none"/>
  <circle cx="592" cy="288" r="10" stroke="#ffdd00" opacity="1" stroke-width="2" fill="none"/>
  <circle cx="704" cy="288" r="10" stroke="#ffdd00" opacity="1" stroke-width="2" fill="none"/>
  <circle cx="736" cy="272" r="10" stroke="#ffdd00" opacity="1" stroke-width="2" fill="none"/>
  <circle cx="736" cy="288" r="10" stroke="#ffdd00" opacity="1" stroke-width="2" fill="none"/>
  <circle cx="752" cy="272" r="10" stroke="#ffdd00" opacity="1" stroke-width="2" fill="none"/>
  <circle cx="752" cy="256" r="10" stroke="#ffdd00" opacity="1" stroke-width="2" fill="none"/>
  <circle cx="560" cy="288" r="10" stroke="#ffdd00" opacity="1" stroke-width="2" fill="none"/>
  <circle cx="560" cy="272" r="10" stroke="#ffdd00" opacity="1" stroke-width="2" fill="none"/>
  <circle cx="544" cy="272" r="10" stroke="#ffdd00" opacity="1" stroke-width="2" fill="none"/>
  <circle cx="544" cy="256" r="10" stroke="#ffdd00" opacity="1" stroke-width="2" fill="none"/>
  <circle cx="464" cy="336" r="30" stroke="#ffdd00" opacity="1" stroke-width="2" fill="none"/>
  <circle cx="832" cy="336" r="30" stroke="#ffdd00" opacity="1" stroke-width="2" fill="none"/>
  <circle cx="400" cy="368" r="25" stroke="#ffdd00" opacity="1" stroke-width="2" fill="none"/>
  <circle cx="896" cy="368" r="25" stroke="#ffdd00" opacity="1" stroke-width="2" fill="none"/>
  <circle cx="848" cy="528" r="10" stroke="#ffdd00" opacity="1" stroke-width="2" fill="none"/>
  <circle cx="848" cy="544" r="10" stroke="#ffdd00" opacity="1" stroke-width="2" fill="none"/>
  <circle cx="848" cy="576" r="10" stroke="#ffdd00" opacity="1" stroke-width="2" fill="none"/>
  <circle cx="832" cy="560" r="10" stroke="#ffdd00" opacity="1" stroke-width="2" fill="none"/>
  <circle cx="448" cy="528" r="10" stroke="#ffdd00" opacity="1" stroke-width="2" fill="none"/>
  <circle cx="448" cy="544" r="10" stroke="#ffdd00" opacity="1" stroke-width="2" fill="none"/>
  <circle cx="464" cy="560" r="10" stroke="#ffdd00" opacity="1" stroke-width="2" fill="none"/>
  <circle cx="448" cy="576" r="10" stroke="#ffdd00" opacity="1" stroke-width="2" fill="none"/>
  <circle cx="448" cy="592" r="10" stroke="#ffdd00" opacity="1" stroke-width="2" fill="none"/>
  <circle cx="464" cy="592" r="10" stroke="#ffdd00" opacity="1" stroke-width="2" fill="none"/>
  <circle cx="480" cy="592" r="10" stroke="#ffdd00" opacity="1" stroke-width="2" fill="none"/>
  <circle cx="848" cy="592" r="10" stroke="#ffdd00" opacity="1" stroke-width="2" fill="none"/>
  <circle cx="832" cy="592" r="10" stroke="#ffdd00" opacity="1" stroke-width="2" fill="none"/>
  <circle cx="816" cy="592" r="10" stroke="#ffdd00" opacity="1" stroke-width="2" fill="none"/>
  <circle cx="800" cy="592" r="10" stroke="#ffdd00" opacity="1" stroke-width="2" fill="none"/>
  <circle cx="800" cy="608" r="10" stroke="#ffdd00" opacity="1" stroke-width="2" fill="none"/>
  <circle cx="496" cy="592" r="10" stroke="#ffdd00" opacity="1" stroke-width="2" fill="none"/>
  <circle cx="496" cy="608" r="10" stroke="#ffdd00" opacity="1" stroke-width="2" fill="none"/>
  <circle cx="592" cy="624" r="10" stroke="#ffdd00" opacity="1" stroke-width="2" fill="none"/>
  <circle cx="704" cy="624" r="10" stroke="#ffdd00" opacity="1" stroke-width="2" fill="none"/>
  <circle cx="544" cy="576" r="12" stroke="#ffdd00" opacity="1" stroke-width="2" fill="none"/>
  <circle cx="752" cy="576" r="12" stroke="#ffdd00" opacity="1" stroke-width="2" fill="none"/>
  <circle cx="400" cy="496" r="32" stroke="#ffdd00" opacity="1" stroke-width="2" fill="none"/>
  <circle cx="896" cy="496" r="32" stroke="#ffdd00" opacity="1" stroke-width="2" fill="none"/>
  <circle cx="496" cy="640" r="10" stroke="#ffdd00" opacity="1" stroke-width="2" fill="none"/>
  <circle cx="800" cy="640" r="10" stroke="#ffdd00" opacity="1" stroke-width="2" fill="none"/>
  <path marker-end="url(#spawn)" stroke-width="0.5" stroke="red" d="M 0 0 0 1" transform="translate(641,448) scale(1 -1) rotate(-90) matrix(0,1,-1,0,0,0)" fill="none"/>
  <path marker-end="url(#spawn)" stroke-width="0.5" stroke="red" d="M 0 0 0 1" transform="translate(655,448) scale(1 -1) rotate(-90) matrix(0,1,-1,0,0,0)" fill="none"/>
</svg>
