<?xml version="1.0" encoding="UTF-8" standalone="no"?>
<svg xmlns="http://www.w3.org/2000/svg" viewBox="-31,-2805,162,3010" width="100%" height="100%">
  <defs>
    <marker id="spawn" markerWidth="30" markerHeight="40" refX="2" refY="15" orient="auto" viewBox="0 0 40 30">
      <path d="M -5,0 -5,20 -15,20 0,40 15,20 5,20 5,0 Z" fill="magenta" transform="translate(0,15) rotate(-90)"/>
    </marker>
  </defs>
  <polyline points="10,120 10,60 15,60 20,65 20,80 15,85 10,85 20,120" stroke="white" stroke-width="2" fill="none"/>
  <polyline points="25,120 40,60 55,120 47.5,90 32.5,90" stroke="white" stroke-width="2" fill="none"/>
  <polyline points="75,65 70,60 65,60 60,65 60,115 65,120 70,120 75,115" stroke="white" stroke-width="2" fill="none"/>
  <polyline points="95,60 80,60 80,90 90,90 80,90 80,120 95,120" stroke="white" stroke-width="2" fill="none"/>
  <polyline points="50,-1125 55,-1120 55,-980 50,-975 45,-980 45,-1120 50,-1125" stroke="white" stroke-width="2" fill="none"/>
  <polyline points="0,200 100,200 100,-950 125,-975 125,-1125 75,-1175 75,-1325 100,-1350 100,-2800" stroke="white" stroke-width="2" fill="none"/>
  <polyline points="0,-2800 0,-1350 25,-1325 25,-1175 -25,-1125 -25,-975 0,-950 0,200" stroke="white" stroke-width="2" fill="none"/>
  <polyline points="98,-1710 100,-1712" stroke="white" stroke-width="2" fill="none"/>
  <polyline points="98,-2189 100,-2187" stroke="white" stroke-width="2" fill="none"/>
  <polyline points="10,-1477 30,-1477 20,-1477 10,-1467 20,-1477 30,-1467" stroke="white" stroke-width="2" fill="none"/>
  <polyline points="49,-995 39,-985 29,-995" stroke="white" stroke-width="2" fill="none"/>
  <polyline points="57,-1690 77,-1690 67,-1690 57,-1680 67,-1690 77,-1680" stroke="white" stroke-width="2" fill="none"/>
  <polyline points="36,-339 40,-339 34,-341 42,-341 32,-343 44,-343 30,-345 30,-345 46,-345 28,-347 48,-347" stroke="white" stroke-width="2" fill="none"/>
  <polyline points="32,-2244 32,-2284 22,-2274 42,-2274" stroke="white" stroke-width="2" fill="none"/>
  <polyline points="53,-466 73,-486 63,-476 73,-466 53,-486" stroke="white" stroke-width="2" fill="none"/>
  <polyline points="32,-1367 30,-1369 28,-1367 30,-1365 32,-1367" stroke="white" stroke-width="2" fill="none"/>
  <polyline points="69,-2130 71,-2140 87,-2140 89,-2130" stroke="white" stroke-width="2" fill="none"/>
  <polyline points="69,-108 89,-108 79,-108 69,-98 79,-108 89,-98" stroke="white" stroke-width="2" fill="none"/>
  <polyline points="1,-688 -1,-698 19,-698 17,-688" stroke="white" stroke-width="2" fill="none"/>
  <polyline points="11,-364 11,-384 1,-384 21,-384" stroke="white" stroke-width="2" fill="none"/>
  <polyline points="72,-587 62,-607 52,-587" stroke="white" stroke-width="2" fill="none"/>
  <polyline points="61,-2489 81,-2489" stroke="white" stroke-width="2" fill="none"/>
  <polyline points="3,-2177 0,-2180" stroke="white" stroke-width="2" fill="none"/>
  <polyline points="78,-2326 98,-2346 88,-2336 98,-2326 78,-2346" stroke="white" stroke-width="2" fill="none"/>
  <polyline points="6,-1069 5,-1070 5,-1078 6,-1079 9,-1079 10,-1078 10,-1070 11,-1069 14,-1069 15,-1070 15,-1078 14,-1079" stroke="white" stroke-width="2" fill="none"/>
  <polyline points="66,-1832 71,-1842 76,-1832 81,-1842 86,-1832" stroke="white" stroke-width="2" fill="none"/>
  <polyline points="3,-1573 0,-1570" stroke="white" stroke-width="2" fill="none"/>
  <polyline points="71,-1541 75,-1541 69,-1543 77,-1543 67,-1545 79,-1545 65,-1547 65,-1547 81,-1547 63,-1549 83,-1549" stroke="white" stroke-width="2" fill="none"/>
  <polyline points="98,-1572 100,-1574" stroke="white" stroke-width="2" fill="none"/>
  <polyline points="96,-965 76,-985" stroke="white" stroke-width="2" fill="none"/>
  <polyline points="43,-1106 43,-1126 33,-1126 53,-1126" stroke="white" stroke-width="2" fill="none"/>
  <polyline points="98,-423 100,-421" stroke="white" stroke-width="2" fill="none"/>
  <polyline points="98,-828 100,-830" stroke="white" stroke-width="2" fill="none"/>
  <polyline points="63,-1238 68,-1248 73,-1238 78,-1248 83,-1238" stroke="white" stroke-width="2" fill="none"/>
  <polyline points="-26,-972 -16,-962 -6,-972" stroke="white" stroke-width="2" fill="none"/>
  <polyline points="98,-716 100,-714" stroke="white" stroke-width="2" fill="none"/>
  <polyline points="26,-1186 36,-1176 46,-1186" stroke="white" stroke-width="2" fill="none"/>
  <polyline points="23,-2377 13,-2367 3,-2377" stroke="white" stroke-width="2" fill="none"/>
  <polyline points="24,-2087 34,-2097 44,-2087" stroke="white" stroke-width="2" fill="none"/>
  <polyline points="57,-2213 77,-2233" stroke="white" stroke-width="2" fill="none"/>
  <polyline points="83,-202 73,-182 83,-182 73,-202 83,-202" stroke="white" stroke-width="2" fill="none"/>
  <polyline points="58,-1800 62,-1800 56,-1802 64,-1802 54,-1804 66,-1804 52,-1806 52,-1806 68,-1806 50,-1808 70,-1808" stroke="white" stroke-width="2" fill="none"/>
  <polyline points="30,-792 30,-832 20,-822 40,-822" stroke="white" stroke-width="2" fill="none"/>
  <polyline points="98,-2075 100,-2073" stroke="white" stroke-width="2" fill="none"/>
  <polyline points="10,-854 10,-874 0,-874 20,-874" stroke="white" stroke-width="2" fill="none"/>
  <polyline points="34,-1414 54,-1434 44,-1424 54,-1414 34,-1434" stroke="white" stroke-width="2" fill="none"/>
  <polyline points="61,-1024 60,-1025 60,-1033 61,-1034 64,-1034 65,-1033 65,-1025 66,-1024 69,-1024 70,-1025 70,-1033 69,-1034" stroke="white" stroke-width="2" fill="none"/>
  <polyline points="44,-651 45,-650 53,-650 54,-651 54,-654 53,-655 45,-655 44,-656 44,-659 45,-660 53,-660 54,-659" stroke="white" stroke-width="2" fill="none"/>
  <polyline points="98,-1787 100,-1785" stroke="white" stroke-width="2" fill="none"/>
  <polyline points="50,-858 48,-860 46,-858 48,-856 50,-858" stroke="white" stroke-width="2" fill="none"/>
  <polyline points="20,-625 40,-625" stroke="white" stroke-width="2" fill="none"/>
  <polyline points="23,-910 43,-910" stroke="white" stroke-width="2" fill="none"/>
  <polyline points="3,-2206 0,-2209" stroke="white" stroke-width="2" fill="none"/>
  <polyline points="98,-1417 100,-1419" stroke="white" stroke-width="2" fill="none"/>
  <polyline points="16,-2200 21,-2210 26,-2200 31,-2210 36,-2200" stroke="white" stroke-width="2" fill="none"/>
  <polyline points="88,-1061 88,-1041" stroke="white" stroke-width="2" fill="none"/>
  <polyline points="13,-576 14,-575 22,-575 23,-576 23,-579 22,-580 14,-580 13,-581 13,-584 14,-585 22,-585 23,-584" stroke="white" stroke-width="2" fill="none"/>
  <polyline points="10,-2300 10,-2320 0,-2320 20,-2320" stroke="white" stroke-width="2" fill="none"/>
  <polyline points="18,-2422 23,-2432 28,-2422 33,-2432 38,-2422" stroke="white" stroke-width="2" fill="none"/>
  <polyline points="35,-2174 55,-2174 45,-2174 35,-2164 45,-2174 55,-2164" stroke="white" stroke-width="2" fill="none"/>
  <polyline points="98,-345 100,-347" stroke="white" stroke-width="2" fill="none"/>
  <polyline points="36,-1596 16,-1616" stroke="white" stroke-width="2" fill="none"/>
  <polyline points="54,-548 74,-548 64,-548 54,-538 64,-548 74,-538" stroke="white" stroke-width="2" fill="none"/>
  <polyline points="80,-877 80,-897 70,-897 90,-897" stroke="white" stroke-width="2" fill="none"/>
  <polyline points="35,-397 36,-396 44,-396 45,-397 45,-400 44,-401 36,-401 35,-402 35,-405 36,-406 44,-406 45,-405" stroke="white" stroke-width="2" fill="none"/>
  <polyline points="54,-1583 52,-1585 50,-1583 52,-1581 54,-1583" stroke="white" stroke-width="2" fill="none"/>
  <polyline points="74,-810 76,-820 92,-820 94,-810" stroke="white" stroke-width="2" fill="none"/>
  <polyline points="74,-1379 64,-1399 54,-1379" stroke="white" stroke-width="2" fill="none"/>
  <polyline points="57,-1732 57,-1772 47,-1762 67,-1762" stroke="white" stroke-width="2" fill="none"/>
  <polyline points="11,-1548 31,-1568" stroke="white" stroke-width="2" fill="none"/>
  <polyline points="24,-1058 22,-1068 42,-1068 40,-1058" stroke="white" stroke-width="2" fill="none"/>
  <polyline points="3,-1842 0,-1839" stroke="white" stroke-width="2" fill="none"/>
  <polyline points="79,-1471 79,-1511 69,-1501 89,-1501" stroke="white" stroke-width="2" fill="none"/>
  <polyline points="60,-2303 61,-2302 69,-2302 70,-2303 70,-2306 69,-2307 61,-2307 60,-2308 60,-2311 61,-2312 69,-2312 70,-2311" stroke="white" stroke-width="2" fill="none"/>
  <polyline points="98,-596 100,-598" stroke="white" stroke-width="2" fill="none"/>
  <polyline points="86,-2074 66,-2094" stroke="white" stroke-width="2" fill="none"/>
  <polyline points="57,-1632 57,-1612" stroke="white" stroke-width="2" fill="none"/>
  <polyline points="98,-933 100,-935" stroke="white" stroke-width="2" fill="none"/>
  <polyline points="52,-1086 62,-1076 72,-1086" stroke="white" stroke-width="2" fill="none"/>
  <polyline points="78,-238 78,-278 68,-268 88,-268" stroke="white" stroke-width="2" fill="none"/>
  <polyline points="72,-2182 70,-2184 68,-2182 70,-2180 72,-2182" stroke="white" stroke-width="2" fill="none"/>
  <polyline points="78,-403 78,-423 68,-423 88,-423" stroke="white" stroke-width="2" fill="none"/>
  <polyline points="9,-506 9,-546 -1,-536 19,-536" stroke="white" stroke-width="2" fill="none"/>
  <polyline points="57,-637 77,-637" stroke="white" stroke-width="2" fill="none"/>
  <polyline points="52,-2051 62,-2041 72,-2051" stroke="white" stroke-width="2" fill="none"/>
  <polyline points="30,-1648 40,-1658 50,-1648" stroke="white" stroke-width="2" fill="none"/>
  <polyline points="85,-1898 86,-1897 94,-1897 95,-1898 95,-1901 94,-1902 86,-1902 85,-1903 85,-1906 86,-1907 94,-1907 95,-1906" stroke="white" stroke-width="2" fill="none"/>
  <polyline points="4,-2475 14,-2485 24,-2475" stroke="white" stroke-width="2" fill="none"/>
  <polyline points="51,-708 71,-728 61,-718 71,-708 51,-728" stroke="white" stroke-width="2" fill="none"/>
  <polyline points="41,-2333 51,-2343 61,-2333" stroke="white" stroke-width="2" fill="none"/>
  <polyline points="-16,-1072 -16,-1112 -26,-1102 -6,-1102" stroke="white" stroke-width="2" fill="none"/>
  <polyline points="98,-2427 100,-2429" stroke="white" stroke-width="2" fill="none"/>
  <polyline points="98,-303 100,-305" stroke="white" stroke-width="2" fill="none"/>
  <polyline points="70,-510 90,-530 80,-520 90,-510 70,-530" stroke="white" stroke-width="2" fill="none"/>
  <polyline points="91,-1076 92,-1075 100,-1075 101,-1076 101,-1079 100,-1080 92,-1080 91,-1081 91,-1084 92,-1085 100,-1085 101,-1084" stroke="white" stroke-width="2" fill="none"/>
  <polyline points="53,-1888 73,-1908 63,-1898 73,-1888 53,-1908" stroke="white" stroke-width="2" fill="none"/>
  <polyline points="108,-1125 106,-1135 126,-1135 124,-1125" stroke="white" stroke-width="2" fill="none"/>
  <polyline points="61,-339 81,-339" stroke="white" stroke-width="2" fill="none"/>
  <polyline points="53,-682 51,-684 49,-682 51,-680 53,-682" stroke="white" stroke-width="2" fill="none"/>
  <polyline points="75,-1350 73,-1360 93,-1360 91,-1350" stroke="white" stroke-width="2" fill="none"/>
  <polyline points="86,-1603 76,-1583 86,-1583 76,-1603 86,-1603" stroke="white" stroke-width="2" fill="none"/>
  <polyline points="10,-1521 8,-1531 28,-1531 26,-1521" stroke="white" stroke-width="2" fill="none"/>
  <polyline points="65,-131 55,-151 45,-131" stroke="white" stroke-width="2" fill="none"/>
  <polyline points="50,-1360 40,-1340 50,-1340 40,-1360 50,-1360" stroke="white" stroke-width="2" fill="none"/>
  <polyline points="88,-1209 86,-1219 106,-1219 104,-1209" stroke="white" stroke-width="2" fill="none"/>
  <polyline points="98,-1980 100,-1978" stroke="white" stroke-width="2" fill="none"/>
  <polyline points="1,-1776 11,-1766 21,-1776" stroke="white" stroke-width="2" fill="none"/>
  <polyline points="3,-2090 0,-2093" stroke="white" stroke-width="2" fill="none"/>
  <polyline points="5,-1349 6,-1348 14,-1348 15,-1349 15,-1352 14,-1353 6,-1353 5,-1354 5,-1357 6,-1358 14,-1358 15,-1357" stroke="white" stroke-width="2" fill="none"/>
  <polyline points="25,-102 25,-122 15,-122 35,-122" stroke="white" stroke-width="2" fill="none"/>
  <polyline points="69,-1638 89,-1658 79,-1648 89,-1638 69,-1658" stroke="white" stroke-width="2" fill="none"/>
  <circle cx="50" cy="-2700" r="100" stroke="#00ff99" opacity="1" stroke-width="2" fill="none"/>
  <circle cx="62" cy="-2411" r="10" stroke="#3399ff" opacity="1" stroke-width="2" fill="none"/>
  <circle cx="59" cy="-1954" r="20" stroke="#3399ff" opacity="1" stroke-width="2" fill="none"/>
  <circle cx="91" cy="-2026" r="10" stroke="#3399ff" opacity="1" stroke-width="2" fill="none"/>
  <circle cx="0" cy="-1294" r="20" stroke="#3399ff" opacity="1" stroke-width="2" fill="none"/>
  <circle cx="121" cy="-1295" r="20" stroke="#3399ff" opacity="1" stroke-width="2" fill="none"/>
  <circle cx="84" cy="-1167" r="5" stroke="#3399ff" opacity="1" stroke-width="2" fill="none"/>
  <circle cx="99" cy="-2286" r="5" stroke="#3399ff" opacity="1" stroke-width="2" fill="none"/>
  <circle cx="2" cy="-1715" r="20" stroke="#3399ff" opacity="1" stroke-width="2" fill="none"/>
  <circle cx="23" cy="-1883" r="7" stroke="#3399ff" opacity="1" stroke-width="2" fill="none"/>
  <circle cx="35" cy="-260" r="10" stroke="#3399ff" opacity="1" stroke-width="2" fill="none"/>
  <circle cx="65" cy="-772" r="5" stroke="#3399ff" opacity="1" stroke-width="2" fill="none"/>
  <circle cx="6" cy="-446" r="20" stroke="#3399ff" opacity="1" stroke-width="2" fill="none"/>
  <circle cx="17" cy="-213" r="5" stroke="#3399ff" opacity="1" stroke-width="2" fill="none"/>
  <circle cx="82" cy="-1441" r="10" stroke="#3399ff" opacity="1" stroke-width="2" fill="none"/>
  <circle cx="23" cy="-1152" r="5" stroke="#3399ff" opacity="1" stroke-width="2" fill="none"/>
  <circle cx="-17" cy="-1236" r="5" stroke="#3399ff" opacity="1" stroke-width="2" fill="none"/>
  <circle cx="16" cy="-947" r="5" stroke="#3399ff" opacity="1" stroke-width="2" fill="none"/>
  <path marker-end="url(#spawn)" stroke-width="0.5" stroke="red" d="M 0 0 0 1" transform="translate(45,50) scale(1 -1) rotate(-90) rotate(90)" fill="none"/>
  <path marker-end="url(#spawn)" stroke-width="0.5" stroke="red" d="M 0 0 0 1" transform="translate(35,50) scale(1 -1) rotate(-90) rotate(90)" fill="none"/>
  <path marker-end="url(#spawn)" stroke-width="0.5" stroke="red" d="M 0 0 0 1" transform="translate(55,50) scale(1 -1) rotate(-90) rotate(90)" fill="none"/>
  <path marker-end="url(#spawn)" stroke-width="0.5" stroke="red" d="M 0 0 0 1" transform="translate(25,50) scale(1 -1) rotate(-90) rotate(90)" fill="none"/>
  <path marker-end="url(#spawn)" stroke-width="0.5" stroke="red" d="M 0 0 0 1" transform="translate(65,50) scale(1 -1) rotate(-90) rotate(90)" fill="none"/>
  <path marker-end="url(#spawn)" stroke-width="0.5" stroke="red" d="M 0 0 0 1" transform="translate(15,50) scale(1 -1) rotate(-90) rotate(90)" fill="none"/>
  <path marker-end="url(#spawn)" stroke-width="0.5" stroke="red" d="M 0 0 0 1" transform="translate(75,50) scale(1 -1) rotate(-90) rotate(90)" fill="none"/>
  <path marker-end="url(#spawn)" stroke-width="0.5" stroke="red" d="M 0 0 0 1" transform="translate(5,50) scale(1 -1) rotate(-90) rotate(90)" fill="none"/>
  <path marker-end="url(#spawn)" stroke-width="0.5" stroke="red" d="M 0 0 0 1" transform="translate(85,50) scale(1 -1) rotate(-90) rotate(90)" fill="none"/>
</svg>
