<?xml version="1.0" encoding="UTF-8" standalone="no"?>
<svg xmlns="http://www.w3.org/2000/svg" viewBox="-35,-2805,167,3010" width="100%" height="100%">
  <defs>
    <marker id="spawn" markerWidth="30" markerHeight="40" refX="2" refY="15" orient="auto" viewBox="0 0 40 30">
      <path d="M -5,0 -5,20 -15,20 0,40 15,20 5,20 5,0 Z" fill="magenta" transform="translate(0,15) rotate(-90)"/>
    </marker>
  </defs>
  <polyline points="10,120 10,60 15,60 20,65 20,80 15,85 10,85 20,120" stroke="white" stroke-width="2" fill="none"/>
  <polyline points="25,120 40,60 55,120 47.5,90 32.5,90" stroke="white" stroke-width="2" fill="none"/>
  <polyline points="75,65 70,60 65,60 60,65 60,115 65,120 70,120 75,115" stroke="white" stroke-width="2" fill="none"/>
  <polyline points="95,60 80,60 80,90 90,90 80,90 80,120 95,120" stroke="white" stroke-width="2" fill="none"/>
  <polyline points="50,-1125 55,-1120 55,-980 50,-975 45,-980 45,-1120 50,-1125" stroke="white" stroke-width="2" fill="none"/>
  <polyline points="0,200 100,200 100,-950 125,-975 125,-1125 75,-1175 75,-1325 100,-1350 100,-2800" stroke="white" stroke-width="2" fill="none"/>
  <polyline points="0,-2800 0,-1350 25,-1325 25,-1175 -25,-1125 -25,-975 0,-950 0,200" stroke="white" stroke-width="2" fill="none"/>
  <polyline points="18,-870 18,-910 8,-900 28,-900" stroke="white" stroke-width="2" fill="none"/>
  <polyline points="67,-291 65,-301 85,-301 83,-291" stroke="white" stroke-width="2" fill="none"/>
  <polyline points="29,-1766 19,-1746 29,-1746 19,-1766 29,-1766" stroke="white" stroke-width="2" fill="none"/>
  <polyline points="26,-2383 25,-2384 25,-2392 26,-2393 29,-2393 30,-2392 30,-2384 31,-2383 34,-2383 35,-2384 35,-2392 34,-2393" stroke="white" stroke-width="2" fill="none"/>
  <polyline points="23,-1531 3,-1551" stroke="white" stroke-width="2" fill="none"/>
  <polyline points="72,-1245 52,-1265" stroke="white" stroke-width="2" fill="none"/>
  <polyline points="3,-1895 13,-1885 23,-1895" stroke="white" stroke-width="2" fill="none"/>
  <polyline points="46,-160 46,-200 36,-190 56,-190" stroke="white" stroke-width="2" fill="none"/>
  <polyline points="68,-695 88,-715" stroke="white" stroke-width="2" fill="none"/>
  <polyline points="63,-1808 63,-1828 53,-1828 73,-1828" stroke="white" stroke-width="2" fill="none"/>
  <polyline points="99,-1289 99,-1269" stroke="white" stroke-width="2" fill="none"/>
  <polyline points="48,-2096 52,-2096 46,-2098 54,-2098 44,-2100 56,-2100 42,-2102 42,-2102 58,-2102 40,-2104 60,-2104" stroke="white" stroke-width="2" fill="none"/>
  <polyline points="5,-1806 25,-1806 15,-1806 5,-1796 15,-1806 25,-1796" stroke="white" stroke-width="2" fill="none"/>
  <polyline points="45,-258 35,-238 45,-238 35,-258 45,-258" stroke="white" stroke-width="2" fill="none"/>
  <polyline points="52,-2233 42,-2223 32,-2233" stroke="white" stroke-width="2" fill="none"/>
  <polyline points="62,-897 82,-917 72,-907 82,-897 62,-917" stroke="white" stroke-width="2" fill="none"/>
  <polyline points="86,-2430 85,-2431 85,-2439 86,-2440 89,-2440 90,-2439 90,-2431 91,-2430 94,-2430 95,-2431 95,-2439 94,-2440" stroke="white" stroke-width="2" fill="none"/>
  <polyline points="76,-261 81,-271 86,-261 91,-271 96,-261" stroke="white" stroke-width="2" fill="none"/>
  <polyline points="3,-2387 0,-2384" stroke="white" stroke-width="2" fill="none"/>
  <polyline points="3,-231 0,-234" stroke="white" stroke-width="2" fill="none"/>
  <polyline points="98,-213 100,-215" stroke="white" stroke-width="2" fill="none"/>
  <polyline points="13,-695 33,-715" stroke="white" stroke-width="2" fill="none"/>
  <polyline points="62,-1060 62,-1040" stroke="white" stroke-width="2" fill="none"/>
  <polyline points="7,-2189 7,-2169" stroke="white" stroke-width="2" fill="none"/>
  <polyline points="85,-2045 84,-2046 84,-2054 85,-2055 88,-2055 89,-2054 89,-2046 90,-2045 93,-2045 94,-2046 94,-2054 93,-2055" stroke="white" stroke-width="2" fill="none"/>
  <polyline points="48,-2125 50,-2135 66,-2135 68,-2125" stroke="white" stroke-width="2" fill="none"/>
  <polyline points="59,-2190 79,-2190 69,-2190 59,-2180 69,-2190 79,-2180" stroke="white" stroke-width="2" fill="none"/>
  <polyline points="-10,-1165 -8,-1175 8,-1175 10,-1165" stroke="white" stroke-width="2" fill="none"/>
  <polyline points="81,-484 91,-494 101,-484" stroke="white" stroke-width="2" fill="none"/>
  <polyline points="98,-1980 100,-1978" stroke="white" stroke-width="2" fill="none"/>
  <polyline points="98,-1743 100,-1745" stroke="white" stroke-width="2" fill="none"/>
  <polyline points="77,-1210 57,-1230" stroke="white" stroke-width="2" fill="none"/>
  <polyline points="15,-1645 35,-1665" stroke="white" stroke-width="2" fill="none"/>
  <polyline points="11,-1341 16,-1351 21,-1341 26,-1351 31,-1341" stroke="white" stroke-width="2" fill="none"/>
  <polyline points="31,-1521 21,-1501 31,-1501 21,-1521 31,-1521" stroke="white" stroke-width="2" fill="none"/>
  <polyline points="56,-1690 66,-1680 76,-1690" stroke="white" stroke-width="2" fill="none"/>
  <polyline points="48,-1958 38,-1978 28,-1958" stroke="white" stroke-width="2" fill="none"/>
  <polyline points="86,-1938 76,-1918 86,-1918 76,-1938 86,-1938" stroke="white" stroke-width="2" fill="none"/>
  <polyline points="98,-827 100,-829" stroke="white" stroke-width="2" fill="none"/>
  <polyline points="98,-130 100,-132" stroke="white" stroke-width="2" fill="none"/>
  <polyline points="54,-769 44,-789 34,-769" stroke="white" stroke-width="2" fill="none"/>
  <polyline points="32,-1437 30,-1439 28,-1437 30,-1435 32,-1437" stroke="white" stroke-width="2" fill="none"/>
  <polyline points="77,-778 87,-768 97,-778" stroke="white" stroke-width="2" fill="none"/>
  <polyline points="34,-660 44,-670 54,-660" stroke="white" stroke-width="2" fill="none"/>
  <polyline points="3,-1471 0,-1468" stroke="white" stroke-width="2" fill="none"/>
  <polyline points="98,-2378 100,-2376" stroke="white" stroke-width="2" fill="none"/>
  <polyline points="3,-1997 5,-2007 21,-2007 23,-1997" stroke="white" stroke-width="2" fill="none"/>
  <polyline points="60,-2269 80,-2289 70,-2279 80,-2269 60,-2289" stroke="white" stroke-width="2" fill="none"/>
  <polyline points="52,-344 53,-343 61,-343 62,-344 62,-347 61,-348 53,-348 52,-349 52,-352 53,-353 61,-353 62,-352" stroke="white" stroke-width="2" fill="none"/>
  <polyline points="82,-2351 102,-2351 92,-2351 82,-2341 92,-2351 102,-2341" stroke="white" stroke-width="2" fill="none"/>
  <polyline points="34,-2062 39,-2072 44,-2062 49,-2072 54,-2062" stroke="white" stroke-width="2" fill="none"/>
  <polyline points="32,-1824 31,-1825 31,-1833 32,-1834 35,-1834 36,-1833 36,-1825 37,-1824 40,-1824 41,-1825 41,-1833 40,-1834" stroke="white" stroke-width="2" fill="none"/>
  <polyline points="10,-2283 30,-2283 20,-2283 10,-2273 20,-2283 30,-2273" stroke="white" stroke-width="2" fill="none"/>
  <polyline points="73,-1505 72,-1506 72,-1514 73,-1515 76,-1515 77,-1514 77,-1506 78,-1505 81,-1505 82,-1506 82,-1514 81,-1515" stroke="white" stroke-width="2" fill="none"/>
  <polyline points="14,-1014 19,-1024 24,-1014 29,-1024 34,-1014" stroke="white" stroke-width="2" fill="none"/>
  <polyline points="24,-1849 4,-1869" stroke="white" stroke-width="2" fill="none"/>
  <polyline points="53,-2006 57,-2006 51,-2008 59,-2008 49,-2010 61,-2010 47,-2012 47,-2012 63,-2012 45,-2014 65,-2014" stroke="white" stroke-width="2" fill="none"/>
  <polyline points="2,-482 12,-472 22,-482" stroke="white" stroke-width="2" fill="none"/>
  <polyline points="3,-1783 0,-1780" stroke="white" stroke-width="2" fill="none"/>
  <polyline points="91,-141 81,-161 71,-141" stroke="white" stroke-width="2" fill="none"/>
  <polyline points="51,-1316 61,-1326 71,-1316" stroke="white" stroke-width="2" fill="none"/>
  <polyline points="116,-984 116,-1004 106,-1004 126,-1004" stroke="white" stroke-width="2" fill="none"/>
  <polyline points="7,-521 27,-541" stroke="white" stroke-width="2" fill="none"/>
  <polyline points="3,-2418 0,-2415" stroke="white" stroke-width="2" fill="none"/>
  <polyline points="13,-1228 3,-1208 13,-1208 3,-1228 13,-1228" stroke="white" stroke-width="2" fill="none"/>
  <polyline points="79,-1789 81,-1799 97,-1799 99,-1789" stroke="white" stroke-width="2" fill="none"/>
  <polyline points="89,-2418 89,-2398" stroke="white" stroke-width="2" fill="none"/>
  <polyline points="15,-2070 -5,-2090" stroke="white" stroke-width="2" fill="none"/>
  <polyline points="34,-1838 35,-1837 43,-1837 44,-1838 44,-1841 43,-1842 35,-1842 34,-1843 34,-1846 35,-1847 43,-1847 44,-1846" stroke="white" stroke-width="2" fill="none"/>
  <polyline points="103,-186 83,-206" stroke="white" stroke-width="2" fill="none"/>
  <polyline points="68,-515 88,-535" stroke="white" stroke-width="2" fill="none"/>
  <polyline points="18,-118 18,-98" stroke="white" stroke-width="2" fill="none"/>
  <polyline points="60,-1498 61,-1497 69,-1497 70,-1498 70,-1501 69,-1502 61,-1502 60,-1503 60,-1506 61,-1507 69,-1507 70,-1506" stroke="white" stroke-width="2" fill="none"/>
  <polyline points="2,-2140 3,-2139 11,-2139 12,-2140 12,-2143 11,-2144 3,-2144 2,-2145 2,-2148 3,-2149 11,-2149 12,-2148" stroke="white" stroke-width="2" fill="none"/>
  <polyline points="0,-747 20,-747 10,-747 0,-737 10,-747 20,-737" stroke="white" stroke-width="2" fill="none"/>
  <polyline points="3,-943 0,-940" stroke="white" stroke-width="2" fill="none"/>
  <polyline points="82,-235 102,-235 92,-235 82,-225 92,-235 102,-225" stroke="white" stroke-width="2" fill="none"/>
  <polyline points="24,-2343 44,-2363 34,-2353 44,-2343 24,-2363" stroke="white" stroke-width="2" fill="none"/>
  <polyline points="79,-2435 77,-2437 75,-2435 77,-2433 79,-2435" stroke="white" stroke-width="2" fill="none"/>
  <polyline points="49,-1094 59,-1104 69,-1094" stroke="white" stroke-width="2" fill="none"/>
  <polyline points="-2,-969 -12,-989 -22,-969" stroke="white" stroke-width="2" fill="none"/>
  <polyline points="44,-1736 64,-1736 54,-1736 44,-1726 54,-1736 64,-1726" stroke="white" stroke-width="2" fill="none"/>
  <polyline points="42,-2497 32,-2487 22,-2497" stroke="white" stroke-width="2" fill="none"/>
  <polyline points="96,-1145 96,-1185 86,-1175 106,-1175" stroke="white" stroke-width="2" fill="none"/>
  <polyline points="80,-1044 79,-1045 79,-1053 80,-1054 83,-1054 84,-1053 84,-1045 85,-1044 88,-1044 89,-1045 89,-1053 88,-1054" stroke="white" stroke-width="2" fill="none"/>
  <polyline points="78,-1649 78,-1669 68,-1669 88,-1669" stroke="white" stroke-width="2" fill="none"/>
  <polyline points="26,-590 26,-630 16,-620 36,-620" stroke="white" stroke-width="2" fill="none"/>
  <polyline points="69,-795 69,-835 59,-825 79,-825" stroke="white" stroke-width="2" fill="none"/>
  <polyline points="-11,-1104 -1,-1114 9,-1104" stroke="white" stroke-width="2" fill="none"/>
  <polyline points="7,-2039 27,-2039 17,-2039 7,-2029 17,-2039 27,-2029" stroke="white" stroke-width="2" fill="none"/>
  <polyline points="3,-1705 0,-1708" stroke="white" stroke-width="2" fill="none"/>
  <polyline points="51,-1917 31,-1937" stroke="white" stroke-width="2" fill="none"/>
  <polyline points="-30,-1240 -10,-1240" stroke="white" stroke-width="2" fill="none"/>
  <polyline points="39,-2389 41,-2399 57,-2399 59,-2389" stroke="white" stroke-width="2" fill="none"/>
  <polyline points="90,-2001 94,-2001 88,-2003 96,-2003 86,-2005 98,-2005 84,-2007 84,-2007 100,-2007 82,-2009 102,-2009" stroke="white" stroke-width="2" fill="none"/>
  <polyline points="52,-962 42,-952 32,-962" stroke="white" stroke-width="2" fill="none"/>
  <polyline points="38,-504 36,-514 56,-514 54,-504" stroke="white" stroke-width="2" fill="none"/>
  <polyline points="34,-1692 24,-1712 14,-1692" stroke="white" stroke-width="2" fill="none"/>
  <polyline points="3,-709 0,-712" stroke="white" stroke-width="2" fill="none"/>
  <polyline points="29,-148 19,-138 9,-148" stroke="white" stroke-width="2" fill="none"/>
  <polyline points="68,-395 58,-385 48,-395" stroke="white" stroke-width="2" fill="none"/>
  <polyline points="92,-1232 91,-1233 91,-1241 92,-1242 95,-1242 96,-1241 96,-1233 97,-1232 100,-1232 101,-1233 101,-1241 100,-1242" stroke="white" stroke-width="2" fill="none"/>
  <polyline points="9,-2103 29,-2123" stroke="white" stroke-width="2" fill="none"/>
  <polyline points="93,-1314 113,-1314 103,-1314 93,-1304 103,-1314 113,-1304" stroke="white" stroke-width="2" fill="none"/>
  <polyline points="3,-1947 0,-1950" stroke="white" stroke-width="2" fill="none"/>
  <polyline points="40,-2320 60,-2320" stroke="white" stroke-width="2" fill="none"/>
  <polyline points="107,-1195 109,-1205 125,-1205 127,-1195" stroke="white" stroke-width="2" fill="none"/>
  <polyline points="79,-2224 83,-2224 77,-2226 85,-2226 75,-2228 87,-2228 73,-2230 73,-2230 89,-2230 71,-2232 91,-2232" stroke="white" stroke-width="2" fill="none"/>
  <polyline points="3,-2102 0,-2099" stroke="white" stroke-width="2" fill="none"/>
  <polyline points="71,-362 69,-364 67,-362 69,-360 71,-362" stroke="white" stroke-width="2" fill="none"/>
  <polyline points="26,-818 16,-838 6,-818" stroke="white" stroke-width="2" fill="none"/>
  <polyline points="3,-727 0,-730" stroke="white" stroke-width="2" fill="none"/>
  <polyline points="98,-1655 100,-1657" stroke="white" stroke-width="2" fill="none"/>
  <polyline points="3,-2477 0,-2474" stroke="white" stroke-width="2" fill="none"/>
  <polyline points="89,-2149 69,-2169" stroke="white" stroke-width="2" fill="none"/>
  <circle cx="50" cy="-2700" r="100" stroke="#00ff99" opacity="1" stroke-width="2" fill="none"/>
  <circle cx="48" cy="-1469" r="5" stroke="#3399ff" opacity="1" stroke-width="2" fill="none"/>
  <circle cx="40" cy="-2452" r="7" stroke="#3399ff" opacity="1" stroke-width="2" fill="none"/>
  <circle cx="69" cy="-1387" r="20" stroke="#3399ff" opacity="1" stroke-width="2" fill="none"/>
  <circle cx="94" cy="-631" r="20" stroke="#3399ff" opacity="1" stroke-width="2" fill="none"/>
  <circle cx="-1" cy="-1055" r="5" stroke="#3399ff" opacity="1" stroke-width="2" fill="none"/>
  <circle cx="71" cy="-987" r="7" stroke="#3399ff" opacity="1" stroke-width="2" fill="none"/>
  <circle cx="99" cy="-1075" r="5" stroke="#3399ff" opacity="1" stroke-width="2" fill="none"/>
  <circle cx="52" cy="-863" r="7" stroke="#3399ff" opacity="1" stroke-width="2" fill="none"/>
  <circle cx="55" cy="-109" r="10" stroke="#3399ff" opacity="1" stroke-width="2" fill="none"/>
  <circle cx="91" cy="-1851" r="10" stroke="#3399ff" opacity="1" stroke-width="2" fill="none"/>
  <circle cx="60" cy="-1592" r="20" stroke="#3399ff" opacity="1" stroke-width="2" fill="none"/>
  <circle cx="19" cy="-408" r="5" stroke="#3399ff" opacity="1" stroke-width="2" fill="none"/>
  <circle cx="55" cy="-438" r="7" stroke="#3399ff" opacity="1" stroke-width="2" fill="none"/>
  <circle cx="46" cy="-1145" r="7" stroke="#3399ff" opacity="1" stroke-width="2" fill="none"/>
  <circle cx="5" cy="-1266" r="7" stroke="#3399ff" opacity="1" stroke-width="2" fill="none"/>
  <circle cx="97" cy="-2490" r="20" stroke="#3399ff" opacity="1" stroke-width="2" fill="none"/>
  <circle cx="92" cy="-328" r="7" stroke="#3399ff" opacity="1" stroke-width="2" fill="none"/>
  <circle cx="97" cy="-2111" r="10" stroke="#3399ff" opacity="1" stroke-width="2" fill="none"/>
  <circle cx="21" cy="-360" r="7" stroke="#3399ff" opacity="1" stroke-width="2" fill="none"/>
  <circle cx="126" cy="-1106" r="7" stroke="#3399ff" opacity="1" stroke-width="2" fill="none"/>
  <circle cx="86" cy="-743" r="7" stroke="#3399ff" opacity="1" stroke-width="2" fill="none"/>
  <circle cx="2" cy="-293" r="10" stroke="#3399ff" opacity="1" stroke-width="2" fill="none"/>
  <path marker-end="url(#spawn)" stroke-width="0.5" stroke="red" d="M 0 0 0 1" transform="translate(45,50) scale(1 -1) rotate(-90) rotate(90)" fill="none"/>
  <path marker-end="url(#spawn)" stroke-width="0.5" stroke="red" d="M 0 0 0 1" transform="translate(35,50) scale(1 -1) rotate(-90) rotate(90)" fill="none"/>
  <path marker-end="url(#spawn)" stroke-width="0.5" stroke="red" d="M 0 0 0 1" transform="translate(55,50) scale(1 -1) rotate(-90) rotate(90)" fill="none"/>
  <path marker-end="url(#spawn)" stroke-width="0.5" stroke="red" d="M 0 0 0 1" transform="translate(25,50) scale(1 -1) rotate(-90) rotate(90)" fill="none"/>
  <path marker-end="url(#spawn)" stroke-width="0.5" stroke="red" d="M 0 0 0 1" transform="translate(65,50) scale(1 -1) rotate(-90) rotate(90)" fill="none"/>
  <path marker-end="url(#spawn)" stroke-width="0.5" stroke="red" d="M 0 0 0 1" transform="translate(15,50) scale(1 -1) rotate(-90) rotate(90)" fill="none"/>
  <path marker-end="url(#spawn)" stroke-width="0.5" stroke="red" d="M 0 0 0 1" transform="translate(75,50) scale(1 -1) rotate(-90) rotate(90)" fill="none"/>
  <path marker-end="url(#spawn)" stroke-width="0.5" stroke="red" d="M 0 0 0 1" transform="translate(5,50) scale(1 -1) rotate(-90) rotate(90)" fill="none"/>
  <path marker-end="url(#spawn)" stroke-width="0.5" stroke="red" d="M 0 0 0 1" transform="translate(85,50) scale(1 -1) rotate(-90) rotate(90)" fill="none"/>
</svg>
