<?xml version="1.0" encoding="UTF-8" standalone="no"?>
<svg xmlns="http://www.w3.org/2000/svg" viewBox="-5,-293,282,298" width="100%" height="100%">
  <defs>
    <marker id="spawn" markerWidth="30" markerHeight="40" refX="2" refY="15" orient="auto" viewBox="0 0 40 30">
      <path d="M -5,0 -5,20 -15,20 0,40 15,20 5,20 5,0 Z" fill="magenta" transform="translate(0,15) rotate(-90)"/>
    </marker>
  </defs>
  <polyline points="80,0 192,0 224,-32 256,-32 272,-48 272,-112 240,-144 208,-144 160,-192 160,-208 208,-256 208,-272 192,-288 80,-288 64,-272 64,-256 112,-208 112,-192 64,-144 32,-144 0,-112 0,-48 16,-32 48,-32 80,0" stroke="white" stroke-width="2" fill="none"/>
  <polyline points="16,-48 16,-112 32,-128 64,-128 128,-64 128,-48 112,-32 96,-32 80,-48 80,-112" stroke="white" stroke-width="2" fill="none"/>
  <polyline points="16,-64 32,-80 48,-80" stroke="white" stroke-width="2" fill="none"/>
  <polyline points="16,-96 32,-80" stroke="white" stroke-width="2" fill="none"/>
  <polyline points="32,-112 48,-112 64,-96 64,-32 80,-16 192,-16 208,-32 208,-96 224,-112 240,-112" stroke="white" stroke-width="2" fill="none"/>
  <polyline points="32,-48 48,-48 64,-32" stroke="white" stroke-width="2" fill="none"/>
  <polyline points="48,-48 64,-64" stroke="white" stroke-width="2" fill="none"/>
  <polyline points="80,-128 128,-80 144,-80 192,-128 192,-144 144,-192 128,-192 80,-144 80,-128" stroke="white" stroke-width="2" fill="none"/>
  <polyline points="256,-48 256,-112 240,-128 208,-128 144,-64 144,-48 160,-32 176,-32 192,-48 192,-112" stroke="white" stroke-width="2" fill="none"/>
  <polyline points="256,-96 240,-80 224,-80" stroke="white" stroke-width="2" fill="none"/>
  <polyline points="256,-64 240,-80" stroke="white" stroke-width="2" fill="none"/>
  <polyline points="208,-64 224,-48 240,-48" stroke="white" stroke-width="2" fill="none"/>
  <polyline points="208,-32 224,-48" stroke="white" stroke-width="2" fill="none"/>
  <polyline points="49,-129 64,-144" stroke="white" stroke-width="2" fill="none"/>
  <polyline points="223,-129 208,-144" stroke="white" stroke-width="2" fill="none"/>
  <circle cx="128" cy="0" r="10" stroke="#00ff99" opacity="1" stroke-width="2" fill="none"/>
  <circle cx="144" cy="0" r="10" stroke="#00ff99" opacity="1" stroke-width="2" fill="none"/>
  <circle cx="80" cy="-288" r="16" stroke="#3399ff" opacity="1" stroke-width="2" fill="none"/>
  <circle cx="192" cy="-288" r="16" stroke="#3399ff" opacity="1" stroke-width="2" fill="none"/>
  <circle cx="128" cy="-16" r="10" stroke="#3399ff" opacity="1" stroke-width="2" fill="none"/>
  <circle cx="144" cy="-16" r="10" stroke="#3399ff" opacity="1" stroke-width="2" fill="none"/>
  <circle cx="32" cy="-128" r="10" stroke="#3399ff" opacity="1" stroke-width="2" fill="none"/>
  <circle cx="32" cy="-144" r="10" stroke="#3399ff" opacity="1" stroke-width="2" fill="none"/>
  <circle cx="240" cy="-128" r="10" stroke="#3399ff" opacity="1" stroke-width="2" fill="none"/>
  <circle cx="240" cy="-144" r="10" stroke="#3399ff" opacity="1" stroke-width="2" fill="none"/>
  <circle cx="112" cy="-208" r="8" stroke="#3399ff" opacity="1" stroke-width="2" fill="none"/>
  <circle cx="160" cy="-208" r="8" stroke="#3399ff" opacity="1" stroke-width="2" fill="none"/>
  <circle cx="128" cy="-192" r="8" stroke="#3399ff" opacity="1" stroke-width="2" fill="none"/>
  <circle cx="144" cy="-192" r="8" stroke="#3399ff" opacity="1" stroke-width="2" fill="none"/>
  <circle cx="128" cy="-48" r="6" stroke="#3399ff" opacity="1" stroke-width="2" fill="none"/>
  <circle cx="144" cy="-48" r="6" stroke="#3399ff" opacity="1" stroke-width="2" fill="none"/>
  <circle cx="128" cy="-80" r="6" stroke="#3399ff" opacity="1" stroke-width="2" fill="none"/>
  <circle cx="144" cy="-80" r="6" stroke="#3399ff" opacity="1" stroke-width="2" fill="none"/>
  <circle cx="16" cy="-80" r="10" stroke="#3399ff" opacity="1" stroke-width="2" fill="none"/>
  <circle cx="256" cy="-80" r="10" stroke="#3399ff" opacity="1" stroke-width="2" fill="none"/>
  <circle cx="80" cy="-48" r="8" stroke="#3399ff" opacity="1" stroke-width="2" fill="none"/>
  <circle cx="192" cy="-48" r="8" stroke="#3399ff" opacity="1" stroke-width="2" fill="none"/>
  <circle cx="240" cy="-96" r="8" stroke="#3399ff" opacity="1" stroke-width="2" fill="none"/>
  <circle cx="224" cy="-96" r="4" stroke="#3399ff" opacity="1" stroke-width="2" fill="none"/>
  <circle cx="208" cy="-96" r="8" stroke="#3399ff" opacity="1" stroke-width="2" fill="none"/>
  <circle cx="224" cy="-80" r="6" stroke="#3399ff" opacity="1" stroke-width="2" fill="none"/>
  <circle cx="224" cy="-64" r="4" stroke="#3399ff" opacity="1" stroke-width="2" fill="none"/>
  <circle cx="240" cy="-64" r="6" stroke="#3399ff" opacity="1" stroke-width="2" fill="none"/>
  <circle cx="208" cy="-64" r="8" stroke="#3399ff" opacity="1" stroke-width="2" fill="none"/>
  <circle cx="224" cy="-48" r="8" stroke="#3399ff" opacity="1" stroke-width="2" fill="none"/>
  <circle cx="256" cy="-48" r="6" stroke="#3399ff" opacity="1" stroke-width="2" fill="none"/>
  <circle cx="240" cy="-32" r="6" stroke="#3399ff" opacity="1" stroke-width="2" fill="none"/>
  <circle cx="192" cy="-16" r="6" stroke="#3399ff" opacity="1" stroke-width="2" fill="none"/>
  <circle cx="80" cy="-16" r="6" stroke="#3399ff" opacity="1" stroke-width="2" fill="none"/>
  <circle cx="32" cy="-32" r="6" stroke="#3399ff" opacity="1" stroke-width="2" fill="none"/>
  <circle cx="80" cy="-80" r="6" stroke="#3399ff" opacity="1" stroke-width="2" fill="none"/>
  <circle cx="192" cy="-80" r="6" stroke="#3399ff" opacity="1" stroke-width="2" fill="none"/>
  <circle cx="32" cy="-96" r="8" stroke="#3399ff" opacity="1" stroke-width="2" fill="none"/>
  <circle cx="48" cy="-48" r="8" stroke="#3399ff" opacity="1" stroke-width="2" fill="none"/>
  <circle cx="48" cy="-80" r="8" stroke="#3399ff" opacity="1" stroke-width="2" fill="none"/>
  <circle cx="48" cy="-64" r="4" stroke="#3399ff" opacity="1" stroke-width="2" fill="none"/>
  <circle cx="48" cy="-96" r="4" stroke="#3399ff" opacity="1" stroke-width="2" fill="none"/>
  <circle cx="32" cy="-64" r="6" stroke="#3399ff" opacity="1" stroke-width="2" fill="none"/>
  <circle cx="64" cy="-64" r="8" stroke="#3399ff" opacity="1" stroke-width="2" fill="none"/>
  <circle cx="64" cy="-96" r="8" stroke="#3399ff" opacity="1" stroke-width="2" fill="none"/>
  <circle cx="16" cy="-48" r="6" stroke="#3399ff" opacity="1" stroke-width="2" fill="none"/>
  <circle cx="0" cy="-112" r="16" stroke="#3399ff" opacity="1" stroke-width="2" fill="none"/>
  <circle cx="272" cy="-112" r="16" stroke="#3399ff" opacity="1" stroke-width="2" fill="none"/>
  <circle cx="96" cy="-96" r="6" stroke="#3399ff" opacity="1" stroke-width="2" fill="none"/>
  <circle cx="176" cy="-96" r="6" stroke="#3399ff" opacity="1" stroke-width="2" fill="none"/>
  <circle cx="80" cy="-128" r="6" stroke="#3399ff" opacity="1" stroke-width="2" fill="none"/>
  <circle cx="192" cy="-128" r="6" stroke="#3399ff" opacity="1" stroke-width="2" fill="none"/>
  <circle cx="64" cy="-144" r="8" stroke="#3399ff" opacity="1" stroke-width="2" fill="none"/>
  <circle cx="208" cy="-144" r="8" stroke="#3399ff" opacity="1" stroke-width="2" fill="none"/>
  <circle cx="64" cy="-112" r="4" stroke="#3399ff" opacity="1" stroke-width="2" fill="none"/>
  <circle cx="208" cy="-112" r="4" stroke="#3399ff" opacity="1" stroke-width="2" fill="none"/>
  <path marker-end="url(#spawn)" stroke-width="0.5" stroke="red" d="M 0 0 0 1" transform="translate(112,-240) scale(1 -1) rotate(-90) matrix(0,1,-1,0,0,0)" fill="none"/>
  <path marker-end="url(#spawn)" stroke-width="0.5" stroke="red" d="M 0 0 0 1" transform="translate(160,-240) scale(1 -1) rotate(-90) matrix(0,1,-1,0,0,0)" fill="none"/>
</svg>
