<?xml version="1.0" encoding="UTF-8" standalone="no"?>
<svg xmlns="http://www.w3.org/2000/svg" viewBox="-30,-2805,160,3010" width="100%" height="100%">
  <defs>
    <marker id="spawn" markerWidth="30" markerHeight="40" refX="2" refY="15" orient="auto" viewBox="0 0 40 30">
      <path d="M -5,0 -5,20 -15,20 0,40 15,20 5,20 5,0 Z" fill="magenta" transform="translate(0,15) rotate(-90)"/>
    </marker>
  </defs>
  <polyline points="10,120 10,60 15,60 20,65 20,80 15,85 10,85 20,120" stroke="white" stroke-width="2" fill="none"/>
  <polyline points="25,120 40,60 55,120 47.5,90 32.5,90" stroke="white" stroke-width="2" fill="none"/>
  <polyline points="75,65 70,60 65,60 60,65 60,115 65,120 70,120 75,115" stroke="white" stroke-width="2" fill="none"/>
  <polyline points="95,60 80,60 80,90 90,90 80,90 80,120 95,120" stroke="white" stroke-width="2" fill="none"/>
  <polyline points="50,-1125 55,-1120 55,-980 50,-975 45,-980 45,-1120 50,-1125" stroke="white" stroke-width="2" fill="none"/>
  <polyline points="0,200 100,200 100,-950 125,-975 125,-1125 75,-1175 75,-1325 100,-1350 100,-2800" stroke="white" stroke-width="2" fill="none"/>
  <polyline points="0,-2800 0,-1350 25,-1325 25,-1175 -25,-1125 -25,-975 0,-950 0,200" stroke="white" stroke-width="2" fill="none"/>
  <polyline points="71,-566 73,-576 89,-576 91,-566" stroke="white" stroke-width="2" fill="none"/>
  <polyline points="29,-851 49,-871 39,-861 49,-851 29,-871" stroke="white" stroke-width="2" fill="none"/>
  <polyline points="81,-806 83,-816 99,-816 101,-806" stroke="white" stroke-width="2" fill="none"/>
  <polyline points="68,-2001 58,-1981 68,-1981 58,-2001 68,-2001" stroke="white" stroke-width="2" fill="none"/>
  <polyline points="104,-1138 102,-1140 100,-1138 102,-1136 104,-1138" stroke="white" stroke-width="2" fill="none"/>
  <polyline points="1,-1708 11,-1718 21,-1708" stroke="white" stroke-width="2" fill="none"/>
  <polyline points="76,-1848 81,-1858 86,-1848 91,-1858 96,-1848" stroke="white" stroke-width="2" fill="none"/>
  <polyline points="29,-237 9,-257" stroke="white" stroke-width="2" fill="none"/>
  <polyline points="65,-1591 55,-1581 45,-1591" stroke="white" stroke-width="2" fill="none"/>
  <polyline points="103,-1025 123,-1045" stroke="white" stroke-width="2" fill="none"/>
  <polyline points="30,-123 35,-133 40,-123 45,-133 50,-123" stroke="white" stroke-width="2" fill="none"/>
  <polyline points="3,-468 0,-465" stroke="white" stroke-width="2" fill="none"/>
  <polyline points="95,-823 94,-824 94,-832 95,-833 98,-833 99,-832 99,-824 100,-823 103,-823 104,-824 104,-832 103,-833" stroke="white" stroke-width="2" fill="none"/>
  <polyline points="6,-937 4,-947 24,-947 22,-937" stroke="white" stroke-width="2" fill="none"/>
  <polyline points="32,-287 30,-297 50,-297 48,-287" stroke="white" stroke-width="2" fill="none"/>
  <polyline points="34,-2022 34,-2002" stroke="white" stroke-width="2" fill="none"/>
  <polyline points="3,-2176 0,-2179" stroke="white" stroke-width="2" fill="none"/>
  <polyline points="28,-1123 33,-1133 38,-1123 43,-1133 48,-1123" stroke="white" stroke-width="2" fill="none"/>
  <polyline points="56,-2101 61,-2111 66,-2101 71,-2111 76,-2101" stroke="white" stroke-width="2" fill="none"/>
  <polyline points="51,-1392 50,-1393 50,-1401 51,-1402 54,-1402 55,-1401 55,-1393 56,-1392 59,-1392 60,-1393 60,-1401 59,-1402" stroke="white" stroke-width="2" fill="none"/>
  <polyline points="94,-1554 84,-1534 94,-1534 84,-1554 94,-1554" stroke="white" stroke-width="2" fill="none"/>
  <polyline points="52,-1476 52,-1516 42,-1506 62,-1506" stroke="white" stroke-width="2" fill="none"/>
  <polyline points="55,-236 65,-246 75,-236" stroke="white" stroke-width="2" fill="none"/>
  <polyline points="82,-2137 92,-2127 102,-2137" stroke="white" stroke-width="2" fill="none"/>
  <polyline points="46,-1185 66,-1185" stroke="white" stroke-width="2" fill="none"/>
  <polyline points="54,-2341 64,-2351 74,-2341" stroke="white" stroke-width="2" fill="none"/>
  <polyline points="44,-2302 49,-2312 54,-2302 59,-2312 64,-2302" stroke="white" stroke-width="2" fill="none"/>
  <polyline points="52,-1678 56,-1678 50,-1680 58,-1680 48,-1682 60,-1682 46,-1684 46,-1684 62,-1684 44,-1686 64,-1686" stroke="white" stroke-width="2" fill="none"/>
  <polyline points="66,-1951 65,-1952 65,-1960 66,-1961 69,-1961 70,-1960 70,-1952 71,-1951 74,-1951 75,-1952 75,-1960 74,-1961" stroke="white" stroke-width="2" fill="none"/>
  <polyline points="47,-915 57,-905 67,-915" stroke="white" stroke-width="2" fill="none"/>
  <polyline points="98,-777 100,-775" stroke="white" stroke-width="2" fill="none"/>
  <polyline points="8,-695 6,-705 26,-705 24,-695" stroke="white" stroke-width="2" fill="none"/>
  <polyline points="106,-1312 106,-1332 96,-1332 116,-1332" stroke="white" stroke-width="2" fill="none"/>
  <polyline points="59,-509 60,-508 68,-508 69,-509 69,-512 68,-513 60,-513 59,-514 59,-517 60,-518 68,-518 69,-517" stroke="white" stroke-width="2" fill="none"/>
  <polyline points="56,-461 76,-461 66,-461 56,-451 66,-461 76,-451" stroke="white" stroke-width="2" fill="none"/>
  <polyline points="97,-1581 97,-1561" stroke="white" stroke-width="2" fill="none"/>
  <polyline points="64,-1640 65,-1639 73,-1639 74,-1640 74,-1643 73,-1644 65,-1644 64,-1645 64,-1648 65,-1649 73,-1649 74,-1648" stroke="white" stroke-width="2" fill="none"/>
  <polyline points="24,-2101 24,-2081" stroke="white" stroke-width="2" fill="none"/>
  <polyline points="98,-753 100,-755" stroke="white" stroke-width="2" fill="none"/>
  <polyline points="98,-343 100,-345" stroke="white" stroke-width="2" fill="none"/>
  <polyline points="81,-218 80,-219 80,-227 81,-228 84,-228 85,-227 85,-219 86,-218 89,-218 90,-219 90,-227 89,-228" stroke="white" stroke-width="2" fill="none"/>
  <polyline points="34,-1542 34,-1522" stroke="white" stroke-width="2" fill="none"/>
  <polyline points="98,-2321 100,-2323" stroke="white" stroke-width="2" fill="none"/>
  <polyline points="59,-1309 61,-1319 77,-1319 79,-1309" stroke="white" stroke-width="2" fill="none"/>
  <polyline points="3,-440 0,-443" stroke="white" stroke-width="2" fill="none"/>
  <polyline points="80,-1272 100,-1272 90,-1272 80,-1262 90,-1272 100,-1262" stroke="white" stroke-width="2" fill="none"/>
  <polyline points="37,-690 57,-690" stroke="white" stroke-width="2" fill="none"/>
  <polyline points="98,-104 100,-106" stroke="white" stroke-width="2" fill="none"/>
  <polyline points="87,-1738 87,-1758 77,-1758 97,-1758" stroke="white" stroke-width="2" fill="none"/>
  <polyline points="74,-1338 74,-1378 64,-1368 84,-1368" stroke="white" stroke-width="2" fill="none"/>
  <polyline points="33,-2255 38,-2265 43,-2255 48,-2265 53,-2255" stroke="white" stroke-width="2" fill="none"/>
  <polyline points="3,-552 0,-549" stroke="white" stroke-width="2" fill="none"/>
  <polyline points="42,-328 43,-327 51,-327 52,-328 52,-331 51,-332 43,-332 42,-333 42,-336 43,-337 51,-337 52,-336" stroke="white" stroke-width="2" fill="none"/>
  <polyline points="2,-1355 22,-1375" stroke="white" stroke-width="2" fill="none"/>
  <polyline points="45,-1932 43,-1942 63,-1942 61,-1932" stroke="white" stroke-width="2" fill="none"/>
  <polyline points="4,-892 24,-912 14,-902 24,-892 4,-912" stroke="white" stroke-width="2" fill="none"/>
  <polyline points="98,-1674 100,-1672" stroke="white" stroke-width="2" fill="none"/>
  <polyline points="3,-724 0,-727" stroke="white" stroke-width="2" fill="none"/>
  <polyline points="21,-2044 41,-2064" stroke="white" stroke-width="2" fill="none"/>
  <polyline points="33,-2134 33,-2174 23,-2164 43,-2164" stroke="white" stroke-width="2" fill="none"/>
  <polyline points="98,-1765 100,-1767" stroke="white" stroke-width="2" fill="none"/>
  <polyline points="92,-2170 92,-2210 82,-2200 102,-2200" stroke="white" stroke-width="2" fill="none"/>
  <polyline points="36,-195 56,-195 46,-195 36,-185 46,-195 56,-185" stroke="white" stroke-width="2" fill="none"/>
  <polyline points="37,-978 35,-988 55,-988 53,-978" stroke="white" stroke-width="2" fill="none"/>
  <polyline points="70,-1667 90,-1667" stroke="white" stroke-width="2" fill="none"/>
  <polyline points="25,-177 15,-157 25,-157 15,-177 25,-177" stroke="white" stroke-width="2" fill="none"/>
  <polyline points="70,-845 68,-855 88,-855 86,-845" stroke="white" stroke-width="2" fill="none"/>
  <polyline points="19,-1207 39,-1207" stroke="white" stroke-width="2" fill="none"/>
  <polyline points="117,-1108 107,-1088 117,-1088 107,-1108 117,-1108" stroke="white" stroke-width="2" fill="none"/>
  <polyline points="3,-212 0,-215" stroke="white" stroke-width="2" fill="none"/>
  <polyline points="51,-2387 49,-2389 47,-2387 49,-2385 51,-2387" stroke="white" stroke-width="2" fill="none"/>
  <polyline points="109,-1224 109,-1204" stroke="white" stroke-width="2" fill="none"/>
  <polyline points="98,-2245 100,-2243" stroke="white" stroke-width="2" fill="none"/>
  <polyline points="0,-1325 2,-1335 18,-1335 20,-1325" stroke="white" stroke-width="2" fill="none"/>
  <polyline points="43,-1015 53,-1025 63,-1015" stroke="white" stroke-width="2" fill="none"/>
  <polyline points="74,-387 84,-377 94,-387" stroke="white" stroke-width="2" fill="none"/>
  <polyline points="23,-428 23,-448 13,-448 33,-448" stroke="white" stroke-width="2" fill="none"/>
  <polyline points="3,-1869 0,-1866" stroke="white" stroke-width="2" fill="none"/>
  <polyline points="8,-2488 28,-2508" stroke="white" stroke-width="2" fill="none"/>
  <polyline points="72,-670 92,-670 82,-670 72,-660 82,-670 92,-660" stroke="white" stroke-width="2" fill="none"/>
  <polyline points="-1,-1751 4,-1761 9,-1751 14,-1761 19,-1751" stroke="white" stroke-width="2" fill="none"/>
  <polyline points="30,-601 50,-621 40,-611 50,-601 30,-621" stroke="white" stroke-width="2" fill="none"/>
  <polyline points="98,-682 100,-680" stroke="white" stroke-width="2" fill="none"/>
  <polyline points="79,-2509 69,-2489 79,-2489 69,-2509 79,-2509" stroke="white" stroke-width="2" fill="none"/>
  <polyline points="58,-1846 56,-1848 54,-1846 56,-1844 58,-1846" stroke="white" stroke-width="2" fill="none"/>
  <polyline points="64,-962 62,-972 82,-972 80,-962" stroke="white" stroke-width="2" fill="none"/>
  <polyline points="98,-2222 100,-2224" stroke="white" stroke-width="2" fill="none"/>
  <polyline points="33,-512 33,-492" stroke="white" stroke-width="2" fill="none"/>
  <polyline points="3,-1527 0,-1524" stroke="white" stroke-width="2" fill="none"/>
  <polyline points="98,-594 100,-592" stroke="white" stroke-width="2" fill="none"/>
  <polyline points="36,-391 34,-401 54,-401 52,-391" stroke="white" stroke-width="2" fill="none"/>
  <polyline points="97,-995 117,-995 107,-995 97,-985 107,-995 117,-985" stroke="white" stroke-width="2" fill="none"/>
  <polyline points="25,-1812 23,-1822 43,-1822 41,-1812" stroke="white" stroke-width="2" fill="none"/>
  <circle cx="50" cy="-2700" r="100" stroke="#00ff99" opacity="1" stroke-width="2" fill="none"/>
  <circle cx="19" cy="-2445" r="10" stroke="#3399ff" opacity="1" stroke-width="2" fill="none"/>
  <circle cx="50" cy="-1880" r="10" stroke="#3399ff" opacity="1" stroke-width="2" fill="none"/>
  <circle cx="10" cy="-781" r="7" stroke="#3399ff" opacity="1" stroke-width="2" fill="none"/>
  <circle cx="81" cy="-1439" r="20" stroke="#3399ff" opacity="1" stroke-width="2" fill="none"/>
  <circle cx="-20" cy="-1096" r="20" stroke="#3399ff" opacity="1" stroke-width="2" fill="none"/>
  <circle cx="52" cy="-783" r="5" stroke="#3399ff" opacity="1" stroke-width="2" fill="none"/>
  <circle cx="90" cy="-310" r="10" stroke="#3399ff" opacity="1" stroke-width="2" fill="none"/>
  <circle cx="20" cy="-2380" r="10" stroke="#3399ff" opacity="1" stroke-width="2" fill="none"/>
  <circle cx="1" cy="-1459" r="20" stroke="#3399ff" opacity="1" stroke-width="2" fill="none"/>
  <circle cx="83" cy="-175" r="10" stroke="#3399ff" opacity="1" stroke-width="2" fill="none"/>
  <circle cx="33" cy="-1289" r="7" stroke="#3399ff" opacity="1" stroke-width="2" fill="none"/>
  <circle cx="18" cy="-641" r="7" stroke="#3399ff" opacity="1" stroke-width="2" fill="none"/>
  <circle cx="83" cy="-2425" r="20" stroke="#3399ff" opacity="1" stroke-width="2" fill="none"/>
  <circle cx="14" cy="-1032" r="5" stroke="#3399ff" opacity="1" stroke-width="2" fill="none"/>
  <circle cx="97" cy="-1704" r="5" stroke="#3399ff" opacity="1" stroke-width="2" fill="none"/>
  <circle cx="46" cy="-2220" r="5" stroke="#3399ff" opacity="1" stroke-width="2" fill="none"/>
  <circle cx="101" cy="-505" r="5" stroke="#3399ff" opacity="1" stroke-width="2" fill="none"/>
  <path marker-end="url(#spawn)" stroke-width="0.5" stroke="red" d="M 0 0 0 1" transform="translate(45,50) scale(1 -1) rotate(-90) rotate(90)" fill="none"/>
  <path marker-end="url(#spawn)" stroke-width="0.5" stroke="red" d="M 0 0 0 1" transform="translate(35,50) scale(1 -1) rotate(-90) rotate(90)" fill="none"/>
  <path marker-end="url(#spawn)" stroke-width="0.5" stroke="red" d="M 0 0 0 1" transform="translate(55,50) scale(1 -1) rotate(-90) rotate(90)" fill="none"/>
  <path marker-end="url(#spawn)" stroke-width="0.5" stroke="red" d="M 0 0 0 1" transform="translate(25,50) scale(1 -1) rotate(-90) rotate(90)" fill="none"/>
  <path marker-end="url(#spawn)" stroke-width="0.5" stroke="red" d="M 0 0 0 1" transform="translate(65,50) scale(1 -1) rotate(-90) rotate(90)" fill="none"/>
  <path marker-end="url(#spawn)" stroke-width="0.5" stroke="red" d="M 0 0 0 1" transform="translate(15,50) scale(1 -1) rotate(-90) rotate(90)" fill="none"/>
  <path marker-end="url(#spawn)" stroke-width="0.5" stroke="red" d="M 0 0 0 1" transform="translate(75,50) scale(1 -1) rotate(-90) rotate(90)" fill="none"/>
  <path marker-end="url(#spawn)" stroke-width="0.5" stroke="red" d="M 0 0 0 1" transform="translate(5,50) scale(1 -1) rotate(-90) rotate(90)" fill="none"/>
  <path marker-end="url(#spawn)" stroke-width="0.5" stroke="red" d="M 0 0 0 1" transform="translate(85,50) scale(1 -1) rotate(-90) rotate(90)" fill="none"/>
</svg>
