<?xml version="1.0" encoding="UTF-8" standalone="no"?>
<svg xmlns="http://www.w3.org/2000/svg" viewBox="635,1451,520,520" width="100%" height="100%">
  <defs>
    <marker id="spawn" markerWidth="30" markerHeight="40" refX="2" refY="15" orient="auto" viewBox="0 0 40 30">
      <path d="M -5,0 -5,20 -15,20 0,40 15,20 5,20 5,0 Z" fill="magenta" transform="translate(0,15) rotate(-90)"/>
    </marker>
  </defs>
  <polyline points="896,1456 926,1458 956,1464 986,1474 1016,1486 1042,1502 1066,1522 1088,1544 1108,1568 1124,1596 1136,1624 1144,1654 1150,1686 1150,1716 1148,1746 1142,1778 1132,1806 1118,1836 1102,1862 1082,1886 1060,1908 1034,1926 1008,1942 978,1954 948,1962 918,1966 888,1966 856,1964 826,1958 796,1946 768,1932 742,1916 718,1896 698,1872 678,1846 664,1820 652,1790 644,1760 640,1728 640,1698 644,1668 652,1638 662,1608 676,1580 694,1554 714,1530 738,1510 764,1492 792,1478 822,1468 852,1460 882,1456 896,1456" stroke="white" stroke-width="2" fill="none"/>
  <polyline points="992,1520 1024,1526 1052,1542 1074,1568 1086,1600 1086,1632 1074,1662 1052,1688 1024,1706 992,1712 960,1706 930,1688 908,1664 898,1632 898,1600 908,1568 930,1542 960,1526 992,1520" stroke="white" stroke-width="2" fill="none"/>
  <polyline points="992,1540 1020,1546 1044,1562 1060,1586 1066,1614 1062,1640 1046,1666 1024,1682 996,1690 968,1686 944,1672 926,1650 918,1622 920,1596 932,1570 954,1552 982,1542 992,1540" stroke="white" stroke-width="2" fill="none"/>
  <polyline points="992,1596 1000,1598 1008,1606 1012,1616 1008,1624 1000,1632 992,1636 982,1632 974,1626 972,1616 974,1606 982,1598 992,1596" stroke="white" stroke-width="2" fill="none"/>
  <polyline points="924,1586 974,1606" stroke="white" stroke-width="2" fill="none"/>
  <polyline points="972,1616 918,1616" stroke="white" stroke-width="2" fill="none"/>
  <polyline points="976,1626 926,1652" stroke="white" stroke-width="2" fill="none"/>
  <polyline points="982,1634 958,1680" stroke="white" stroke-width="2" fill="none"/>
  <polyline points="992,1636 998,1688" stroke="white" stroke-width="2" fill="none"/>
  <polyline points="1004,1630 1034,1676" stroke="white" stroke-width="2" fill="none"/>
  <polyline points="1010,1622 1062,1640" stroke="white" stroke-width="2" fill="none"/>
  <polyline points="1010,1612 1064,1600" stroke="white" stroke-width="2" fill="none"/>
  <polyline points="1004,1602 1044,1562" stroke="white" stroke-width="2" fill="none"/>
  <polyline points="992,1596 992,1540" stroke="white" stroke-width="2" fill="none"/>
  <polyline points="982,1598 954,1552" stroke="white" stroke-width="2" fill="none"/>
  <polyline points="1140,1732 1048,1740 940,1742 854,1742 768,1736 696,1728 640,1718" stroke="white" stroke-width="2" fill="none"/>
  <polyline points="1050,1751 1140,1743 1133,1777 1123,1805 1109,1833 1092,1857 1041,1856 1050,1751" stroke="white" stroke-width="2" fill="none"/>
  <polyline points="1040,1752 1000,1753 992,1857 1031,1857 1039,1752" stroke="white" stroke-width="2" fill="none"/>
  <polyline points="977,1906 990,1753 943,1753 930,1904 977,1904" stroke="white" stroke-width="2" fill="none"/>
  <polyline points="991,1865 988,1904 1051,1904 1071,1884 1086,1866 991,1866" stroke="white" stroke-width="2" fill="none"/>
  <polyline points="1043,1912 1007,1935 976,1946 949,1954 919,1957 887,1957 858,1955 831,1949 802,1938 776,1925 748,1911 1045,1911" stroke="white" stroke-width="2" fill="none"/>
  <polyline points="844,1753 821,1752 826,1828 845,1828 845,1754" stroke="white" stroke-width="2" fill="none"/>
  <polyline points="828,1837 833,1905 922,1905 926,1839 828,1839" stroke="white" stroke-width="2" fill="none"/>
  <polyline points="769,1748 813,1751 815,1790 774,1790 770,1748" stroke="white" stroke-width="2" fill="none"/>
  <polyline points="761,1747 696,1741 650,1736 654,1758 659,1776 663,1792 764,1792 759,1748" stroke="white" stroke-width="2" fill="none"/>
  <polyline points="1025,1712 992,1718 959,1713 959,1726 1024,1725 1025,1712" stroke="white" stroke-width="2" fill="none"/>
  <polyline points="960,1520 960,1472 986,1480 1016,1493 1025,1498 1025,1522 992,1516 960,1522" stroke="white" stroke-width="2" fill="none"/>
  <polyline points="1034,1708 1034,1722 1088,1718 1088,1639 1078,1665 1056,1692 1035,1707" stroke="white" stroke-width="2" fill="none"/>
  <polyline points="1063,1528 1087,1552 1087,1590 1077,1565 1053,1538 1034,1527 1034,1503 1049,1515 1064,1529" stroke="white" stroke-width="2" fill="none"/>
  <polyline points="934,1761 861,1828 928,1828 934,1762" stroke="white" stroke-width="2" fill="none"/>
  <polyline points="851,1828 851,1754 932,1754 851,1828" stroke="white" stroke-width="2" fill="none"/>
  <polyline points="927,1694 903,1669 891,1633 891,1600 901,1566 925,1537 952,1523" stroke="white" stroke-width="2" fill="none"/>
  <polyline points="952,1523 952,1469 926,1465 895,1463 882,1463 882,1725 952,1725" stroke="white" stroke-width="2" fill="none"/>
  <polyline points="952,1725 952,1711 927,1694" stroke="white" stroke-width="2" fill="none"/>
  <polyline points="1093,1557 1093,1718 1121,1717 1121,1598 1105,1571 1093,1557" stroke="white" stroke-width="2" fill="none"/>
  <polyline points="1125,1606 1125,1714 1146,1710 1146,1686 1141,1656 1133,1626 1125,1606" stroke="white" stroke-width="2" fill="none"/>
  <polyline points="873,1463 853,1466 823,1473 793,1483 766,1496 741,1514 873,1514 873,1463" stroke="white" stroke-width="2" fill="none"/>
  <polyline points="715,1640 715,1604 669,1604 667,1609 658,1640 715,1640" stroke="white" stroke-width="2" fill="none"/>
  <polyline points="737,1516 720,1530 720,1599 737,1599 737,1516" stroke="white" stroke-width="2" fill="none"/>
  <polyline points="716,1533 716,1600 671,1600 680,1582 698,1556 716,1533" stroke="white" stroke-width="2" fill="none"/>
  <polyline points="720,1604 720,1664 737,1642 737,1604 720,1604" stroke="white" stroke-width="2" fill="none"/>
  <polyline points="720,1672 738,1649 738,1717 720,1715 720,1671" stroke="white" stroke-width="2" fill="none"/>
  <polyline points="715,1644 656,1644 649,1668 645,1698 645,1706 696,1712 715,1714 715,1644" stroke="white" stroke-width="2" fill="none"/>
  <polyline points="715,1644 658,1644" stroke="white" stroke-width="2" fill="none"/>
  <polyline points="665,1800 815,1800 823,1905 742,1905 724,1893 703,1870 685,1844 671,1818 661,1800 708,1800" stroke="white" stroke-width="2" fill="none"/>
  <polyline points="746,1717 767,1719 852,1725 874,1725 874,1661 747,1661 747,1716" stroke="white" stroke-width="2" fill="none"/>
  <polyline points="831,1521 831,1591 872,1591 872,1521 831,1521" stroke="white" stroke-width="2" fill="none"/>
  <polyline points="872,1600 783,1600 783,1652 872,1652 872,1600" stroke="white" stroke-width="2" fill="none"/>
  <polyline points="774,1652 774,1591 822,1591 822,1521 746,1521 746,1653 774,1653" stroke="white" stroke-width="2" fill="none"/>
  <polyline points="1150,1716 1125,1722 1033,1729 954,1730 848,1730 738,1723 655,1714" stroke="white" stroke-width="2" fill="none"/>
  <circle cx="784" cy="1720" r="6" stroke="#3399ff" opacity="1" stroke-width="2" fill="none"/>
  <circle cx="648" cy="1664" r="6" stroke="#3399ff" opacity="1" stroke-width="2" fill="none"/>
  <circle cx="720" cy="1640" r="6" stroke="#3399ff" opacity="1" stroke-width="2" fill="none"/>
  <circle cx="1136" cy="1712" r="6" stroke="#00ff99" opacity="1" stroke-width="2" fill="none"/>
  <circle cx="648" cy="1728" r="6" stroke="#00ff99" opacity="1" stroke-width="2" fill="none"/>
  <circle cx="1080" cy="1744" r="6" stroke="#3399ff" opacity="1" stroke-width="2" fill="none"/>
  <circle cx="976" cy="1904" r="7" stroke="#3399ff" opacity="1" stroke-width="2" fill="none"/>
  <circle cx="968" cy="1960" r="7" stroke="#3399ff" opacity="1" stroke-width="2" fill="none"/>
  <circle cx="872" cy="1952" r="7" stroke="#3399ff" opacity="1" stroke-width="2" fill="none"/>
  <circle cx="776" cy="1936" r="7" stroke="#3399ff" opacity="1" stroke-width="2" fill="none"/>
  <circle cx="888" cy="1752" r="10" stroke="#3399ff" opacity="1" stroke-width="2" fill="none"/>
  <circle cx="728" cy="1912" r="10" stroke="#3399ff" opacity="1" stroke-width="2" fill="none"/>
  <circle cx="704" cy="1856" r="10" stroke="#3399ff" opacity="1" stroke-width="2" fill="none"/>
  <circle cx="648" cy="1776" r="12" stroke="#3399ff" opacity="1" stroke-width="2" fill="none"/>
  <circle cx="768" cy="1776" r="12" stroke="#3399ff" opacity="1" stroke-width="2" fill="none"/>
  <circle cx="888" cy="1728" r="3" stroke="#3399ff" opacity="1" stroke-width="2" fill="none"/>
  <circle cx="776" cy="1492" r="1" stroke="#3399ff" opacity="1" stroke-width="2" fill="none"/>
  <circle cx="800" cy="1476" r="1" stroke="#3399ff" opacity="1" stroke-width="2" fill="none"/>
  <circle cx="841" cy="1466" r="1" stroke="#3399ff" opacity="1" stroke-width="2" fill="none"/>
  <circle cx="910" cy="1462" r="1" stroke="#3399ff" opacity="1" stroke-width="2" fill="none"/>
  <circle cx="918" cy="1459" r="1" stroke="#3399ff" opacity="1" stroke-width="2" fill="none"/>
  <circle cx="993" cy="1479" r="1" stroke="#3399ff" opacity="1" stroke-width="2" fill="none"/>
  <circle cx="1003" cy="1487" r="1" stroke="#3399ff" opacity="1" stroke-width="2" fill="none"/>
  <circle cx="1007" cy="1486" r="1" stroke="#3399ff" opacity="1" stroke-width="2" fill="none"/>
  <circle cx="1070" cy="1530" r="1" stroke="#3399ff" opacity="1" stroke-width="2" fill="none"/>
  <circle cx="1070" cy="1534" r="1" stroke="#3399ff" opacity="1" stroke-width="2" fill="none"/>
  <circle cx="1105" cy="1567" r="1" stroke="#3399ff" opacity="1" stroke-width="2" fill="none"/>
  <circle cx="1117" cy="1591" r="1" stroke="#3399ff" opacity="1" stroke-width="2" fill="none"/>
  <circle cx="1136" cy="1625" r="1" stroke="#3399ff" opacity="1" stroke-width="2" fill="none"/>
  <circle cx="1134" cy="1629" r="1" stroke="#3399ff" opacity="1" stroke-width="2" fill="none"/>
  <circle cx="1139" cy="1634" r="1" stroke="#3399ff" opacity="1" stroke-width="2" fill="none"/>
  <circle cx="964" cy="1525" r="1" stroke="#3399ff" opacity="1" stroke-width="2" fill="none"/>
  <circle cx="971" cy="1521" r="1" stroke="#3399ff" opacity="1" stroke-width="2" fill="none"/>
  <circle cx="1015" cy="1521" r="1" stroke="#3399ff" opacity="1" stroke-width="2" fill="none"/>
  <circle cx="1026" cy="1509" r="3" stroke="#3399ff" opacity="1" stroke-width="2" fill="none"/>
  <circle cx="1033" cy="1516" r="3" stroke="#3399ff" opacity="1" stroke-width="2" fill="none"/>
  <circle cx="1025" cy="1517" r="3" stroke="#3399ff" opacity="1" stroke-width="2" fill="none"/>
  <circle cx="1093" cy="1568" r="3" stroke="#3399ff" opacity="1" stroke-width="2" fill="none"/>
  <circle cx="1087" cy="1563" r="3" stroke="#3399ff" opacity="1" stroke-width="2" fill="none"/>
  <circle cx="1088" cy="1586" r="3" stroke="#3399ff" opacity="1" stroke-width="2" fill="none"/>
  <circle cx="1126" cy="1654" r="3" stroke="#3399ff" opacity="1" stroke-width="2" fill="none"/>
  <circle cx="1120" cy="1650" r="3" stroke="#3399ff" opacity="1" stroke-width="2" fill="none"/>
  <circle cx="1120" cy="1658" r="3" stroke="#3399ff" opacity="1" stroke-width="2" fill="none"/>
  <circle cx="1125" cy="1663" r="3" stroke="#3399ff" opacity="1" stroke-width="2" fill="none"/>
  <circle cx="836" cy="1833" r="6" stroke="#3399ff" opacity="1" stroke-width="2" fill="none"/>
  <circle cx="817" cy="1742" r="6" stroke="#3399ff" opacity="1" stroke-width="2" fill="none"/>
  <circle cx="955" cy="1740" r="6" stroke="#3399ff" opacity="1" stroke-width="2" fill="none"/>
  <circle cx="967" cy="1732" r="6" stroke="#3399ff" opacity="1" stroke-width="2" fill="none"/>
  <circle cx="977" cy="1742" r="6" stroke="#3399ff" opacity="1" stroke-width="2" fill="none"/>
  <circle cx="988" cy="1732" r="6" stroke="#3399ff" opacity="1" stroke-width="2" fill="none"/>
  <circle cx="1003" cy="1740" r="6" stroke="#3399ff" opacity="1" stroke-width="2" fill="none"/>
  <circle cx="1030" cy="1733" r="6" stroke="#3399ff" opacity="1" stroke-width="2" fill="none"/>
  <circle cx="1040" cy="1742" r="6" stroke="#3399ff" opacity="1" stroke-width="2" fill="none"/>
  <circle cx="1049" cy="1732" r="6" stroke="#3399ff" opacity="1" stroke-width="2" fill="none"/>
  <circle cx="1062" cy="1739" r="6" stroke="#3399ff" opacity="1" stroke-width="2" fill="none"/>
  <circle cx="992" cy="1616" r="16" stroke="#3399ff" opacity="1" stroke-width="2" fill="none"/>
  <circle cx="992" cy="1616" r="14" stroke="#3399ff" opacity="1" stroke-width="2" fill="none"/>
  <circle cx="992" cy="1616" r="12" stroke="#3399ff" opacity="1" stroke-width="2" fill="none"/>
  <circle cx="992" cy="1616" r="10" stroke="#3399ff" opacity="1" stroke-width="2" fill="none"/>
  <circle cx="992" cy="1616" r="8" stroke="#3399ff" opacity="1" stroke-width="2" fill="none"/>
  <circle cx="992" cy="1616" r="6" stroke="#3399ff" opacity="1" stroke-width="2" fill="none"/>
  <circle cx="992" cy="1616" r="4" stroke="#3399ff" opacity="1" stroke-width="2" fill="none"/>
  <circle cx="992" cy="1616" r="2" stroke="#3399ff" opacity="1" stroke-width="2" fill="none"/>
  <circle cx="899" cy="1606" r="2" stroke="#3399ff" opacity="1" stroke-width="2" fill="none"/>
  <circle cx="892" cy="1613" r="2" stroke="#3399ff" opacity="1" stroke-width="2" fill="none"/>
  <path marker-end="url(#spawn)" stroke-width="0.5" stroke="red" d="M 0 0 0 1" transform="translate(888,1736) scale(1 -1) rotate(-90) matrix(-1,0,0,-1,0,0)" fill="none"/>
</svg>
