<?xml version="1.0" encoding="UTF-8" standalone="no"?>
<svg xmlns="http://www.w3.org/2000/svg" viewBox="59,-11,705,631" width="100%" height="100%">
  <defs>
    <marker id="spawn" markerWidth="30" markerHeight="40" refX="2" refY="15" orient="auto" viewBox="0 0 40 30">
      <path d="M -5,0 -5,20 -15,20 0,40 15,20 5,20 5,0 Z" fill="magenta" transform="translate(0,15) rotate(-90)"/>
    </marker>
  </defs>
  <polyline points="448,256 456,250 470,249 484,256 495,271 500,291 495,314 479,336 453,351 421,355 387,345 357,320 337,283 333,239 348,194 380,155 428,130 484,125 542,143 590,183 621,242 627,310 607,379 559,437 491,475 411,484 330,461 261,408 216,330 203,238 227,145 286,64 374,11 477,-6 583,18 674,82 737,179 759,293 735,412 667,515 562,587 436,615 305,593 190,522 107,409 72,272" stroke="white" stroke-width="2" fill="none"/>
  <polyline points="64,272 208,272" stroke="white" stroke-width="2" fill="none"/>
  <circle cx="464" cy="320" r="16" stroke="#00ff99" opacity="1" stroke-width="2" fill="none"/>
  <circle cx="112" cy="304" r="30" stroke="#3399ff" opacity="1" stroke-width="2" fill="none"/>
  <circle cx="224" cy="448" r="15" stroke="#3399ff" opacity="1" stroke-width="2" fill="none"/>
  <circle cx="240" cy="384" r="20" stroke="#3399ff" opacity="1" stroke-width="2" fill="none"/>
  <circle cx="160" cy="464" r="25" stroke="#3399ff" opacity="1" stroke-width="2" fill="none"/>
  <circle cx="480" cy="336" r="30" stroke="#3399ff" opacity="1" stroke-width="2" fill="none"/>
  <circle cx="480" cy="288" r="30" stroke="#3399ff" opacity="1" stroke-width="2" fill="none"/>
  <circle cx="304" cy="512" r="50" stroke="#3399ff" opacity="1" stroke-width="2" fill="none"/>
  <circle cx="448" cy="592" r="50" stroke="#3399ff" opacity="1" stroke-width="2" fill="none"/>
  <circle cx="528" cy="464" r="70" stroke="#3399ff" opacity="1" stroke-width="2" fill="none"/>
  <circle cx="640" cy="496" r="25" stroke="#3399ff" opacity="1" stroke-width="2" fill="none"/>
  <circle cx="560" cy="560" r="10" stroke="#3399ff" opacity="1" stroke-width="2" fill="none"/>
  <circle cx="576" cy="512" r="20" stroke="#3399ff" opacity="1" stroke-width="2" fill="none"/>
  <circle cx="384" cy="400" r="35" stroke="#3399ff" opacity="1" stroke-width="2" fill="none"/>
  <circle cx="672" cy="384" r="40" stroke="#3399ff" opacity="1" stroke-width="2" fill="none"/>
  <circle cx="448" cy="128" r="16" stroke="#3399ff" opacity="1" stroke-width="2" fill="none"/>
  <circle cx="448" cy="80" r="30" stroke="#3399ff" opacity="1" stroke-width="2" fill="none"/>
  <circle cx="560" cy="144" r="25" stroke="#3399ff" opacity="1" stroke-width="2" fill="none"/>
  <circle cx="528" cy="88" r="27" stroke="#3399ff" opacity="1" stroke-width="2" fill="none"/>
  <circle cx="448" cy="0" r="40" stroke="#3399ff" opacity="1" stroke-width="2" fill="none"/>
  <circle cx="384" cy="304" r="25" stroke="#3399ff" opacity="1" stroke-width="2" fill="none"/>
  <circle cx="432" cy="272" r="18" stroke="#3399ff" opacity="1" stroke-width="2" fill="none"/>
  <circle cx="400" cy="272" r="8" stroke="#3399ff" opacity="1" stroke-width="2" fill="none"/>
  <circle cx="432" cy="320" r="10" stroke="#3399ff" opacity="1" stroke-width="2" fill="none"/>
  <circle cx="448" cy="304" r="11" stroke="#3399ff" opacity="1" stroke-width="2" fill="none"/>
  <circle cx="400" cy="352" r="10" stroke="#3399ff" opacity="1" stroke-width="2" fill="none"/>
  <circle cx="752" cy="288" r="50" stroke="#3399ff" opacity="1" stroke-width="2" fill="none"/>
  <circle cx="608" cy="224" r="70" stroke="#3399ff" opacity="1" stroke-width="2" fill="none"/>
  <circle cx="672" cy="304" r="18" stroke="#3399ff" opacity="1" stroke-width="2" fill="none"/>
  <circle cx="720" cy="208" r="10" stroke="#3399ff" opacity="1" stroke-width="2" fill="none"/>
  <circle cx="688" cy="176" r="10" stroke="#3399ff" opacity="1" stroke-width="2" fill="none"/>
  <circle cx="272" cy="224" r="50" stroke="#3399ff" opacity="1" stroke-width="2" fill="none"/>
  <circle cx="336" cy="320" r="40" stroke="#3399ff" opacity="1" stroke-width="2" fill="none"/>
  <circle cx="288" cy="368" r="25" stroke="#3399ff" opacity="1" stroke-width="2" fill="none"/>
  <circle cx="320" cy="416" r="15" stroke="#3399ff" opacity="1" stroke-width="2" fill="none"/>
  <circle cx="518" cy="233" r="15" stroke="#3399ff" opacity="1" stroke-width="2" fill="none"/>
  <circle cx="464" cy="224" r="30" stroke="#3399ff" opacity="1" stroke-width="2" fill="none"/>
  <circle cx="480" cy="192" r="20" stroke="#3399ff" opacity="1" stroke-width="2" fill="none"/>
  <circle cx="528" cy="160" r="15" stroke="#3399ff" opacity="1" stroke-width="2" fill="none"/>
  <circle cx="624" cy="96" r="35" stroke="#3399ff" opacity="1" stroke-width="2" fill="none"/>
  <circle cx="544" cy="16" r="35" stroke="#3399ff" opacity="1" stroke-width="2" fill="none"/>
  <circle cx="544" cy="320" r="15" stroke="#3399ff" opacity="1" stroke-width="2" fill="none"/>
  <circle cx="560" cy="368" r="15" stroke="#3399ff" opacity="1" stroke-width="2" fill="none"/>
  <circle cx="448" cy="400" r="15" stroke="#3399ff" opacity="1" stroke-width="2" fill="none"/>
  <circle cx="432" cy="448" r="15" stroke="#3399ff" opacity="1" stroke-width="2" fill="none"/>
  <circle cx="448" cy="480" r="13" stroke="#3399ff" opacity="1" stroke-width="2" fill="none"/>
  <circle cx="368" cy="448" r="10" stroke="#3399ff" opacity="1" stroke-width="2" fill="none"/>
  <circle cx="592" cy="320" r="15" stroke="#3399ff" opacity="1" stroke-width="2" fill="none"/>
  <circle cx="528" cy="288" r="15" stroke="#3399ff" opacity="1" stroke-width="2" fill="none"/>
  <circle cx="384" cy="528" r="15" stroke="#3399ff" opacity="1" stroke-width="2" fill="none"/>
  <circle cx="352" cy="576" r="15" stroke="#3399ff" opacity="1" stroke-width="2" fill="none"/>
  <circle cx="208" cy="512" r="15" stroke="#3399ff" opacity="1" stroke-width="2" fill="none"/>
  <circle cx="331" cy="177" r="15" stroke="#3399ff" opacity="1" stroke-width="2" fill="none"/>
  <circle cx="435" cy="349" r="15" stroke="#3399ff" opacity="1" stroke-width="2" fill="none"/>
  <circle cx="412" cy="332" r="6" stroke="#3399ff" opacity="1" stroke-width="2" fill="none"/>
  <circle cx="352" cy="112" r="15" stroke="#3399ff" opacity="1" stroke-width="2" fill="none"/>
  <circle cx="400" cy="144" r="15" stroke="#3399ff" opacity="1" stroke-width="2" fill="none"/>
  <circle cx="304" cy="144" r="15" stroke="#3399ff" opacity="1" stroke-width="2" fill="none"/>
  <circle cx="304" cy="80" r="15" stroke="#3399ff" opacity="1" stroke-width="2" fill="none"/>
  <circle cx="384" cy="64" r="15" stroke="#3399ff" opacity="1" stroke-width="2" fill="none"/>
  <circle cx="224" cy="160" r="15" stroke="#3399ff" opacity="1" stroke-width="2" fill="none"/>
  <circle cx="336" cy="240" r="13" stroke="#3399ff" opacity="1" stroke-width="2" fill="none"/>
  <circle cx="400" cy="208" r="4" stroke="#3399ff" opacity="1" stroke-width="2" fill="none"/>
  <circle cx="363" cy="165" r="5" stroke="#3399ff" opacity="1" stroke-width="2" fill="none"/>
  <circle cx="251" cy="166" r="5" stroke="#3399ff" opacity="1" stroke-width="2" fill="none"/>
  <circle cx="316" cy="112" r="10" stroke="#3399ff" opacity="1" stroke-width="2" fill="none"/>
  <circle cx="255" cy="317" r="5" stroke="#3399ff" opacity="1" stroke-width="2" fill="none"/>
  <circle cx="283" cy="297" r="7" stroke="#3399ff" opacity="1" stroke-width="2" fill="none"/>
  <circle cx="232" cy="294" r="5" stroke="#3399ff" opacity="1" stroke-width="2" fill="none"/>
  <circle cx="226" cy="330" r="8" stroke="#3399ff" opacity="1" stroke-width="2" fill="none"/>
  <circle cx="628" cy="448" r="8" stroke="#3399ff" opacity="1" stroke-width="2" fill="none"/>
  <circle cx="281" cy="327" r="5" stroke="#3399ff" opacity="1" stroke-width="2" fill="none"/>
  <circle cx="253" cy="346" r="5" stroke="#3399ff" opacity="1" stroke-width="2" fill="none"/>
  <circle cx="499" cy="546" r="5" stroke="#3399ff" opacity="1" stroke-width="2" fill="none"/>
  <circle cx="690" cy="461" r="20" stroke="#3399ff" opacity="1" stroke-width="2" fill="none"/>
  <circle cx="615" cy="400" r="8" stroke="#3399ff" opacity="1" stroke-width="2" fill="none"/>
  <circle cx="507" cy="377" r="5" stroke="#3399ff" opacity="1" stroke-width="2" fill="none"/>
  <circle cx="368" cy="217" r="19" stroke="#3399ff" opacity="1" stroke-width="2" fill="none"/>
  <circle cx="412" cy="248" r="5" stroke="#3399ff" opacity="1" stroke-width="2" fill="none"/>
  <circle cx="516" cy="191" r="9" stroke="#3399ff" opacity="1" stroke-width="2" fill="none"/>
  <circle cx="269" cy="145" r="8" stroke="#3399ff" opacity="1" stroke-width="2" fill="none"/>
  <circle cx="425" cy="179" r="10" stroke="#3399ff" opacity="1" stroke-width="2" fill="none"/>
  <circle cx="449" cy="523" r="10" stroke="#3399ff" opacity="1" stroke-width="2" fill="none"/>
  <circle cx="591" cy="540" r="5" stroke="#3399ff" opacity="1" stroke-width="2" fill="none"/>
  <circle cx="728" cy="373" r="5" stroke="#3399ff" opacity="1" stroke-width="2" fill="none"/>
  <path marker-end="url(#spawn)" stroke-width="0.5" stroke="red" d="M 0 0 0 1" transform="translate(192,288) scale(1 -1) rotate(-90) matrix(0,-1,1,0,0,0)" fill="none"/>
</svg>
