<?xml version="1.0" encoding="UTF-8" standalone="no"?>
<svg xmlns="http://www.w3.org/2000/svg" viewBox="-5,5,470,380" width="100%" height="100%">
  <defs>
    <marker id="spawn" markerWidth="30" markerHeight="40" refX="2" refY="15" orient="auto" viewBox="0 0 40 30">
      <path d="M -5,0 -5,20 -15,20 0,40 15,20 5,20 5,0 Z" fill="magenta" transform="translate(0,15) rotate(-90)"/>
    </marker>
  </defs>
  <polyline points="0,200 0,100 90,100 90,10 190,10 190,100 270,100 270,10 370,10 370,100 460,100 460,200 360,200 360,110 280,110 280,200 190,200 190,280 280,280 280,380 180,380 180,290 100,290 100,380 0,380 0,280 90,280 90,200 0,200" stroke="white" stroke-width="2" fill="none"/>
  <polyline points="100,110 180,110 180,190 100,190 100,110" stroke="white" stroke-width="2" fill="none"/>
  <polyline points="110,100 110,30 170,30 170,100 110,100" stroke="white" stroke-width="2" fill="none"/>
  <polyline points="20,120 90,120 90,180 20,180 20,120" stroke="white" stroke-width="2" fill="none"/>
  <polyline points="110,200 170,200 170,270 110,270 110,200" stroke="white" stroke-width="2" fill="none"/>
  <polyline points="190,120 260,120 260,180 190,180 190,120" stroke="white" stroke-width="2" fill="none"/>
  <polyline points="20,300 80,300 80,360 20,360 20,300" stroke="white" stroke-width="2" fill="none"/>
  <polyline points="200,300 260,300 260,360 200,360 200,300" stroke="white" stroke-width="2" fill="none"/>
  <polyline points="290,100 290,30 350,30 350,100 290,100" stroke="white" stroke-width="2" fill="none"/>
  <polyline points="370,120 440,120 440,180 370,180 370,120" stroke="white" stroke-width="2" fill="none"/>
  <circle cx="458" cy="198" r="10" stroke="#00ff99" opacity="1" stroke-width="2" fill="none"/>
  <path marker-end="url(#spawn)" stroke-width="0.5" stroke="red" d="M 0 0 0 1" transform="translate(270,370) scale(1 -1) rotate(-90) rotate(90)" fill="none"/>
</svg>
