<?xml version="1.0" encoding="UTF-8" standalone="no"?>
<svg xmlns="http://www.w3.org/2000/svg" viewBox="-5,-5,769.85015113366,360" width="100%" height="100%">
  <defs>
    <marker id="spawn" markerWidth="30" markerHeight="40" refX="2" refY="15" orient="auto" viewBox="0 0 40 30">
      <path d="M -5,0 -5,20 -15,20 0,40 15,20 5,20 5,0 Z" fill="magenta" transform="translate(0,15) rotate(-90)"/>
    </marker>
  </defs>
  <polyline points="390,90 427.55633472609,90.149848866342 461.90892830332,81.709714086454 485.85786437627,65.857864376269 505.85786437627,35.857864376269 541.90892830332,11.709714086454 587.55633472609,0.14984886634194 642.44366527391,0.14984886634194 688.09107169668,11.709714086454 724.14213562373,35.857864376269 748.29028591355,71.908928303325 759.85015113366,117.55633472609 759.85015113366,232.44366527391 748.29028591355,278.09107169668 724.14213562373,314.14213562373 688.09107169668,338.29028591355 660,350 587.55633472609,349.85015113366 541.90892830332,338.29028591355 505.85786437627,314.14213562373 485.85786437627,284.14213562373 461.90892830332,268.29028591355 427.55633472609,259.85015113366 242.44366527391,259.85015113366 208.09107169668,268.29028591355 184.14213562373,284.14213562373 164.14213562373,314.14213562373 128.09107169668,338.29028591355 82.443665273914,349.85015113366 0,350 0,0 82.443665273914,0.14984886634194 128.09107169668,11.709714086454 164.14213562373,35.857864376269 184.14213562373,65.857864376269 208.09107169668,81.709714086454 242.44366527391,90.149848866342 390,90" stroke="white" stroke-width="2" fill="none"/>
  <polyline points="390,130 432.44366527391,129.85015113366 478.09107169668,118.29028591355 514.14213562373,94.142135623731 534.14213562373,64.142135623731 558.09107169668,48.290285913546 592.44366527391,39.850151133658 637.55633472609,39.850151133658 671.90892830332,48.290285913546 695.85786437627,64.142135623731 711.70971408645,88.091071696675 720.14984886634,122.44366527391 720.14984886634,227.55633472609 711.70971408645,261.90892830332 695.85786437627,285.85786437627 671.90892830332,301.70971408645 620,310 592.44366527391,310.14984886634 558.09107169668,301.70971408645 534.14213562373,285.85786437627 514.14213562373,255.85786437627 478.09107169668,231.70971408645 432.44366527391,220.14984886634 237.55633472609,220.14984886634 191.90892830332,231.70971408645 155.85786437627,255.85786437627 135.85786437627,285.85786437627 111.90892830332,301.70971408645 77.556334726086,310.14984886634 40,310 40,40 77.556334726086,39.850151133658 111.90892830332,48.290285913546 135.85786437627,64.142135623731 155.85786437627,94.142135623731 191.90892830332,118.29028591355 237.55633472609,129.85015113366 390,130" stroke="white" stroke-width="2" fill="none"/>
  <polyline points="40,195 20,175 20,20 85,20 120,30 150,50 170,80 200,100 240,110 430,110 470,100 500,80 520,50 550,30 590,20 640,20 680,30 710,50 730,80 740,120 740,230 730,270 710,300 680,320 640,330 590,330 550,320 520,300 500,270 470,250 430,240 240,240 200,250 170,270 150,300 120,320 80,330 20,330 20,205 0,185" stroke="white" stroke-width="2" fill="none"/>
  <circle cx="10" cy="210" r="9" stroke="#00ff99" opacity="1" stroke-width="2" fill="none"/>
  <circle cx="20" cy="330" r="3" stroke="#3399ff" opacity="1" stroke-width="2" fill="none"/>
  <circle cx="20" cy="20" r="3" stroke="#3399ff" opacity="1" stroke-width="2" fill="none"/>
  <circle cx="0" cy="0" r="3" stroke="#3399ff" opacity="1" stroke-width="2" fill="none"/>
  <circle cx="40" cy="40" r="3" stroke="#3399ff" opacity="1" stroke-width="2" fill="none"/>
  <circle cx="40" cy="310" r="3" stroke="#3399ff" opacity="1" stroke-width="2" fill="none"/>
  <circle cx="0" cy="350" r="3" stroke="#3399ff" opacity="1" stroke-width="2" fill="none"/>
  <circle cx="335" cy="100" r="3" stroke="#3399ff" opacity="1" stroke-width="2" fill="none"/>
  <circle cx="335" cy="120" r="3" stroke="#3399ff" opacity="1" stroke-width="2" fill="none"/>
  <circle cx="270" cy="240" r="3" stroke="#3399ff" opacity="1" stroke-width="2" fill="none"/>
  <circle cx="400" cy="240" r="3" stroke="#3399ff" opacity="1" stroke-width="2" fill="none"/>
  <circle cx="370" cy="230" r="3" stroke="#3399ff" opacity="1" stroke-width="2" fill="none"/>
  <circle cx="300" cy="230" r="3" stroke="#3399ff" opacity="1" stroke-width="2" fill="none"/>
  <circle cx="300" cy="250" r="3" stroke="#3399ff" opacity="1" stroke-width="2" fill="none"/>
  <circle cx="370" cy="250" r="3" stroke="#3399ff" opacity="1" stroke-width="2" fill="none"/>
  <circle cx="335" cy="260" r="3" stroke="#3399ff" opacity="1" stroke-width="2" fill="none"/>
  <circle cx="335" cy="220" r="3" stroke="#3399ff" opacity="1" stroke-width="2" fill="none"/>
  <circle cx="335" cy="240" r="3" stroke="#3399ff" opacity="1" stroke-width="2" fill="none"/>
  <circle cx="740" cy="175" r="3" stroke="#3399ff" opacity="1" stroke-width="2" fill="none"/>
  <circle cx="720" cy="130" r="3" stroke="#3399ff" opacity="1" stroke-width="2" fill="none"/>
  <circle cx="760" cy="130" r="3" stroke="#3399ff" opacity="1" stroke-width="2" fill="none"/>
  <circle cx="720" cy="220" r="3" stroke="#3399ff" opacity="1" stroke-width="2" fill="none"/>
  <circle cx="760" cy="220" r="3" stroke="#3399ff" opacity="1" stroke-width="2" fill="none"/>
  <path marker-end="url(#spawn)" stroke-width="0.5" stroke="red" d="M 0 0 0 1" transform="translate(30,170) scale(1 -1) rotate(-90) rotate(90)" fill="none"/>
</svg>
