<?xml version="1.0" encoding="UTF-8" standalone="no"?>
<svg xmlns="http://www.w3.org/2000/svg" viewBox="347,59,634,330" width="100%" height="100%">
  <defs>
    <marker id="spawn" markerWidth="30" markerHeight="40" refX="2" refY="15" orient="auto" viewBox="0 0 40 30">
      <path d="M -5,0 -5,20 -15,20 0,40 15,20 5,20 5,0 Z" fill="magenta" transform="translate(0,15) rotate(-90)"/>
    </marker>
  </defs>
  <polyline points="528,192 368,192 352,176 352,144 368,128 544,128 544,112 576,80 704,208 720,208 736,192 752,192 752,80 768,64 800,64 816,80 816,192 848,192 944,96 960,96 976,112 976,336 960,352 928,352 848,256 816,256 816,368 800,384 768,384 752,368 752,256 736,256 720,240 704,240 576,368 544,336 544,320 368,320 352,304 352,272 368,256 528,256" stroke="white" stroke-width="2" fill="none"/>
  <polyline points="384,160 528,160 560,192 560,256 528,288 384,288" stroke="white" stroke-width="2" fill="none"/>
  <polyline points="624,208 608,208 544,144 544,128" stroke="white" stroke-width="2" fill="none"/>
  <polyline points="576,320 656,240 656,208 576,128" stroke="white" stroke-width="2" fill="none"/>
  <polyline points="784,96 784,352" stroke="white" stroke-width="2" fill="none"/>
  <polyline points="912,240 944,240 944,320 864,240 864,224" stroke="white" stroke-width="2" fill="none"/>
  <polyline points="624,240 608,240 544,304 544,320" stroke="white" stroke-width="2" fill="none"/>
  <polyline points="864,224 864,208 944,128 944,208 912,208" stroke="white" stroke-width="2" fill="none"/>
  <circle cx="416" cy="256" r="10" stroke="#3399ff" opacity="1" stroke-width="2" fill="none"/>
  <circle cx="448" cy="256" r="10" stroke="#3399ff" opacity="1" stroke-width="2" fill="none"/>
  <circle cx="432" cy="256" r="10" stroke="#3399ff" opacity="1" stroke-width="2" fill="none"/>
  <circle cx="464" cy="256" r="10" stroke="#3399ff" opacity="1" stroke-width="2" fill="none"/>
  <circle cx="480" cy="256" r="10" stroke="#3399ff" opacity="1" stroke-width="2" fill="none"/>
  <circle cx="496" cy="256" r="10" stroke="#3399ff" opacity="1" stroke-width="2" fill="none"/>
  <circle cx="512" cy="256" r="10" stroke="#3399ff" opacity="1" stroke-width="2" fill="none"/>
  <circle cx="528" cy="256" r="10" stroke="#3399ff" opacity="1" stroke-width="2" fill="none"/>
  <circle cx="416" cy="192" r="10" stroke="#3399ff" opacity="1" stroke-width="2" fill="none"/>
  <circle cx="432" cy="192" r="10" stroke="#3399ff" opacity="1" stroke-width="2" fill="none"/>
  <circle cx="448" cy="192" r="10" stroke="#3399ff" opacity="1" stroke-width="2" fill="none"/>
  <circle cx="464" cy="192" r="10" stroke="#3399ff" opacity="1" stroke-width="2" fill="none"/>
  <circle cx="480" cy="192" r="10" stroke="#3399ff" opacity="1" stroke-width="2" fill="none"/>
  <circle cx="496" cy="192" r="10" stroke="#3399ff" opacity="1" stroke-width="2" fill="none"/>
  <circle cx="512" cy="192" r="10" stroke="#3399ff" opacity="1" stroke-width="2" fill="none"/>
  <circle cx="528" cy="192" r="10" stroke="#3399ff" opacity="1" stroke-width="2" fill="none"/>
  <circle cx="400" cy="192" r="10" stroke="#3399ff" opacity="1" stroke-width="2" fill="none"/>
  <circle cx="384" cy="192" r="10" stroke="#3399ff" opacity="1" stroke-width="2" fill="none"/>
  <circle cx="384" cy="208" r="10" stroke="#3399ff" opacity="1" stroke-width="2" fill="none"/>
  <circle cx="384" cy="224" r="10" stroke="#3399ff" opacity="1" stroke-width="2" fill="none"/>
  <circle cx="384" cy="240" r="10" stroke="#3399ff" opacity="1" stroke-width="2" fill="none"/>
  <circle cx="384" cy="256" r="10" stroke="#3399ff" opacity="1" stroke-width="2" fill="none"/>
  <circle cx="400" cy="256" r="10" stroke="#3399ff" opacity="1" stroke-width="2" fill="none"/>
  <circle cx="560" cy="192" r="10" stroke="#3399ff" opacity="1" stroke-width="2" fill="none"/>
  <circle cx="560" cy="208" r="10" stroke="#3399ff" opacity="1" stroke-width="2" fill="none"/>
  <circle cx="560" cy="224" r="10" stroke="#3399ff" opacity="1" stroke-width="2" fill="none"/>
  <circle cx="560" cy="240" r="10" stroke="#3399ff" opacity="1" stroke-width="2" fill="none"/>
  <circle cx="560" cy="256" r="10" stroke="#3399ff" opacity="1" stroke-width="2" fill="none"/>
  <circle cx="544" cy="272" r="10" stroke="#3399ff" opacity="1" stroke-width="2" fill="none"/>
  <circle cx="528" cy="288" r="10" stroke="#3399ff" opacity="1" stroke-width="2" fill="none"/>
  <circle cx="512" cy="288" r="10" stroke="#3399ff" opacity="1" stroke-width="2" fill="none"/>
  <circle cx="496" cy="288" r="10" stroke="#3399ff" opacity="1" stroke-width="2" fill="none"/>
  <circle cx="464" cy="288" r="10" stroke="#3399ff" opacity="1" stroke-width="2" fill="none"/>
  <circle cx="480" cy="288" r="10" stroke="#3399ff" opacity="1" stroke-width="2" fill="none"/>
  <circle cx="384" cy="288" r="10" stroke="#3399ff" opacity="1" stroke-width="2" fill="none"/>
  <circle cx="400" cy="288" r="10" stroke="#3399ff" opacity="1" stroke-width="2" fill="none"/>
  <circle cx="416" cy="288" r="10" stroke="#3399ff" opacity="1" stroke-width="2" fill="none"/>
  <circle cx="432" cy="288" r="10" stroke="#3399ff" opacity="1" stroke-width="2" fill="none"/>
  <circle cx="448" cy="288" r="10" stroke="#3399ff" opacity="1" stroke-width="2" fill="none"/>
  <circle cx="544" cy="176" r="10" stroke="#3399ff" opacity="1" stroke-width="2" fill="none"/>
  <circle cx="528" cy="160" r="10" stroke="#3399ff" opacity="1" stroke-width="2" fill="none"/>
  <circle cx="512" cy="160" r="10" stroke="#3399ff" opacity="1" stroke-width="2" fill="none"/>
  <circle cx="496" cy="160" r="10" stroke="#3399ff" opacity="1" stroke-width="2" fill="none"/>
  <circle cx="480" cy="160" r="10" stroke="#3399ff" opacity="1" stroke-width="2" fill="none"/>
  <circle cx="464" cy="160" r="10" stroke="#3399ff" opacity="1" stroke-width="2" fill="none"/>
  <circle cx="448" cy="160" r="10" stroke="#3399ff" opacity="1" stroke-width="2" fill="none"/>
  <circle cx="432" cy="160" r="10" stroke="#3399ff" opacity="1" stroke-width="2" fill="none"/>
  <circle cx="416" cy="160" r="10" stroke="#3399ff" opacity="1" stroke-width="2" fill="none"/>
  <circle cx="400" cy="160" r="10" stroke="#3399ff" opacity="1" stroke-width="2" fill="none"/>
  <circle cx="384" cy="160" r="10" stroke="#3399ff" opacity="1" stroke-width="2" fill="none"/>
  <circle cx="368" cy="256" r="10" stroke="#3399ff" opacity="1" stroke-width="2" fill="none"/>
  <circle cx="352" cy="272" r="10" stroke="#3399ff" opacity="1" stroke-width="2" fill="none"/>
  <circle cx="352" cy="288" r="10" stroke="#3399ff" opacity="1" stroke-width="2" fill="none"/>
  <circle cx="352" cy="304" r="10" stroke="#3399ff" opacity="1" stroke-width="2" fill="none"/>
  <circle cx="368" cy="320" r="10" stroke="#3399ff" opacity="1" stroke-width="2" fill="none"/>
  <circle cx="384" cy="320" r="10" stroke="#3399ff" opacity="1" stroke-width="2" fill="none"/>
  <circle cx="400" cy="320" r="10" stroke="#3399ff" opacity="1" stroke-width="2" fill="none"/>
  <circle cx="416" cy="320" r="10" stroke="#3399ff" opacity="1" stroke-width="2" fill="none"/>
  <circle cx="432" cy="320" r="10" stroke="#3399ff" opacity="1" stroke-width="2" fill="none"/>
  <circle cx="448" cy="320" r="10" stroke="#3399ff" opacity="1" stroke-width="2" fill="none"/>
  <circle cx="464" cy="320" r="10" stroke="#3399ff" opacity="1" stroke-width="2" fill="none"/>
  <circle cx="480" cy="320" r="10" stroke="#3399ff" opacity="1" stroke-width="2" fill="none"/>
  <circle cx="496" cy="320" r="10" stroke="#3399ff" opacity="1" stroke-width="2" fill="none"/>
  <circle cx="512" cy="320" r="10" stroke="#3399ff" opacity="1" stroke-width="2" fill="none"/>
  <circle cx="528" cy="320" r="10" stroke="#3399ff" opacity="1" stroke-width="2" fill="none"/>
  <circle cx="544" cy="304" r="10" stroke="#3399ff" opacity="1" stroke-width="2" fill="none"/>
  <circle cx="560" cy="288" r="10" stroke="#3399ff" opacity="1" stroke-width="2" fill="none"/>
  <circle cx="576" cy="272" r="10" stroke="#3399ff" opacity="1" stroke-width="2" fill="none"/>
  <circle cx="592" cy="256" r="10" stroke="#3399ff" opacity="1" stroke-width="2" fill="none"/>
  <circle cx="608" cy="240" r="10" stroke="#3399ff" opacity="1" stroke-width="2" fill="none"/>
  <circle cx="624" cy="240" r="10" stroke="#3399ff" opacity="1" stroke-width="2" fill="none"/>
  <circle cx="368" cy="192" r="10" stroke="#3399ff" opacity="1" stroke-width="2" fill="none"/>
  <circle cx="352" cy="176" r="10" stroke="#3399ff" opacity="1" stroke-width="2" fill="none"/>
  <circle cx="352" cy="160" r="10" stroke="#3399ff" opacity="1" stroke-width="2" fill="none"/>
  <circle cx="352" cy="144" r="10" stroke="#3399ff" opacity="1" stroke-width="2" fill="none"/>
  <circle cx="368" cy="128" r="10" stroke="#3399ff" opacity="1" stroke-width="2" fill="none"/>
  <circle cx="384" cy="128" r="10" stroke="#3399ff" opacity="1" stroke-width="2" fill="none"/>
  <circle cx="400" cy="128" r="10" stroke="#3399ff" opacity="1" stroke-width="2" fill="none"/>
  <circle cx="416" cy="128" r="10" stroke="#3399ff" opacity="1" stroke-width="2" fill="none"/>
  <circle cx="432" cy="128" r="10" stroke="#3399ff" opacity="1" stroke-width="2" fill="none"/>
  <circle cx="448" cy="128" r="10" stroke="#3399ff" opacity="1" stroke-width="2" fill="none"/>
  <circle cx="464" cy="128" r="10" stroke="#3399ff" opacity="1" stroke-width="2" fill="none"/>
  <circle cx="480" cy="128" r="10" stroke="#3399ff" opacity="1" stroke-width="2" fill="none"/>
  <circle cx="496" cy="128" r="10" stroke="#3399ff" opacity="1" stroke-width="2" fill="none"/>
  <circle cx="512" cy="128" r="10" stroke="#3399ff" opacity="1" stroke-width="2" fill="none"/>
  <circle cx="528" cy="128" r="10" stroke="#3399ff" opacity="1" stroke-width="2" fill="none"/>
  <circle cx="544" cy="144" r="10" stroke="#3399ff" opacity="1" stroke-width="2" fill="none"/>
  <circle cx="560" cy="160" r="10" stroke="#3399ff" opacity="1" stroke-width="2" fill="none"/>
  <circle cx="576" cy="176" r="10" stroke="#3399ff" opacity="1" stroke-width="2" fill="none"/>
  <circle cx="592" cy="192" r="10" stroke="#3399ff" opacity="1" stroke-width="2" fill="none"/>
  <circle cx="608" cy="208" r="10" stroke="#3399ff" opacity="1" stroke-width="2" fill="none"/>
  <circle cx="624" cy="208" r="10" stroke="#3399ff" opacity="1" stroke-width="2" fill="none"/>
  <circle cx="656" cy="240" r="10" stroke="#3399ff" opacity="1" stroke-width="2" fill="none"/>
  <circle cx="656" cy="224" r="10" stroke="#3399ff" opacity="1" stroke-width="2" fill="none"/>
  <circle cx="656" cy="208" r="10" stroke="#3399ff" opacity="1" stroke-width="2" fill="none"/>
  <circle cx="640" cy="192" r="10" stroke="#3399ff" opacity="1" stroke-width="2" fill="none"/>
  <circle cx="624" cy="176" r="10" stroke="#3399ff" opacity="1" stroke-width="2" fill="none"/>
  <circle cx="608" cy="160" r="10" stroke="#3399ff" opacity="1" stroke-width="2" fill="none"/>
  <circle cx="592" cy="144" r="10" stroke="#3399ff" opacity="1" stroke-width="2" fill="none"/>
  <circle cx="576" cy="128" r="10" stroke="#3399ff" opacity="1" stroke-width="2" fill="none"/>
  <circle cx="544" cy="128" r="10" stroke="#3399ff" opacity="1" stroke-width="2" fill="none"/>
  <circle cx="544" cy="112" r="10" stroke="#3399ff" opacity="1" stroke-width="2" fill="none"/>
  <circle cx="560" cy="96" r="10" stroke="#3399ff" opacity="1" stroke-width="2" fill="none"/>
  <circle cx="592" cy="96" r="10" stroke="#3399ff" opacity="1" stroke-width="2" fill="none"/>
  <circle cx="608" cy="112" r="10" stroke="#3399ff" opacity="1" stroke-width="2" fill="none"/>
  <circle cx="624" cy="128" r="10" stroke="#3399ff" opacity="1" stroke-width="2" fill="none"/>
  <circle cx="640" cy="144" r="10" stroke="#3399ff" opacity="1" stroke-width="2" fill="none"/>
  <circle cx="576" cy="80" r="10" stroke="#3399ff" opacity="1" stroke-width="2" fill="none"/>
  <circle cx="656" cy="160" r="10" stroke="#3399ff" opacity="1" stroke-width="2" fill="none"/>
  <circle cx="672" cy="176" r="10" stroke="#3399ff" opacity="1" stroke-width="2" fill="none"/>
  <circle cx="688" cy="192" r="10" stroke="#3399ff" opacity="1" stroke-width="2" fill="none"/>
  <circle cx="672" cy="208" r="10" stroke="#3399ff" opacity="1" stroke-width="2" fill="none"/>
  <circle cx="640" cy="256" r="10" stroke="#3399ff" opacity="1" stroke-width="2" fill="none"/>
  <circle cx="624" cy="272" r="10" stroke="#3399ff" opacity="1" stroke-width="2" fill="none"/>
  <circle cx="608" cy="288" r="10" stroke="#3399ff" opacity="1" stroke-width="2" fill="none"/>
  <circle cx="592" cy="304" r="10" stroke="#3399ff" opacity="1" stroke-width="2" fill="none"/>
  <circle cx="576" cy="320" r="10" stroke="#3399ff" opacity="1" stroke-width="2" fill="none"/>
  <circle cx="544" cy="320" r="10" stroke="#3399ff" opacity="1" stroke-width="2" fill="none"/>
  <circle cx="544" cy="336" r="10" stroke="#3399ff" opacity="1" stroke-width="2" fill="none"/>
  <circle cx="560" cy="352" r="10" stroke="#3399ff" opacity="1" stroke-width="2" fill="none"/>
  <circle cx="576" cy="368" r="10" stroke="#3399ff" opacity="1" stroke-width="2" fill="none"/>
  <circle cx="592" cy="352" r="10" stroke="#3399ff" opacity="1" stroke-width="2" fill="none"/>
  <circle cx="608" cy="336" r="10" stroke="#3399ff" opacity="1" stroke-width="2" fill="none"/>
  <circle cx="624" cy="320" r="10" stroke="#3399ff" opacity="1" stroke-width="2" fill="none"/>
  <circle cx="640" cy="304" r="10" stroke="#3399ff" opacity="1" stroke-width="2" fill="none"/>
  <circle cx="656" cy="288" r="10" stroke="#3399ff" opacity="1" stroke-width="2" fill="none"/>
  <circle cx="672" cy="272" r="10" stroke="#3399ff" opacity="1" stroke-width="2" fill="none"/>
  <circle cx="672" cy="240" r="10" stroke="#3399ff" opacity="1" stroke-width="2" fill="none"/>
  <circle cx="688" cy="256" r="10" stroke="#3399ff" opacity="1" stroke-width="2" fill="none"/>
  <circle cx="704" cy="240" r="10" stroke="#3399ff" opacity="1" stroke-width="2" fill="none"/>
  <circle cx="704" cy="208" r="10" stroke="#3399ff" opacity="1" stroke-width="2" fill="none"/>
  <circle cx="688" cy="224" r="10" stroke="#3399ff" opacity="1" stroke-width="2" fill="none"/>
  <circle cx="720" cy="208" r="10" stroke="#3399ff" opacity="1" stroke-width="2" fill="none"/>
  <circle cx="736" cy="192" r="10" stroke="#3399ff" opacity="1" stroke-width="2" fill="none"/>
  <circle cx="752" cy="176" r="10" stroke="#3399ff" opacity="1" stroke-width="2" fill="none"/>
  <circle cx="752" cy="160" r="10" stroke="#3399ff" opacity="1" stroke-width="2" fill="none"/>
  <circle cx="752" cy="144" r="10" stroke="#3399ff" opacity="1" stroke-width="2" fill="none"/>
  <circle cx="752" cy="128" r="10" stroke="#3399ff" opacity="1" stroke-width="2" fill="none"/>
  <circle cx="752" cy="112" r="10" stroke="#3399ff" opacity="1" stroke-width="2" fill="none"/>
  <circle cx="752" cy="96" r="10" stroke="#3399ff" opacity="1" stroke-width="2" fill="none"/>
  <circle cx="752" cy="80" r="10" stroke="#3399ff" opacity="1" stroke-width="2" fill="none"/>
  <circle cx="768" cy="64" r="10" stroke="#3399ff" opacity="1" stroke-width="2" fill="none"/>
  <circle cx="784" cy="64" r="10" stroke="#3399ff" opacity="1" stroke-width="2" fill="none"/>
  <circle cx="800" cy="64" r="10" stroke="#3399ff" opacity="1" stroke-width="2" fill="none"/>
  <circle cx="816" cy="80" r="10" stroke="#3399ff" opacity="1" stroke-width="2" fill="none"/>
  <circle cx="816" cy="96" r="10" stroke="#3399ff" opacity="1" stroke-width="2" fill="none"/>
  <circle cx="816" cy="112" r="10" stroke="#3399ff" opacity="1" stroke-width="2" fill="none"/>
  <circle cx="816" cy="128" r="10" stroke="#3399ff" opacity="1" stroke-width="2" fill="none"/>
  <circle cx="816" cy="144" r="10" stroke="#3399ff" opacity="1" stroke-width="2" fill="none"/>
  <circle cx="816" cy="160" r="10" stroke="#3399ff" opacity="1" stroke-width="2" fill="none"/>
  <circle cx="816" cy="176" r="10" stroke="#3399ff" opacity="1" stroke-width="2" fill="none"/>
  <circle cx="816" cy="192" r="10" stroke="#3399ff" opacity="1" stroke-width="2" fill="none"/>
  <circle cx="816" cy="208" r="10" stroke="#3399ff" opacity="1" stroke-width="2" fill="none"/>
  <circle cx="720" cy="240" r="10" stroke="#3399ff" opacity="1" stroke-width="2" fill="none"/>
  <circle cx="736" cy="256" r="10" stroke="#3399ff" opacity="1" stroke-width="2" fill="none"/>
  <circle cx="752" cy="272" r="10" stroke="#3399ff" opacity="1" stroke-width="2" fill="none"/>
  <circle cx="752" cy="288" r="10" stroke="#3399ff" opacity="1" stroke-width="2" fill="none"/>
  <circle cx="752" cy="304" r="10" stroke="#3399ff" opacity="1" stroke-width="2" fill="none"/>
  <circle cx="752" cy="320" r="10" stroke="#3399ff" opacity="1" stroke-width="2" fill="none"/>
  <circle cx="752" cy="336" r="10" stroke="#3399ff" opacity="1" stroke-width="2" fill="none"/>
  <circle cx="752" cy="352" r="10" stroke="#3399ff" opacity="1" stroke-width="2" fill="none"/>
  <circle cx="752" cy="368" r="10" stroke="#3399ff" opacity="1" stroke-width="2" fill="none"/>
  <circle cx="768" cy="384" r="10" stroke="#3399ff" opacity="1" stroke-width="2" fill="none"/>
  <circle cx="784" cy="384" r="10" stroke="#3399ff" opacity="1" stroke-width="2" fill="none"/>
  <circle cx="800" cy="384" r="10" stroke="#3399ff" opacity="1" stroke-width="2" fill="none"/>
  <circle cx="816" cy="368" r="10" stroke="#3399ff" opacity="1" stroke-width="2" fill="none"/>
  <circle cx="816" cy="352" r="10" stroke="#3399ff" opacity="1" stroke-width="2" fill="none"/>
  <circle cx="816" cy="336" r="10" stroke="#3399ff" opacity="1" stroke-width="2" fill="none"/>
  <circle cx="816" cy="320" r="10" stroke="#3399ff" opacity="1" stroke-width="2" fill="none"/>
  <circle cx="816" cy="304" r="10" stroke="#3399ff" opacity="1" stroke-width="2" fill="none"/>
  <circle cx="816" cy="288" r="10" stroke="#3399ff" opacity="1" stroke-width="2" fill="none"/>
  <circle cx="816" cy="272" r="10" stroke="#3399ff" opacity="1" stroke-width="2" fill="none"/>
  <circle cx="816" cy="256" r="10" stroke="#3399ff" opacity="1" stroke-width="2" fill="none"/>
  <circle cx="816" cy="240" r="10" stroke="#3399ff" opacity="1" stroke-width="2" fill="none"/>
  <circle cx="752" cy="224" r="10" stroke="#3399ff" opacity="1" stroke-width="2" fill="none"/>
  <circle cx="768" cy="224" r="10" stroke="#3399ff" opacity="1" stroke-width="2" fill="none"/>
  <circle cx="784" cy="224" r="10" stroke="#3399ff" opacity="1" stroke-width="2" fill="none"/>
  <circle cx="784" cy="208" r="10" stroke="#3399ff" opacity="1" stroke-width="2" fill="none"/>
  <circle cx="784" cy="192" r="10" stroke="#3399ff" opacity="1" stroke-width="2" fill="none"/>
  <circle cx="784" cy="176" r="10" stroke="#3399ff" opacity="1" stroke-width="2" fill="none"/>
  <circle cx="784" cy="160" r="10" stroke="#3399ff" opacity="1" stroke-width="2" fill="none"/>
  <circle cx="784" cy="144" r="10" stroke="#3399ff" opacity="1" stroke-width="2" fill="none"/>
  <circle cx="784" cy="128" r="10" stroke="#3399ff" opacity="1" stroke-width="2" fill="none"/>
  <circle cx="784" cy="112" r="10" stroke="#3399ff" opacity="1" stroke-width="2" fill="none"/>
  <circle cx="784" cy="96" r="10" stroke="#3399ff" opacity="1" stroke-width="2" fill="none"/>
  <circle cx="784" cy="240" r="10" stroke="#3399ff" opacity="1" stroke-width="2" fill="none"/>
  <circle cx="784" cy="256" r="10" stroke="#3399ff" opacity="1" stroke-width="2" fill="none"/>
  <circle cx="784" cy="272" r="10" stroke="#3399ff" opacity="1" stroke-width="2" fill="none"/>
  <circle cx="784" cy="288" r="10" stroke="#3399ff" opacity="1" stroke-width="2" fill="none"/>
  <circle cx="784" cy="304" r="10" stroke="#3399ff" opacity="1" stroke-width="2" fill="none"/>
  <circle cx="784" cy="320" r="10" stroke="#3399ff" opacity="1" stroke-width="2" fill="none"/>
  <circle cx="784" cy="336" r="10" stroke="#3399ff" opacity="1" stroke-width="2" fill="none"/>
  <circle cx="784" cy="352" r="10" stroke="#3399ff" opacity="1" stroke-width="2" fill="none"/>
  <circle cx="752" cy="256" r="10" stroke="#3399ff" opacity="1" stroke-width="2" fill="none"/>
  <circle cx="752" cy="192" r="10" stroke="#3399ff" opacity="1" stroke-width="2" fill="none"/>
  <circle cx="848" cy="192" r="10" stroke="#3399ff" opacity="1" stroke-width="2" fill="none"/>
  <circle cx="864" cy="176" r="10" stroke="#3399ff" opacity="1" stroke-width="2" fill="none"/>
  <circle cx="880" cy="160" r="10" stroke="#3399ff" opacity="1" stroke-width="2" fill="none"/>
  <circle cx="832" cy="192" r="10" stroke="#3399ff" opacity="1" stroke-width="2" fill="none"/>
  <circle cx="896" cy="144" r="10" stroke="#3399ff" opacity="1" stroke-width="2" fill="none"/>
  <circle cx="912" cy="128" r="10" stroke="#3399ff" opacity="1" stroke-width="2" fill="none"/>
  <circle cx="928" cy="112" r="10" stroke="#3399ff" opacity="1" stroke-width="2" fill="none"/>
  <circle cx="832" cy="256" r="10" stroke="#3399ff" opacity="1" stroke-width="2" fill="none"/>
  <circle cx="848" cy="256" r="10" stroke="#3399ff" opacity="1" stroke-width="2" fill="none"/>
  <circle cx="864" cy="272" r="10" stroke="#3399ff" opacity="1" stroke-width="2" fill="none"/>
  <circle cx="880" cy="288" r="10" stroke="#3399ff" opacity="1" stroke-width="2" fill="none"/>
  <circle cx="896" cy="304" r="10" stroke="#3399ff" opacity="1" stroke-width="2" fill="none"/>
  <circle cx="912" cy="320" r="10" stroke="#3399ff" opacity="1" stroke-width="2" fill="none"/>
  <circle cx="928" cy="336" r="10" stroke="#3399ff" opacity="1" stroke-width="2" fill="none"/>
  <circle cx="864" cy="208" r="10" stroke="#3399ff" opacity="1" stroke-width="2" fill="none"/>
  <circle cx="864" cy="240" r="10" stroke="#3399ff" opacity="1" stroke-width="2" fill="none"/>
  <circle cx="880" cy="192" r="10" stroke="#3399ff" opacity="1" stroke-width="2" fill="none"/>
  <circle cx="896" cy="176" r="10" stroke="#3399ff" opacity="1" stroke-width="2" fill="none"/>
  <circle cx="912" cy="160" r="10" stroke="#3399ff" opacity="1" stroke-width="2" fill="none"/>
  <circle cx="928" cy="144" r="10" stroke="#3399ff" opacity="1" stroke-width="2" fill="none"/>
  <circle cx="944" cy="128" r="10" stroke="#3399ff" opacity="1" stroke-width="2" fill="none"/>
  <circle cx="880" cy="256" r="10" stroke="#3399ff" opacity="1" stroke-width="2" fill="none"/>
  <circle cx="896" cy="272" r="10" stroke="#3399ff" opacity="1" stroke-width="2" fill="none"/>
  <circle cx="912" cy="288" r="10" stroke="#3399ff" opacity="1" stroke-width="2" fill="none"/>
  <circle cx="928" cy="304" r="10" stroke="#3399ff" opacity="1" stroke-width="2" fill="none"/>
  <circle cx="944" cy="320" r="10" stroke="#3399ff" opacity="1" stroke-width="2" fill="none"/>
  <circle cx="944" cy="352" r="10" stroke="#3399ff" opacity="1" stroke-width="2" fill="none"/>
  <circle cx="960" cy="352" r="10" stroke="#3399ff" opacity="1" stroke-width="2" fill="none"/>
  <circle cx="976" cy="336" r="10" stroke="#3399ff" opacity="1" stroke-width="2" fill="none"/>
  <circle cx="976" cy="320" r="10" stroke="#3399ff" opacity="1" stroke-width="2" fill="none"/>
  <circle cx="976" cy="304" r="10" stroke="#3399ff" opacity="1" stroke-width="2" fill="none"/>
  <circle cx="976" cy="288" r="10" stroke="#3399ff" opacity="1" stroke-width="2" fill="none"/>
  <circle cx="976" cy="272" r="10" stroke="#3399ff" opacity="1" stroke-width="2" fill="none"/>
  <circle cx="976" cy="256" r="10" stroke="#3399ff" opacity="1" stroke-width="2" fill="none"/>
  <circle cx="976" cy="240" r="10" stroke="#3399ff" opacity="1" stroke-width="2" fill="none"/>
  <circle cx="976" cy="224" r="10" stroke="#3399ff" opacity="1" stroke-width="2" fill="none"/>
  <circle cx="976" cy="208" r="10" stroke="#3399ff" opacity="1" stroke-width="2" fill="none"/>
  <circle cx="976" cy="192" r="10" stroke="#3399ff" opacity="1" stroke-width="2" fill="none"/>
  <circle cx="976" cy="176" r="10" stroke="#3399ff" opacity="1" stroke-width="2" fill="none"/>
  <circle cx="976" cy="160" r="10" stroke="#3399ff" opacity="1" stroke-width="2" fill="none"/>
  <circle cx="976" cy="144" r="10" stroke="#3399ff" opacity="1" stroke-width="2" fill="none"/>
  <circle cx="976" cy="128" r="10" stroke="#3399ff" opacity="1" stroke-width="2" fill="none"/>
  <circle cx="976" cy="112" r="10" stroke="#3399ff" opacity="1" stroke-width="2" fill="none"/>
  <circle cx="960" cy="96" r="10" stroke="#3399ff" opacity="1" stroke-width="2" fill="none"/>
  <circle cx="944" cy="96" r="10" stroke="#3399ff" opacity="1" stroke-width="2" fill="none"/>
  <circle cx="944" cy="304" r="10" stroke="#3399ff" opacity="1" stroke-width="2" fill="none"/>
  <circle cx="944" cy="288" r="10" stroke="#3399ff" opacity="1" stroke-width="2" fill="none"/>
  <circle cx="944" cy="272" r="10" stroke="#3399ff" opacity="1" stroke-width="2" fill="none"/>
  <circle cx="944" cy="256" r="10" stroke="#3399ff" opacity="1" stroke-width="2" fill="none"/>
  <circle cx="944" cy="240" r="10" stroke="#3399ff" opacity="1" stroke-width="2" fill="none"/>
  <circle cx="928" cy="240" r="10" stroke="#3399ff" opacity="1" stroke-width="2" fill="none"/>
  <circle cx="912" cy="240" r="10" stroke="#3399ff" opacity="1" stroke-width="2" fill="none"/>
  <circle cx="912" cy="208" r="10" stroke="#3399ff" opacity="1" stroke-width="2" fill="none"/>
  <circle cx="928" cy="288" r="10" stroke="#33ff33" opacity="1" stroke-width="2" fill="none"/>
  <circle cx="928" cy="160" r="10" stroke="#33ff33" opacity="1" stroke-width="2" fill="none"/>
  <circle cx="944" cy="144" r="10" stroke="#3399ff" opacity="1" stroke-width="2" fill="none"/>
  <circle cx="944" cy="160" r="10" stroke="#3399ff" opacity="1" stroke-width="2" fill="none"/>
  <circle cx="944" cy="176" r="10" stroke="#3399ff" opacity="1" stroke-width="2" fill="none"/>
  <circle cx="944" cy="192" r="10" stroke="#3399ff" opacity="1" stroke-width="2" fill="none"/>
  <circle cx="944" cy="208" r="10" stroke="#3399ff" opacity="1" stroke-width="2" fill="none"/>
  <circle cx="928" cy="208" r="10" stroke="#3399ff" opacity="1" stroke-width="2" fill="none"/>
  <circle cx="864" cy="224" r="10" stroke="#3399ff" opacity="1" stroke-width="2" fill="none"/>
  <circle cx="912" cy="176" r="10" stroke="#3399ff" opacity="1" stroke-width="2" fill="none"/>
  <circle cx="912" cy="272" r="10" stroke="#3399ff" opacity="1" stroke-width="2" fill="none"/>
  <path marker-end="url(#spawn)" stroke-width="0.5" stroke="red" d="M 0 0 0 1" transform="translate(416,224) scale(1 -1) rotate(-90) matrix(1,0,0,1,0,0)" fill="none"/>
</svg>
