<?xml version="1.0" encoding="UTF-8" standalone="no"?>
<svg xmlns="http://www.w3.org/2000/svg" viewBox="251,715,602,730" width="100%" height="100%">
  <defs>
    <marker id="spawn" markerWidth="30" markerHeight="40" refX="2" refY="15" orient="auto" viewBox="0 0 40 30">
      <path d="M -5,0 -5,20 -15,20 0,40 15,20 5,20 5,0 Z" fill="magenta" transform="translate(0,15) rotate(-90)"/>
    </marker>
  </defs>
  <polyline points="848,784 848,1104 720,1232 640,1152" stroke="white" stroke-width="2" fill="none"/>
  <polyline points="640,1152 576,1152 576,1216 352,1440 256,1344 256,1264 320,1200 320,1040 256,976 256,800 320,736 400,736 464,800 528,800 608,720 704,720 768,784 848,784" stroke="white" stroke-width="2" fill="none"/>
  <polyline points="848,784 704,928 704,1104" stroke="white" stroke-width="2" fill="none"/>
  <polyline points="528,800 432,896 640,896" stroke="white" stroke-width="2" fill="none"/>
  <polyline points="704,928 368,928" stroke="white" stroke-width="2" fill="none"/>
  <polyline points="624,928 448,1104 288,944" stroke="white" stroke-width="2" fill="none"/>
  <polyline points="448,1104 496,1152 352,1296" stroke="white" stroke-width="2" fill="none"/>
  <polyline points="816,816 608,816" stroke="white" stroke-width="2" fill="none"/>
  <polyline points="704,1104 704,1168" stroke="white" stroke-width="2" fill="none"/>
  <polyline points="368,928 464,832 400,768" stroke="white" stroke-width="2" fill="none"/>
  <polyline points="640,1152 672,1120" stroke="white" stroke-width="2" fill="none"/>
  <polyline points="480,1136 608,1136" stroke="white" stroke-width="2" fill="none"/>
  <polyline points="624,1136 672,1120 496,1120" stroke="white" stroke-width="2" fill="none"/>
  <polyline points="464,1008 448,1008 432,1024 432,1040 448,1056 464,1056 480,1040 480,1024 464,1008" stroke="white" stroke-width="2" fill="none"/>
  <polyline points="432,1024 400,992 448,1008" stroke="white" stroke-width="2" fill="none"/>
  <polyline points="464,1008 512,992 480,1024" stroke="white" stroke-width="2" fill="none"/>
  <polyline points="368,976 368,944 384,944 384,960 368,960" stroke="white" stroke-width="2" fill="none"/>
  <polyline points="400,944 400,976 416,976 416,944 400,944" stroke="white" stroke-width="2" fill="none"/>
  <polyline points="432,944 448,944" stroke="white" stroke-width="2" fill="none"/>
  <polyline points="440,944 440,976" stroke="white" stroke-width="2" fill="none"/>
  <polyline points="464,944 464,976" stroke="white" stroke-width="2" fill="none"/>
  <polyline points="464,960 480,960" stroke="white" stroke-width="2" fill="none"/>
  <polyline points="480,944 480,976" stroke="white" stroke-width="2" fill="none"/>
  <polyline points="496,944 496,976 512,976" stroke="white" stroke-width="2" fill="none"/>
  <polyline points="496,944 512,944" stroke="white" stroke-width="2" fill="none"/>
  <polyline points="496,960 512,960" stroke="white" stroke-width="2" fill="none"/>
  <polyline points="536,942 526,976 528,976 536,942 538,942 544,974" stroke="white" stroke-width="2" fill="none"/>
  <polyline points="530,966 540,966" stroke="white" stroke-width="2" fill="none"/>
  <polyline points="560,944 560,976 576,960 560,944" stroke="white" stroke-width="2" fill="none"/>
  <polyline points="462,1022 464,1022 466,1024 464,1026 462,1026 460,1024 462,1022" stroke="white" stroke-width="2" fill="none"/>
  <polyline points="446,1022 448,1022 450,1024 448,1026 446,1026 444,1024 446,1022" stroke="white" stroke-width="2" fill="none"/>
  <polyline points="448,1040 464,1040 466,1036" stroke="white" stroke-width="2" fill="none"/>
  <circle cx="608" cy="816" r="16" stroke="#3399ff" opacity="1" stroke-width="2" fill="none"/>
  <circle cx="640" cy="784" r="16" stroke="#3399ff" opacity="1" stroke-width="2" fill="none"/>
  <circle cx="672" cy="752" r="16" stroke="#3399ff" opacity="1" stroke-width="2" fill="none"/>
  <circle cx="544" cy="880" r="10" stroke="#3399ff" opacity="1" stroke-width="2" fill="none"/>
  <circle cx="576" cy="896" r="10" stroke="#3399ff" opacity="1" stroke-width="2" fill="none"/>
  <circle cx="528" cy="928" r="10" stroke="#3399ff" opacity="1" stroke-width="2" fill="none"/>
  <circle cx="432" cy="896" r="10" stroke="#3399ff" opacity="1" stroke-width="2" fill="none"/>
  <circle cx="432" cy="768" r="10" stroke="#3399ff" opacity="1" stroke-width="2" fill="none"/>
  <circle cx="448" cy="848" r="10" stroke="#3399ff" opacity="1" stroke-width="2" fill="none"/>
  <circle cx="352" cy="784" r="10" stroke="#3399ff" opacity="1" stroke-width="2" fill="none"/>
  <circle cx="400" cy="800" r="10" stroke="#3399ff" opacity="1" stroke-width="2" fill="none"/>
  <circle cx="400" cy="816" r="10" stroke="#3399ff" opacity="1" stroke-width="2" fill="none"/>
  <circle cx="400" cy="848" r="10" stroke="#3399ff" opacity="1" stroke-width="2" fill="none"/>
  <circle cx="400" cy="816" r="10" stroke="#3399ff" opacity="1" stroke-width="2" fill="none"/>
  <circle cx="320" cy="816" r="10" stroke="#3399ff" opacity="1" stroke-width="2" fill="none"/>
  <circle cx="368" cy="832" r="10" stroke="#3399ff" opacity="1" stroke-width="2" fill="none"/>
  <circle cx="320" cy="864" r="10" stroke="#3399ff" opacity="1" stroke-width="2" fill="none"/>
  <circle cx="304" cy="880" r="10" stroke="#3399ff" opacity="1" stroke-width="2" fill="none"/>
  <circle cx="320" cy="880" r="10" stroke="#3399ff" opacity="1" stroke-width="2" fill="none"/>
  <circle cx="320" cy="896" r="10" stroke="#3399ff" opacity="1" stroke-width="2" fill="none"/>
  <circle cx="336" cy="912" r="10" stroke="#3399ff" opacity="1" stroke-width="2" fill="none"/>
  <circle cx="352" cy="928" r="10" stroke="#3399ff" opacity="1" stroke-width="2" fill="none"/>
  <circle cx="432" cy="800" r="10" stroke="#3399ff" opacity="1" stroke-width="2" fill="none"/>
  <circle cx="352" cy="1280" r="10" stroke="#3399ff" opacity="1" stroke-width="2" fill="none"/>
  <circle cx="320" cy="1328" r="10" stroke="#3399ff" opacity="1" stroke-width="2" fill="none"/>
  <circle cx="336" cy="1344" r="10" stroke="#3399ff" opacity="1" stroke-width="2" fill="none"/>
  <circle cx="352" cy="1328" r="10" stroke="#3399ff" opacity="1" stroke-width="2" fill="none"/>
  <circle cx="352" cy="1360" r="10" stroke="#3399ff" opacity="1" stroke-width="2" fill="none"/>
  <circle cx="320" cy="1360" r="10" stroke="#3399ff" opacity="1" stroke-width="2" fill="none"/>
  <circle cx="480" cy="1232" r="10" stroke="#3399ff" opacity="1" stroke-width="2" fill="none"/>
  <circle cx="512" cy="1184" r="10" stroke="#3399ff" opacity="1" stroke-width="2" fill="none"/>
  <circle cx="512" cy="1168" r="10" stroke="#3399ff" opacity="1" stroke-width="2" fill="none"/>
  <circle cx="528" cy="1152" r="10" stroke="#3399ff" opacity="1" stroke-width="2" fill="none"/>
  <circle cx="544" cy="1152" r="10" stroke="#3399ff" opacity="1" stroke-width="2" fill="none"/>
  <circle cx="560" cy="1152" r="10" stroke="#3399ff" opacity="1" stroke-width="2" fill="none"/>
  <circle cx="576" cy="1152" r="10" stroke="#3399ff" opacity="1" stroke-width="2" fill="none"/>
  <circle cx="592" cy="1040" r="50" stroke="#3399ff" opacity="1" stroke-width="2" fill="none"/>
  <circle cx="736" cy="1104" r="44" stroke="#3399ff" opacity="1" stroke-width="2" fill="none"/>
  <circle cx="824" cy="970" r="38" stroke="#3399ff" opacity="1" stroke-width="2" fill="none"/>
  <circle cx="848" cy="816" r="10" stroke="#00ff99" opacity="1" stroke-width="2" fill="none"/>
  <circle cx="656" cy="768" r="16" stroke="#3399ff" opacity="1" stroke-width="2" fill="none"/>
  <circle cx="624" cy="800" r="16" stroke="#3399ff" opacity="1" stroke-width="2" fill="none"/>
  <circle cx="592" cy="832" r="16" stroke="#3399ff" opacity="1" stroke-width="2" fill="none"/>
  <circle cx="576" cy="848" r="16" stroke="#3399ff" opacity="1" stroke-width="2" fill="none"/>
  <circle cx="560" cy="864" r="16" stroke="#3399ff" opacity="1" stroke-width="2" fill="none"/>
  <circle cx="528" cy="864" r="16" stroke="#3399ff" opacity="1" stroke-width="2" fill="none"/>
  <circle cx="336" cy="848" r="16" stroke="#3399ff" opacity="1" stroke-width="2" fill="none"/>
  <circle cx="368" cy="768" r="16" stroke="#3399ff" opacity="1" stroke-width="2" fill="none"/>
  <circle cx="336" cy="800" r="16" stroke="#3399ff" opacity="1" stroke-width="2" fill="none"/>
  <circle cx="272" cy="912" r="14" stroke="#3399ff" opacity="1" stroke-width="2" fill="none"/>
  <circle cx="304" cy="944" r="14" stroke="#3399ff" opacity="1" stroke-width="2" fill="none"/>
  <circle cx="304" cy="1008" r="16" stroke="#3399ff" opacity="1" stroke-width="2" fill="none"/>
  <circle cx="336" cy="1232" r="16" stroke="#3399ff" opacity="1" stroke-width="2" fill="none"/>
  <circle cx="320" cy="1248" r="16" stroke="#3399ff" opacity="1" stroke-width="2" fill="none"/>
  <circle cx="304" cy="1264" r="16" stroke="#3399ff" opacity="1" stroke-width="2" fill="none"/>
  <circle cx="368" cy="1296" r="16" stroke="#3399ff" opacity="1" stroke-width="2" fill="none"/>
  <circle cx="400" cy="1296" r="16" stroke="#3399ff" opacity="1" stroke-width="2" fill="none"/>
  <circle cx="464" cy="1296" r="16" stroke="#3399ff" opacity="1" stroke-width="2" fill="none"/>
  <circle cx="480" cy="1280" r="16" stroke="#3399ff" opacity="1" stroke-width="2" fill="none"/>
  <circle cx="480" cy="1168" r="16" stroke="#3399ff" opacity="1" stroke-width="2" fill="none"/>
  <circle cx="704" cy="1184" r="16" stroke="#3399ff" opacity="1" stroke-width="2" fill="none"/>
  <circle cx="376" cy="1120" r="52" stroke="#3399ff" opacity="1" stroke-width="2" fill="none"/>
  <circle cx="544" cy="768" r="50" stroke="#3399ff" opacity="1" stroke-width="2" fill="none"/>
  <circle cx="656" cy="800" r="10" stroke="#3399ff" opacity="1" stroke-width="2" fill="none"/>
  <circle cx="672" cy="800" r="10" stroke="#3399ff" opacity="1" stroke-width="2" fill="none"/>
  <circle cx="688" cy="800" r="10" stroke="#3399ff" opacity="1" stroke-width="2" fill="none"/>
  <circle cx="704" cy="800" r="10" stroke="#3399ff" opacity="1" stroke-width="2" fill="none"/>
  <circle cx="720" cy="800" r="10" stroke="#3399ff" opacity="1" stroke-width="2" fill="none"/>
  <circle cx="736" cy="800" r="10" stroke="#3399ff" opacity="1" stroke-width="2" fill="none"/>
  <circle cx="752" cy="800" r="10" stroke="#3399ff" opacity="1" stroke-width="2" fill="none"/>
  <circle cx="768" cy="800" r="10" stroke="#3399ff" opacity="1" stroke-width="2" fill="none"/>
  <circle cx="784" cy="800" r="10" stroke="#3399ff" opacity="1" stroke-width="2" fill="none"/>
  <circle cx="800" cy="800" r="10" stroke="#3399ff" opacity="1" stroke-width="2" fill="none"/>
  <circle cx="736" cy="768" r="10" stroke="#3399ff" opacity="1" stroke-width="2" fill="none"/>
  <circle cx="704" cy="752" r="10" stroke="#3399ff" opacity="1" stroke-width="2" fill="none"/>
  <circle cx="704" cy="784" r="10" stroke="#3399ff" opacity="1" stroke-width="2" fill="none"/>
  <circle cx="640" cy="880" r="30" stroke="#3399ff" opacity="1" stroke-width="2" fill="none"/>
  <circle cx="480" cy="896" r="10" stroke="#3399ff" opacity="1" stroke-width="2" fill="none"/>
  <circle cx="432" cy="1280" r="10" stroke="#3399ff" opacity="1" stroke-width="2" fill="none"/>
  <circle cx="336" cy="896" r="10" stroke="#3399ff" opacity="1" stroke-width="2" fill="none"/>
  <circle cx="352" cy="912" r="10" stroke="#3399ff" opacity="1" stroke-width="2" fill="none"/>
  <circle cx="352" cy="944" r="10" stroke="#3399ff" opacity="1" stroke-width="2" fill="none"/>
  <circle cx="336" cy="928" r="10" stroke="#3399ff" opacity="1" stroke-width="2" fill="none"/>
  <circle cx="320" cy="912" r="10" stroke="#3399ff" opacity="1" stroke-width="2" fill="none"/>
  <circle cx="480" cy="1120" r="6" stroke="#3399ff" opacity="1" stroke-width="2" fill="none"/>
  <circle cx="688" cy="752" r="10" stroke="#3399ff" opacity="1" stroke-width="2" fill="none"/>
  <circle cx="504" cy="1112" r="10" stroke="#3399ff" opacity="1" stroke-width="2" fill="none"/>
  <circle cx="528" cy="1096" r="10" stroke="#3399ff" opacity="1" stroke-width="2" fill="none"/>
  <circle cx="544" cy="1096" r="10" stroke="#3399ff" opacity="1" stroke-width="2" fill="none"/>
  <circle cx="568" cy="1112" r="10" stroke="#3399ff" opacity="1" stroke-width="2" fill="none"/>
  <circle cx="584" cy="1112" r="10" stroke="#3399ff" opacity="1" stroke-width="2" fill="none"/>
  <circle cx="608" cy="1096" r="10" stroke="#3399ff" opacity="1" stroke-width="2" fill="none"/>
  <circle cx="624" cy="1096" r="10" stroke="#3399ff" opacity="1" stroke-width="2" fill="none"/>
  <circle cx="664" cy="1112" r="10" stroke="#3399ff" opacity="1" stroke-width="2" fill="none"/>
  <circle cx="648" cy="1112" r="10" stroke="#3399ff" opacity="1" stroke-width="2" fill="none"/>
  <circle cx="552" cy="1080" r="10" stroke="#3399ff" opacity="1" stroke-width="2" fill="none"/>
  <circle cx="752" cy="880" r="30" stroke="#3399ff" opacity="1" stroke-width="2" fill="none"/>
  <circle cx="800" cy="912" r="16" stroke="#3399ff" opacity="1" stroke-width="2" fill="none"/>
  <circle cx="800" cy="864" r="15" stroke="#3399ff" opacity="1" stroke-width="2" fill="none"/>
  <circle cx="816" cy="928" r="10" stroke="#3399ff" opacity="1" stroke-width="2" fill="none"/>
  <path marker-end="url(#spawn)" stroke-width="0.5" stroke="red" d="M 0 0 0 1" transform="translate(650,812) scale(1 -1) rotate(-90) matrix(1,0,0,1,0,0)" fill="none"/>
</svg>
