jimmaaa@forums 28.3145 6 1.39404e+09
nobody@aagid 28.3517 6 1.3922e+09
catherine 28.5072 3 1.39535e+09
ChrisIsGod@forums 28.5202 1 1.38843e+09
lilb@forums 28.5916 4 1.39095e+09
nisargisgod@vertrex.8ing.com/Craftsman 28.7322 3 1.37866e+09
edition@forums 28.7375 2 1.38843e+09
Fini@forums 28.8164 1 1.37918e+09
clancy 28.9207 3 1.38179e+09
Stylee@forums 28.9704 3 1.37865e+09
Wrdq03@aagid 28.976 3 1.3947e+09
cookie@ct/junior 29.1633 1 1.39076e+09
ta|foni 29.3433 1 1.39437e+09
StyX@ap/Officer 29.3791 2 1.39404e+09
Vertrex@ap/God 29.3963 8 1.39036e+09
wrdq 29.5758 3 1.38175e+09
lansus 29.6348 5 1.3938e+09
Kurosaki@aagid 29.9238 1 1.37969e+09
klodeckel 30.0348 10 1.3833e+09
Opara@speedersclan.org 31.4527 1 1.3886e+09
zejim 32.0121 3 1.3802e+09
emani 32.0862 1 1.37866e+09
Durf@ap/Support 33.072 1 1.37822e+09
rf|jaff 33.1338 1 1.38521e+09
saphira 33.7806 4 1.38193e+09
Konqueror@lightron.tk 34.5127 2 1.37866e+09
<|arcueid 34.8244 1 1.38045e+09
0\x00feeeemilki@aagid 35.0653 2 1.39551e+09
suicune 35.4456 2 1.38201e+09
|neo"bass| 36.5428 5 1.38045e+09
Light@lightron.org 36.9569 1 1.39036e+09
cookie_monster 37.6148 3 1.37762e+09
$ir_herobinepl 38.1644 2 1.37847e+09
apollyon 38.6557 2 1.38201e+09
?_lll\%l\%+_l\%l** 40.1262 2 1.37969e+09
emilki 40.3199 1 1.39112e+09
kobe_grandpop`` 42.7028 1 1.37959e+09
crms1496 43.3242 1 1.37866e+09
youngboss 45.2071 3 1.37959e+09
pla'ac** 49.715 2 1.3808e+09
capi 51.9507 1 1.38496e+09
cantstop_tyhee 53.7809 1 1.37959e+09
zalgo 54.2042 1 1.37866e+09
