jimmaaa@forums 9.88699 14 1.39375e+09
catherine 9.89591 13 1.39561e+09
mehmet@forums 10.0527 3 1.39533e+09
nisargisgod@vertrex.8ing.com/Craftsman 10.2504 8 1.38065e+09
Wrdq03@aagid 10.3064 13 1.39549e+09
StyX@ap/Officer 10.3258 8 1.38931e+09
Vertrex@ap/God 10.3858 12 1.38383e+09
Fini@forums 10.3924 3 1.37945e+09
ChrisIsGod@forums 10.4899 7 1.38931e+09
nobody@aagid 10.5037 6 1.39179e+09
SeV@forums 10.8238 2 1.3936e+09
spyy 11.012 2 1.39198e+09
|jason 11.0347 3 1.37859e+09
clancy 11.1186 3 1.38101e+09
drbeatz 11.3612 3 1.37901e+09
emani 11.7512 2 1.38065e+09
bamf/lightbeam 11.8296 1 1.39561e+09
pootie_tang 13.2508 2 1.393e+09
glaceoners 13.6186 5 1.39484e+09
sam's 14.5505 2 1.39273e+09
0\x00feeeemilki@aagid 14.8058 2 1.39394e+09
klodeckel 14.9173 3 1.38072e+09
WimMar@ct/public 15.5498 2 1.39561e+09
"xv.nelg 17.1859 1 1.38065e+09
pipa 18.102 1 1.39462e+09
ta|aleyna 18.1726 2 1.39504e+09
Kurosaki@aagid 19.1956 2 1.37971e+09
emilki 19.7408 1 1.39103e+09
|neo"bass| 20.2653 4 1.38141e+09
$boby 20.5046 1 1.38871e+09
hitler 20.5752 1 1.38123e+09
tep_axel53 22.3221 1 1.39462e+09
fabien 25.8071 1 1.39394e+09
leafeoners 27.2909 2 1.39484e+09
crozz 28.3626 1 1.37839e+09
dovahkiin72o 199.41 1 1.38383e+09
