nisargisgod@vertrex.8ing.com/Craftsman 11.3283 2 1.37867e+09
ta|foni 11.4676 3 1.39482e+09
catherine 11.4911 6 1.39518e+09
ChuChuMoo@forums 11.6619 1 1.37851e+09
Gavin@forums 11.7029 4 1.39129e+09
StyX@ap/Officer 11.8547 1 1.37851e+09
cookie@ct/junior 11.8634 3 1.39244e+09
clancy 12.2802 1 1.38239e+09
Fini@forums 12.4047 1 1.37894e+09
jimmaaa@forums 12.9082 1 1.37811e+09
klodeckel 14.2437 2 1.38399e+09
noobly[mho]noob@forums 15.2544 1 1.38028e+09
wrdq 15.3103 1 1.38296e+09
Stylee@forums 15.3325 1 1.379e+09
|jason 15.3453 1 1.37859e+09
Vertrex@ap/God 15.605 1 1.39417e+09
|neo"bass| 15.6057 1 1.3796e+09
saphira 17.6869 2 1.38116e+09
jason 18.6647 2 1.37848e+09
isaac 18.9402 1 1.37972e+09
gold-dash 23.6697 2 1.38352e+09
jeff 28.0373 1 1.3796e+09
emilki 33.0794 1 1.39189e+09
