catherine 21.8122 6 1.39553e+09
jimmaaa@forums 22.297 7 1.3948e+09
StyX@ap/Officer 22.3119 3 1.39225e+09
edition@forums 22.5843 1 1.3885e+09
ChrisIsGod@forums 22.6337 2 1.38856e+09
Stylee@forums 22.929 2 1.37862e+09
cookie@ct/junior 23.1435 3 1.39087e+09
Wrdq03@aagid 23.5836 2 1.39412e+09
Vertrex@ap/God 23.7802 2 1.39106e+09
ta|foni 23.8816 1 1.3948e+09
klodeckel 24.1276 3 1.38217e+09
nobody@aagid 24.2428 1 1.39177e+09
|jason 24.8846 2 1.37805e+09
lilb@forums 28.333 2 1.39061e+09
lansus 34.67 1 1.39225e+09
Psych@forums 34.9698 1 1.37805e+09
|neo"bass| 41.9453 1 1.3802e+09
$boby 43.2802 2 1.38871e+09
taran 44.0304 1 1.37831e+09
jason 48.7545 1 1.37842e+09
