re\:phoenix 77.9216 6 1.43063e+009
KidBlast@forums 81.0853 1 1.42941e+009
Gone@forums 81.4665 1 1.43035e+009
a>ddoa 81.7009 2 1.42972e+009
R0b0@vertrex.org/Diplomat 81.8106 4 1.43035e+009
Visual@forums 81.9395 1 1.42983e+009
xradd 83.5113 4 1.43035e+009
|player_11_phnx 89.0431 2 1.42972e+009
