re\:phoenix 69.8236 6 1.43009e+09
chrisd 73.6857 3 1.4299e+09
Visual@forums 75.0095 2 1.4299e+09
KidBlast@forums 79.7197 1 1.42948e+09
xradd 85.3796 1 1.42948e+09
|player_11_phnx 86.3124 2 1.43015e+09
sf|x 92.2745 2 1.42997e+09
R0b0@vertrex.org/Diplomat 99.307 1 1.43009e+09
blackpanther42 119.731 1 1.42952e+09
RePhoenix@ap/Resurrected 515.163 1 1.43009e+09