re\:phoenix 77.8366 5 1.43063e+009
RePhoenix@ap/Resurrected 78.4364 4 1.42924e+009
Visual@forums 82.3717 1 1.43025e+009
R0b0@vertrex.org/Diplomat 85.8346 2 1.43026e+009
Oparachukwu@forums 86.2761 1 1.42914e+009
bloodytag 87.4344 1 1.42974e+009
|player_11_phnx 90.4725 3 1.42914e+009
