cookie@ct/junior 13.6448 3 1.43017e+09
Visual@forums 13.6744 2 1.42983e+09
StyX@vertrex.org/Officer 13.7169 2 1.42983e+09
jimmaaa@forums 13.8817 1 1.42817e+09
gotcero 13.8855 1 1.42886e+09
Child_of_blood@forums 13.9716 1 1.42914e+09
Tabasco@vertrex.org/Public 14.1739 3 1.42944e+09
KidBlast@forums 14.6091 3 1.42915e+09
Dage@forums 14.7662 1 1.42919e+09
re\:phoenix 14.8076 3 1.42959e+09
R0b0@vertrex.org/Diplomat 14.8371 4 1.42914e+09
playr11_phoenix 15.0272 1 1.42843e+09
momo 16.0156 3 1.42898e+09
w1ndy@vertrex.org/Public 18.2976 1 1.43008e+09
lyme 18.3094 2 1.42914e+09
dragontamer 32.3415 1 1.43042e+09