Visual@forums 22.584 3 1.42808e+09
Tabasco@vertrex.org/Public 23.493 8 1.42824e+09
re\:phoenix 23.8547 2 1.42957e+09
phoenix_titan 24.0888 2 1.4276e+09
Dage@forums 25.6648 2 1.42971e+09
jimmaaa@forums 28.4746 1 1.42893e+09
R0b0@vertrex.org/Diplomat 32.9724 1 1.42808e+09
<myles> 36.0795 1 1.42798e+09
exia 38.8236 1 1.43058e+09
a>ddoa 41.6483 1 1.4298e+09
spacebar 42.4683 1 1.42928e+09
xradd 75.2286 1 1.42906e+09