Tabasco@vertrex.org/Public 15.5196 4 1.43016e+09
Visual@forums 15.5696 3 1.42991e+09
Gone@forums 15.5929 1 1.43035e+09
xf_pyro 15.6976 2 1.42853e+09
re\:phoenix 15.8001 2 1.43035e+09
|player_11_phnx 15.891 3 1.43035e+09
ct|upabr 15.9848 3 1.4305e+09
a>ddoa 15.9978 2 1.42974e+09
the_fox 16.0521 2 1.42974e+09
uzain 16.0573 4 1.42788e+09
momo 16.1761 2 1.42991e+09
xradd 16.5396 1 1.42853e+09
xf_giocodimerda 25.4958 2 1.42853e+09
realtop 31.8026 2 1.43035e+09