Visual@forums 46.6211 1 1.428e+09
re\:phoenix 46.9628 9 1.42941e+09
StyX@vertrex.org/Officer 48.4029 1 1.42912e+09
Dage@forums 49.1551 1 1.42912e+09
KidBlast@forums 50.9349 3 1.42967e+09
phoenix_titan 51.3999 2 1.42793e+09
Tabasco@vertrex.org/Public 52.2117 1 1.43016e+09
s_|camaro 56.7632 2 1.43047e+09
|player_11_phnx 58.8163 1 1.42972e+09
rxlead 60.4473 1 1.43047e+09
playr11_phoenix 62.2285 1 1.42836e+09
R0b0@vertrex.org/Diplomat 63.8164 1 1.42812e+09
~`wwkb 85.5073 1 1.42912e+09