Visual@forums 39.6995 1 1.42983e+09
Tabasco@vertrex.org/Public 39.8451 3 1.43031e+09
R0b0@vertrex.org/Diplomat 40.5491 2 1.42803e+009
re\:phoenix 42.2448 3 1.42797e+09
<myles> 46.0176 2 1.42765e+09
momo 54.9242 1 1.42963e+09