StyX@vertrex.org/Officer 46.479 1 1.42957e+09
tm|cath 47.4051 1 1.42877e+09
re\:phoenix 47.613 2 1.43063e+009
jimmaaa@forums 51.2437 1 1.42859e+09
R0b0@vertrex.org/Diplomat 56.2133 1 1.42877e+09
Richie\_Wolfie@forums 56.9226 1 1.42957e+09
<myles> 57.53 1 1.43001e+09
chrisd 65.9727 2 1.42877e+09