Visual@forums 20.7152 2 1.43016e+09
re\:phoenix 25.3575 1 1.42951e+09
R0b0@vertrex.org/Diplomat 32.7107 1 1.42877e+09
sisam42 39.6376 1 1.4299e+09
pops 43.59 1 1.4298e+09
dreamag 44.2062 3 1.42971e+09
chrisd 58.6413 1 1.4299e+09
jimmaaa@forums 75.3591 2 1.42771e+09