re\:phoenix 77.4455 3 1.42983e+09
teach_meh 78.7144 1 1.42983e+09
Visual@forums 79.9372 1 1.43036e+09
StyX@vertrex.org/Officer 85.7501 1 1.42983e+09
Dage@forums 95.9524 1 1.4293e+09
|player_11_phnx 96.1493 2 1.42989e+09