RePhoenix@ap/Resurrected 65.1786 4 1.42914e+09
re\:phoenix 65.5678 2 1.42918e+09
a>ddoa 67.0488 4 1.42989e+09
Dage@forums 67.3564 2 1.42989e+09
|player_11_phnx 72.9657 7 1.43015e+09
KidBlast@forums 75.9015 1 1.42988e+09
R0b0@vertrex.org/Diplomat 78.2991 1 1.42923e+09
ln\:aki 85.8745 1 1.43009e+09
uzain` 133.871 1 1.43059e+09
