StyX@ap/Officer 26.0737 2 1.38118e+09
catherine 26.076 7 1.39561e+09
jimmaaa@forums 26.0818 4 1.38147e+09
speed 26.2776 1 1.37936e+09
lilb@forums 26.5337 1 1.39043e+09
Psych@forums 27.1495 1 1.37831e+09
cookie@ct/junior 27.5821 1 1.39087e+09
Vertrex@ap/God 27.6074 4 1.38923e+09
Wrdq03@aagid 27.9087 1 1.39142e+09
aP|Dom@ap/Diplomat 27.9273 1 1.37861e+09
aPTRON@tronner.com 28.2441 1 1.37915e+09
Durf@ap/Support 28.394 1 1.37831e+09
Gavin@forums 31.762 1 1.3893e+09
crozz 33.7691 1 1.37779e+09
$ir_herobinepl 33.8612 5 1.37779e+09
suicune 83.5833 1 1.38236e+09
