jimmaaa@forums 16.717 9 1.39385e+09
angel@aod-clan.comuf.com 16.9559 2 1.39492e+09
catherine 17.0987 7 1.39561e+09
StyX@ap/Officer 17.3227 1 1.37935e+09
Wrdq03@aagid 17.4093 3 1.3918e+09
Gavin@forums 17.6198 2 1.39163e+09
ap|sev@ap/Diplomat 17.765 2 1.39334e+09
DarkJesse15@forums 18.3138 1 1.37874e+09
nisargisgod@vertrex.8ing.com/Craftsman 18.4864 2 1.38057e+09
klodeckel 18.6136 2 1.3789e+09
Vertrex@ap/God 18.6401 6 1.39581e+09
yoyo 18.8673 1 1.39026e+09
Durf@ap/Support 18.9464 2 1.37791e+09
wrdq 19.1212 3 1.38156e+09
WimMar@ct/public 19.173 3 1.39561e+09
TelGod@forums 19.207 1 1.37935e+09
0\x00feeeemilki@aagid 20.2884 1 1.39273e+09
emilki 20.4953 2 1.39163e+09
lansus 21.0911 1 1.39198e+09
cookie_monster 21.1606 2 1.3789e+09
ya|catz 22.5048 2 1.39553e+09
emani 22.5184 1 1.38057e+09
Gate@vertrex.org/Officer 23.1405 1 1.39561e+09
ya|poot 23.8652 1 1.39405e+09
-tls-numt 24.047 1 1.39581e+09
sevencube3@vertrex.8ing.com/Diplomat 24.8413 3 1.38555e+09
nick$$ 26.5104 3 1.39301e+09
zejim 27.1425 2 1.38022e+09
player_1 27.4354 1 1.39542e+09
lolli 30.9966 3 1.39127e+09
zack 31.295 2 1.39233e+09
hylix@ct/public 32.9309 1 1.37836e+09
"ca"a)c_* 45.2913 1 1.37855e+09
