jimmaaa@forums 16.6407 10 1.39373e+09
catherine 16.9051 12 1.39544e+09
spyy 16.9658 4 1.39337e+09
ta|foni 17.0873 1 1.39448e+09
Fini@forums 17.1695 2 1.38032e+09
nisargisgod@vertrex.8ing.com/Craftsman 17.1802 3 1.37994e+09
lilb@forums 17.2295 5 1.39079e+09
Vertrex@ap/God 17.2553 11 1.39417e+09
edition@forums 17.2947 1 1.38832e+09
nobody@aagid 17.4336 3 1.3885e+09
|mc 17.476 1 1.39204e+09
Jason@aagid 17.5087 3 1.3786e+09
Wrdq03@aagid 17.6253 3 1.39142e+09
Gavin@forums 17.9595 5 1.39303e+09
klodeckel 18.1179 7 1.38217e+09
ct-cookie 18.277 2 1.39062e+09
wrdq 18.4866 2 1.37899e+09
Durf@ap/Support 18.6777 3 1.37775e+09
cdshotz 18.8099 3 1.39373e+09
southpole@forums 18.8264 2 1.39544e+09
TheWorstPlaya@forums 18.8624 2 1.39142e+09
TelGod@forums 19.0385 3 1.38015e+09
hoe#2 19.0809 2 1.38343e+09
Kurosaki@aagid 19.3054 3 1.37961e+09
|aod|d 19.4478 1 1.39555e+09
-tls-jaffas 19.5117 3 1.3838e+09
apollyon 19.7799 3 1.3808e+09
ya|poot 19.992 2 1.39448e+09
emilki 20.2087 2 1.39187e+09
vegeta 20.686 3 1.39204e+09
|cake 20.8335 2 1.38911e+09
tempeira 20.937 3 1.39239e+09
sam's 20.9836 1 1.39239e+09
glaceoners 21.0604 1 1.39239e+09
dan 21.1052 3 1.39373e+09
Gate@vertrex.org/Officer 22.8222 2 1.37824e+09
ap|gate 23.3832 1 1.39045e+09
hunter 24.5654 1 1.37961e+09
nick$$ 24.8637 2 1.37975e+09
saphira 26.6198 5 1.38089e+09
jason 27.532 1 1.37839e+09
deggggg 27.6947 2 1.39482e+09
vegetakira 29.4028 1 1.39373e+09
neo 31.2091 1 1.38932e+09
bex 32.2702 1 1.39373e+09
ta|aleyna 33.6086 1 1.39498e+09
duffkl 38.9136 2 1.38932e+09
ct_orion 71.3095 1 1.38525e+09
