Psych@forums 67.8076 1 1.37832e+09
catherine 70.2491 3 1.39518e+09
lilb@forums 71.2305 2 1.39071e+09
jimmaaa@forums 72.2469 1 1.39373e+09
Vertrex@ap/God 73.0273 6 1.39417e+09
edition@forums 73.2389 1 1.38832e+09
cookie@ct/junior 73.889 1 1.39088e+09
nisargisgod@vertrex.8ing.com/Craftsman 79.0092 1 1.37865e+09
tfd|lightraider 79.3915 1 1.39417e+09
wrdq 81.3591 1 1.38156e+09
Gavin@forums 83.8452 1 1.38943e+09
<|arcueid 91.5432 1 1.38013e+09
