Visual@forums 6.84682 4 1.43034e+09
Tabasco@vertrex.org/Public 6.8902 2 1.4285e+09
R0b0@vertrex.org/Diplomat 7.14737 1 1.4282e+09
Synergy@aagid 7.19801 2 1.4282e+09
Dage@forums 7.2963 5 1.42989e+09
RePhoenix@ap/Resurrected 7.32236 2 1.43011e+09
re\:phoenix 7.37848 5 1.43013e+09
ct|upabr 7.65544 4 1.43034e+09
playr11_phoenix 7.81192 2 1.42845e+09
dgk 7.89968 3 1.43034e+09
StyX@vertrex.org/Officer 8.10102 1 1.43034e+09
candy 8.34725 2 1.43011e+09
lemond2o15 10.224 3 1.42995e+09
zz_-core_dumped 12.2911 2 1.43034e+09
momo 29.976 1 1.42781e+09