Visual@forums 17.0573 6 1.43017e+09
KidBlast@forums 17.058 4 1.42925e+09
re\:phoenix 17.3191 1 1.42984e+09
Tabasco@vertrex.org/Public 17.3275 4 1.42885e+09
StyX@vertrex.org/Officer 17.6435 2 1.42999e+09
R0b0@vertrex.org/Diplomat 18.0534 7 1.42965e+09
Synergy@aagid 18.6434 2 1.4282e+09
glaceoners 22.3242 1 1.42965e+09
in\:exia 22.3692 1 1.42999e+09
sisam42 25.0925 1 1.42999e+09
xradd 29.6904 1 1.42897e+09
flame_rider 52.7449 1 1.42991e+09