re\:phoenix 38.6328 10 1.43063e+009
Dage@forums 39.6787 3 1.42963e+009
Tabasco@vertrex.org/Public 40.3213 2 1.42763e+009
Visual@forums 40.6161 3 1.43036e+009
Synergy@aagid 40.7153 3 1.42835e+009
R0b0@vertrex.org/Diplomat 40.816 9 1.43036e+009
jimmaaa@forums 42.2206 2 1.42826e+009
Child_of_blood@forums 42.2911 1 1.42825e+009
xradd 42.5974 3 1.43036e+009
exia 43.668 3 1.43025e+009
playr11_phoenix 43.8068 6 1.42854e+009
dgk 46.3825 3 1.42963e+009
realtop 47.6074 3 1.43025e+009
