Visual@forums 26.1744 4 1.4301e+009
re\:phoenix 26.2423 3 1.43063e+009
StyX@vertrex.org/Officer 26.4913 3 1.42811e+009
Tabasco@vertrex.org/Public 26.7702 2 1.42763e+009
playr11_phoenix 26.809 4 1.42854e+009
Synergy@aagid 32.1432 1 1.42824e+009
momo 37.0609 1 1.42898e+009
jimmaaa@forums 37.3328 1 1.42826e+009
