Visual@forums 17.8524 3 1.43034e+09
re\:phoenix 18.476 1 1.42797e+09
R0b0@vertrex.org/Diplomat 18.986 1 1.42766e+09
Tabasco@vertrex.org/Public 19.0291 1 1.42841e+09
|player_11_phnx 21.8705 1 1.42894e+09