re\:phoenix 20.253 4 1.43063e+009
Visual@forums 20.3913 3 1.42966e+009
jimmaaa@forums 20.5027 1 1.42893e+009
R0b0@vertrex.org/Diplomat 20.7977 1 1.42877e+009
Synergy@aagid 21.4283 2 1.4282e+009
|player_11_phnx 26.2146 1 1.4292e+009
