re\:phoenix 15.363 5 1.42941e+09
Visual@forums 15.3936 2 1.43009e+09
Tabasco@vertrex.org/Public 15.5944 2 1.42978e+09
KidBlast@forums 15.7042 2 1.42976e+09
R0b0@vertrex.org/Diplomat 15.8796 1 1.42965e+09
playr11_phoenix 44.99 2 1.42776e+09