jimmaaa@forums 35.1785 3 1.42842e+09
Tabasco@vertrex.org/Public 35.6665 1 1.42928e+09
re\:phoenix 36.5453 2 1.4297e+09
|player_11_phnx 40.8886 2 1.42871e+09
R0b0@vertrex.org/Diplomat 42.0185 1 1.42881e+09