Visual@forums 26.3376 1 1.42982e+09
re\:phoenix 26.3695 2 1.42975e+09
StyX@vertrex.org/Officer 27.0071 2 1.42998e+09
<myles> 29.3745 1 1.4279e+09
|player_11_phnx 30.1024 2 1.4286e+09
nelg@vertrex.org/Diplomat 44.0923 1 1.42765e+09
chrisd 44.6409 5 1.4286e+09
R0b0@vertrex.org/Diplomat 136.742 1 1.42785e+09