Visual@forums 37.2999 6 1.43035e+09
Tabasco@vertrex.org/Public 37.6053 9 1.42903e+09
Syre@x 38.0809 2 1.43008e+09
R0b0@vertrex.org/Diplomat 38.4415 9 1.43035e+09
eraz 40.4495 2 1.43035e+09
xradd 40.8253 7 1.43035e+09
KidBlast@forums 41.3981 8 1.42948e+09
Lyme@forums 42.1769 3 1.43026e+09
~`wwkb 42.2094 2 1.42872e+09
akuma 42.8486 1 1.43008e+09
<myles> 42.9166 1 1.42928e+09
synhd 43.5779 2 1.43008e+09
in\:exia 44.0673 1 1.43008e+09
dgk 44.4408 2 1.4305e+09
nelg@vertrex.org/Diplomat 45.0282 3 1.42767e+09
Dage@forums 45.3096 1 1.42963e+09
awesome_dude 45.638 2 1.42798e+09
scvalt@forums 45.7774 2 1.43026e+09
sisam42 47.6496 3 1.4305e+09
#yoloswag_1.o 48.4606 3 1.42885e+09
np|eni 51.0407 5 1.43035e+09
deiv 55.1707 1 1.42885e+09
#$$# 55.1742 2 1.42798e+09
o123456789 57.7814 1 1.42798e+09
brennan_apple 65.9198 1 1.42798e+09
destruction 132.872 1 1.42963e+09