Dage@forums 49.3227 2 1.42972e+009
re\:phoenix 49.8413 3 1.42992e+009
Visual@forums 49.8977 1 1.42967e+009
R0b0@vertrex.org/Diplomat 50.9012 1 1.43018e+009
Tabasco@vertrex.org/Public 52.6816 1 1.43005e+009
|player_11_phnx 66.9985 1 1.42992e+009
np|~eni 75.542 1 1.43018e+009
uzain` 92.0465 1 1.43005e+009
