Tabasco@vertrex.org/Public 27.6958 4 1.42902e+09
|jim 27.6981 1 1.42843e+09
Visual@forums 27.7528 7 1.43034e+09
jimmaaa@forums 27.7956 2 1.42818e+09
Dage@forums 28.516 6 1.4298e+09
|player_11_phnx 29.1624 3 1.42894e+09
KidBlast@forums 29.6745 2 1.42971e+09
re\:phoenix 30.2266 1 1.42863e+09
R0b0@vertrex.org/Diplomat 31.1789 4 1.43008e+09
zz~esp 33.2727 4 1.42902e+09
sisam42 33.8389 2 1.42971e+09
<myles> 33.8597 2 1.42902e+09
uzain` 35.6954 2 1.43059e+09
synhd 42.0747 1 1.42971e+09
xradd 44.2002 1 1.42862e+09