Visual@forums 9.4201 6 1.42992e+009
KidBlast@forums 9.42303 7 1.42983e+009
StyX@vertrex.org/Officer 9.44312 5 1.42999e+009
R0b0@vertrex.org/Diplomat 9.46998 10 1.43017e+009
re\:phoenix 9.51745 4 1.43063e+009
jimmaaa@forums 9.52761 3 1.42843e+009
itzdebi 9.53189 1 1.42924e+009
Dage@forums 9.58138 3 1.42972e+009
<myles> 9.58283 3 1.42807e+009
Tabasco@vertrex.org/Public 9.61247 3 1.43004e+009
momo 9.64789 12 1.43032e+009
flame_rider 9.69791 3 1.42983e+009
|player_11_phnx 9.70323 3 1.42992e+009
np|eni 9.75937 3 1.43046e+009
dgk 9.76241 1 1.42981e+009
uzain` 9.85386 2 1.42981e+009
es!\:tornado 9.99222 3 1.42876e+009
scvalt@forums 10.2014 3 1.42999e+009
Luhn@aagid 10.2048 2 1.42807e+009
cleiber 10.2281 1 1.42981e+009
pops 10.5656 3 1.42928e+009
xradd 10.6225 1 1.42992e+009
spacebar 10.7689 2 1.42928e+009
tn~_emi<3 11.0109 3 1.42947e+009
zapaderp 11.0449 2 1.43017e+009
alec_djdejd\\ 11.275 3 1.42999e+009
bioshock 11.4639 2 1.43017e+009
dxkiller 11.6613 1 1.42981e+009
zz~esp 12.1452 2 1.42902e+009
lemond2o15 12.9569 1 1.43004e+009
player_1 13.0309 3 1.42967e+009
gt|fox` 14.7718 1 1.42902e+009
mayan 20.3847 1 1.43017e+009
. 37.7871 1 1.42773e+009
